wiki_db,min,q1,q2,q3,max,year,iqr,whisker_min,whisker_max
hrwiki,0.0034906636,0.25972226,0.31906065,0.33347028,0.723,2004,0.07374802,0.1491003,0.44409224
brwiki,0.07546464,0.14013804,0.23131134,0.3068312,0.58270794,2004,0.16669317,0.07546464,0.5568708
bmwiki,0.31420007,0.31420007,0.31420007,0.31420007,0.31420007,2004,0.0,0.31420007,0.31420007
kkwiki,0.49255708,0.49255708,0.49255708,0.49255708,0.49255708,2004,0.0,0.49255708,0.49255708
cswiki,0.03544545,0.20004106,0.26441756,0.32171872,0.7523846,2004,0.12167767,0.03544545,0.5042351
mywiki,0.36884335,0.36884335,0.36884335,0.36884335,0.36884335,2004,0.0,0.36884335,0.36884335
ugwiki,0.0267195,0.0267195,0.0267195,0.34496993,0.34496993,2004,0.31825042,0.0267195,0.34496993
stwiki,0.063446395,0.063446395,0.20194368,0.419,0.419,2004,0.3555536,0.063446395,0.419
liwiki,0.14525077,0.20926994,0.25051436,0.36107805,0.59053487,2004,0.15180811,0.14525077,0.58879006
ruwiki,0.016378958,0.1984629,0.27144554,0.31238297,0.75989145,2004,0.11392006,0.027582914,0.48326296
ckbwiki,0.13435097,0.15790798,0.17316371,0.21629648,0.2687179,2004,0.0583885,0.13435097,0.2687179
shwiki,0.03466111,0.2560985,0.2755767,0.31354013,0.45155618,2004,0.057441622,0.16993612,0.39970252
suwiki,0.015298285,0.2361691,0.3101396,0.45913363,0.70945454,2004,0.22296453,0.015298285,0.70945454
ukwiki,0.01913514,0.17207208,0.24210843,0.3303091,0.6772778,2004,0.15823701,0.01913514,0.56766444
bawiki,0.3019211,0.3019211,0.3019211,0.3019211,0.3019211,2004,0.0,0.3019211,0.3019211
etwiki,0.01675843,0.2012159,0.2621462,0.34302843,0.76341957,2004,0.14181253,0.01675843,0.5557471
iowiki,0.048858803,0.24320315,0.2858912,0.30331737,0.5799049,2004,0.06011422,0.15303189,0.39348865
tgwiki,0.25279784,0.25279784,0.3634002,0.37439874,0.37439874,2004,0.121600896,0.25279784,0.37439874
nostalgiawiki,0.00395,0.12422437,0.16402218,0.21600798,0.59662575,2004,0.091783606,0.00395,0.3536833
tnwiki,0.018943535,0.15827008,0.17001529,0.1963632,0.2168819,2004,0.03809312,0.10113043,0.2168819
nnwiki,0.02529234,0.18211819,0.26087347,0.3378345,0.7639557,2004,0.15571631,0.02529234,0.57140887
fowiki,0.03059657,0.16227604,0.25787625,0.2673662,0.50222236,2004,0.105090156,0.03059657,0.42500132
rwwiki,0.24669325,0.24669325,0.24669325,0.7055135,0.7055135,2004,0.45882022,0.24669325,0.7055135
tpiwiki,0.01675843,0.14920801,0.19101916,0.27574122,0.48114258,2004,0.12653321,0.01675843,0.46554092
chywiki,0.31261286,0.31261286,0.31261286,0.31261286,0.31261286,2004,0.0,0.31261286,0.31261286
enwiki,0.0023844738,0.17020456,0.22334388,0.2860286,0.781463,2004,0.11582403,0.0023844738,0.45976454
guwiki,0.029293984,0.1439337,0.18977125,0.3125952,0.68378484,2004,0.16866149,0.029293984,0.5655873
dvwiki,0.26081437,0.26081437,0.26081437,0.26081437,0.26081437,2004,0.0,0.26081437,0.26081437
ikwiki,0.1857073,0.1857073,0.1857073,0.1857073,0.1857073,2004,0.0,0.1857073,0.1857073
ocwiki,0.030850487,0.28937256,0.33065635,0.33451515,0.5151117,2004,0.04514259,0.22165872,0.402229
nlwiki,0.020524802,0.2199541,0.27471876,0.36207455,0.8113822,2004,0.14212045,0.020524802,0.5752551
omwiki,0.33351165,0.33351165,0.33351165,0.33351165,0.33351165,2004,0.0,0.33351165,0.33351165
sewiki,0.22443001,0.23896961,0.2551379,0.29926112,0.43519604,2004,0.060291514,0.22443001,0.38969833
idwiki,0.010664819,0.173952,0.24443462,0.30009034,0.75767636,2004,0.12613834,0.010664819,0.48929775
mswiki,0.019350968,0.18238196,0.24130741,0.31687918,0.72430474,2004,0.13449723,0.019350968,0.5186249
zawiki,0.10545319,0.10545319,0.10545319,0.10545319,0.10545319,2004,0.0,0.10545319,0.10545319
sqwiki,0.02914193,0.15007667,0.18428572,0.24331614,0.66725266,2004,0.09323947,0.02914193,0.38317525
chrwiki,0.016286267,0.14207983,0.14534053,0.27378803,0.4240314,2004,0.1317082,0.016286267,0.4240314
angwiki,0.025901882,0.14920801,0.22303261,0.35469478,0.77746505,2004,0.20548677,0.025901882,0.66292477
bowiki,0.026111478,0.13802816,0.13930847,0.16649252,0.50277007,2004,0.028464362,0.09533164,0.20918904
eewiki,0.3143315,0.3143315,0.3143315,0.3143315,0.3143315,2004,0.0,0.3143315,0.3143315
wowiki,0.00395,0.00395,0.00395,0.00395,0.00395,2004,0.0,0.00395,0.00395
bswiki,0.005233142,0.1831649,0.18356548,0.2146181,0.6736856,2004,0.031453207,0.1359851,0.26179788
srwiki,0.003099401,0.2921287,0.29623246,0.30249435,0.64419025,2004,0.010365635,0.27658027,0.31804278
yiwiki,0.0237,0.1122971,0.15823816,0.20912403,0.32281655,2004,0.096826926,0.0237,0.32281655
tiwiki,0.36642203,0.36642203,0.36642203,0.36642203,0.36642203,2004,0.0,0.36642203,0.36642203
hawiki,0.23485492,0.23485492,0.23485492,0.23485492,0.23485492,2004,0.0,0.23485492,0.23485492
hiwiki,0.021329327,0.14449133,0.17190434,0.24925545,0.7093149,2004,0.10476412,0.021329327,0.40640152
jawiki,0.010734027,0.16965194,0.22644883,0.29538774,0.79281694,2004,0.1257358,0.010734027,0.48399132
scnwiki,0.105537854,0.22453685,0.31576312,0.39088959,0.66720515,2004,0.16635273,0.105537854,0.6404185
tswiki,0.15825458,0.15825458,0.15825458,0.15825458,0.15825458,2004,0.0,0.15825458,0.15825458
nywiki,0.31940508,0.31940508,0.31940508,0.31940508,0.31940508,2004,0.0,0.31940508,0.31940508
cvwiki,0.13514113,0.13514113,0.13514113,0.14059892,0.14059892,2004,0.0054577887,0.13514113,0.14059892
tkwiki,0.009675484,0.07678188,0.10717651,0.20556584,0.4251925,2004,0.12878397,0.009675484,0.39874166
abwiki,0.01675843,0.01675843,0.01675843,0.01675843,0.01675843,2004,0.0,0.01675843,0.01675843
zuwiki,0.16740267,0.16740267,0.23293611,0.42960992,0.42960992,2004,0.26220727,0.16740267,0.42960992
iswiki,0.028483855,0.23412858,0.3120672,0.33079123,0.74101573,2004,0.096662655,0.08913469,0.47578514
itwiki,0.00681305,0.21975487,0.23737688,0.3010508,0.7574419,2004,0.08129594,0.09781104,0.42299464
vowiki,0.1445591,0.20440343,0.24396613,0.26237258,0.39720076,2004,0.057969153,0.1445591,0.34932625
frrwiki,0.13514113,0.25166556,0.27623114,0.32404512,0.7380741,2004,0.07237956,0.1430963,0.4326144
lvwiki,0.008277775,0.21703035,0.29873818,0.39044845,0.7252723,2004,0.1734181,0.008277775,0.6505754
nawiki,0.10474558,0.19450334,0.21807265,0.26747,0.44028965,2004,0.072966665,0.10474558,0.37691993
eowiki,0.020901436,0.18914033,0.24077371,0.3252106,0.73409516,2004,0.13607027,0.020901436,0.5293159
rmwiki,0.15157138,0.17063102,0.18120123,0.18834114,0.419,2004,0.01771012,0.15157138,0.2149063
cowiki,0.014241927,0.07783323,0.124456905,0.26323378,0.518,2004,0.18540055,0.014241927,0.518
huwiki,0.011196952,0.26006788,0.28370786,0.32684562,0.7113336,2004,0.066777736,0.15990135,0.42701215
tawiki,0.008590976,0.21628611,0.29555234,0.3903756,0.777,2004,0.1740895,0.008590976,0.6515097
nvwiki,0.13552481,0.15226422,0.15349984,0.15489304,0.283303,2004,0.0026288182,0.148321,0.15883626
jvwiki,0.006841601,0.12987033,0.19159335,0.24896567,0.57542634,2004,0.11909534,0.006841601,0.42760855
htwiki,0.12118336,0.13803451,0.17684223,0.30601746,0.42761448,2004,0.16798295,0.12118336,0.42761448
bhwiki,0.24433585,0.24433585,0.27245626,0.3655903,0.38073915,2004,0.12125446,0.24433585,0.38073915
crwiki,0.2853545,0.2853545,0.2853545,0.2853545,0.2853545,2004,0.0,0.2853545,0.2853545
fywiki,0.046095382,0.2644206,0.3223622,0.33835426,0.633,2004,0.07393366,0.15352017,0.4492547
alswiki,0.057620786,0.1805135,0.21702132,0.27708283,0.72020155,2004,0.09656933,0.057620786,0.42193675
sawiki,0.013989968,0.1464335,0.16554148,0.18563414,0.6388427,2004,0.039200634,0.08763259,0.24443504
ltwiki,0.046572536,0.257188,0.34287944,0.4194604,0.75660694,2004,0.1622724,0.046572536,0.66286886
bnwiki,0.1285725,0.13438706,0.1591245,0.2860951,0.4454714,2004,0.15170805,0.1285725,0.4454714
hywiki,0.009086263,0.009086263,0.009086263,0.009086263,0.009086263,2004,0.0,0.009086263,0.009086263
gotwiki,0.21848726,0.21848726,0.21848726,0.21848726,0.21848726,2004,0.0,0.21848726,0.21848726
iewiki,0.099536866,0.29901004,0.29965526,0.32643723,0.5269716,2004,0.027427197,0.25786927,0.367578
kgwiki,0.31421733,0.31421733,0.31421733,0.31421733,0.31421733,2004,0.0,0.31421733,0.31421733
ptwiki,0.0057364013,0.15254371,0.16804233,0.26177138,0.75367314,2004,0.10922767,0.0057364013,0.4256128
dawiki,0.00900598,0.18004704,0.23927367,0.30726594,0.777885,2004,0.1272189,0.00900598,0.49809417
ffwiki,0.31444564,0.31444564,0.31444564,0.31444564,0.31444564,2004,0.0,0.31444564,0.31444564
slwiki,0.0071502333,0.20181939,0.2410512,0.3197072,0.76255554,2004,0.117887825,0.024987772,0.49653882
lowiki,0.17011984,0.17011984,0.17011984,0.17011984,0.17011984,2004,0.0,0.17011984,0.17011984
fawiki,0.0079,0.15790798,0.2103743,0.27364057,0.7323076,2004,0.115732595,0.0079,0.44723934
tumwiki,0.19419725,0.32256705,0.37580848,0.4296252,0.600876,2004,0.10705817,0.19419725,0.59021235
frwiki,0.006830222,0.17682493,0.23187022,0.2950279,0.7627514,2004,0.118202984,0.006830222,0.47233227
zhwiki,0.0035293067,0.17052135,0.23188516,0.30949765,0.7487159,2004,0.1389763,0.0035293067,0.517962
anwiki,0.11575266,0.22234218,0.28911337,0.36161843,0.6493625,2004,0.13927625,0.11575266,0.5705327
kawiki,0.12615344,0.20612434,0.258214,0.33884862,0.6780377,2004,0.13272429,0.12615344,0.5379349
yowiki,0.2759083,0.28245884,0.28379267,0.28497276,0.419,2004,0.0025139153,0.27868798,0.28874362
mtwiki,0.16888888,0.16888888,0.17855546,0.419,0.419,2004,0.2501111,0.16888888,0.419
svwiki,0.009675484,0.18460193,0.24475014,0.30711934,0.787,2004,0.12251741,0.009675484,0.49089533
miwiki,0.026790204,0.16941653,0.22442397,0.29091695,0.5665607,2004,0.12150042,0.026790204,0.47316748
viwiki,0.016286267,0.23530437,0.31713468,0.41823432,0.782,2004,0.18292995,0.016286267,0.6926291
euwiki,0.010450718,0.31014064,0.31628397,0.32142198,0.58170056,2004,0.011281341,0.29321864,0.33834398
sgwiki,0.15095538,0.15095538,0.15095538,0.15095538,0.15095538,2004,0.0,0.15095538,0.15095538
klwiki,0.34467974,0.34467974,0.34467974,0.34467974,0.34467974,2004,0.0,0.34467974,0.34467974
astwiki,0.100955,0.28391293,0.29620072,0.2993138,0.64175,2004,0.015400887,0.26081163,0.3224151
vecwiki,0.2502839,0.2502839,0.2502839,0.2502839,0.2502839,2004,0.0,0.2502839,0.2502839
vewiki,0.20892525,0.20892525,0.20892525,0.31754422,0.31754422,2004,0.108618975,0.20892525,0.31754422
dewiki,0.0049766507,0.1854078,0.24472316,0.32176188,0.8000131,2004,0.13635407,0.0049766507,0.52629286
jbowiki,0.035271402,0.18300955,0.22076859,0.271921,0.51161754,2004,0.08891146,0.049642444,0.4052881
test2wiki,0.09752731,0.19113211,0.22765273,0.2689752,0.67005235,2004,0.077843085,0.09752731,0.38573974
wawiki,0.017664937,0.20149796,0.2830776,0.30637348,0.63160795,2004,0.10487552,0.044184774,0.46368665
eswiki,0.0027259616,0.17128694,0.21813221,0.2948173,0.7467067,2004,0.12353036,0.0027259616,0.48011273
arwiki,0.008414519,0.17597198,0.26774246,0.32744756,0.7301929,2004,0.15147558,0.008414519,0.5546608
kswiki,0.020141127,0.13653652,0.240446,0.3125823,0.6064639,2004,0.17604579,0.020141127,0.57665086
orwiki,0.52676255,0.52676255,0.52676255,0.52676255,0.52676255,2004,0.0,0.52676255,0.52676255
thwiki,0.012863531,0.19787261,0.23250249,0.29258525,0.5785412,2004,0.094712645,0.05580373,0.43465412
piwiki,0.2968262,0.2968262,0.2968262,0.2968262,0.2968262,2004,0.0,0.2968262,0.2968262
scwiki,0.059643693,0.15591246,0.30054316,0.43635553,0.4642277,2004,0.28044307,0.059643693,0.4642277
skwiki,0.013742873,0.16647625,0.22072108,0.2553825,0.7493974,2004,0.08890626,0.03311695,0.3887418
mkwiki,0.009272155,0.15252647,0.21102142,0.23750754,0.52633375,2004,0.08498107,0.025054947,0.36497906
afwiki,0.04405655,0.31562167,0.3164851,0.32250753,0.7436987,2004,0.0068858564,0.3052929,0.3328363
gnwiki,0.012490997,0.17942256,0.18691668,0.19341439,0.33196455,2004,0.013991833,0.15843482,0.21440212
simplewiki,0.026201336,0.18532775,0.23097119,0.29078475,0.74328613,2004,0.10545699,0.02714236,0.44897014
mrwiki,0.018101174,0.1227411,0.1623349,0.26106635,0.6313033,2004,0.13832524,0.018101174,0.46855408
ttwiki,0.024349436,0.35193512,0.3520168,0.46015018,0.7729297,2004,0.108215064,0.18961263,0.62247264
kiwiki,0.31429344,0.31429344,0.31429344,0.31429344,0.31429344,2004,0.0,0.31429344,0.31429344
biwiki,0.030850487,0.13511266,0.14327751,0.15933864,0.19199967,2004,0.02422598,0.09877371,0.19199967
bgwiki,0.023003677,0.27846026,0.3106824,0.32734647,0.741838,2004,0.04888621,0.205131,0.40067574
lawiki,0.012490997,0.17100091,0.20958082,0.26671317,0.6717703,2004,0.09571226,0.02743262,0.41028148
kywiki,0.17942256,0.17942256,0.17942256,0.39325228,0.39325228,2004,0.21382973,0.17942256,0.39325228
newiki,0.027079836,0.14733215,0.30087507,0.54515696,0.6699323,2004,0.39782482,0.027079836,0.6699323
zh_min_nanwiki,0.02163504,0.22293851,0.29171738,0.38235116,0.7143133,2004,0.15941265,0.02163504,0.62147
roa_rupwiki,0.028208643,0.15309241,0.19869298,0.22408581,0.25308976,2004,0.07099339,0.04660239,0.25308976
rnwiki,0.103305906,0.103305906,0.103305906,0.103305906,0.103305906,2004,0.0,0.103305906,0.103305906
be_x_oldwiki,0.021634392,0.28761983,0.32236838,0.35766605,0.6333034,2004,0.070046216,0.18255058,0.4627353
iawiki,0.009675484,0.16824715,0.24773625,0.419,0.747,2004,0.25075287,0.009675484,0.747
gawiki,0.046233565,0.18237558,0.23732251,0.31862214,0.6569072,2004,0.13624656,0.046233565,0.52299184
kuwiki,0.02303226,0.2080526,0.28429577,0.32997978,0.6737427,2004,0.12192717,0.025161967,0.51287043
trwiki,0.006473022,0.22195189,0.32026088,0.32925585,0.711662,2004,0.10730396,0.06099604,0.4902117
mgwiki,0.13934943,0.1417902,0.2294058,0.24250764,0.6784682,2004,0.10071744,0.13934943,0.39358371
gdwiki,0.01185,0.12893589,0.14348386,0.15286794,0.6041979,2004,0.023932055,0.09303783,0.188766
csbwiki,0.03788707,0.3073222,0.3073222,0.3088802,0.4389039,2004,0.0015580058,0.3049852,0.31121722
cywiki,0.030082304,0.24434286,0.3414807,0.3575251,0.61703014,2004,0.11318225,0.0745696,0.5272984
tlwiki,0.041687153,0.04306435,0.17520638,0.2504653,0.63158894,2004,0.20740095,0.041687153,0.56156653
smwiki,0.15608789,0.15608789,0.15608789,0.38355395,0.38355395,2004,0.22746606,0.15608789,0.38355395
twwiki,0.30669522,0.30669522,0.30669522,0.30669522,0.30669522,2004,0.0,0.30669522,0.30669522
swwiki,0.13173127,0.21526594,0.24487033,0.32615572,0.42903686,2004,0.11088978,0.13173127,0.42903686
elwiki,0.005443921,0.27106833,0.29637954,0.29650632,0.7515816,2004,0.02543798,0.2329114,0.33466327
gvwiki,0.24536799,0.24536799,0.24536799,0.51684535,0.51684535,2004,0.27147734,0.24536799,0.51684535
amwiki,0.05805291,0.05805291,0.05805291,0.5601578,0.5601578,2004,0.5021049,0.05805291,0.5601578
mnwiki,0.0071859336,0.13414773,0.16341735,0.28048697,0.628499,2004,0.14633924,0.0071859336,0.4999957
kmwiki,0.009338505,0.009338505,0.18634082,0.2529342,0.2529342,2004,0.24359569,0.009338505,0.2529342
glwiki,0.009406853,0.16129683,0.22336368,0.30355442,0.747,2004,0.14225759,0.009406853,0.51694065
ndswiki,0.0079,0.2045527,0.23250835,0.27540112,0.7590219,2004,0.07084842,0.09828013,0.3816737
quwiki,0.016286267,0.04690365,0.07304831,0.23396538,0.633,2004,0.18706173,0.016286267,0.5145578
hawwiki,0.3104958,0.3104958,0.3104958,0.3104958,0.3104958,2004,0.0,0.3104958,0.3104958
sowiki,0.14040615,0.14040615,0.14040615,0.1414974,0.1414974,2004,0.0010912567,0.14040615,0.1414974
towiki,0.20986147,0.20986147,0.20986147,0.20986147,0.20986147,2004,0.0,0.20986147,0.20986147
sswiki,0.16762647,0.16762647,0.16762647,0.20965141,0.20965141,2004,0.04202494,0.16762647,0.20965141
pawiki,0.58637494,0.58637494,0.58637494,0.58637494,0.58637494,2004,0.0,0.58637494,0.58637494
uzwiki,0.038499836,0.038499836,0.038499836,0.20839056,0.20839056,2004,0.16989073,0.038499836,0.20839056
knwiki,0.010629883,0.16916174,0.22083306,0.27275908,0.5030899,2004,0.10359734,0.013765827,0.428155
urwiki,0.017664937,0.1660487,0.2475459,0.3244245,0.6713215,2004,0.1583758,0.017664937,0.56198806
xhwiki,0.025598926,0.025598926,0.24416198,0.44483948,0.44483948,2004,0.41924056,0.025598926,0.44483948
akwiki,0.30690184,0.30690184,0.30690184,0.30690184,0.30690184,2004,0.0,0.30690184,0.30690184
kwwiki,0.13552481,0.20408633,0.25689906,0.2983528,0.59564805,2004,0.094266474,0.13552481,0.43975243
nowiki,0.019587036,0.19654095,0.24945332,0.3133824,0.7715441,2004,0.116841435,0.021278903,0.48864442
aywiki,0.028483855,0.028483855,0.043089412,0.41764233,0.633,2004,0.38915846,0.028483855,0.633
chwiki,0.31467375,0.31467375,0.31467375,0.31467375,0.31467375,2004,0.0,0.31467375,0.31467375
mlwiki,0.009139397,0.12151604,0.1735203,0.22917554,0.419,2004,0.1076595,0.009139397,0.3906647
snwiki,0.102395706,0.102395706,0.102395706,0.102395706,0.102395706,2004,0.0,0.102395706,0.102395706
arcwiki,0.31535676,0.31535676,0.31535676,0.31535676,0.31535676,2004,0.0,0.31535676,0.31535676
plwiki,0.0067612673,0.17881241,0.22468303,0.30359617,0.768,2004,0.124783754,0.0067612673,0.49077168
wuuwiki,0.20584433,0.22478193,0.26051536,0.33584028,0.4639834,2004,0.111058354,0.20584433,0.4639834
cawiki,0.016431496,0.19398773,0.23489484,0.2763467,0.7225773,2004,0.082358986,0.07044933,0.39988512
lbwiki,0.034698926,0.3277641,0.34305725,0.34434307,0.69241107,2004,0.016578972,0.30289567,0.3692115
maiwiki,0.524,0.524,0.524,0.524,0.524,2004,0.0,0.524,0.524
hewiki,0.006949337,0.17856066,0.22965159,0.30923632,0.7282581,2004,0.13067566,0.006949337,0.5052497
nahwiki,0.034208003,0.13475,0.21964166,0.2629537,0.45422643,2004,0.1282037,0.034208003,0.45422643
iuwiki,0.009675484,0.025598926,0.036843147,0.04690365,0.50313,2004,0.021304725,0.009675484,0.078860715
kowiki,0.0055861436,0.17490472,0.20955281,0.2579143,0.67387044,2004,0.083009586,0.050390422,0.3824286
rowiki,0.013119183,0.16711181,0.25097135,0.32000425,0.7546155,2004,0.15289244,0.013119183,0.54934275
azwiki,0.02061402,0.14233688,0.18358296,0.23471354,0.41458935,2004,0.092376664,0.02061402,0.37327844
fjwiki,0.1777043,0.1777043,0.1777043,0.1777043,0.1777043,2004,0.0,0.1777043,0.1777043
tewiki,0.020348793,0.0716555,0.17209238,0.22592226,0.6609907,2004,0.15426676,0.020348793,0.45732224
fiwiki,0.014804921,0.2089591,0.26634723,0.3323471,0.7534892,2004,0.12338799,0.023877233,0.517429
