wiki_db,min,q1,q2,q3,max,year,iqr,whisker_min,whisker_max
hrwiki,0.01047199,0.21182515,0.2817938,0.3439413,0.7994897,2005,0.13211615,0.013651043,0.5421154
brwiki,0.029559093,0.22128259,0.24490407,0.33569947,0.7264299,2005,0.11441688,0.049657375,0.5073247
warwiki,0.011172287,0.3131796,0.3143575,0.3643839,0.7713349,2005,0.051204294,0.23637322,0.4411903
bmwiki,0.030850487,0.17438205,0.21839449,0.27227786,0.43239415,2005,0.097895816,0.030850487,0.4191215
kkwiki,0.03555,0.1270018,0.21426877,0.2714137,0.6632672,2005,0.1444119,0.03555,0.48803145
cswiki,0.012440717,0.21935472,0.28530583,0.33919132,0.7523846,2005,0.1198366,0.03959994,0.5189461
igwiki,0.1751791,0.1751791,0.21661304,0.419,0.419,2005,0.2438209,0.1751791,0.419
mywiki,0.08017624,0.14090188,0.16449623,0.2320427,0.4877944,2005,0.09114082,0.08017624,0.36875385
stqwiki,0.12279527,0.1759927,0.23549215,0.31577936,0.5265824,2005,0.13978666,0.12279527,0.52545923
stwiki,0.021992669,0.029821847,0.17695333,0.2530806,0.302475,2005,0.22325876,0.021992669,0.302475
ugwiki,0.3087118,0.3087118,0.3087118,0.33793077,0.33793077,2005,0.029218972,0.3087118,0.33793077
liwiki,0.04673703,0.26965308,0.33109683,0.4084535,0.7335073,2005,0.13880041,0.061452597,0.616654
ruwiki,0.010358963,0.19607902,0.25133622,0.3133659,0.79366666,2005,0.11728689,0.020148799,0.48929614
ckbwiki,0.13121623,0.1592435,0.19517624,0.2518838,0.509,2005,0.09264031,0.13121623,0.39084417
shwiki,0.027366403,0.20300564,0.27407858,0.43781853,0.7981353,2005,0.23481289,0.027366403,0.79003763
suwiki,0.015298285,0.23994745,0.33507922,0.48189288,0.7167044,2005,0.24194543,0.015298285,0.7167044
ukwiki,0.010533548,0.19067098,0.22304033,0.32971862,0.76930076,2005,0.13904764,0.010533548,0.53828996
kvwiki,0.13734457,0.1628484,0.19318998,0.28005692,0.40922454,2005,0.117208526,0.13734457,0.40922454
bawiki,0.12909408,0.16661543,0.22452953,0.30443466,0.5171049,2005,0.13781923,0.12909408,0.51116335
etwiki,0.01185,0.22800624,0.2984341,0.37707916,0.817,2005,0.14907292,0.01185,0.6006884
iowiki,0.07186395,0.29198268,0.33090338,0.35020387,0.7094822,2005,0.05822119,0.20465094,0.4375356
tgwiki,0.14635216,0.14897919,0.16843843,0.26265675,0.4594546,2005,0.11367756,0.14635216,0.433173
kshwiki,0.11013846,0.2178804,0.2683674,0.3221515,0.67592853,2005,0.104271114,0.11013846,0.47855806
nostalgiawiki,0.00395,0.12732618,0.16621342,0.21808405,0.5968669,2005,0.09075788,0.00395,0.35422078
tnwiki,0.15184315,0.17001529,0.17114004,0.21883318,0.30058417,2005,0.048817888,0.15184315,0.29205996
cewiki,0.16752578,0.16752578,0.16752578,0.16752578,0.16752578,2005,0.0,0.16752578,0.16752578
bugwiki,0.25564665,0.29061246,0.4904489,0.57332385,0.61381334,2005,0.2827114,0.25564665,0.61381334
fowiki,0.013100668,0.17120686,0.22484308,0.31237066,0.6383208,2005,0.1411638,0.013100668,0.5241162
nnwiki,0.014779546,0.25686938,0.3266773,0.3724087,0.77617985,2005,0.11553931,0.08356051,0.54571754
rwwiki,0.19843467,0.19843467,0.19843467,0.23345087,0.23345087,2005,0.03501621,0.19843467,0.23345087
tpiwiki,0.032089952,0.17352195,0.23568065,0.26485714,0.55595565,2005,0.09133519,0.036519244,0.40185985
chywiki,0.2398475,0.2398475,0.26431444,0.3945616,0.3945616,2005,0.1547141,0.2398475,0.3945616
enwiki,0.0023844738,0.18099661,0.23927176,0.31408986,0.8732095,2005,0.13309325,0.0023844738,0.51372963
guwiki,0.026497405,0.221804,0.30394268,0.36139938,0.7813442,2005,0.13959539,0.026497405,0.5707923
dvwiki,0.07054926,0.07054926,0.23917694,0.26081437,0.26081437,2005,0.19026512,0.07054926,0.26081437
ikwiki,0.022691023,0.12501821,0.18375723,0.21933179,0.26277643,2005,0.09431358,0.022691023,0.26277643
ocwiki,0.012490997,0.15226422,0.24868686,0.31939298,0.6078629,2005,0.16712876,0.012490997,0.57008594
lmowiki,0.097699,0.19276348,0.21555842,0.29048875,0.7557863,2005,0.09772527,0.097699,0.43707657
nlwiki,0.006841601,0.23402157,0.29879925,0.38350585,0.817,2005,0.14948428,0.009795308,0.6077321
sewiki,0.013100668,0.23374657,0.27691615,0.30029258,0.568597,2005,0.06654601,0.13392763,0.40011153
omwiki,0.21152994,0.21152994,0.21152994,0.33099326,0.33099326,2005,0.119463325,0.21152994,0.33099326
idwiki,0.007949087,0.2156117,0.2968208,0.37747473,0.78701866,2005,0.16186303,0.007949087,0.6202691
mswiki,0.006841601,0.20271012,0.28991494,0.3604504,0.76508,2005,0.15774027,0.006841601,0.5970606
zawiki,0.13059825,0.23016936,0.24205983,0.27059525,0.5271651,2005,0.040425897,0.16953054,0.33123407
sqwiki,0.019669946,0.27148825,0.3197995,0.321097,0.7198661,2005,0.049608737,0.19707519,0.39551005
chrwiki,0.020524802,0.14585048,0.15184315,0.26762545,0.42771932,2005,0.12177497,0.020524802,0.42771932
angwiki,0.030286267,0.16204807,0.22095953,0.37266645,0.7828659,2005,0.21061838,0.030286267,0.6885938
barwiki,0.43895894,0.43895894,0.43895894,0.4758284,0.4758284,2005,0.036869466,0.43895894,0.4758284
bowiki,0.12667741,0.1643899,0.1940085,0.20809433,0.5099606,2005,0.043704435,0.12667741,0.27365094
wowiki,0.012490997,0.012490997,0.18333992,0.19977006,0.22599146,2005,0.18727906,0.012490997,0.22599146
eewiki,0.30890444,0.30890444,0.30890444,0.30890444,0.30890444,2005,0.0,0.30890444,0.30890444
bswiki,0.010466284,0.20214923,0.28224906,0.33136228,0.75518787,2005,0.12921305,0.010466284,0.5251817
pamwiki,0.01675843,0.33345607,0.33682898,0.34190828,0.7282515,2005,0.008452207,0.32077777,0.35458657
srwiki,0.003099401,0.21741068,0.30502373,0.3277076,0.7919938,2005,0.110296905,0.05196543,0.49315286
yiwiki,0.011172287,0.055861436,0.16465072,0.2811405,0.55434006,2005,0.22527906,0.011172287,0.55434006
hsbwiki,0.103960566,0.20229039,0.2659717,0.46603623,0.62215334,2005,0.26374584,0.103960566,0.62215334
tiwiki,0.29596615,0.29596615,0.29596615,0.37196627,0.37196627,2005,0.076000124,0.29596615,0.37196627
hawiki,0.17875746,0.17875746,0.2349525,0.42081478,0.42081478,2005,0.24205732,0.17875746,0.42081478
hiwiki,0.011567451,0.15692243,0.19634879,0.27526885,0.7640792,2005,0.11834642,0.011567451,0.45278835
jawiki,0.0030986469,0.19484794,0.25359243,0.31375274,0.784709,2005,0.1189048,0.016490862,0.49210984
scnwiki,0.01185,0.19640426,0.3069326,0.35073426,0.751712,2005,0.15433,0.01185,0.58222914
tswiki,0.1598546,0.1598546,0.1598546,0.1598546,0.1598546,2005,0.0,0.1598546,0.1598546
nywiki,0.29562104,0.29562104,0.29562104,0.31861922,0.31861922,2005,0.022998184,0.29562104,0.31861922
cvwiki,0.05270194,0.29364893,0.3072443,0.32970566,0.6701767,2005,0.036056727,0.23956387,0.3837907
tkwiki,0.07442102,0.16228329,0.17672803,0.25190908,0.5969233,2005,0.08962579,0.07442102,0.38634768
pswiki,0.03486598,0.14841716,0.16174115,0.20862098,0.62964875,2005,0.06020382,0.05811149,0.29892665
zuwiki,0.009675484,0.020524802,0.19591725,0.23293611,0.42080534,2005,0.21241131,0.009675484,0.42080534
abwiki,0.15775643,0.17154281,0.1864643,0.270071,0.34296432,2005,0.09852819,0.15775643,0.34296432
iswiki,0.030340526,0.29769343,0.36500004,0.36521387,0.78472865,2005,0.06752044,0.19641283,0.46649447
itwiki,0.0055628316,0.19164616,0.20179594,0.2852638,0.79884416,2005,0.09361765,0.051219776,0.42569017
vowiki,0.14897919,0.2103743,0.25532234,0.28915873,0.39720076,2005,0.078784436,0.14897919,0.39720076
frrwiki,0.13514113,0.27439365,0.2973544,0.4349214,0.7463484,2005,0.16052777,0.13514113,0.67571294
lvwiki,0.030015988,0.22812878,0.28429633,0.37056994,0.7461814,2005,0.14244117,0.030015988,0.58423156
nawiki,0.013100668,0.18904872,0.2759306,0.32323354,0.62211025,2005,0.13418482,0.013100668,0.5245106
eowiki,0.038902987,0.20385443,0.26124114,0.32565004,0.7604103,2005,0.12179561,0.038902987,0.50834334
cowiki,0.01975,0.29148868,0.33137348,0.3465884,0.5479107,2005,0.055099726,0.20883915,0.42923793
rmwiki,0.101938084,0.18396354,0.20048268,0.21500003,0.4721853,2005,0.031036496,0.13740882,0.26155475
huwiki,0.02201751,0.25684854,0.2903502,0.32825604,0.7794968,2005,0.0714075,0.14973736,0.43536723
tawiki,0.010866821,0.21112177,0.28943834,0.37782806,0.787,2005,0.1667063,0.010866821,0.62788737
nvwiki,0.13552481,0.1526806,0.153903,0.15489304,0.34601158,2005,0.002212435,0.14936195,0.1582117
jvwiki,0.008832469,0.1746437,0.233788,0.32216373,0.76022476,2005,0.14752004,0.008832469,0.5434437
htwiki,0.1154269,0.14166993,0.23036198,0.2877209,0.53287125,2005,0.14605096,0.1154269,0.5067972
bhwiki,0.13934943,0.231624,0.32355505,0.565665,0.7289558,2005,0.334041,0.13934943,0.7289558
crwiki,0.1399408,0.1399408,0.31995475,0.37567148,0.37567148,2005,0.23573068,0.1399408,0.37567148
fywiki,0.030503461,0.25278312,0.32982063,0.3551293,0.68662024,2005,0.10234618,0.09926395,0.50864846
lnwiki,0.034885455,0.18209203,0.2564964,0.3575333,0.70154583,2005,0.17544128,0.034885455,0.62069505
alswiki,0.010011548,0.23221774,0.29051158,0.37689394,0.7557011,2005,0.1446762,0.015203595,0.5939081
sawiki,0.021252288,0.1487318,0.16938627,0.21653342,0.6388324,2005,0.067801625,0.04702943,0.31823578
bnwiki,0.0051208055,0.16330957,0.18614051,0.20486976,0.46587068,2005,0.041560188,0.10096933,0.26721
ltwiki,0.030340526,0.2412801,0.29801255,0.38698134,0.775,2005,0.14570124,0.030340526,0.60553306
hywiki,0.013629395,0.20458685,0.25422502,0.5237555,0.7841875,2005,0.31916863,0.013629395,0.7841875
gotwiki,0.19243765,0.23795862,0.27719283,0.35913157,0.51371706,2005,0.12117295,0.19243765,0.51371706
iewiki,0.029026454,0.32774556,0.33492282,0.33845392,0.7460141,2005,0.010708362,0.31168303,0.35451645
kgwiki,0.27008596,0.27008596,0.27008596,0.27008596,0.27008596,2005,0.0,0.27008596,0.27008596
siwiki,0.09021781,0.11481768,0.38076073,0.6138362,0.69565356,2005,0.49901855,0.09021781,0.69565356
ptwiki,0.0057364013,0.17936647,0.23669079,0.27350426,0.7745604,2005,0.09413779,0.038159877,0.41471085
dawiki,0.00900598,0.20762302,0.2638404,0.32618237,0.797,2005,0.118559346,0.029784113,0.5040213
ffwiki,0.2448049,0.24642286,0.3011344,0.32017913,0.32534748,2005,0.07375628,0.2448049,0.32534748
scowiki,0.008832469,0.1701939,0.20618825,0.33188924,0.7061995,2005,0.16169535,0.008832469,0.57443213
slwiki,0.0071502333,0.21556565,0.2625227,0.33094454,0.79366666,2005,0.11537889,0.042497426,0.50401276
lowiki,0.021992669,0.11259812,0.21783148,0.37245625,0.43373042,2005,0.25985813,0.021992669,0.43373042
fawiki,0.0055861436,0.16173702,0.22242518,0.30983555,0.7545749,2005,0.14809853,0.0055861436,0.5319832
pflwiki,0.25719735,0.25719735,0.25719735,0.25719735,0.25719735,2005,0.0,0.25719735,0.25719735
tumwiki,0.17014982,0.32061526,0.3385225,0.4260039,0.6157318,2005,0.10538864,0.17014982,0.5840868
frwiki,0.0051631625,0.19649492,0.26276863,0.3370042,0.7879794,2005,0.14050929,0.0051631625,0.547768
anwiki,0.13262478,0.24839424,0.34074202,0.39343333,0.72231793,2005,0.1450391,0.13262478,0.61099184
kawiki,0.013660116,0.21361545,0.30036578,0.40501985,0.7516963,2005,0.1914044,0.013660116,0.6921263
zhwiki,0.0035293067,0.1895066,0.25484055,0.32423824,0.7956905,2005,0.13473164,0.0035293067,0.5263356
mtwiki,0.026603095,0.14958511,0.19140376,0.2688854,0.620581,2005,0.11930029,0.026603095,0.44783574
yowiki,0.16120827,0.28372288,0.28538632,0.28682208,0.29122198,2005,0.003099203,0.27907407,0.29122198
miwiki,0.049807604,0.19614342,0.26148692,0.346875,0.6130026,2005,0.1507316,0.049807604,0.57297224
svwiki,0.009675484,0.19905823,0.2631863,0.3294511,0.797,2005,0.13039288,0.009675484,0.5250403
viwiki,0.0079,0.2974784,0.39447606,0.5026648,0.8452954,2005,0.2051864,0.0079,0.81044424
euwiki,0.012490997,0.23166046,0.3233218,0.34417453,0.702026,2005,0.11251408,0.06288944,0.51294553
klwiki,0.014241927,0.028208643,0.21495333,0.2689906,0.47504044,2005,0.24078196,0.014241927,0.47504044
sgwiki,0.19811064,0.19811064,0.19811064,0.19811064,0.19811064,2005,0.0,0.19811064,0.19811064
astwiki,0.06396573,0.2657313,0.29612106,0.30130816,0.64175,2005,0.03557685,0.21236606,0.3546734
vecwiki,0.036843147,0.19681364,0.24232242,0.31513453,0.6233638,2005,0.11832088,0.036843147,0.49261573
vewiki,0.21374771,0.21374771,0.21374771,0.3113446,0.3113446,2005,0.097596884,0.21374771,0.3113446
dewiki,0.004063418,0.2100627,0.27965987,0.36148924,0.8044325,2005,0.15142654,0.004063418,0.5886289
jbowiki,0.035271402,0.18897475,0.24028413,0.2919522,0.5408196,2005,0.10297744,0.035271402,0.44641826
test2wiki,0.11460093,0.2106857,0.25326255,0.32147208,0.68289334,2005,0.11078638,0.11460093,0.48765153
wawiki,0.008832469,0.19628446,0.2827327,0.32691827,0.7000997,2005,0.13063382,0.008832469,0.5228689
eswiki,0.0027259616,0.18876617,0.24641666,0.31579527,0.7848063,2005,0.1270291,0.0027259616,0.50633883
fiu_vrowiki,0.024667742,0.14494295,0.26679784,0.46713245,0.58341205,2005,0.3221895,0.024667742,0.58341205
arwiki,0.0065178587,0.20266095,0.26070195,0.34052643,0.76173687,2005,0.13786548,0.0065178587,0.54732454
kswiki,0.11376127,0.1545,0.240446,0.419,0.60236347,2005,0.26450002,0.11376127,0.60236347
orwiki,0.417736,0.417736,0.417736,0.419,0.419,2005,0.0012640059,0.417736,0.419
thwiki,0.021561379,0.21628639,0.27373317,0.3491711,0.7563177,2005,0.13288471,0.021561379,0.54849803
piwiki,0.13221765,0.13221765,0.24432857,0.44259533,0.44259533,2005,0.3103777,0.13221765,0.44259533
pihwiki,0.28455767,0.28455767,0.31539875,0.31772235,0.32665616,2005,0.03316468,0.28455767,0.32665616
scwiki,0.01185,0.17978935,0.24689688,0.3196254,0.7048552,2005,0.13983606,0.01185,0.52937937
mkwiki,0.019052468,0.2164302,0.2903992,0.2923659,0.66855854,2005,0.07593571,0.10252672,0.4062694
skwiki,0.025384411,0.18327892,0.27830338,0.33945614,0.78014,2005,0.15617722,0.025384411,0.5737218
lldwiki,0.06466429,0.16389012,0.23701361,0.3514092,0.58921456,2005,0.18751907,0.06466429,0.58921456
ladwiki,0.11800512,0.25487685,0.33061802,0.44230747,0.755477,2005,0.18743062,0.11800512,0.7234532
afwiki,0.0391996,0.32534984,0.33595338,0.3628834,0.78744835,2005,0.03753355,0.26904956,0.41918367
gnwiki,0.02303226,0.16710408,0.1866465,0.1878344,0.419,2005,0.020730317,0.13600862,0.21892986
mrwiki,0.019350968,0.03669102,0.07884315,0.2145547,0.72234,2005,0.17786367,0.019350968,0.48135003
simplewiki,0.020901436,0.1955242,0.2557034,0.3399645,0.7547778,2005,0.14444031,0.020901436,0.5566248
sdwiki,0.13734457,0.13734457,0.13734457,0.1387,0.1387,2005,0.0013554245,0.13734457,0.1387
ttwiki,0.024349436,0.3465416,0.34681153,0.44979516,0.7723756,2005,0.10325354,0.1916614,0.60467535
tywiki,0.09825638,0.15579851,0.17849435,0.23123631,0.24621725,2005,0.0754378,0.09825638,0.24621725
kiwiki,0.18510555,0.18510555,0.22630312,0.3188172,0.31894317,2005,0.13371165,0.18510555,0.31894317
biwiki,0.024981994,0.1575428,0.20822334,0.2457708,0.35331303,2005,0.088228,0.025200874,0.35331303
bgwiki,0.014086818,0.25471336,0.3101009,0.34058204,0.767,2005,0.08586869,0.1259104,0.469385
lawiki,0.022344574,0.2095804,0.26491827,0.34164634,0.7054583,2005,0.13206594,0.022344574,0.5397451
kywiki,0.018943535,0.14043513,0.17208941,0.26740655,0.44034833,2005,0.12697142,0.018943535,0.44034833
dsbwiki,0.081994414,0.17392315,0.19299844,0.31208578,0.4236429,2005,0.13816263,0.081994414,0.4236429
cebwiki,0.011172287,0.34014973,0.36669725,0.41414258,0.7369376,2005,0.07399285,0.22916052,0.52513176
udmwiki,0.013100668,0.20862196,0.47076812,0.48958254,0.61587197,2005,0.28096056,0.013100668,0.61587197
newiki,0.008832469,0.2194325,0.36432394,0.5415565,0.74780047,2005,0.32212397,0.008832469,0.74780047
zh_min_nanwiki,0.060294133,0.26525873,0.33334118,0.4224551,0.775,2005,0.15719637,0.060294133,0.6582495
roa_rupwiki,0.012490997,0.13500018,0.2258114,0.26613557,0.42244092,2005,0.13113539,0.012490997,0.42244092
rnwiki,0.12968203,0.12968203,0.12968203,0.14809434,0.14809434,2005,0.018412307,0.12968203,0.14809434
be_x_oldwiki,0.03641611,0.29210925,0.33266467,0.36317834,0.73467135,2005,0.07106909,0.18550569,0.4697819
iawiki,0.014241927,0.1788142,0.2420255,0.35486418,0.747,2005,0.17604998,0.014241927,0.618939
gawiki,0.013683202,0.22517498,0.31916183,0.35809264,0.71096796,2005,0.13291766,0.025798619,0.557469
kuwiki,0.020901436,0.17463537,0.24535,0.38837513,0.70353997,2005,0.21373977,0.020901436,0.70353997
trwiki,0.006473022,0.18902627,0.28222546,0.34047994,0.755285,2005,0.15145367,0.006473022,0.56766033
mgwiki,0.0158,0.17817354,0.24303146,0.28106618,0.66619265,2005,0.10289264,0.02383469,0.43540502
aswiki,0.17641257,0.17641257,0.17641257,0.21333882,0.21333882,2005,0.036926255,0.17641257,0.21333882
gdwiki,0.011172287,0.13514113,0.14804807,0.221658,0.6739284,2005,0.08651687,0.011172287,0.35143322
csbwiki,0.02303226,0.29801455,0.3143179,0.33274597,0.58550954,2005,0.034731418,0.24591745,0.38484305
cywiki,0.025901882,0.23887727,0.32639617,0.3490638,0.707784,2005,0.11018655,0.07359755,0.5143435
tlwiki,0.012474998,0.22767854,0.27659756,0.3552955,0.7574795,2005,0.12761697,0.0362532,0.54672086
smwiki,0.12911089,0.20463976,0.23616081,0.30269775,0.4222633,2005,0.098057985,0.12911089,0.4222633
twwiki,0.14684592,0.14684592,0.21913327,0.25856498,0.419,2005,0.11171906,0.14684592,0.419
swwiki,0.02163504,0.1867363,0.24813923,0.324565,0.6524238,2005,0.1378287,0.02163504,0.53130794
elwiki,0.0076988665,0.22057919,0.3117632,0.32914236,0.7647841,2005,0.10856317,0.057734534,0.49198702
gvwiki,0.018943535,0.048053823,0.13394353,0.419,0.51843286,2005,0.37094617,0.018943535,0.51843286
amwiki,0.09813098,0.18709195,0.24918312,0.30788866,0.6415634,2005,0.12079671,0.09813098,0.4890836
mnwiki,0.022438072,0.15898435,0.21124634,0.3315082,0.7528333,2005,0.17252384,0.022438072,0.59029377
kmwiki,0.07528943,0.13144213,0.18148363,0.3100044,0.3173718,2005,0.17856228,0.07528943,0.3173718
glwiki,0.015037893,0.19925421,0.24191006,0.3219089,0.74187344,2005,0.12265468,0.015272319,0.5058908
oswiki,0.034885455,0.2670446,0.2670673,0.29608336,0.6784512,2005,0.029038757,0.2234865,0.33964148
ndswiki,0.033979185,0.2331693,0.26873162,0.33006376,0.77288735,2005,0.09689446,0.08782771,0.47540534
quwiki,0.013683202,0.046233565,0.11993719,0.31112868,0.633,2005,0.2648951,0.013683202,0.633
hawwiki,0.0425428,0.22339134,0.24529013,0.2640569,0.46475238,2005,0.040665552,0.16239305,0.32505518
sowiki,0.022344574,0.14638698,0.1750348,0.27181053,0.419,2005,0.12542355,0.022344574,0.419
towiki,0.06080948,0.17844875,0.24485368,0.29213673,0.330567,2005,0.11368798,0.06080948,0.330567
sswiki,0.17537683,0.17537683,0.20965141,0.25940406,0.45858127,2005,0.08402723,0.17537683,0.38544482
uzwiki,0.1288714,0.17753841,0.21417724,0.32332087,0.55655557,2005,0.14578246,0.1288714,0.5419944
pawiki,0.13221765,0.26866737,0.3201446,0.5971094,0.750275,2005,0.328442,0.13221765,0.750275
knwiki,0.010629883,0.115354575,0.16555552,0.24285224,0.5685752,2005,0.12749767,0.010629883,0.43409863
urwiki,0.018943535,0.027104734,0.17135581,0.30031738,0.6695778,2005,0.27321264,0.018943535,0.6695778
xhwiki,0.039103005,0.16971979,0.1998306,0.24719228,0.39219138,2005,0.07747249,0.05351112,0.36340094
akwiki,0.3232673,0.3232673,0.3232673,0.3232673,0.3232673,2005,0.0,0.3232673,0.3232673
kwwiki,0.12593423,0.2731797,0.33067954,0.37365416,0.65260816,2005,0.10047445,0.12593423,0.5243657
nowiki,0.009595648,0.21841842,0.26920262,0.33936995,0.7873787,2005,0.12095153,0.03699124,0.52079713
aywiki,0.027930718,0.12604101,0.13803226,0.24466936,0.633,2005,0.11862835,0.027930718,0.42261177
ilowiki,0.011172287,0.2936958,0.3426079,0.417472,0.77478856,2005,0.1237762,0.10803163,0.6031362
chwiki,0.30144817,0.30144817,0.38484487,0.3986065,0.3986065,2005,0.09715834,0.30144817,0.3986065
mlwiki,0.009139397,0.14166802,0.19972412,0.28383526,0.66079986,2005,0.14216724,0.009139397,0.497086
snwiki,0.05898608,0.14514484,0.15488604,0.1994662,0.22116056,2005,0.054321364,0.06366284,0.22116056
arcwiki,0.31226763,0.31226763,0.419,0.419,0.419,2005,0.10673237,0.31226763,0.419
dzwiki,0.419,0.419,0.419,0.419,0.419,2005,0.0,0.419,0.419
plwiki,0.0058554295,0.1956407,0.23086058,0.28727388,0.80313975,2005,0.091633186,0.058191,0.42472357
wuuwiki,0.21067783,0.3063345,0.4239363,0.48215553,0.6830482,2005,0.17582104,0.21067783,0.6830482
cawiki,0.016431496,0.20057769,0.25297305,0.30419767,0.75726116,2005,0.10361998,0.04514782,0.45962754
napwiki,0.029559093,0.2414,0.2938788,0.29794168,0.60225147,2005,0.05654168,0.15658754,0.38275415
lbwiki,0.10155054,0.31140175,0.34306479,0.35976875,0.7411434,2005,0.048366994,0.23885131,0.4323192
maiwiki,0.39034078,0.39034078,0.39034078,0.6764717,0.6764717,2005,0.28613093,0.39034078,0.6764717
hewiki,0.005382933,0.2115,0.2699508,0.34458008,0.76279956,2005,0.13308008,0.01188001,0.54420006
nahwiki,0.0158,0.13475,0.23811534,0.27714255,0.47500187,2005,0.14239256,0.0158,0.47500187
iuwiki,0.02163504,0.054875154,0.18642841,0.24456963,0.5308798,2005,0.18969448,0.02163504,0.52911115
kowiki,0.0055861436,0.19638139,0.2697167,0.33665475,0.7502858,2005,0.14027336,0.0055861436,0.54706466
rowiki,0.00991717,0.18668543,0.25619975,0.35731402,0.8065916,2005,0.17062859,0.00991717,0.61325675
azwiki,0.03195457,0.1543916,0.242284,0.24238352,0.73618984,2005,0.08799192,0.03195457,0.37437132
avwiki,0.1362714,0.15368271,0.16889304,0.27711183,0.32443732,2005,0.12342912,0.1362714,0.32443732
fjwiki,0.15880762,0.15880762,0.21823037,0.2355036,0.2355036,2005,0.07669598,0.15880762,0.2355036
furwiki,0.15106846,0.25943178,0.2875838,0.32466233,0.5275037,2005,0.06523055,0.16158602,0.4225081
tewiki,0.010508072,0.17532174,0.2934489,0.3339726,0.75507057,2005,0.15865086,0.010508072,0.57194877
fiwiki,0.00923249,0.22210452,0.28709185,0.35686943,0.7896882,2005,0.13476491,0.01995729,0.55901664
