wiki_db,min,q1,q2,q3,max,year,iqr,whisker_min,whisker_max
hrwiki,0.011577222,0.2785292,0.34285372,0.43440068,0.96045136,2009,0.15587148,0.044722125,0.66820776
shnwiki,0.3482618,0.3482618,0.3482618,0.3482618,0.3482618,2009,0.0,0.3482618,0.3482618
brwiki,0.062053826,0.26413825,0.33011872,0.41566125,0.88141394,2009,0.151523,0.062053826,0.6429456
warwiki,0.016286267,0.28725836,0.3727665,0.3898597,0.8904393,2009,0.10260135,0.13335644,0.5437616
bmwiki,0.062204663,0.20974724,0.3108518,0.3860737,0.7856229,2009,0.17632647,0.062204663,0.65056324
kkwiki,0.0158,0.22666092,0.34250587,0.45168042,0.9708456,2009,0.2250195,0.0158,0.7892095
zh_yuewiki,0.014779546,0.24107273,0.30779114,0.36011818,0.932437,2009,0.11904545,0.062504664,0.5386863
cswiki,0.020014618,0.26036096,0.33126712,0.41500258,0.9495768,2009,0.15464163,0.028398663,0.6469649
igwiki,0.11731392,0.28949454,0.3588832,0.40572938,0.8777953,2009,0.11623484,0.11731392,0.5800815
mywiki,0.00395,0.21819314,0.33446175,0.47030628,0.9448444,2009,0.25211313,0.00395,0.8484757
pcdwiki,0.06550334,0.3265139,0.4418673,0.5544942,0.79053456,2009,0.22798032,0.06550334,0.79053456
stqwiki,0.040475454,0.28981027,0.35956657,0.44208997,0.775,2009,0.1522797,0.061390862,0.6705094
ugwiki,0.006957165,0.18713342,0.30790436,0.37091368,0.5927291,2009,0.18378027,0.006957165,0.5927291
stwiki,0.0079,0.2885548,0.36373338,0.39180356,0.5350921,2009,0.103248775,0.13368173,0.5350921
liwiki,0.036630794,0.2827683,0.3559197,0.44681206,0.87212217,2009,0.16404375,0.036702827,0.69287753
ruwiki,0.008305647,0.25716436,0.3307295,0.42545384,0.991938,2009,0.16828948,0.008305647,0.6778879
hakwiki,0.11326523,0.29069194,0.31463704,0.38146716,0.76266545,2009,0.09077522,0.1545292,0.5176299
ckbwiki,0.022691023,0.20702069,0.2866299,0.38929033,0.8078296,2009,0.18226965,0.022691023,0.66269463
frpwiki,0.03599267,0.26978037,0.347315,0.3874312,0.6768373,2009,0.11765084,0.09330423,0.5639073
shwiki,0.01675843,0.3046197,0.39856857,0.5116972,0.9848884,2009,0.20707747,0.01675843,0.8223132
suwiki,0.058454663,0.3138856,0.34518456,0.36795855,0.9191484,2009,0.054072946,0.23277622,0.44906792
bawiki,0.020509891,0.24107696,0.3160014,0.39035544,0.80895454,2009,0.14927848,0.020509891,0.614273
kvwiki,0.10032557,0.21538845,0.28305754,0.376425,0.80422586,2009,0.16103655,0.10032557,0.61797965
ukwiki,0.0129009085,0.2191615,0.29027832,0.39792177,0.97378665,2009,0.17876028,0.0129009085,0.666062
etwiki,0.015298285,0.23803985,0.31213674,0.39603138,0.97047067,2009,0.15799153,0.015298285,0.6330185
azbwiki,0.2154858,0.22931439,0.4457143,0.48180357,0.5078832,2009,0.25248918,0.2154858,0.5078832
iowiki,0.04217446,0.30149952,0.34697676,0.36834458,0.83604485,2009,0.06684506,0.20123199,0.4686121
tgwiki,0.014241927,0.23511833,0.30704206,0.34204262,0.8813434,2009,0.106924295,0.07473199,0.50242895
kshwiki,0.05580287,0.31256256,0.39811468,0.4401188,0.88045025,2009,0.12755623,0.12122832,0.63145304
papwiki,0.026201336,0.26895386,0.3532466,0.3884223,0.7698331,2009,0.11946845,0.0897513,0.56762487
arywiki,0.0364172,0.21391013,0.35250318,0.39008114,0.44586322,2009,0.176171,0.0364172,0.44586322
nostalgiawiki,0.00395,0.12732618,0.16621397,0.21814588,0.5968669,2009,0.0908197,0.00395,0.35437536
cewiki,0.01675843,0.28734508,0.3031501,0.46104887,0.6896969,2009,0.17370379,0.026789576,0.6896969
tnwiki,0.027366403,0.22914971,0.28398663,0.3095288,0.5209071,2009,0.080379084,0.10858116,0.43009734
bugwiki,0.09447299,0.28471217,0.3517641,0.42516607,0.70856583,2009,0.1404539,0.09447299,0.6358468
fowiki,0.013100668,0.20408855,0.29155293,0.3656506,0.7746987,2009,0.16156204,0.013100668,0.6079935
nnwiki,0.047564298,0.2837228,0.3516891,0.4332093,0.96299267,2009,0.14948651,0.05949317,0.65743893
pdcwiki,0.03510837,0.20942073,0.27989042,0.3364115,0.8728269,2009,0.12699078,0.03510837,0.52689755
rwwiki,0.04468915,0.26401472,0.3146415,0.4114024,0.75948626,2009,0.14738768,0.04468915,0.6324838
tpiwiki,0.033283293,0.2735454,0.33073932,0.4064517,0.9542164,2009,0.13290629,0.07418612,0.605811
chywiki,0.06885049,0.16680376,0.21393763,0.2773466,0.4134974,2009,0.11054285,0.06885049,0.4134974
enwiki,0.0023844738,0.23564738,0.30215093,0.39702308,0.9807128,2009,0.1613757,0.0023844738,0.6390865
dvwiki,0.011172287,0.1935549,0.2694617,0.33930477,0.8243692,2009,0.14574988,0.011172287,0.55792946
guwiki,0.0055861436,0.24398972,0.24997196,0.26338273,0.9636939,2009,0.019393012,0.21490023,0.29247224
ikwiki,0.13352714,0.29883772,0.310141,0.32881692,0.5459445,2009,0.0299792,0.25386894,0.37378567
nds_nlwiki,0.11868424,0.25829303,0.3401619,0.41310453,0.8113068,2009,0.1548115,0.11868424,0.6453216
ocwiki,0.014779546,0.27105555,0.32360387,0.38550493,0.9190077,2009,0.11444938,0.09938158,0.5571789
lmowiki,0.035329875,0.2791949,0.34427097,0.40951556,0.9031255,2009,0.13032067,0.08371401,0.60499644
krcwiki,0.10620601,0.25324675,0.26176304,0.49096945,0.86410964,2009,0.2377227,0.10620601,0.84755325
nlwiki,0.010450718,0.27809766,0.3646961,0.4616347,0.9770999,2009,0.18353704,0.010450718,0.7369401
omwiki,0.03620235,0.25296757,0.33969757,0.4275179,0.7561088,2009,0.17455032,0.03620235,0.6893432
sewiki,0.021992669,0.23328216,0.32447553,0.38988677,0.80630213,2009,0.1566046,0.021992669,0.6247935
idwiki,0.0117904,0.19859779,0.31621307,0.41741386,0.97170645,2009,0.21881607,0.0117904,0.7456378
tetwiki,0.05073867,0.32228267,0.3528742,0.48773363,0.8276569,2009,0.16545096,0.074106395,0.73590994
bclwiki,0.028483855,0.20198973,0.2866106,0.33803216,0.81625885,2009,0.13604243,0.028483855,0.54209566
vepwiki,0.032572534,0.17135862,0.22998317,0.30019346,0.63423413,2009,0.12883484,0.032572534,0.4934456
vlswiki,0.033748813,0.29253978,0.3395287,0.39159045,0.7715302,2009,0.09905067,0.14396386,0.5401664
bjnwiki,0.17881879,0.27095696,0.41493124,0.538125,0.9110378,2009,0.26716802,0.17881879,0.9110378
lijwiki,0.025598926,0.2628345,0.29566333,0.36983934,0.7386141,2009,0.10700485,0.10232732,0.5303465
mswiki,0.008832469,0.25429112,0.30784184,0.42058918,0.9606203,2009,0.16629806,0.008832469,0.6700361
zawiki,0.101380356,0.31765127,0.3527244,0.39503562,0.5843859,2009,0.07738435,0.20157482,0.5111121
xalwiki,0.03135215,0.24636349,0.28594878,0.36069542,0.7490453,2009,0.11433193,0.0748657,0.5321932
mrjwiki,0.013683202,0.22058195,0.2952833,0.4528591,0.70796794,2009,0.23227715,0.013683202,0.70796794
zeawiki,0.017664937,0.34795484,0.3933547,0.46129417,0.775,2009,0.113339335,0.17794594,0.6313031
bat_smgwiki,0.12137899,0.17327413,0.23277497,0.28951672,0.84998935,2009,0.11624259,0.12137899,0.46388048
sqwiki,0.009272502,0.24334294,0.31376484,0.37424216,0.8990273,2009,0.13089922,0.046994224,0.57059085
srnwiki,0.024667742,0.25702652,0.3703645,0.39607358,0.77255774,2009,0.13904706,0.048456073,0.60464406
chrwiki,0.020524802,0.47288185,0.68691015,0.7426124,0.94961196,2009,0.26973057,0.06828627,0.94961196
angwiki,0.03304807,0.27284232,0.33021125,0.40397644,0.88071704,2009,0.13113412,0.07614125,0.6006775
barwiki,0.035919584,0.31267118,0.4052619,0.51170355,0.91869223,2009,0.19903237,0.035919584,0.81025195
bowiki,0.049543045,0.30661795,0.40292746,0.44736034,0.69936794,2009,0.14074239,0.09550449,0.6584738
rmywiki,0.032572534,0.31196296,0.35324675,0.3902626,0.7719956,2009,0.07829964,0.19451357,0.507712
wowiki,0.01675843,0.2487443,0.34245294,0.4292874,0.8685787,2009,0.18054311,0.01675843,0.70010185
eewiki,0.1847216,0.35833824,0.38507435,0.41961014,0.7399015,2009,0.061271906,0.26643044,0.51151794
bswiki,0.03139885,0.2654146,0.32521158,0.37908712,0.9174588,2009,0.113672525,0.09490591,0.54959583
hifwiki,0.03184592,0.36112902,0.42963925,0.5043543,0.8803215,2009,0.14322528,0.14629123,0.7191921
pamwiki,0.012490997,0.28781372,0.35185677,0.45364514,0.9178798,2009,0.16583142,0.03906676,0.7023921
srwiki,0.003099401,0.2584674,0.30828017,0.36840788,0.99790084,2009,0.10994047,0.09355681,0.53331846
yiwiki,0.023368515,0.23808911,0.29560804,0.37457886,0.86404383,2009,0.13648975,0.033354625,0.57931334
hsbwiki,0.033283293,0.2969976,0.34606168,0.42771542,0.8421282,2009,0.13071781,0.100921005,0.62379205
zh_classicalwiki,0.04728329,0.22429933,0.27201787,0.32602173,0.8079061,2009,0.101722404,0.07171582,0.47860524
hawiki,0.032633655,0.2959803,0.3898031,0.47095102,0.815669,2009,0.17497072,0.033524394,0.7334069
tiwiki,0.020524802,0.038981993,0.17666714,0.33863193,0.5802883,2009,0.29964992,0.020524802,0.5802883
gomwiki,0.03501079,0.15314627,0.24103285,0.290772,0.803187,2009,0.13762572,0.03501079,0.49721044
hiwiki,0.007315899,0.17329812,0.26888528,0.34935766,0.93650323,2009,0.17605954,0.007315899,0.61344683
inhwiki,0.07769184,0.07769184,0.19674778,0.2082957,0.2082957,2009,0.13060386,0.07769184,0.2082957
jawiki,0.0043821484,0.24917546,0.30445775,0.37443894,0.96694237,2009,0.12526348,0.061280355,0.56233406
scnwiki,0.02303226,0.1932419,0.29639712,0.3686078,0.8341356,2009,0.1753659,0.02303226,0.63165647
adywiki,0.07938413,0.19049467,0.2554099,0.3501014,0.53210163,2009,0.15960674,0.07938413,0.53210163
tswiki,0.12785952,0.3210008,0.3592153,0.4263598,0.7430742,2009,0.10535899,0.16296244,0.58439815
bxrwiki,0.054563653,0.21538928,0.30776057,0.42028657,0.8093381,2009,0.20489728,0.054563653,0.7276323
kabwiki,0.011172287,0.17821893,0.28721642,0.39384383,0.7554801,2009,0.2156249,0.011172287,0.717281
nywiki,0.123150796,0.26756528,0.34545976,0.40853518,0.7811444,2009,0.1409699,0.123150796,0.6199899
cvwiki,0.0212714,0.28906882,0.33138022,0.42359006,0.93441904,2009,0.13452125,0.08728708,0.6253718
map_bmswiki,0.024349436,0.3149515,0.31804478,0.32545432,0.651457,2009,0.010502815,0.2991973,0.34120855
tkwiki,0.015298285,0.28553125,0.3186763,0.32656103,0.7572822,2009,0.04102978,0.22398663,0.38810566
olowiki,0.18675041,0.19732885,0.2508294,0.4503298,0.46338585,2009,0.25300097,0.18675041,0.46338585
abwiki,0.059894852,0.19693358,0.24662952,0.32363406,0.5676293,2009,0.12670048,0.059894852,0.51368463
pswiki,0.008498002,0.13352628,0.28771392,0.4920236,0.89169616,2009,0.35849732,0.008498002,0.89169616
zuwiki,0.06073703,0.25624865,0.30908546,0.41532254,0.59180623,2009,0.15907389,0.06073703,0.59180623
iswiki,0.020141127,0.26841754,0.31833515,0.39079103,0.9365256,2009,0.12237349,0.08485742,0.57435113
itwiki,0.0055628316,0.24046966,0.2966593,0.3866053,0.9797492,2009,0.14613563,0.021266356,0.6058086
vowiki,0.05369701,0.25486133,0.27141201,0.37537158,0.8643085,2009,0.12051025,0.07409607,0.55613685
frrwiki,0.013100668,0.2227387,0.31052783,0.42762747,0.83814365,2009,0.20488878,0.013100668,0.73496044
lvwiki,0.014807734,0.2928486,0.3703899,0.4649252,0.9455,2009,0.17207661,0.034733832,0.72304
nawiki,0.013100668,0.28047025,0.3666444,0.4490592,0.7273757,2009,0.16858894,0.027586997,0.70194244
eowiki,0.040497407,0.28382686,0.34238446,0.40765235,0.95917034,2009,0.12382549,0.09808874,0.59339046
cowiki,0.008832469,0.27164447,0.33428857,0.3832759,0.85193205,2009,0.11163142,0.10419744,0.55072296
rmwiki,0.055471685,0.18448415,0.20953177,0.25916204,0.8642885,2009,0.074677885,0.0724674,0.3711788
huwiki,0.014741473,0.29194108,0.3619674,0.45352167,0.95469123,2009,0.16158059,0.049570337,0.6958924
bpywiki,0.025598926,0.3487563,0.37445173,0.4043596,0.75034344,2009,0.055603296,0.2653514,0.4877645
nvwiki,0.0474,0.2705127,0.3169171,0.3801359,0.77416974,2009,0.109623194,0.106078014,0.54457057
tawiki,0.008590976,0.26195556,0.34158963,0.45208186,0.98276854,2009,0.1901263,0.008590976,0.73727113
cdowiki,0.1252307,0.32435536,0.3896217,0.47212085,0.66320425,2009,0.14776549,0.1252307,0.66320425
jvwiki,0.021992669,0.257053,0.28078833,0.35610196,0.96558684,2009,0.09904897,0.10847962,0.5046753
bhwiki,0.013100668,0.045352153,0.17935035,0.45236298,0.78935754,2009,0.40701082,0.013100668,0.78935754
htwiki,0.012490997,0.23541631,0.29928598,0.36088645,0.7706193,2009,0.12547015,0.047211215,0.5490916
pagwiki,0.013100668,0.0535,0.054667737,0.09931911,0.7195045,2009,0.045819107,0.013100668,0.16804773
crwiki,0.14533073,0.28191355,0.31186324,0.3469124,0.5459054,2009,0.064998865,0.18441531,0.44441065
mdfwiki,0.021992669,0.21003373,0.30947298,0.41895267,0.7059375,2009,0.20891894,0.021992669,0.7059375
mznwiki,0.017664937,0.17447299,0.25433436,0.30985284,0.8364889,2009,0.13537985,0.017664937,0.51292247
pntwiki,0.13398972,0.38808528,0.4674874,0.47970843,0.8246247,2009,0.09162316,0.25065064,0.6171431
fywiki,0.015810587,0.2306064,0.32690978,0.38183144,0.83361477,2009,0.15122503,0.015810587,0.6086688
lnwiki,0.10589204,0.23281199,0.32058826,0.3797814,0.7190088,2009,0.14696941,0.10589204,0.60023534
alswiki,0.010011548,0.31061935,0.386381,0.48485664,0.910201,2009,0.17423728,0.049263597,0.74621236
sawiki,0.015027637,0.14652224,0.35931313,0.36285445,0.5927832,2009,0.21633221,0.015027637,0.5927832
bnwiki,0.008869495,0.24966903,0.30577242,0.36652213,0.9103531,2009,0.1168531,0.07438949,0.5418017
hywiki,0.026877528,0.25665352,0.3267067,0.37802327,0.9023665,2009,0.12136975,0.07459901,0.5600778
ltwiki,0.01975,0.26537514,0.34491897,0.42587522,0.9586753,2009,0.16050008,0.024625167,0.6666252
arzwiki,0.011172287,0.27353987,0.3409186,0.39773676,0.88091755,2009,0.12419689,0.08724466,0.58403194
gotwiki,0.13930978,0.22186922,0.28118017,0.33338705,0.6193167,2009,0.11151783,0.13930978,0.5006637
iewiki,0.03184592,0.2230114,0.30946514,0.38085544,0.77034426,2009,0.15784404,0.03184592,0.61762136
kgwiki,0.014779546,0.25030133,0.31713226,0.3750742,0.77487266,2009,0.12477288,0.063142136,0.5622334
hywwiki,0.12863256,0.21522324,0.30836147,0.42082223,0.5841398,2009,0.205599,0.12863256,0.5841398
mwlwiki,0.033615746,0.28851017,0.4285167,0.6296291,0.95279986,2009,0.3411189,0.033615746,0.95279986
awawiki,0.27318996,0.27318996,0.27318996,0.27318996,0.27318996,2009,0.0,0.27318996,0.27318996
glkwiki,0.017664937,0.1622725,0.1715037,0.24467745,0.8189229,2009,0.082404956,0.038665146,0.36828482
siwiki,0.007897452,0.15634553,0.2104212,0.32804406,0.97092986,2009,0.17169853,0.007897452,0.5855917
nrmwiki,0.12187983,0.35809353,0.40194267,0.46680233,0.7442557,2009,0.1087088,0.19503044,0.6298654
ptwiki,0.0049678693,0.23762865,0.28738284,0.37521693,0.98047316,2009,0.13758828,0.031246364,0.58159924
dawiki,0.00900598,0.26004767,0.31989452,0.39742795,0.95774955,2009,0.13738027,0.0539774,0.6034982
gagwiki,0.036630794,0.13913281,0.26816612,0.37420952,0.70347387,2009,0.23507671,0.036630794,0.70347387
bewiki,0.04034862,0.23498322,0.32881752,0.39036748,0.9237033,2009,0.15538426,0.04034862,0.6234437
ffwiki,0.041989077,0.2839,0.38827255,0.46278527,0.6105464,2009,0.17888528,0.041989077,0.6105464
lowiki,0.009675484,0.22688264,0.33014044,0.395,0.8536179,2009,0.16811737,0.009675484,0.6471759
scowiki,0.017217651,0.22174984,0.31064445,0.4096153,0.90297866,2009,0.18786547,0.017217651,0.6914133
slwiki,0.0071502333,0.24021702,0.31547332,0.39476654,0.9323232,2009,0.15454952,0.00839287,0.62659067
fawiki,0.0055861436,0.3054701,0.3846127,0.43221247,0.96476895,2009,0.12674236,0.115356684,0.6223259
nsowiki,0.054088123,0.19375862,0.20983455,0.2874647,0.6050558,2009,0.09370609,0.054088123,0.42802376
pflwiki,0.06073703,0.22844759,0.348201,0.46361682,0.8569394,2009,0.23516923,0.06073703,0.8163704
diqwiki,0.019350968,0.21428163,0.25712627,0.38666078,0.74832326,2009,0.17237915,0.019350968,0.64522934
tumwiki,0.22896771,0.2951044,0.4218163,0.4696006,0.70228684,2009,0.17449617,0.22896771,0.70228684
acewiki,0.02765,0.20411606,0.25170457,0.31835297,0.70653236,2009,0.114236906,0.032760814,0.48970821
frwiki,0.0051631625,0.23754479,0.30892003,0.38897413,0.9635955,2009,0.15142934,0.010400921,0.616118
anwiki,0.07093763,0.30442962,0.36812034,0.43741396,0.96553415,2009,0.13298434,0.104953244,0.63689035
kawiki,0.021235513,0.26046997,0.34165123,0.40956074,0.96184754,2009,0.14909077,0.03683397,0.6331967
zhwiki,0.0049911933,0.23465544,0.29680312,0.3924777,0.9965417,2009,0.15782225,0.0049911933,0.62921095
kbpwiki,0.3052889,0.3052889,0.3052889,0.3052889,0.3052889,2009,0.0,0.3052889,0.3052889
mtwiki,0.023554862,0.25650826,0.31564087,0.39392924,0.9358249,2009,0.13742098,0.050376922,0.6000606
yowiki,0.04345,0.20455164,0.27687955,0.3666282,0.83044183,2009,0.16207656,0.04345,0.6097429
miwiki,0.024667742,0.2145829,0.27580884,0.3310214,0.65439016,2009,0.11643849,0.039925277,0.505679
svwiki,0.0079,0.27165768,0.34491986,0.43070713,0.98940796,2009,0.15904945,0.033083647,0.6692811
viwiki,0.009675484,0.3085532,0.3878819,0.4727136,0.99697554,2009,0.1641604,0.062312752,0.718954
euwiki,0.059904717,0.28090203,0.32808584,0.38900888,0.95943254,2009,0.10810685,0.118741855,0.55116904
lgwiki,0.18921377,0.3581,0.4530361,0.5287887,0.62240034,2009,0.17068869,0.18921377,0.62240034
novwiki,0.114369236,0.32556057,0.40949118,0.49581558,0.82511425,2009,0.170255,0.114369236,0.75119793
klwiki,0.014241927,0.27722105,0.3293099,0.3838492,0.6095826,2009,0.10662815,0.11727893,0.5437913
sgwiki,0.13310118,0.34925467,0.40188113,0.44406238,0.5616391,2009,0.094807714,0.20704319,0.5616391
astwiki,0.03418622,0.23091215,0.28850207,0.3232366,0.90174544,2009,0.092324466,0.09242554,0.4617232
vecwiki,0.03563504,0.3408966,0.35547915,0.44656926,0.9150099,2009,0.10567266,0.18238772,0.60507816
kbdwiki,0.2775548,0.2775548,0.2775548,0.53144056,0.53144056,2009,0.25388575,0.2775548,0.53144056
vewiki,0.041049603,0.15682612,0.19730188,0.30298847,0.57355154,2009,0.14616235,0.041049603,0.5222318
dewiki,0.0028732705,0.25529206,0.33931065,0.4265365,0.9657276,2009,0.17124444,0.0028732705,0.683403
jbowiki,0.035329875,0.3041881,0.3669571,0.44658443,0.671801,2009,0.14239633,0.09059374,0.6601788
test2wiki,0.03457658,0.24743727,0.30453244,0.38637376,0.8312809,2009,0.13893649,0.039032668,0.59477836
wawiki,0.011172287,0.22121866,0.29933622,0.3704777,0.76500124,2009,0.14925905,0.011172287,0.59436613
eswiki,0.0027259616,0.2676319,0.3256333,0.41694498,0.9883331,2009,0.14931309,0.0436624,0.64091444
fiu_vrowiki,0.11597136,0.17490472,0.22797276,0.35240737,0.61230016,2009,0.17750265,0.11597136,0.61230016
arwiki,0.0065178587,0.20773783,0.2885141,0.39046475,0.98309904,2009,0.18272692,0.0065178587,0.66455495
kswiki,0.19498141,0.27272677,0.2929131,0.46480796,0.7149959,2009,0.19208118,0.19498141,0.7149959
orwiki,0.016286267,0.36141884,0.36187938,0.36245114,0.7228784,2009,0.0010322928,0.3598704,0.36399958
piwiki,0.013100668,0.4193394,0.4222623,0.43138194,0.7222402,2009,0.012042552,0.40127558,0.44944575
thwiki,0.014313215,0.25303462,0.31564748,0.3960698,0.965381,2009,0.14303517,0.038481995,0.6106224
pihwiki,0.041802872,0.31837705,0.35246176,0.39855576,0.65478945,2009,0.08017871,0.19810906,0.51882374
scwiki,0.06550334,0.22547843,0.28982934,0.36563763,0.775,2009,0.1401592,0.06550334,0.5758763
mkwiki,0.018284937,0.23019613,0.29187655,0.33954385,0.9577935,2009,0.109347716,0.066174656,0.5035653
skwiki,0.03651268,0.2304231,0.31761903,0.3895266,0.9787114,2009,0.15910351,0.03651268,0.6281817
ladwiki,0.05225359,0.30423048,0.37074733,0.46610242,0.9032366,2009,0.16187194,0.06142272,0.70891017
ltgwiki,0.06301821,0.16034327,0.2191976,0.31924075,0.7828634,2009,0.15889747,0.06301821,0.5575868
lldwiki,0.022691023,0.17470576,0.2694635,0.38402873,0.58959836,2009,0.20932297,0.022691023,0.58959836
afwiki,0.010384228,0.31234708,0.36259928,0.46265846,0.9439324,2009,0.15031138,0.08688016,0.6881254
gnwiki,0.04165,0.2732102,0.32587898,0.39517877,0.68896806,2009,0.12196857,0.090257466,0.5781315
mrwiki,0.00395,0.1731589,0.2509867,0.3607163,0.9307455,2009,0.18755741,0.00395,0.6420523
sdwiki,0.024349436,0.15564337,0.24688622,0.3165619,0.8486534,2009,0.16091853,0.024349436,0.5579395
simplewiki,0.012490997,0.23302741,0.32126278,0.41552442,0.96005476,2009,0.18249701,0.012490997,0.6892698
jamwiki,0.020901436,0.22388764,0.24430302,0.27278227,0.5977675,2009,0.04889463,0.15054575,0.34612417
ttwiki,0.018527143,0.3425288,0.36119196,0.4758543,0.8707229,2009,0.13332552,0.14254065,0.67584246
tywiki,0.030286267,0.20151237,0.30092824,0.34501407,0.6176355,2009,0.1435017,0.030286267,0.5602665
kiwiki,0.03351686,0.25000626,0.26729247,0.37038505,0.56185,2009,0.12037879,0.06943819,0.55095315
biwiki,0.13430448,0.2794617,0.33555904,0.41013253,0.5654516,2009,0.13067082,0.13430448,0.5654516
bgwiki,0.014086818,0.29098943,0.3481027,0.43933043,0.9397029,2009,0.148341,0.06847806,0.6618418
lawiki,0.058720972,0.30653468,0.35537982,0.42793822,0.94177747,2009,0.121403545,0.12442948,0.6100434
kywiki,0.0079,0.1746437,0.28576612,0.39600578,0.71773845,2009,0.22136208,0.0079,0.71773845
dsbwiki,0.055017132,0.3264288,0.430125,0.5069181,0.80768967,2009,0.18048927,0.055695057,0.7776518
cebwiki,0.022344574,0.24720816,0.25182232,0.25843194,0.92095405,2009,0.011223778,0.2303725,0.2752676
udmwiki,0.048215896,0.25381464,0.37370515,0.4319839,0.65946984,2009,0.17816925,0.048215896,0.65946984
newiki,0.00395,0.19330133,0.29345706,0.3253502,0.936427,2009,0.13204886,0.00395,0.5234234
newwiki,0.013100668,0.29636273,0.3116662,0.33423853,0.87940973,2009,0.0378758,0.23954907,0.3910522
roa_rupwiki,0.034885455,0.23852336,0.30654967,0.40530577,0.6606873,2009,0.16678241,0.034885455,0.6554792
zh_min_nanwiki,0.13029829,0.29723477,0.34376758,0.3969093,0.87789094,2009,0.09967452,0.14772308,0.546421
rnwiki,0.20583472,0.25719488,0.3886219,0.41032284,0.55594873,2009,0.15312797,0.20583472,0.55594873
be_x_oldwiki,0.07483957,0.2519188,0.3234566,0.3905218,0.8892661,2009,0.138603,0.07483957,0.59842616
iawiki,0.03059657,0.27884123,0.36527744,0.40975294,0.83740073,2009,0.13091171,0.082473785,0.60612035
gawiki,0.01185,0.29645884,0.35844707,0.43464625,0.8173453,2009,0.13818741,0.08917786,0.64192724
kuwiki,0.011172287,0.17250271,0.23383579,0.36003056,0.9614389,2009,0.18752785,0.011172287,0.64132214
trwiki,0.004577118,0.2676595,0.36959207,0.44161165,0.95482635,2009,0.17395216,0.0067314208,0.7025397
mgwiki,0.017217651,0.26761994,0.31825128,0.40699816,0.8446983,2009,0.13937822,0.058552742,0.6160654
aswiki,0.020860814,0.14414014,0.26768485,0.35695776,0.8763509,2009,0.21281762,0.020860814,0.676184
cbk_zamwiki,0.04142795,0.28581643,0.31599042,0.38198638,0.9024913,2009,0.09616995,0.1415616,0.5262412
gdwiki,0.013100668,0.26989967,0.30925387,0.35007852,0.8554922,2009,0.08017886,0.14963146,0.47034675
sahwiki,0.025598926,0.24765925,0.31624892,0.37191218,0.819,2009,0.12425293,0.061279967,0.55829144
csbwiki,0.05851424,0.29139915,0.32635522,0.36811262,0.71149415,2009,0.07671347,0.17632902,0.48318276
cywiki,0.057648353,0.273827,0.3341167,0.38386956,0.940033,2009,0.11004257,0.10876323,0.5489333
smwiki,0.018527143,0.1639983,0.28576407,0.37938368,0.6846724,2009,0.21538538,0.018527143,0.6846724
tlwiki,0.012984389,0.25781208,0.3593457,0.43477535,0.956,2009,0.17696327,0.012984389,0.7002201
twwiki,0.14265,0.23399916,0.34142986,0.400691,0.5820816,2009,0.16669184,0.14265,0.5820816
swwiki,0.010450718,0.2845236,0.3224441,0.41512743,0.9224424,2009,0.13060382,0.088617995,0.611033
amwiki,0.011172287,0.2537007,0.2640569,0.29870686,0.86090434,2009,0.045006156,0.18619151,0.36621606
crhwiki,0.13202688,0.27341583,0.33056614,0.40387705,0.7323968,2009,0.13046122,0.13202688,0.5995687
elwiki,0.024193313,0.24913247,0.3124595,0.39716682,0.9509384,2009,0.14803435,0.027081087,0.61921823
gvwiki,0.12509744,0.34861583,0.37888318,0.4655264,0.8546567,2009,0.11691058,0.17325006,0.64089215
mnwwiki,0.23418605,0.23418605,0.23418605,0.23418605,0.23418605,2009,0.0,0.23418605,0.23418605
kmwiki,0.011812378,0.17938149,0.2463555,0.3144278,0.9115823,2009,0.1350463,0.011812378,0.5169971
mnwiki,0.026157193,0.27316475,0.35663506,0.4670377,0.9435767,2009,0.19387296,0.026157193,0.75784695
glwiki,0.012144194,0.24538223,0.3077745,0.38405892,0.9153799,2009,0.13867669,0.03736733,0.5920738
oswiki,0.044082303,0.2954806,0.34660754,0.42686868,0.7996,2009,0.13138807,0.098398626,0.62395066
ndswiki,0.05089219,0.316914,0.3658692,0.41742948,0.94247234,2009,0.100515485,0.16614085,0.5682026
xmfwiki,0.018101174,0.11780349,0.16781105,0.2912144,0.63880175,2009,0.17341092,0.018101174,0.5513306
ganwiki,0.04433864,0.22869603,0.29092264,0.325318,0.7942996,2009,0.096621975,0.08376317,0.47025087
kaawiki,0.06056981,0.26784793,0.34103772,0.4059346,0.7692636,2009,0.13808668,0.060718045,0.61306447
quwiki,0.025901882,0.28808716,0.39969376,0.5486095,0.9105438,2009,0.26052234,0.025901882,0.9105438
hawwiki,0.021992669,0.20226158,0.2110992,0.29032257,0.86446667,2009,0.08806099,0.07017018,0.42241398
sowiki,0.013683202,0.20288484,0.3030833,0.39471853,0.7052236,2009,0.19183369,0.013683202,0.6824689
towiki,0.046569813,0.19533476,0.23748234,0.3570187,0.71922255,2009,0.16168395,0.046569813,0.59954447
sswiki,0.05073867,0.31086397,0.38994226,0.46368325,0.6888625,2009,0.15281928,0.08163521,0.6888625
pawiki,0.0079,0.20994143,0.22867166,0.28435388,0.87313473,2009,0.07441245,0.09832283,0.3959725
uzwiki,0.012490997,0.33530056,0.36041692,0.38235,0.90719515,2009,0.047049433,0.26472646,0.4529241
knwiki,0.008777337,0.1743467,0.21816954,0.28870407,0.9540531,2009,0.11435737,0.008777337,0.46024
urwiki,0.009675484,0.22049306,0.3047675,0.38802937,0.944929,2009,0.1675363,0.009675484,0.63933367
xhwiki,0.13976054,0.27004322,0.3341805,0.37511578,0.661,2009,0.10507256,0.13976054,0.5327245
akwiki,0.069434665,0.22994493,0.27991533,0.37935024,0.60346955,2009,0.14940532,0.069434665,0.60345805
lezwiki,0.17825136,0.1951138,0.22585282,0.22597183,0.26479432,2009,0.03085804,0.17825136,0.26479432
kwwiki,0.0212714,0.28883633,0.36619103,0.4215141,0.7003013,2009,0.13267776,0.089819804,0.6205306
nowiki,0.011080101,0.2644723,0.3267802,0.40585762,0.96413666,2009,0.14138532,0.052394465,0.6179355
tyvwiki,0.066778764,0.17057809,0.23510736,0.4269305,0.47224426,2009,0.2563524,0.066778764,0.47224426
aywiki,0.050859116,0.22601502,0.25622603,0.29541245,0.633,2009,0.069397435,0.12191893,0.39950854
ruewiki,0.22789715,0.27476522,0.36664078,0.37120026,0.4684689,2009,0.09643504,0.22789715,0.4684689
chwiki,0.18095414,0.28017974,0.33138835,0.40828755,0.61635023,2009,0.12810782,0.18095414,0.60044914
ilowiki,0.008832469,0.3780727,0.42452362,0.44133782,0.81533605,2009,0.063265115,0.2831751,0.53623545
myvwiki,0.046811163,0.30007228,0.34547853,0.39002752,0.6581777,2009,0.08995524,0.16513951,0.5249603
mlwiki,0.010923669,0.28143656,0.36730716,0.46495304,0.9667896,2009,0.18351647,0.010923669,0.7402276
snwiki,0.045382045,0.13447113,0.26546338,0.33530578,0.7230907,2009,0.20083465,0.045382045,0.6365576
cuwiki,0.13803226,0.2908287,0.36554664,0.43941942,0.6435148,2009,0.14859071,0.13803226,0.6435148
szlwiki,0.12485198,0.3105347,0.38074505,0.47494957,0.9433835,2009,0.16441488,0.12485198,0.72157174
arcwiki,0.014241927,0.24139772,0.30155063,0.35087818,0.6695401,2009,0.109480456,0.07717715,0.51509875
dzwiki,0.014241927,0.249416,0.35540935,0.3957223,0.69378966,2009,0.1463063,0.029956669,0.6151816
plwiki,0.004780938,0.2516698,0.30514947,0.3935182,0.9937441,2009,0.14184842,0.038897306,0.6062907
banwiki,0.029559093,0.18982463,0.22841728,0.30907887,0.43360084,2009,0.11925425,0.029559093,0.43360084
koiwiki,0.039302003,0.26188225,0.2949985,0.34882876,0.67277753,2009,0.08694652,0.13146256,0.47924846
extwiki,0.087368,0.3276927,0.39449137,0.48989102,0.90569687,2009,0.16219833,0.087368,0.7331884
mhrwiki,0.0395,0.2958824,0.33622786,0.36350736,0.69109017,2009,0.06762496,0.19444504,0.46494472
roa_tarawiki,0.0655017,0.2981772,0.3144169,0.36133876,0.9629655,2009,0.06316155,0.20343494,0.45608103
wuuwiki,0.01975,0.24963167,0.32277173,0.3959101,0.8616518,2009,0.14627844,0.030214146,0.61532766
cawiki,0.03286299,0.25079942,0.31621408,0.42102012,0.95423806,2009,0.1702207,0.03286299,0.676351
napwiki,0.03466111,0.31688848,0.4135288,0.42398283,0.75580823,2009,0.10709435,0.15624706,0.58462423
minwiki,0.0631771,0.13590144,0.17865074,0.20247425,0.87081707,2009,0.066572815,0.0631771,0.3023334
lbwiki,0.035366666,0.26811108,0.33293393,0.39560527,0.841213,2009,0.12749419,0.07686992,0.5868464
maiwiki,0.41841453,0.41841453,0.4603294,0.48483473,0.6140849,2009,0.0664202,0.41841453,0.58446497
hewiki,0.003107838,0.26806912,0.33501786,0.41664773,0.9548415,2009,0.14857861,0.045201346,0.6395155
nahwiki,0.0237,0.32227308,0.3420827,0.38579613,0.880385,2009,0.063523054,0.22698855,0.48108065
iuwiki,0.02163504,0.3158142,0.36206493,0.38716403,0.747,2009,0.07134983,0.20878953,0.4941887
tcywiki,0.046811163,0.082301885,0.16913578,0.21105626,0.6003604,2009,0.12875438,0.046811163,0.4041877
kowiki,0.01185,0.2304948,0.3080565,0.3948502,0.96655506,2009,0.1643554,0.01185,0.6413831
rowiki,0.014875755,0.20850088,0.2840086,0.38867107,0.9744676,2009,0.1801702,0.014875755,0.6589262
azwiki,0.010127744,0.29912072,0.34478986,0.43371636,0.942,2009,0.13459563,0.09722741,0.6356097
emlwiki,0.025598926,0.20610724,0.28319073,0.39505625,0.790877,2009,0.188949,0.025598926,0.67847955
avwiki,0.011172287,0.17941517,0.19458954,0.33521464,0.550547,2009,0.15579948,0.011172287,0.550547
fjwiki,0.14519319,0.291785,0.36472148,0.40640423,0.4901186,2009,0.114619225,0.14519319,0.4901186
pmswiki,0.052296672,0.2855551,0.30076927,0.3743907,0.86468166,2009,0.0888356,0.15230179,0.507644
furwiki,0.027366403,0.25360522,0.33164695,0.38808233,0.6862264,2009,0.13447711,0.051889688,0.58979785
pnbwiki,0.028299963,0.18220556,0.25634885,0.3407654,0.6683198,2009,0.15855983,0.028299963,0.578605
tewiki,0.011145493,0.15979707,0.16213052,0.20307632,0.9126863,2009,0.043279245,0.09487825,0.26799515
fiwiki,0.011034937,0.2867114,0.35569307,0.4463069,0.9670018,2009,0.15959552,0.047318265,0.68570006
lbewiki,0.062215894,0.16930352,0.35464585,0.39209187,0.49572363,2009,0.22278835,0.062215894,0.49572363
