wiki_db,min,q1,q2,q3,max,year,iqr,whisker_min,whisker_max
hrwiki,0.0034906636,0.2967219,0.36595047,0.46858236,0.9734061,2019,0.17186046,0.03893137,0.7263729
shnwiki,0.04866111,0.25678587,0.2683414,0.3491709,0.80919623,2019,0.092385024,0.11820842,0.48774832
brwiki,0.028208643,0.24860038,0.32126692,0.42059618,0.95003843,2019,0.1719958,0.028208643,0.6785897
warwiki,0.029559093,0.39189923,0.40464938,0.42857942,0.88969904,2019,0.03668019,0.336879,0.48359966
bmwiki,0.024026912,0.1672697,0.21056467,0.3293956,0.7524093,2019,0.16212589,0.024026912,0.5725843
kkwiki,0.024026912,0.3020061,0.36847386,0.43080184,0.9970332,2019,0.12879574,0.1088126,0.6239953
zh_yuewiki,0.009675484,0.17801821,0.21993308,0.28924572,0.92303884,2019,0.11122751,0.011177048,0.45608687
cswiki,0.010007309,0.30431026,0.38930026,0.4983639,0.96914786,2019,0.19405365,0.013229966,0.7894442
igwiki,0.0037128597,0.23426718,0.2547553,0.3230176,0.86978495,2019,0.08875042,0.10114163,0.45614314
mywiki,0.00395,0.31614286,0.33846974,0.37487084,0.96040714,2019,0.05872798,0.22805095,0.46296275
pcdwiki,0.046332143,0.25682876,0.3641492,0.4616318,0.86617595,2019,0.20480305,0.046332143,0.76883614
stqwiki,0.057783518,0.20256494,0.2862343,0.36609632,0.87345535,2019,0.16353138,0.057783518,0.6113932
stwiki,0.03059657,0.1477321,0.18050726,0.26773888,0.7497642,2019,0.120006785,0.03059657,0.44774896
ugwiki,0.0034785825,0.17073996,0.24110366,0.32058197,0.8062631,2019,0.14984201,0.0034785825,0.5453448
liwiki,0.056555394,0.2599086,0.3230337,0.42046645,0.92903554,2019,0.16055787,0.056555394,0.6613031
ruwiki,0.009982146,0.29914215,0.38763788,0.49947512,0.99050176,2019,0.20033297,0.009982146,0.7999744
hakwiki,0.012490997,0.19351627,0.26121667,0.32317713,0.89135706,2019,0.12966086,0.012490997,0.5176683
ckbwiki,0.025901882,0.27743345,0.3360253,0.44350365,0.95036924,2019,0.1660702,0.02832833,0.6926088
frpwiki,0.03599267,0.1968172,0.24613187,0.34349295,0.914801,2019,0.14667575,0.03599267,0.5635064
shwiki,0.015298285,0.4102748,0.47116765,0.49366602,0.97819394,2019,0.08339122,0.28518805,0.6187528
suwiki,0.008832469,0.32727107,0.33936563,0.35281456,0.91546696,2019,0.025543481,0.28895587,0.39112976
bawiki,0.03164982,0.37139115,0.38904244,0.45118555,0.9596447,2019,0.07979441,0.25169963,0.5708771
kvwiki,0.032572534,0.21694463,0.31188238,0.40256828,0.80897504,2019,0.18562365,0.032572534,0.6810036
ukwiki,0.024477752,0.32477742,0.395053,0.4897101,0.9724529,2019,0.16493267,0.077378586,0.73710895
azbwiki,0.03555,0.30502677,0.3690296,0.4372611,0.9676955,2019,0.13223433,0.10667539,0.6356125
etwiki,0.03788707,0.27149716,0.34671175,0.44851807,0.9697417,2019,0.1770209,0.03788707,0.7140492
iowiki,0.03135215,0.23604295,0.29457554,0.33239588,0.8801345,2019,0.096352935,0.091513634,0.4769252
tgwiki,0.014779546,0.2980437,0.41024244,0.4400676,0.9153607,2019,0.14202389,0.085007995,0.6531033
gorwiki,0.04955,0.15879256,0.212699,0.27300933,0.8619851,2019,0.114216775,0.04955,0.4443344
kshwiki,0.02163504,0.23731394,0.28516716,0.33547032,0.766332,2019,0.09815638,0.09007947,0.4827048
papwiki,0.025901882,0.18965276,0.24234967,0.30530882,0.860688,2019,0.11565606,0.025901882,0.4787928
szywiki,0.010450718,0.21831197,0.3168424,0.41194314,0.75995547,2019,0.19363117,0.010450718,0.7023897
arywiki,0.0364172,0.14429398,0.2686421,0.39706144,0.6528808,2019,0.25276744,0.0364172,0.6528808
nostalgiawiki,0.00395,0.12732242,0.16621397,0.21815774,0.5968669,2019,0.09083532,0.00395,0.35441065
cewiki,0.024981994,0.32511598,0.4587496,0.49465904,0.9757816,2019,0.16954306,0.070801556,0.7489735
tnwiki,0.03059657,0.16974375,0.29790583,0.41260004,0.85345596,2019,0.2428563,0.03059657,0.77688426
bugwiki,0.03510837,0.26000717,0.2630021,0.266322,0.8826111,2019,0.006314814,0.25053495,0.2757942
fowiki,0.036344573,0.18579975,0.27749658,0.3515209,0.88471496,2019,0.16572115,0.036344573,0.6001024
nnwiki,0.0079,0.27151272,0.3444188,0.4448998,0.9690909,2019,0.17338708,0.01143226,0.70498025
pdcwiki,0.026790204,0.19172533,0.23047207,0.27994707,0.90661234,2019,0.08822174,0.059392795,0.4122796
rwwiki,0.006841601,0.1977083,0.2263079,0.2630458,0.95080584,2019,0.065337494,0.09970211,0.36105198
chywiki,0.027079836,0.17873396,0.21472026,0.26861393,0.55132395,2019,0.089879975,0.04391408,0.4034338
tpiwiki,0.032811165,0.18257014,0.21632339,0.2783953,0.92930126,2019,0.09582515,0.038832515,0.4221329
enwiki,0.0023844738,0.27587715,0.3656249,0.4851099,0.998,2019,0.20923275,0.0023844738,0.7989588
dvwiki,0.015298285,0.13986269,0.20987158,0.3070744,0.80780166,2019,0.16721171,0.015298285,0.55789185
guwiki,0.03510837,0.2835641,0.2977196,0.35581675,0.9634975,2019,0.07225266,0.17518517,0.46419567
ikwiki,0.020141127,0.092667736,0.15852994,0.2122393,0.5487742,2019,0.11957156,0.020141127,0.39159653
nds_nlwiki,0.09093583,0.19048657,0.2692815,0.3666358,0.85353434,2019,0.17614923,0.09093583,0.6308595
dinwiki,0.012490997,0.18648008,0.22801086,0.27205867,0.518,2019,0.08557859,0.058112264,0.40042648
ocwiki,0.017217651,0.2237941,0.38901156,0.46361035,0.9218899,2019,0.23981625,0.017217651,0.82333446
krcwiki,0.04728329,0.1844,0.25051513,0.36112925,0.8586156,2019,0.17672925,0.04728329,0.62622297
lmowiki,0.015298285,0.27694255,0.32426134,0.3757107,0.9025743,2019,0.098768145,0.12879042,0.52386284
nlwiki,0.026201336,0.2426067,0.27921045,0.41234827,0.98731786,2019,0.16974157,0.026201336,0.6669605
omwiki,0.010450718,0.14986137,0.2611223,0.3265838,0.8194669,2019,0.17672244,0.010450718,0.5916673
sewiki,0.0212714,0.17689304,0.24384263,0.3267251,0.862394,2019,0.14983205,0.0212714,0.551473
idwiki,0.0035549395,0.26605326,0.32774743,0.45770213,0.98732716,2019,0.19164887,0.0035549395,0.74517524
tetwiki,0.021992669,0.23150505,0.37435836,0.46301734,0.81206316,2019,0.2315123,0.021992669,0.81028557
bclwiki,0.027366403,0.17073308,0.25045,0.32349417,0.8250921,2019,0.15276109,0.027366403,0.55263567
vepwiki,0.119061045,0.28021023,0.38566273,0.505063,0.960395,2019,0.22485277,0.119061045,0.8423419
vlswiki,0.06301821,0.26970243,0.3267811,0.3884493,0.88833153,2019,0.11874688,0.09158224,0.5665695
bjnwiki,0.016286267,0.21228355,0.2713599,0.32614207,0.90797085,2019,0.11385852,0.041495875,0.49692976
lijwiki,0.03747299,0.17720467,0.23645161,0.2975453,0.7775123,2019,0.120340645,0.03747299,0.47805616
mswiki,0.00395,0.26822883,0.33937484,0.42949194,0.9729049,2019,0.16126311,0.026334316,0.6713865
xalwiki,0.0212714,0.17917445,0.2485476,0.3944772,0.8682677,2019,0.21530274,0.0212714,0.71743107
zawiki,0.02303226,0.14973347,0.17497817,0.22546956,0.87336695,2019,0.07573609,0.036129408,0.33907363
mrjwiki,0.046572536,0.17549141,0.21684906,0.31313294,0.8562976,2019,0.13764153,0.046572536,0.51959515
zeawiki,0.050630793,0.27568102,0.3435717,0.36736435,0.9272907,2019,0.09168333,0.13815612,0.50488925
bat_smgwiki,0.06772839,0.17250784,0.23049498,0.24428774,0.8000817,2019,0.07177991,0.06772839,0.35195753
sqwiki,0.017755488,0.22819564,0.31093246,0.38853005,0.9293254,2019,0.16033441,0.017755488,0.62903154
srnwiki,0.02765,0.22729267,0.25143844,0.33996505,0.6635178,2019,0.11267237,0.058284223,0.5089735
chrwiki,0.03304807,0.27712503,0.3346285,0.4048644,0.8582629,2019,0.12773937,0.085516095,0.59647334
angwiki,0.025598926,0.19192432,0.25030357,0.33453652,0.8957575,2019,0.1426122,0.025598926,0.5484547
barwiki,0.04990409,0.29618004,0.35691854,0.4440471,0.93552536,2019,0.14786705,0.07437959,0.66584754
bowiki,0.01290986,0.11605827,0.17380878,0.32093412,0.80472654,2019,0.20487586,0.01290986,0.62824774
rmywiki,0.03466111,0.21779709,0.23381266,0.29315478,0.7737947,2019,0.07535769,0.104760624,0.40619123
eewiki,0.024026912,0.1984558,0.24716407,0.30790806,0.7803714,2019,0.10945226,0.034277514,0.47208634
wowiki,0.021992669,0.18074092,0.25236648,0.36108375,0.8797675,2019,0.18034282,0.021992669,0.6315978
bswiki,0.014801561,0.31087416,0.39762965,0.5639055,0.96059024,2019,0.2530313,0.014801561,0.94345224
hifwiki,0.02765,0.1997043,0.29193926,0.35463774,0.90546525,2019,0.15493344,0.02765,0.58703774
pamwiki,0.029026454,0.25832486,0.3173072,0.43583184,0.89424264,2019,0.17750698,0.029026454,0.7020922
srwiki,0.0021916076,0.33877915,0.42830375,0.5075255,0.98386997,2019,0.16874635,0.08565977,0.7606449
yiwiki,0.018527143,0.22761649,0.28995413,0.35936525,0.8865052,2019,0.13174877,0.02999346,0.5569883
hsbwiki,0.032089952,0.3144125,0.37677217,0.44547805,0.8736227,2019,0.13106555,0.1178143,0.64207625
lfnwiki,0.0376806,0.19761194,0.2724607,0.3565818,0.9260959,2019,0.15896986,0.0376806,0.59503645
zh_classicalwiki,0.015298285,0.17788333,0.23507254,0.30168518,0.8977554,2019,0.12380186,0.015298285,0.48738784
gomwiki,0.008645298,0.24860477,0.33021694,0.45548764,0.93876404,2019,0.20688286,0.008645298,0.76581174
hawiki,0.011952401,0.15378384,0.17680961,0.23013447,0.84672076,2019,0.07635063,0.039257973,0.34466034
tiwiki,0.006841601,0.08372456,0.1261211,0.18985268,0.6570899,2019,0.10612813,0.006841601,0.34904477
hiwiki,0.010973848,0.24655026,0.33761388,0.40496856,0.96179795,2019,0.1584183,0.010973848,0.6425959
inhwiki,0.011172287,0.2216909,0.3143164,0.39160022,0.8284611,2019,0.16990933,0.011172287,0.64646405
adywiki,0.022344574,0.14089738,0.22832102,0.36435625,0.66298556,2019,0.22345887,0.022344574,0.66298556
jawiki,0.0043821484,0.2904657,0.36593726,0.47016573,0.9917276,2019,0.17970002,0.020915866,0.7397156
scnwiki,0.024667742,0.15311106,0.21197687,0.32018757,0.9251667,2019,0.16707651,0.024667742,0.5708022
bxrwiki,0.025996026,0.23034367,0.32921562,0.4567277,0.92118543,2019,0.22638404,0.025996026,0.7963036
tswiki,0.06758041,0.25315428,0.30559066,0.4158502,0.8256168,2019,0.16269591,0.06758041,0.65989393
kabwiki,0.019350968,0.14187522,0.19858724,0.29893762,0.8745412,2019,0.1570624,0.019350968,0.53453106
nywiki,0.027079836,0.1721908,0.25048408,0.40576586,0.8292569,2019,0.23357506,0.027079836,0.7561282
cvwiki,0.012490997,0.30172676,0.38915756,0.46262968,0.93833894,2019,0.16090292,0.06037253,0.7039839
map_bmswiki,0.017664937,0.16221666,0.19003372,0.27415213,0.894888,2019,0.11193547,0.017664937,0.44205523
olowiki,0.02163504,0.21520756,0.27725676,0.30488914,0.83300644,2019,0.08968158,0.08068527,0.43941143
tkwiki,0.0158,0.1709408,0.19313961,0.25770438,0.83727646,2019,0.086763576,0.04079552,0.38784966
abwiki,0.018101174,0.18557976,0.18885966,0.188978,0.8309804,2019,0.0033982396,0.1804824,0.19407536
pswiki,0.0034692946,0.17419723,0.25241533,0.33210856,0.8890941,2019,0.15791133,0.0034692946,0.5689754
zuwiki,0.013683202,0.1794235,0.2544843,0.37565586,0.86415297,2019,0.19623236,0.013683202,0.67000425
iswiki,0.03598621,0.24750146,0.30765593,0.40323916,0.9349525,2019,0.1557377,0.03598621,0.6368456
itwiki,0.0027814158,0.26157203,0.3475214,0.46808144,0.9819582,2019,0.20650941,0.0027814158,0.7778454
vowiki,0.020524802,0.19081281,0.22328398,0.30617246,0.85118395,2019,0.11535965,0.020524802,0.4792118
frrwiki,0.011172287,0.2677945,0.32855445,0.41080716,0.90762955,2019,0.14301267,0.053275615,0.62532604
lvwiki,0.007403867,0.29455125,0.38629723,0.4947739,0.96227205,2019,0.20022264,0.007403867,0.79510766
nawiki,0.013100668,0.16362563,0.23639992,0.308526,0.794945,2019,0.14490038,0.013100668,0.52587646
eowiki,0.028483855,0.28769347,0.3465547,0.43689394,0.96296287,2019,0.14920047,0.063892916,0.6606945
cowiki,0.020141127,0.22286186,0.2707752,0.33706346,0.85674375,2019,0.114201605,0.051559553,0.50836575
rmwiki,0.038025483,0.15830979,0.21167031,0.30172616,0.92016226,2019,0.14341637,0.038025483,0.5168506
huwiki,0.017103627,0.27070335,0.3549368,0.45169672,0.9665586,2019,0.18099338,0.017103627,0.7231866
bpywiki,0.025598926,0.2914666,0.35722783,0.3745085,0.82435465,2019,0.08304191,0.16690382,0.49907127
nvwiki,0.021992669,0.29889825,0.35266194,0.3741124,0.8484994,2019,0.07521415,0.1860771,0.48693353
tawiki,0.015368005,0.3276487,0.42644456,0.4896963,0.9906985,2019,0.1620476,0.084577456,0.7327675
cdowiki,0.0456,0.18666176,0.20545101,0.2523519,0.8092785,2019,0.065690145,0.08812661,0.35088706
jvwiki,0.03059657,0.25523603,0.315664,0.42041725,0.9694242,2019,0.16518122,0.03059657,0.6681889
bhwiki,0.03555,0.25293055,0.33601955,0.41260704,0.8977834,2019,0.15967649,0.03555,0.65212166
htwiki,0.01185,0.21913797,0.29343656,0.33722782,0.8201985,2019,0.118089855,0.042003304,0.51436245
pagwiki,0.026497405,0.054088123,0.16299331,0.24799344,0.72536886,2019,0.19390532,0.026497405,0.53885126
atjwiki,0.113866925,0.1869945,0.2601201,0.2965756,0.6005843,2019,0.10958111,0.113866925,0.46094716
crwiki,0.03059657,0.12569733,0.17484592,0.19649695,0.7562935,2019,0.07079962,0.03059657,0.30269632
mdfwiki,0.03135215,0.14518613,0.21908535,0.3045411,0.68299586,2019,0.15935498,0.03135215,0.54357344
mznwiki,0.014241927,0.26198018,0.29368055,0.334273,0.93260014,2019,0.072292835,0.153541,0.4427122
pntwiki,0.034208003,0.17178003,0.31809255,0.42072263,0.7753579,2019,0.2489426,0.034208003,0.7753579
fywiki,0.040136613,0.25540224,0.32973894,0.42922258,0.91196936,2019,0.17382035,0.040136613,0.68995297
lnwiki,0.022344574,0.18057206,0.23939638,0.30090448,0.8055409,2019,0.12033242,0.022344574,0.481403
alswiki,0.04574193,0.33165166,0.4082226,0.49997061,0.9368398,2019,0.16831896,0.079173386,0.7524489
sawiki,0.02053166,0.24663036,0.35904944,0.40990984,0.8210045,2019,0.16327949,0.02053166,0.6548289
bnwiki,0.044248816,0.30604142,0.39861345,0.50280124,0.94120586,2019,0.19675982,0.044248816,0.7979408
hywiki,0.012019996,0.28204516,0.33887854,0.44381526,0.9669722,2019,0.1617701,0.039390147,0.68647027
ltwiki,0.01975,0.27190667,0.35665938,0.44859588,0.9534527,2019,0.17668921,0.01975,0.7136295
arzwiki,0.006841601,0.27510208,0.28040108,0.4021663,0.92570126,2019,0.12706423,0.084505856,0.59276253
gotwiki,0.021992669,0.17753841,0.22522737,0.28150982,0.68927795,2019,0.10397141,0.021992669,0.43746683
hywwiki,0.014669387,0.27421284,0.34624976,0.46134767,0.9085207,2019,0.18713483,0.014669387,0.74204975
iewiki,0.03184592,0.21265996,0.276698,0.31610104,0.813629,2019,0.10344109,0.057498425,0.47126257
kgwiki,0.01185,0.15870267,0.19810444,0.23492272,0.7449287,2019,0.07622005,0.04437267,0.34925273
awawiki,0.015298285,0.029821847,0.116859466,0.15661584,0.747,2019,0.126794,0.015298285,0.3468067
mwlwiki,0.02306292,0.18126735,0.26746377,0.40167552,0.95564514,2019,0.22040817,0.02306292,0.7322875
glkwiki,0.024667742,0.16203076,0.17831962,0.25369614,0.88004065,2019,0.09166539,0.024667742,0.39119413
siwiki,0.007897452,0.15711369,0.26439494,0.40033698,0.94466484,2019,0.2432233,0.007897452,0.76517165
nrmwiki,0.02163504,0.2615662,0.32865745,0.38544548,0.7047422,2019,0.12387928,0.075747386,0.57126427
ptwiki,0.008604602,0.26803455,0.33986396,0.45037553,0.9803091,2019,0.18234098,0.008604602,0.72388685
dawiki,0.017245138,0.28535175,0.3568164,0.45635104,0.9736867,2019,0.17099929,0.02885297,0.71284986
gagwiki,0.014241927,0.18486324,0.24533379,0.31440082,0.7776667,2019,0.12953758,0.014241927,0.50870705
bewiki,0.044843446,0.29075733,0.34018153,0.46100557,0.9727536,2019,0.17024824,0.044843446,0.71637774
ffwiki,0.019350968,0.16477294,0.22055091,0.32047814,0.7550027,2019,0.1557052,0.019350968,0.5540358
lowiki,0.020141127,0.1456271,0.22227651,0.33860677,0.9106187,2019,0.19297968,0.020141127,0.6280761
scowiki,0.022691023,0.31335598,0.41091746,0.5175396,0.9641583,2019,0.20418364,0.022691023,0.82381487
slwiki,0.013566613,0.27035457,0.3448095,0.42389947,0.94317627,2019,0.1535449,0.040037364,0.65421665
fawiki,0.013683202,0.3266364,0.38232315,0.46323198,0.9948366,2019,0.13659558,0.12174317,0.6681252
nsowiki,0.020901436,0.19974215,0.22437431,0.31654525,0.7905135,2019,0.116803095,0.024537623,0.49174976
pflwiki,0.06772581,0.33280495,0.35134026,0.38845077,0.9208011,2019,0.055645823,0.24933627,0.47191945
diqwiki,0.041366402,0.18978973,0.24503705,0.31256577,0.8960685,2019,0.12277605,0.041366402,0.49672973
tumwiki,0.028208643,0.16383848,0.21608007,0.21739882,0.68617404,2019,0.053560346,0.08349801,0.2977393
acewiki,0.032332145,0.22073875,0.2967988,0.30723464,0.90362203,2019,0.08649589,0.090995,0.4369784
dtywiki,0.01975,0.21354398,0.28850728,0.42399973,0.8713615,2019,0.21045575,0.01975,0.73968315
frwiki,0.0025815812,0.2819783,0.36190775,0.4676098,0.9777611,2019,0.18563148,0.0035312474,0.74605685
anwiki,0.071065515,0.31096944,0.379861,0.462274,0.95844215,2019,0.15130454,0.08401278,0.6892307
kawiki,0.05095913,0.29814115,0.3631778,0.4617648,0.98285997,2019,0.16362366,0.05270581,0.70720017
kbpwiki,0.06056981,0.2377581,0.30451432,0.35447735,0.71371365,2019,0.116719246,0.062679335,0.5295561
zhwiki,0.0078917695,0.23690823,0.30995956,0.42569458,0.99693954,2019,0.18878636,0.0078917695,0.7088739
mtwiki,0.028643364,0.24605729,0.32959276,0.4331759,0.93705946,2019,0.1871186,0.028643364,0.7138536
yowiki,0.0158,0.19241272,0.19259001,0.21831991,0.87556165,2019,0.025907189,0.15355197,0.25718066
miwiki,0.029559093,0.21241891,0.27566788,0.33792838,0.77434576,2019,0.12550947,0.029559093,0.5261925
svwiki,0.018943535,0.41696805,0.43689325,0.49110654,0.998,2019,0.07413849,0.30576038,0.60231423
viwiki,0.024981994,0.346692,0.35913488,0.40870038,0.998,2019,0.06200838,0.25367948,0.5017129
euwiki,0.056140047,0.2531163,0.3396309,0.38567337,0.95409685,2019,0.13255706,0.056140047,0.58450884
lgwiki,0.013683202,0.120717585,0.16509867,0.23497513,0.8197648,2019,0.114257544,0.013683202,0.40636134
novwiki,0.0615643,0.22264393,0.2814232,0.34830615,0.77268845,2019,0.12566222,0.0615643,0.5367994
sgwiki,0.017217651,0.20587406,0.26749605,0.31975403,0.6623258,2019,0.11387998,0.035054192,0.49057388
klwiki,0.014241927,0.18162982,0.23040111,0.3023415,0.7250275,2019,0.12071167,0.014241927,0.48340887
astwiki,0.037803624,0.2926753,0.38093328,0.5070701,0.9678753,2019,0.21439484,0.037803624,0.82866216
kbdwiki,0.012490997,0.2485327,0.38367632,0.47280988,0.912854,2019,0.22427718,0.012490997,0.80922544
vecwiki,0.05089219,0.31021813,0.33898973,0.44255778,0.9694224,2019,0.13233966,0.11170876,0.64106715
vewiki,0.030082304,0.16917248,0.213174,0.25767475,0.68856466,2019,0.08850227,0.036419153,0.39042807
dewiki,0.004063418,0.31064084,0.40270758,0.506579,0.9924406,2019,0.19593814,0.016733825,0.80048597
jbowiki,0.02303226,0.19244385,0.26657942,0.35228494,0.76597977,2019,0.15984109,0.02303226,0.59204644
test2wiki,0.003890169,0.09369978,0.21480809,0.3166944,0.8781284,2019,0.22299463,0.003890169,0.6511861
wawiki,0.023368515,0.19523592,0.27777106,0.35040525,0.89700717,2019,0.15516932,0.023368515,0.5831591
eswiki,0.006095435,0.309485,0.38370234,0.48844764,0.9768101,2019,0.17896265,0.041041195,0.7568914
fiu_vrowiki,0.05299481,0.16251914,0.207804,0.30310944,0.7281741,2019,0.1405903,0.05299481,0.51399475
arwiki,0.016402917,0.31833822,0.3670318,0.4376097,0.998,2019,0.11927149,0.1394311,0.6165168
kswiki,0.013683202,0.0980496,0.15675415,0.19595535,0.5005136,2019,0.09790575,0.013683202,0.34281388
orwiki,0.013683202,0.28919736,0.39175457,0.49933493,0.83709025,2019,0.21013758,0.013683202,0.8145411
piwiki,0.015298285,0.08738205,0.28458947,0.2846702,0.7378631,2019,0.19728816,0.015298285,0.5806023
thwiki,0.006875846,0.26981238,0.3599866,0.47106355,0.9660309,2019,0.20125118,0.006875846,0.77294016
gcrwiki,0.028756434,0.16204885,0.18380947,0.24864055,0.77869153,2019,0.086591706,0.03216137,0.37852803
pihwiki,0.015298285,0.1855064,0.23347975,0.31616578,0.8212572,2019,0.13065937,0.015298285,0.5121547
scwiki,0.0237,0.19817686,0.2588616,0.34315598,0.92266554,2019,0.14497912,0.0237,0.56062454
mkwiki,0.036175933,0.2696125,0.3438682,0.47894,0.951354,2019,0.20932752,0.036175933,0.7929311
skwiki,0.036831293,0.25755894,0.35836437,0.45018262,0.97466666,2019,0.19262367,0.036831293,0.739118
ladwiki,0.05089219,0.28156102,0.35998264,0.4559974,0.92914957,2019,0.17443639,0.05089219,0.71765184
lldwiki,0.03184592,0.163502,0.20751297,0.28334025,0.77441293,2019,0.11983825,0.03184592,0.4630975
ltgwiki,0.047891203,0.21819937,0.27954516,0.40163,0.81387764,2019,0.18343064,0.047891203,0.6767758
nqowiki,0.0135950735,0.13271356,0.24340746,0.38388816,0.6887683,2019,0.2511746,0.0135950735,0.6887683
afwiki,0.010384228,0.30267972,0.3593254,0.44323757,0.9411535,2019,0.14055786,0.09184307,0.6540742
gnwiki,0.04165,0.20441005,0.2694364,0.38154227,0.82485634,2019,0.17713222,0.04165,0.6472404
mrwiki,0.022691023,0.20004632,0.27341297,0.36316678,0.94602984,2019,0.16312046,0.022691023,0.60784733
sdwiki,0.009675484,0.19210961,0.22317995,0.31985527,0.868918,2019,0.12774566,0.009675484,0.51147366
simplewiki,0.0079,0.27666327,0.38087517,0.48238632,0.9670167,2019,0.20572305,0.0079,0.7909707
jamwiki,0.03304807,0.15965833,0.21498464,0.28921258,0.898602,2019,0.12955426,0.03304807,0.48354384
kiwiki,0.018943535,0.14847931,0.18800382,0.19425356,0.549262,2019,0.04577425,0.07981798,0.2629149
ttwiki,0.009675484,0.30426934,0.4008711,0.4360836,0.998,2019,0.13181427,0.106548056,0.6338049
tywiki,0.0504172,0.15333027,0.2096926,0.2674673,0.62625235,2019,0.11413702,0.0504172,0.43867272
biwiki,0.029293984,0.1687786,0.18272935,0.24183308,0.5843005,2019,0.07305448,0.05919695,0.35141474
bgwiki,0.014086818,0.3221144,0.39256638,0.50346965,0.96186703,2019,0.18135524,0.05008173,0.7755023
lawiki,0.08043859,0.313382,0.35663044,0.42044196,0.9627515,2019,0.107059956,0.15279217,0.5810318
kywiki,0.00395,0.22819701,0.28013375,0.39813167,0.99327946,2019,0.16993466,0.00395,0.6530335
dsbwiki,0.03555,0.2818818,0.34481835,0.42753586,0.84702206,2019,0.14565405,0.063400865,0.64601684
cebwiki,0.0158,0.40290967,0.46849486,0.55590737,0.91179657,2019,0.1529977,0.17341326,0.7854038
udmwiki,0.050275292,0.19616157,0.25746933,0.3522578,0.86229646,2019,0.15609622,0.050275292,0.58640194
newiki,0.042907983,0.26376274,0.35770586,0.45504236,0.93648696,2019,0.19127962,0.042907983,0.7419616
newwiki,0.010450718,0.2754854,0.30931646,0.33423853,0.8609205,2019,0.058753133,0.18735576,0.42236817
rnwiki,0.026201336,0.157709,0.16688931,0.20149152,0.656088,2019,0.043782517,0.09203527,0.26716524
roa_rupwiki,0.03788707,0.16873734,0.20956807,0.26948684,0.83897895,2019,0.10074951,0.03788707,0.42061102
satwiki,0.016469555,0.32159358,0.40412518,0.50228286,0.8667574,2019,0.18068928,0.05055985,0.7733166
zh_min_nanwiki,0.032811165,0.22658312,0.28839517,0.3756463,0.91868573,2019,0.14906317,0.032811165,0.5992409
be_x_oldwiki,0.09675194,0.27267185,0.33273497,0.42685544,0.8904349,2019,0.1541836,0.09675194,0.6581307
iawiki,0.012490997,0.14620744,0.16113144,0.21334893,0.87347806,2019,0.06714149,0.04549527,0.3140611
gawiki,0.01185,0.1971798,0.25017136,0.32954112,0.9076306,2019,0.13236132,0.01185,0.52808297
kuwiki,0.013683202,0.17973867,0.27464622,0.34695303,0.97698313,2019,0.16721436,0.013683202,0.5977744
trwiki,0.0079278005,0.2971263,0.38403308,0.46265265,0.9812942,2019,0.16552636,0.048836917,0.71094203
mgwiki,0.0158,0.24962983,0.27820945,0.31470796,0.92481506,2019,0.06507814,0.15201268,0.4123251
aswiki,0.04506451,0.32138607,0.4182718,0.53109926,0.9321778,2019,0.20971319,0.04506451,0.84566885
cbk_zamwiki,0.022691023,0.22577621,0.25950864,0.2693815,0.89884335,2019,0.043605283,0.16036832,0.33478937
gdwiki,0.037054285,0.22123224,0.30687854,0.3915306,0.8763685,2019,0.17029837,0.037054285,0.646978
sahwiki,0.015298285,0.20715795,0.28729102,0.3734677,0.8925495,2019,0.16630976,0.015298285,0.6229322
avkwiki,0.038499836,0.27462885,0.2871985,0.36680412,0.7766117,2019,0.092175275,0.13636602,0.50506693
csbwiki,0.045724556,0.20607746,0.25094572,0.29332018,0.7769959,2019,0.08724272,0.07521346,0.42418417
cywiki,0.04066774,0.31739375,0.35871506,0.45561913,0.94762576,2019,0.13822538,0.11005582,0.6629571
smwiki,0.022344574,0.15082942,0.19875748,0.29387754,0.81618685,2019,0.14304812,0.022344574,0.50844955
tlwiki,0.038450524,0.2517009,0.3531492,0.44975972,0.9718361,2019,0.19805881,0.038450524,0.74684775
twwiki,0.029559093,0.21344534,0.22071084,0.27099037,0.7774278,2019,0.057545036,0.12712783,0.35730788
swwiki,0.031102331,0.2591783,0.30118588,0.34720454,0.93030155,2019,0.088026226,0.12713906,0.4792438
amwiki,0.013683202,0.17422915,0.24141955,0.2620331,0.8781473,2019,0.08780396,0.042523295,0.39373896
crhwiki,0.035329875,0.23356569,0.28356197,0.28701624,0.7759935,2019,0.053450555,0.1533899,0.36719203
elwiki,0.005443921,0.2773756,0.36032322,0.47282118,0.955689,2019,0.19544557,0.005443921,0.7659893
gvwiki,0.025598926,0.26047617,0.3307707,0.4217632,0.8517093,2019,0.16128704,0.025598926,0.6636936
mnwwiki,0.022622213,0.23437402,0.31829327,0.4315762,0.8499832,2019,0.19720218,0.022622213,0.72737926
kmwiki,0.008859283,0.1595989,0.24151342,0.3434984,0.89305186,2019,0.1838995,0.008859283,0.61934745
mnwiki,0.02806197,0.24054101,0.34108362,0.4584932,0.94761574,2019,0.21795219,0.02806197,0.78542125
glwiki,0.027869977,0.27895394,0.35226205,0.46169245,0.9485906,2019,0.18273851,0.027869977,0.7358
oswiki,0.03747299,0.19700058,0.2724479,0.33634037,0.85992223,2019,0.13933979,0.03747299,0.54534996
ndswiki,0.034885455,0.16446897,0.25072825,0.37856275,0.947536,2019,0.21409377,0.034885455,0.6997032
xmfwiki,0.012490997,0.23432584,0.30482692,0.39233243,0.9009483,2019,0.1580066,0.012490997,0.6293422
ganwiki,0.013100668,0.1484204,0.17753667,0.20643547,0.7979319,2019,0.05801508,0.06139783,0.29345804
kaawiki,0.041989077,0.1711082,0.22474879,0.2799585,0.7505002,2019,0.108850285,0.041989077,0.44323382
quwiki,0.026201336,0.25258368,0.3398314,0.45325565,0.8897128,2019,0.20067197,0.026201336,0.7542634
hawwiki,0.029821847,0.17665404,0.18844114,0.2763352,0.85090405,2019,0.09968117,0.029821847,0.4258569
sowiki,0.00395,0.16133372,0.26574758,0.38711563,0.9948144,2019,0.2257819,0.00395,0.72578824
towiki,0.046569813,0.18794532,0.2284093,0.34237224,0.652,2019,0.15442692,0.046569813,0.57401246
sswiki,0.024981994,0.2781776,0.36790645,0.39673018,0.8978105,2019,0.118552595,0.100348815,0.574559
pawiki,0.025598926,0.29586014,0.37567124,0.49216577,0.9779561,2019,0.19630563,0.025598926,0.7866241
uzwiki,0.018943535,0.26252666,0.30144626,0.33836767,0.97417825,2019,0.07584101,0.14876522,0.45212913
knwiki,0.009878567,0.188906,0.26927152,0.37605882,0.95125836,2019,0.18715282,0.009878567,0.6567879
urwiki,0.009675484,0.32087487,0.35974652,0.42919937,0.998,2019,0.1083245,0.15838823,0.591686
xhwiki,0.021992669,0.16298555,0.21742947,0.3456909,0.83066475,2019,0.18270536,0.021992669,0.6197488
lezwiki,0.053453017,0.27487758,0.37311912,0.4585465,0.9241801,2019,0.18366891,0.053453017,0.7340497
akwiki,0.017664937,0.15039057,0.2447537,0.33585814,0.7831848,2019,0.18546757,0.017664937,0.6140593
kwwiki,0.025598926,0.22830097,0.29266086,0.32446986,0.7158767,2019,0.09616889,0.084047735,0.46872312
nowiki,0.031592213,0.31092852,0.3775528,0.46955374,0.9811404,2019,0.15862522,0.07299085,0.7074914
tyvwiki,0.010855101,0.22181842,0.2891848,0.40879261,0.92056227,2019,0.1869742,0.010855101,0.68925375
aywiki,0.023368515,0.26356867,0.3787417,0.45895275,0.8958232,2019,0.19538409,0.023368515,0.7520287
ruewiki,0.014241927,0.16088706,0.24506871,0.35504946,0.8182563,2019,0.1941624,0.014241927,0.64629287
chwiki,0.026201336,0.17847905,0.21113855,0.26354617,0.5697503,2019,0.08506712,0.050878435,0.39114678
ilowiki,0.05147299,0.3059092,0.38725698,0.47782183,0.91847986,2019,0.17191264,0.05147299,0.7356906
myvwiki,0.02529234,0.25255638,0.32511857,0.42848903,0.8741491,2019,0.17593265,0.02529234,0.6923878
mlwiki,0.01196628,0.31084028,0.39723733,0.50429153,0.9606859,2019,0.19345126,0.02066359,0.7944682
snwiki,0.021992669,0.1834569,0.24546607,0.2912355,0.82323474,2019,0.10777861,0.021992669,0.45290333
cuwiki,0.030082304,0.24272676,0.32057986,0.39109677,0.82625663,2019,0.14837001,0.030082304,0.61365163
szlwiki,0.046401992,0.369804,0.37497038,0.40253845,0.9531975,2019,0.032734454,0.32070234,0.4516401
arcwiki,0.020141127,0.15655018,0.20151535,0.25797743,0.6125404,2019,0.10142724,0.020141127,0.4101182
dzwiki,0.017664937,0.14825451,0.21829957,0.27008435,0.71286327,2019,0.12182984,0.017664937,0.452829
banwiki,0.07679678,0.21870057,0.26453522,0.32757542,0.8034417,2019,0.10887484,0.07679678,0.49088758
koiwiki,0.026497405,0.21706143,0.27453005,0.3442237,0.7921293,2019,0.12716228,0.026497405,0.534967
plwiki,0.004780938,0.28878227,0.37327757,0.4860434,0.991298,2019,0.19726112,0.004780938,0.78193486
extwiki,0.024349436,0.19538988,0.2717685,0.38637525,0.9002778,2019,0.19098537,0.024349436,0.6728531
mhrwiki,0.028483855,0.22982626,0.29875562,0.41134214,0.819897,2019,0.18151589,0.028483855,0.6836158
roa_tarawiki,0.05745,0.29768535,0.31012106,0.36463794,0.9680297,2019,0.066952586,0.19725654,0.46506676
wuuwiki,0.017664937,0.095534906,0.1231967,0.24860188,0.95237863,2019,0.15306698,0.017664937,0.47820222
cawiki,0.013549758,0.29098678,0.37753534,0.47920582,0.9718937,2019,0.18821904,0.013549758,0.7615342
minwiki,0.016286267,0.24329521,0.27564752,0.30068952,0.9510682,2019,0.05739431,0.1572038,0.38678092
napwiki,0.027930718,0.2110992,0.3356509,0.38529104,0.85001874,2019,0.17419183,0.027930718,0.6465786
lbwiki,0.040475454,0.25486273,0.32223177,0.40623483,0.89580643,2019,0.1513721,0.040475454,0.63329285
maiwiki,0.0212714,0.2687108,0.35964593,0.44259033,0.8663194,2019,0.17387953,0.0212714,0.70340943
hewiki,0.003107838,0.3019993,0.37339228,0.45741785,0.92545104,2019,0.15541855,0.06887163,0.6905455
nahwiki,0.018943535,0.21045797,0.28065878,0.3003008,0.8817771,2019,0.08984284,0.075693786,0.43506497
iuwiki,0.01185,0.09172581,0.15806375,0.20549059,0.747,2019,0.11376478,0.01185,0.37613764
tcywiki,0.016286267,0.24084787,0.33710834,0.44271076,0.8438331,2019,0.20186289,0.016286267,0.74550486
kowiki,0.00395,0.2444132,0.3352952,0.43846086,0.98172146,2019,0.19404766,0.00395,0.7295321
rowiki,0.017878432,0.29614925,0.3572458,0.46064597,0.9658566,2019,0.16449672,0.049404338,0.7073909
azwiki,0.007655855,0.2779321,0.3733003,0.49017954,0.984,2019,0.21224743,0.007655855,0.8085505
emlwiki,0.032332145,0.25282672,0.3383882,0.3882662,0.91095346,2019,0.13543949,0.049667627,0.5914253
avwiki,0.01185,0.18030767,0.265655,0.35371602,0.86519337,2019,0.17340834,0.01185,0.61382836
fjwiki,0.03351686,0.15896717,0.18165232,0.22961967,0.76776814,2019,0.0706525,0.052988485,0.33559835
pmswiki,0.030850487,0.21502838,0.22638805,0.30185592,0.8522309,2019,0.08682755,0.084787145,0.43209714
furwiki,0.02765,0.21123734,0.25679272,0.32154816,0.7482844,2019,0.11031082,0.04577121,0.4870143
pnbwiki,0.0031839947,0.22660576,0.28556132,0.37100366,0.96434015,2019,0.1443979,0.01000905,0.58760035
tewiki,0.007430329,0.32539797,0.4784703,0.5192053,0.95062846,2019,0.1938073,0.03468719,0.809916
fiwiki,0.0120881675,0.33818504,0.41633976,0.5189822,0.9862483,2019,0.18079713,0.06698951,0.7901777
lbewiki,0.031102331,0.1612916,0.19932862,0.28449222,0.84373724,2019,0.123200625,0.031102331,0.46929306
