wiki_db,user_is_anonymous_or_bot,threshold,precision,recall,accuracy,fpr,F1
afwiki,True,0.0,0.09266535690897185,1.0,0.09266535690897185,1.0,0.16961342523224454
afwiki,True,1.0,0.09266535690897185,1.0,0.09266535690897185,1.0,0.16961342523224454
afwiki,True,2.0,0.09329373917347192,0.9991166077738516,0.10011460379829731,0.991699747383616,0.17065258393059227
afwiki,True,3.0,0.09414982793611577,0.9425795053003534,0.15430582842174198,0.9261999278238903,0.17119935820296833
afwiki,True,4.0,0.09434467971053337,0.9328621908127208,0.1639652914210871,0.9145615301335258,0.17135902636916836
afwiki,True,5.0,0.09461883408071749,0.9319787985865724,0.1673215455140799,0.9107722843738723,0.17179612440970524
afwiki,True,6.0,0.0948058950395399,0.9319787985865724,0.16912246234446626,0.9087874413569108,0.17210440456769985
afwiki,True,7.0,0.09497659344616492,0.9319787985865724,0.17075965946299934,0.9069830386142187,0.17238562091503268
afwiki,True,8.0,0.09533706849810229,0.9319787985865724,0.1741977734119188,0.9031937928545651,0.17297917691424824
afwiki,True,9.0,0.09610129349608308,0.9319787985865724,0.18140144073346431,0.8952544207867196,0.17423616845582168
afwiki,True,10.0,0.09775551845668708,0.931095406360424,0.1972822527832351,0.877661494045471,0.1769346986738291
afwiki,True,11.0,0.10087256688081311,0.9293286219081273,0.2258513425016372,0.8459942259112234,0.1819911772338033
afwiki,True,12.0,0.1058147737579361,0.9275618374558304,0.2669449901768173,0.8005232767953807,0.18995929443690635
afwiki,True,13.0,0.11160809371671991,0.9257950530035336,0.310248853962017,0.7526163839769037,0.19920167268580116
afwiki,True,14.0,0.11864791288566243,0.9240282685512368,0.3569089718402096,0.7010104655359076,0.2102935263369521
afwiki,True,15.0,0.12708257327009606,0.9231448763250883,0.40528814669286184,0.6476001443522195,0.2234099412079102
afwiki,True,16.0,0.13710526315789473,0.9204946996466431,0.45579567779960706,0.5916636593287622,0.23866239120476407
afwiki,True,17.0,0.14751310755278446,0.9196113074204947,0.5000818598559267,0.5427643450018044,0.25424349737452684
afwiki,True,18.0,0.15881993274228065,0.9178445229681979,0.5419122462344467,0.4964814146517503,0.2707844670315351
afwiki,True,19.0,0.16968806140780662,0.9178445229681979,0.5762115258677145,0.45867917719234935,0.28642315644383187
afwiki,True,20.0,0.1801457827143353,0.9169611307420494,0.6055992141453831,0.42619992782389027,0.30113141862489123
afwiki,True,21.0,0.18992673992673992,0.916077738515901,0.6301571709233792,0.39904366654637313,0.31462378640776695
afwiki,True,22.0,0.19919246298788695,0.9151943462897526,0.6511951538965292,0.37576687116564417,0.32717511447970943
afwiki,True,23.0,0.2085939076054065,0.9134275618374559,0.670841519318926,0.3539335979790689,0.3396288388898013
afwiki,True,24.0,0.21846608916120855,0.9134275618374559,0.6891781270464964,0.33372428726091663,0.35260017050298387
afwiki,True,25.0,0.22708287535722138,0.9125441696113075,0.7040766208251473,0.3172140021652833,0.3636683682450273
afwiki,True,26.0,0.23503981797497156,0.9125441696113075,0.716683038637852,0.3033201010465536,0.37380133888185274
afwiki,True,27.0,0.24356856266226104,0.911660777385159,0.7294531761624099,0.2891555395164201,0.3844291301918421
afwiki,True,28.0,0.2495159728944821,0.9107773851590106,0.7378847413228553,0.2797726452544208,0.3917173252279636
afwiki,True,29.0,0.25596421471172964,0.9098939929328622,0.7465618860510805,0.2701190905810177,0.39953452288595814
afwiki,True,30.0,0.2619532044760936,0.9098939929328622,0.7540929927963327,0.26181883796463373,0.4067930489731437
afwiki,True,31.0,0.2669777086573354,0.9098939929328622,0.760150622134905,0.25514254781667267,0.4128256513026051
afwiki,True,32.0,0.27255887801005557,0.9098939929328622,0.7666175507531107,0.2480151569830386,0.4194665037670535
afwiki,True,33.0,0.2777777777777778,0.9098939929328622,0.7724296005239031,0.2416095272464814,0.42561983471074377
afwiki,True,34.0,0.2821144891810463,0.9098939929328622,0.7770956123117223,0.23646697942980874,0.43069203428810376
afwiki,True,35.0,0.2863509749303621,0.9081272084805654,0.7817616240995415,0.23114399133886684,0.4354087251164761
afwiki,True,36.0,0.2906417868249929,0.9081272084805654,0.7861001964636543,0.2263623240707326,0.44035125294495614
afwiki,True,37.0,0.2947247706422018,0.9081272084805654,0.7901113294040603,0.22194153735113678,0.445021645021645
afwiki,True,38.0,0.2982303452277343,0.9081272084805654,0.793467583497053,0.21824251172861783,0.44900633326053724
afwiki,True,39.0,0.3016152716593245,0.907243816254417,0.7967419777341191,0.21454348610609889,0.45272206303724927
afwiki,True,40.0,0.3048382309290591,0.907243816254417,0.7996889325474787,0.21129556116925297,0.45634303488113753
afwiki,True,41.0,0.3083158210747523,0.907243816254417,0.8027996070726916,0.20786719595813785,0.4602285458211965
afwiki,True,42.0,0.31177899210686094,0.907243816254417,0.8058284217419778,0.20452905088415735,0.46407591504744683
afwiki,True,43.0,0.31432076050291324,0.9054770318021201,0.8082023575638507,0.20173222663298448,0.4666514910084225
afwiki,True,44.0,0.3170429941231055,0.9054770318021201,0.810494433529797,0.19920606279321545,0.4696449026345934
afwiki,True,45.0,0.31911581569115816,0.9054770318021201,0.8122134905042567,0.19731143991338868,0.471915285451197
afwiki,True,46.0,0.3222257151839044,0.9054770318021201,0.8147511460379829,0.1945146156622158,0.475307210758173
afwiki,True,47.0,0.3258033725739739,0.9045936395759717,0.8176981008513425,0.19117647058823528,0.47906432748538014
afwiki,True,48.0,0.3308562197092084,0.9045936395759717,0.8216273739358219,0.18684590400577408,0.484504376626449
afwiki,True,49.0,0.3345323741007194,0.9037102473498233,0.8244924688932548,0.1835979790689282,0.48830548926014317
afwiki,True,50.0,0.336734693877551,0.9037102473498233,0.8261296660117878,0.18179357632623602,0.49064748201438846
afwiki,True,51.0,0.340093085106383,0.9037102473498233,0.8285854616895875,0.17908697221219777,0.4942028985507246
afwiki,True,52.0,0.34328859060402683,0.9037102473498233,0.8308775376555337,0.1765608083724287,0.49756809338521396
afwiki,True,53.0,0.34537474679270763,0.9037102473498233,0.8323510150622135,0.17493684590400577,0.4997557401074744
afwiki,True,54.0,0.3478408704522271,0.9037102473498233,0.8340700720366732,0.173042223024179,0.5023324330959981
afwiki,True,55.0,0.35,0.9028268551236749,0.8356254092992796,0.17123782028148682,0.5044422507403751
afwiki,True,56.0,0.35290055248618785,0.9028268551236749,0.8375900458415193,0.16907253699025623,0.5074478649453823
afwiki,True,57.0,0.35547826086956524,0.9028268551236749,0.839309102815979,0.16717791411042945,0.5101073122036436
afwiki,True,58.0,0.35721775602936034,0.9028268551236749,0.8404551407989522,0.16591483219054493,0.5118958176809416
afwiki,True,59.0,0.35925404644616465,0.9019434628975265,0.8418467583497053,0.16429086972212198,0.5138399597382989
afwiki,True,60.0,0.3616719801629472,0.9019434628975265,0.8434020956123117,0.16257668711656442,0.5163084702907712
afwiki,True,61.0,0.3628917378917379,0.9001766784452296,0.8443025540275049,0.1614038253338145,0.5172588832487309
afwiki,True,62.0,0.3656609195402299,0.8992932862190812,0.8461034708578913,0.1593287621797185,0.5199182839632278
afwiki,True,63.0,0.36857349746560464,0.8992932862190812,0.8479043876882777,0.15734391916275714,0.5228556753980483
afwiki,True,64.0,0.3712618526622903,0.8992932862190812,0.8495415848068107,0.15553951642006497,0.5255549819308207
afwiki,True,65.0,0.3734409391049156,0.8992932862190812,0.8508513425016372,0.15409599422591122,0.5277345775012959
afwiki,True,66.0,0.3754152823920266,0.8984098939929329,0.852079240340537,0.1526524720317575,0.5295495964592555
afwiki,True,67.0,0.376903082064612,0.8966431095406361,0.8530615586116569,0.15138939011187297,0.5307189542483659
afwiki,True,68.0,0.37888431299138897,0.8939929328621908,0.8543713163064833,0.1496752075063154,0.5322114120431238
afwiki,True,69.0,0.38272072754831377,0.892226148409894,0.8566633922724296,0.14696860339227716,0.5356669318483162
afwiki,True,70.0,0.3861196319018405,0.8895759717314488,0.8587098886705959,0.14444243955250813,0.5385026737967914
afwiki,True,71.0,0.3894491854150504,0.8869257950530035,0.8606745252128356,0.14200649584987368,0.5412398921832884
afwiki,True,72.0,0.3924646781789639,0.8833922261484098,0.862475442043222,0.13966077228437387,0.5434782608695652
afwiki,True,73.0,0.3960987261146497,0.8789752650176679,0.864603798297315,0.136863948033201,0.5461031833150385
afwiki,True,74.0,0.3995943204868154,0.8701413427561837,0.8668140144073346,0.1335258029592205,0.5476786210731166
afwiki,True,75.0,0.4035449299258038,0.8648409893992933,0.8690242305173543,0.13054853843377842,0.5503091624508151
afwiki,True,76.0,0.4067725752508361,0.8595406360424028,0.8708251473477406,0.1280223745940094,0.5522133938706016
afwiki,True,77.0,0.4094588836812953,0.848939929328622,0.8725442043222004,0.1250451100685673,0.5524576027594137
afwiki,True,78.0,0.41604559403770275,0.838339222614841,0.8759823182711198,0.12017322266329845,0.5561089950190449
afwiki,True,79.0,0.41998191681735986,0.8206713780918727,0.8783562540929928,0.11575243594370263,0.555622009569378
afwiki,True,80.0,0.42531409958120053,0.8074204946996466,0.8810576293385723,0.11142186936124143,0.5571472112160926
afwiki,True,81.0,0.4359726295210166,0.7879858657243817,0.8858873608382449,0.10411403825333815,0.5613593455003146
afwiki,True,82.0,0.44841886988076723,0.7641342756183745,0.8910445317616241,0.09599422591122339,0.5651747794838288
afwiki,True,83.0,0.4608648056923919,0.7438162544169611,0.8956286836935167,0.08886683507758932,0.569111186211558
afwiki,True,84.0,0.47593896713615025,0.7164310954063604,0.9006221349050426,0.08056658246120534,0.5719322990126939
afwiki,True,85.0,0.49246231155778897,0.6925795053003534,0.9053700065487885,0.07289787080476362,0.5756240822320117
afwiki,True,86.0,0.5105946684894054,0.6598939929328622,0.9098722986247544,0.06459761818837964,0.5757225433526012
afwiki,True,87.0,0.5255366395262768,0.627208480565371,0.9129829731499672,0.05783110790328401,0.5718888441401531
afwiki,True,88.0,0.5478119935170178,0.5971731448763251,0.9169941060903732,0.05034283652111151,0.5714285714285715
afwiki,True,89.0,0.5700440528634361,0.5715547703180212,0.920350360183366,0.04402742692168892,0.5707984119982354
afwiki,True,90.0,0.5927734375,0.5362190812720848,0.9228880157170923,0.03762179718513172,0.5630797773654916
afwiki,True,91.0,0.6245919477693145,0.5070671378091873,0.9260805500982319,0.031125947311439913,0.5597269624573379
afwiki,True,92.0,0.6615581098339719,0.4575971731448763,0.9280451866404715,0.023908336340671237,0.5409921671018276
afwiki,True,93.0,0.725609756097561,0.4204946996466431,0.9315651604453176,0.01623962468422952,0.5324384787472036
afwiki,True,94.0,0.7829313543599258,0.37279151943462896,0.9323018991486575,0.010555756044749188,0.5050867743865948
afwiki,True,95.0,0.8208616780045351,0.3197879858657244,0.9305009823182712,0.007127390833634067,0.4602670057215512
afwiki,True,96.0,0.8661202185792349,0.28003533568904593,0.9292730844793713,0.004420786719595814,0.42323097463284376
afwiki,True,97.0,0.9047619047619048,0.23498233215547704,0.9268172888015717,0.0025261638397690365,0.3730715287517532
afwiki,True,98.0,0.9511111111111111,0.18904593639575973,0.9239521938441388,0.000992421508480693,0.3154016212232867
afwiki,True,99.0,0.9772727272727273,0.11395759717314488,0.9176489849377865,0.00027066041140382533,0.20411392405063292
afwiki,False,0.0,0.03591689383334561,1.0,0.03591689383334561,1.0,0.06934319547669002
afwiki,False,1.0,0.035931453841901606,1.0,0.03632211007146541,0.9995796874402965,0.06937033084311633
afwiki,False,2.0,0.036603688539984226,0.9994871794871795,0.05514624622412142,0.9800351534140843,0.07062105949706501
afwiki,False,3.0,0.0370166397860037,0.9651282051282051,0.09695719443011862,0.9353864965037637,0.07129868161842703
afwiki,False,4.0,0.03870043000477783,0.9553846153846154,0.14604361600235763,0.8841083642199381,0.07438759008964044
afwiki,False,5.0,0.04085053820363508,0.9497435897435897,0.19726663228468283,0.8307668793702954,0.07833185297974031
afwiki,False,6.0,0.0430165125649207,0.9471794871794872,0.24126943196050984,0.7850292308280158,0.08229554213914943
afwiki,False,7.0,0.04494106090373281,0.9384615384615385,0.2814779341339424,0.7429979748576668,0.08577454886337003
afwiki,False,8.0,0.047179805183060745,0.9364102564102564,0.3184815442422456,0.7045393756447976,0.08983346862470173
afwiki,False,9.0,0.04943234287576729,0.9333333333333333,0.35298018124217195,0.6686408620228497,0.09389186958316137
afwiki,False,10.0,0.05169858641130871,0.9302564102564103,0.38462388565534517,0.6357036414351763,0.09795345321021653
afwiki,False,11.0,0.054153680172620476,0.9266666666666666,0.41604656302954396,0.6029765771273548,0.10232742510900958
afwiki,False,12.0,0.05651774688914923,0.9153846153846154,0.4481139026007515,0.5692942570020252,0.10646229087764293
afwiki,False,13.0,0.05950984007778187,0.9102564102564102,0.48008914757238635,0.5359367238546483,0.11171602102149353
afwiki,False,14.0,0.06283617710967834,0.9046153846153846,0.511990716864363,0.5026365060563219,0.11750990906971322
afwiki,False,15.0,0.06660850434320828,0.9005128205128206,0.5431923671995874,0.470119598028352,0.12404195952389362
afwiki,False,16.0,0.07031345038725112,0.8892307692307693,0.5737309364178884,0.4380230025600856,0.1303220472736838
afwiki,False,17.0,0.07445887445887446,0.882051282051282,0.6019671406468725,0.4084673875663903,0.1373253493013972
afwiki,False,18.0,0.07851392615897104,0.8702564102564102,0.6284903853238046,0.3805166023461083,0.14403327109149552
afwiki,False,19.0,0.08299694791769223,0.8646153846153846,0.6520297649745819,0.3558901073707539,0.15145526410348545
afwiki,False,20.0,0.08747909698996656,0.8584615384615385,0.6732851985559567,0.333613541706469,0.158778336336906
afwiki,False,21.0,0.09156719717064545,0.8497435897435898,0.6918146319899801,0.31406900768025675,0.16531976454155442
afwiki,False,22.0,0.09579929988331388,0.8420512820512821,0.7088705518308407,0.29609109319475757,0.172027239392352
afwiki,False,23.0,0.1003880027098602,0.8358974358974359,0.7250607824357179,0.2790684345267663,0.17924891405949306
afwiki,False,24.0,0.10529732537003375,0.8317948717948718,0.7401090400058941,0.26330671353788543,0.1869309669240521
afwiki,False,25.0,0.11019849418206708,0.8256410256410256,0.7542916083400869,0.24836651255206144,0.19444444444444445
afwiki,False,26.0,0.11579251136281654,0.823076923076923,0.7679031901569292,0.23415230598754347,0.20302321168806528
afwiki,False,27.0,0.12054045847882192,0.8143589743589743,0.7799307448611214,0.2213518780329372,0.20999735519703783
afwiki,False,28.0,0.12550639447136389,0.8102564102564103,0.7904111102924924,0.21032822589889572,0.21734644748607193
afwiki,False,29.0,0.13034081463009145,0.8041025641025641,0.8002652324467693,0.199877727255359,0.22432045779685264
afwiki,False,30.0,0.1357273280584297,0.8005128205128205,0.8097509762027555,0.1899048565205762,0.2321017024756524
afwiki,False,31.0,0.14139027714675148,0.7979487179487179,0.81870257128122,0.18052424439264836,0.24021613276727133
afwiki,False,32.0,0.14638531415594247,0.7933333333333333,0.8264200987254108,0.17234725459478048,0.247164083719444
afwiki,False,33.0,0.15153603781016148,0.7892307692307692,0.8337139910115671,0.16462878758931643,0.2542540888815463
afwiki,False,34.0,0.15728834482049173,0.7841025641025641,0.8413578427760996,0.15650911314049903,0.2620169651272385
afwiki,False,35.0,0.16211020931225972,0.7784615384615384,0.8475281809474693,0.14989874288334415,0.26834010959872723
afwiki,False,36.0,0.16733067729083664,0.7753846153846153,0.8533485596404626,0.1437468954185931,0.2752594210813763
afwiki,False,37.0,0.171939477303989,0.7692307692307693,0.8586532085758491,0.13801536051354552,0.2810567734682406
afwiki,False,38.0,0.17694592988710636,0.7635897435897436,0.863939438591321,0.13232203584119828,0.2873130728412928
afwiki,False,39.0,0.18247815922234528,0.7605128205128205,0.869023060487733,0.12693439303045356,0.2943336310409844
afwiki,False,40.0,0.18730198960841465,0.757948717948718,0.8731857363884182,0.12252111115356693,0.3003759780510111
afwiki,False,41.0,0.1927916120576671,0.7543589743589744,0.8777352096073087,0.11766841160062665,0.30709812108559503
afwiki,False,42.0,0.1975692099932478,0.7502564102564102,0.8815847638694467,0.11352260135264224,0.3127739176910743
afwiki,False,43.0,0.20266889074228525,0.7476923076923077,0.8852869667722685,0.10958694738450957,0.3188976377952756
afwiki,False,44.0,0.20797598627787306,0.7461538461538462,0.8888233993958594,0.10586144969622865,0.32528504359490273
afwiki,False,45.0,0.21368776619180496,0.7461538461538462,0.8922677374198777,0.102288792938749,0.33222970658750994
afwiki,False,46.0,0.21953432113698215,0.7446153846153846,0.8957489132837251,0.09862061059951856,0.33909388136384866
afwiki,False,47.0,0.22547492992837123,0.7425641025641025,0.8991379945479997,0.09502884872568874,0.3459149546106068
afwiki,False,48.0,0.2316936388399295,0.7415384615384616,0.9023981433728726,0.09160903289901036,0.3530704431693322
afwiki,False,49.0,0.2371932136386098,0.7384615384615385,0.9053083327193694,0.08847579381758434,0.35905747413040767
afwiki,False,50.0,0.24225067385444743,0.7374358974358974,0.9077212112281736,0.08593481334301326,0.36469693127060615
afwiki,False,51.0,0.24796818260418468,0.7353846153846154,0.9103919546157814,0.08308815100683963,0.3708780550885814
afwiki,False,52.0,0.25449688334817455,0.7328205128205129,0.913302143962278,0.07997401704176378,0.377792465300727
afwiki,False,53.0,0.26051188299817185,0.7307692307692307,0.9158255359905695,0.07728019563639142,0.38409703504043125
afwiki,False,54.0,0.2667167543200601,0.7282051282051282,0.9183305090989464,0.07458637423101906,0.3904316744569701
afwiki,False,55.0,0.27216772456241584,0.7256410256410256,0.9204486848891181,0.07229376026900004,0.39585956077773116
afwiki,False,56.0,0.2773851590106007,0.7246153846153847,0.9223089958004863,0.07032593328493371,0.40119250425894376
afwiki,False,57.0,0.2821077940292527,0.7220512820512821,0.9240219553525382,0.06845363188261816,0.40570522979397783
afwiki,False,58.0,0.2864721485411141,0.72,0.9255323067855301,0.06681059187650452,0.4098671726755218
afwiki,False,59.0,0.29112081513828236,0.717948717948718,0.9270794960583512,0.06512934163769057,0.4142624648616659
afwiki,False,60.0,0.2965005302226935,0.7169230769230769,0.9287371988506594,0.06337167093347598,0.4195048762190547
afwiki,False,61.0,0.3010590015128593,0.7143589743589743,0.9301738746039933,0.061785946276412824,0.4235973848259085
afwiki,False,62.0,0.30638391870996246,0.7112820512820512,0.9317947395564724,0.05999006533949792,0.42828469970665434
afwiki,False,63.0,0.31234428086070215,0.7071794871794872,0.9335629558682679,0.05800313323908143,0.43330714846818535
afwiki,False,64.0,0.31743837825385857,0.7066666666666667,0.9348891181021145,0.05660845974551985,0.4380861548243523
afwiki,False,65.0,0.3220736570490265,0.7041025641025641,0.9361416046563029,0.055213786251958274,0.44197650088524065
afwiki,False,66.0,0.326555023923445,0.7,0.9373756722905768,0.05378090252569638,0.4453507340946167
afwiki,False,67.0,0.3320331545587518,0.6984615384615385,0.9387018345244235,0.05234801879943449,0.4500991407799074
afwiki,False,68.0,0.33714285714285713,0.6958974358974359,0.9399359021586974,0.05097245042222307,0.45422594142259415
afwiki,False,69.0,0.3440203562340967,0.6933333333333334,0.941501510351433,0.0492529899507088,0.45986394557823135
afwiki,False,70.0,0.34950443401147624,0.6871794871794872,0.9428276725852796,0.04764816017729548,0.46334716459197783
afwiki,False,71.0,0.35482152370804476,0.683076923076923,0.9440064834598099,0.04627259180008406,0.46704067321178117
afwiki,False,72.0,0.35980418819689963,0.6784615384615384,0.9450931997347676,0.044973443888273276,0.4702328061133819
afwiki,False,73.0,0.36442093541202675,0.6712820512820513,0.9461430781698961,0.04361698062741202,0.4723926380368098
afwiki,False,74.0,0.36902376180933294,0.661025641025641,0.9472297944448538,0.042107676435749496,0.47363586257578544
afwiki,False,75.0,0.3741536649985281,0.6517948717948718,0.9483349296397259,0.040617477360437124,0.47540677015148675
afwiki,False,76.0,0.3788199697428139,0.642051282051282,0.9493295513151109,0.03922280386687555,0.47649857278782115
afwiki,False,77.0,0.38468720821662,0.6338461538461538,0.9504346865099831,0.0377708150242635,0.4787914003486345
afwiki,False,78.0,0.39415584415584415,0.6225641025641026,0.9520739703823767,0.035650147109395895,0.4827037773359842
afwiki,False,79.0,0.4006756756756757,0.6082051282051282,0.953252781256907,0.03389247640518131,0.4830957230142566
afwiki,False,80.0,0.4064245810055866,0.5969230769230769,0.9542105650924629,0.03247869779526957,0.48358953053593684
afwiki,False,81.0,0.4177401545822598,0.5820512820512821,0.9558498489648567,0.03022429406595086,0.48639382901221345
afwiki,False,82.0,0.4298554122704181,0.5641025641025641,0.9574707139173358,0.027874364754881358,0.48791306276336216
afwiki,False,83.0,0.44273858921161824,0.5471794871794872,0.9589994842702424,0.025658171258262964,0.48944954128440366
afwiki,False,84.0,0.45811051693404636,0.5271794871794871,0.9606203492227215,0.023231821481792824,0.4902241297091082
afwiki,False,85.0,0.4736590038314176,0.5071794871794871,0.9620570249760554,0.02099652286882427,0.4898464586428925
afwiki,False,86.0,0.4898384575299635,0.48205128205128206,0.9633647682899875,0.018703908906805244,0.485913672783665
afwiki,False,87.0,0.5082339579784213,0.45897435897435895,0.9646172548441759,0.016545030759237325,0.48234977095122605
afwiki,False,88.0,0.5316614420062696,0.4348717948717949,0.9659434170780226,0.014271521913568454,0.4784203102961918
afwiki,False,89.0,0.5527045769764216,0.4087179487179487,0.9668827819936638,0.012322800045852279,0.4699292452830189
afwiki,False,90.0,0.5726495726495726,0.3779487179487179,0.9675274441906727,0.010507813992587215,0.4553599011430336
afwiki,False,91.0,0.6081560283687943,0.3517948717948718,0.9685773226258012,0.008444461426770088,0.4457439896036387
afwiki,False,92.0,0.645877378435518,0.31333333333333335,0.9691667280630664,0.006400213977303122,0.4219613259668509
afwiki,False,93.0,0.7135483870967742,0.2835897435897436,0.9701797686583659,0.004241335829735203,0.4058715596330275
afwiki,False,94.0,0.768352365415987,0.24153846153846154,0.9701429308185368,0.0027129265217225172,0.3675380413577839
afwiki,False,95.0,0.8136645962732919,0.20153846153846153,0.9696640389007588,0.0017194604715142715,0.32305795314426633
afwiki,False,96.0,0.8618925831202046,0.17282051282051283,0.9692956605024682,0.001031676282908563,0.2879111490815891
afwiki,False,97.0,0.9032258064516129,0.14358974358974358,0.9686878361452884,0.0005731534905047572,0.247787610619469
afwiki,False,98.0,0.9491525423728814,0.11487179487179487,0.967987917188536,0.00022926139620190288,0.20494053064958828
afwiki,False,99.0,0.9777777777777777,0.06769230769230769,0.9664591468356296,5.731534905047572e-05,0.12661870503597122
