wiki_db,user_is_anonymous_or_bot,threshold,precision,recall,accuracy,fpr,F1
angwiki,True,0.0,0.047058823529411764,1.0,0.047058823529411764,1.0,0.0898876404494382
angwiki,True,1.0,0.047058823529411764,1.0,0.047058823529411764,1.0,0.0898876404494382
angwiki,True,2.0,0.047058823529411764,1.0,0.047058823529411764,1.0,0.0898876404494382
angwiki,True,3.0,0.047058823529411764,1.0,0.047058823529411764,1.0,0.0898876404494382
angwiki,True,4.0,0.047058823529411764,1.0,0.047058823529411764,1.0,0.0898876404494382
angwiki,True,5.0,0.047058823529411764,1.0,0.047058823529411764,1.0,0.0898876404494382
angwiki,True,6.0,0.047058823529411764,1.0,0.047058823529411764,1.0,0.0898876404494382
angwiki,True,7.0,0.047058823529411764,1.0,0.047058823529411764,1.0,0.0898876404494382
angwiki,True,8.0,0.047058823529411764,1.0,0.047058823529411764,1.0,0.0898876404494382
angwiki,True,9.0,0.047058823529411764,1.0,0.047058823529411764,1.0,0.0898876404494382
angwiki,True,10.0,0.047058823529411764,1.0,0.047058823529411764,1.0,0.0898876404494382
angwiki,True,11.0,0.047058823529411764,1.0,0.047058823529411764,1.0,0.0898876404494382
angwiki,True,12.0,0.047058823529411764,1.0,0.047058823529411764,1.0,0.0898876404494382
angwiki,True,13.0,0.047058823529411764,1.0,0.047058823529411764,1.0,0.0898876404494382
angwiki,True,14.0,0.047337278106508875,1.0,0.052941176470588235,0.9938271604938271,0.0903954802259887
angwiki,True,15.0,0.047337278106508875,1.0,0.052941176470588235,0.9938271604938271,0.0903954802259887
angwiki,True,16.0,0.047337278106508875,1.0,0.052941176470588235,0.9938271604938271,0.0903954802259887
angwiki,True,17.0,0.047337278106508875,1.0,0.052941176470588235,0.9938271604938271,0.0903954802259887
angwiki,True,18.0,0.047337278106508875,1.0,0.052941176470588235,0.9938271604938271,0.0903954802259887
angwiki,True,19.0,0.047337278106508875,1.0,0.052941176470588235,0.9938271604938271,0.0903954802259887
angwiki,True,20.0,0.047619047619047616,1.0,0.058823529411764705,0.9876543209876543,0.0909090909090909
angwiki,True,21.0,0.047619047619047616,1.0,0.058823529411764705,0.9876543209876543,0.0909090909090909
angwiki,True,22.0,0.047619047619047616,1.0,0.058823529411764705,0.9876543209876543,0.0909090909090909
angwiki,True,23.0,0.047619047619047616,1.0,0.058823529411764705,0.9876543209876543,0.0909090909090909
angwiki,True,24.0,0.047619047619047616,1.0,0.058823529411764705,0.9876543209876543,0.0909090909090909
angwiki,True,25.0,0.047619047619047616,1.0,0.058823529411764705,0.9876543209876543,0.0909090909090909
angwiki,True,26.0,0.047619047619047616,1.0,0.058823529411764705,0.9876543209876543,0.0909090909090909
angwiki,True,27.0,0.047619047619047616,1.0,0.058823529411764705,0.9876543209876543,0.0909090909090909
angwiki,True,28.0,0.047619047619047616,1.0,0.058823529411764705,0.9876543209876543,0.0909090909090909
angwiki,True,29.0,0.04790419161676647,1.0,0.06470588235294118,0.9814814814814815,0.09142857142857144
angwiki,True,30.0,0.04790419161676647,1.0,0.06470588235294118,0.9814814814814815,0.09142857142857144
angwiki,True,31.0,0.04790419161676647,1.0,0.06470588235294118,0.9814814814814815,0.09142857142857144
angwiki,True,32.0,0.04819277108433735,1.0,0.07058823529411765,0.9753086419753086,0.09195402298850576
angwiki,True,33.0,0.048484848484848485,1.0,0.07647058823529412,0.9691358024691358,0.09248554913294797
angwiki,True,34.0,0.048484848484848485,1.0,0.07647058823529412,0.9691358024691358,0.09248554913294797
angwiki,True,35.0,0.04878048780487805,1.0,0.08235294117647059,0.9629629629629629,0.09302325581395349
angwiki,True,36.0,0.049689440993788817,1.0,0.1,0.9444444444444444,0.09467455621301774
angwiki,True,37.0,0.050314465408805034,1.0,0.11176470588235295,0.9320987654320988,0.09580838323353294
angwiki,True,38.0,0.050955414012738856,1.0,0.12352941176470589,0.9197530864197531,0.09696969696969697
angwiki,True,39.0,0.052980132450331126,1.0,0.1588235294117647,0.8827160493827161,0.10062893081761005
angwiki,True,40.0,0.05405405405405406,1.0,0.17647058823529413,0.8641975308641975,0.10256410256410257
angwiki,True,41.0,0.0547945205479452,1.0,0.18823529411764706,0.8518518518518519,0.10389610389610389
angwiki,True,42.0,0.05517241379310345,1.0,0.19411764705882353,0.845679012345679,0.1045751633986928
angwiki,True,43.0,0.055944055944055944,1.0,0.20588235294117646,0.8333333333333334,0.10596026490066224
angwiki,True,44.0,0.056338028169014086,1.0,0.21176470588235294,0.8271604938271605,0.10666666666666667
angwiki,True,45.0,0.05755395683453238,1.0,0.22941176470588234,0.808641975308642,0.10884353741496598
angwiki,True,46.0,0.05755395683453238,1.0,0.22941176470588234,0.808641975308642,0.10884353741496598
angwiki,True,47.0,0.05755395683453238,1.0,0.22941176470588234,0.808641975308642,0.10884353741496598
angwiki,True,48.0,0.051470588235294115,0.875,0.23529411764705882,0.7962962962962963,0.09722222222222222
angwiki,True,49.0,0.05185185185185185,0.875,0.2411764705882353,0.7901234567901234,0.0979020979020979
angwiki,True,50.0,0.05303030303030303,0.875,0.25882352941176473,0.7716049382716049,0.1
angwiki,True,51.0,0.05384615384615385,0.875,0.27058823529411763,0.7592592592592593,0.10144927536231883
angwiki,True,52.0,0.05555555555555555,0.875,0.29411764705882354,0.7345679012345679,0.10447761194029849
angwiki,True,53.0,0.05737704918032787,0.875,0.3176470588235294,0.7098765432098766,0.1076923076923077
angwiki,True,54.0,0.05785123966942149,0.875,0.3235294117647059,0.7037037037037037,0.10852713178294573
angwiki,True,55.0,0.058333333333333334,0.875,0.32941176470588235,0.6975308641975309,0.109375
angwiki,True,56.0,0.058823529411764705,0.875,0.3352941176470588,0.691358024691358,0.11023622047244094
angwiki,True,57.0,0.058823529411764705,0.875,0.3352941176470588,0.691358024691358,0.11023622047244094
angwiki,True,58.0,0.059322033898305086,0.875,0.3411764705882353,0.6851851851851852,0.11111111111111112
angwiki,True,59.0,0.059322033898305086,0.875,0.3411764705882353,0.6851851851851852,0.11111111111111112
angwiki,True,60.0,0.059322033898305086,0.875,0.3411764705882353,0.6851851851851852,0.11111111111111112
angwiki,True,61.0,0.059322033898305086,0.875,0.3411764705882353,0.6851851851851852,0.11111111111111112
angwiki,True,62.0,0.059322033898305086,0.875,0.3411764705882353,0.6851851851851852,0.11111111111111112
angwiki,True,63.0,0.0603448275862069,0.875,0.35294117647058826,0.6728395061728395,0.11290322580645162
angwiki,True,64.0,0.0603448275862069,0.875,0.35294117647058826,0.6728395061728395,0.11290322580645162
angwiki,True,65.0,0.06086956521739131,0.875,0.3588235294117647,0.6666666666666666,0.11382113821138212
angwiki,True,66.0,0.06140350877192982,0.875,0.36470588235294116,0.6604938271604939,0.11475409836065574
angwiki,True,67.0,0.06140350877192982,0.875,0.36470588235294116,0.6604938271604939,0.11475409836065574
angwiki,True,68.0,0.06140350877192982,0.875,0.36470588235294116,0.6604938271604939,0.11475409836065574
angwiki,True,69.0,0.0625,0.875,0.3764705882352941,0.6481481481481481,0.11666666666666667
angwiki,True,70.0,0.06363636363636363,0.875,0.38823529411764707,0.6358024691358025,0.11864406779661017
angwiki,True,71.0,0.06422018348623854,0.875,0.3941176470588235,0.6296296296296297,0.11965811965811966
angwiki,True,72.0,0.06422018348623854,0.875,0.3941176470588235,0.6296296296296297,0.11965811965811966
angwiki,True,73.0,0.06422018348623854,0.875,0.3941176470588235,0.6296296296296297,0.11965811965811966
angwiki,True,74.0,0.06481481481481481,0.875,0.4,0.6234567901234568,0.12068965517241378
angwiki,True,75.0,0.0660377358490566,0.875,0.4117647058823529,0.6111111111111112,0.12280701754385966
angwiki,True,76.0,0.057692307692307696,0.75,0.4117647058823529,0.6049382716049383,0.10714285714285714
angwiki,True,77.0,0.06,0.75,0.43529411764705883,0.5802469135802469,0.1111111111111111
angwiki,True,78.0,0.061855670103092786,0.75,0.45294117647058824,0.5617283950617284,0.1142857142857143
angwiki,True,79.0,0.06451612903225806,0.75,0.4764705882352941,0.5370370370370371,0.11881188118811882
angwiki,True,80.0,0.06896551724137931,0.75,0.5117647058823529,0.5,0.12631578947368421
angwiki,True,81.0,0.07228915662650602,0.75,0.5352941176470588,0.47530864197530864,0.13186813186813184
angwiki,True,82.0,0.07894736842105263,0.75,0.5764705882352941,0.43209876543209874,0.14285714285714285
angwiki,True,83.0,0.08333333333333333,0.75,0.6,0.4074074074074074,0.15
angwiki,True,84.0,0.08064516129032258,0.625,0.6470588235294118,0.35185185185185186,0.14285714285714285
angwiki,True,85.0,0.08,0.5,0.7058823529411765,0.2839506172839506,0.13793103448275865
angwiki,True,86.0,0.0975609756097561,0.5,0.7588235294117647,0.22839506172839505,0.163265306122449
angwiki,True,87.0,0.10810810810810811,0.5,0.7823529411764706,0.2037037037037037,0.17777777777777778
angwiki,True,88.0,0.08823529411764706,0.375,0.788235294117647,0.19135802469135801,0.14285714285714285
angwiki,True,89.0,0.07142857142857142,0.25,0.8117647058823529,0.16049382716049382,0.11111111111111112
angwiki,True,90.0,0.08333333333333333,0.25,0.8352941176470589,0.13580246913580246,0.125
angwiki,True,91.0,0.0,0.0,0.8529411764705882,0.10493827160493827,0.125
angwiki,True,92.0,0.0,0.0,0.8647058823529412,0.09259259259259259,0.125
angwiki,True,93.0,0.0,0.0,0.888235294117647,0.06790123456790123,0.125
angwiki,True,94.0,0.0,0.0,0.9176470588235294,0.037037037037037035,0.125
angwiki,True,95.0,0.0,0.0,0.9411764705882353,0.012345679012345678,0.125
angwiki,True,96.0,0.0,0.0,0.9470588235294117,0.006172839506172839,0.125
angwiki,True,97.0,0.0,0.0,0.9529411764705882,0.0,0.125
angwiki,True,98.0,0.0,0.0,0.9529411764705882,0.0,0.125
angwiki,True,99.0,0.0,0.0,0.9529411764705882,0.0,0.125
angwiki,False,0.0,0.03720238095238095,1.0,0.03720238095238095,1.0,0.07173601147776183
angwiki,False,1.0,0.03720238095238095,1.0,0.03720238095238095,1.0,0.07173601147776183
angwiki,False,2.0,0.03753753753753754,1.0,0.046130952380952384,0.990726429675425,0.0723589001447178
angwiki,False,3.0,0.037993920972644375,1.0,0.05803571428571429,0.9783616692426584,0.07320644216691069
angwiki,False,4.0,0.038461538461538464,1.0,0.06994047619047619,0.9659969088098919,0.07407407407407407
angwiki,False,5.0,0.03943217665615142,1.0,0.09375,0.9412673879443586,0.07587253414264036
angwiki,False,6.0,0.03987240829346093,1.0,0.10416666666666667,0.9304482225656878,0.07668711656441718
angwiki,False,7.0,0.04084967320261438,1.0,0.12648809523809523,0.9072642967542504,0.07849293563579278
angwiki,False,8.0,0.04215851602023609,1.0,0.15476190476190477,0.8778979907264297,0.08090614886731393
angwiki,False,9.0,0.04088586030664395,0.96,0.16071428571428573,0.8701700154559505,0.07843137254901959
angwiki,False,10.0,0.041379310344827586,0.96,0.17113095238095238,0.8593508500772797,0.0793388429752066
angwiki,False,11.0,0.04173913043478261,0.96,0.17857142857142858,0.8516228748068007,0.08
angwiki,False,12.0,0.04262877442273535,0.96,0.19642857142857142,0.8330757341576507,0.08163265306122448
angwiki,False,13.0,0.0433996383363472,0.96,0.2113095238095238,0.8176197836166924,0.08304498269896193
angwiki,False,14.0,0.04181818181818182,0.92,0.21279761904761904,0.8145285935085008,0.08
angwiki,False,15.0,0.04212454212454213,0.92,0.21875,0.8083462132921174,0.08056042031523644
angwiki,False,16.0,0.04259259259259259,0.92,0.22767857142857142,0.7990726429675425,0.08141592920353981
angwiki,False,17.0,0.04331450094161959,0.92,0.24107142857142858,0.7851622874806801,0.08273381294964029
angwiki,False,18.0,0.04397705544933078,0.92,0.25297619047619047,0.7727975270479135,0.08394160583941605
angwiki,False,19.0,0.04238921001926782,0.88,0.25595238095238093,0.768160741885626,0.08088235294117646
angwiki,False,20.0,0.043052837573385516,0.88,0.26785714285714285,0.7557959814528593,0.08208955223880597
angwiki,False,21.0,0.041584158415841586,0.84,0.27380952380952384,0.7480680061823802,0.07924528301886793
angwiki,False,22.0,0.04233870967741935,0.84,0.28720238095238093,0.7341576506955177,0.08061420345489442
angwiki,False,23.0,0.042682926829268296,0.84,0.2931547619047619,0.7279752704791345,0.08123791102514508
angwiki,False,24.0,0.04329896907216495,0.84,0.30357142857142855,0.7171561051004637,0.08235294117647059
angwiki,False,25.0,0.04365904365904366,0.84,0.30952380952380953,0.7109737248840804,0.08300395256916995
angwiki,False,26.0,0.044967880085653104,0.84,0.33035714285714285,0.6893353941267388,0.08536585365853659
angwiki,False,27.0,0.0437636761487965,0.8,0.34226190476190477,0.6754250386398764,0.08298755186721991
angwiki,False,28.0,0.044642857142857144,0.8,0.3556547619047619,0.6615146831530139,0.08456659619450319
angwiki,False,29.0,0.04524886877828054,0.8,0.3645833333333333,0.652241112828439,0.08565310492505354
angwiki,False,30.0,0.043478260869565216,0.76,0.36904761904761907,0.6460587326120556,0.08225108225108224
angwiki,False,31.0,0.04470588235294118,0.76,0.3869047619047619,0.6275115919629057,0.08444444444444445
angwiki,False,32.0,0.04578313253012048,0.76,0.4017857142857143,0.6120556414219475,0.08636363636363636
angwiki,False,33.0,0.04611650485436893,0.76,0.40625,0.60741885625966,0.08695652173913043
angwiki,False,34.0,0.04411764705882353,0.72,0.40922619047619047,0.6027820710973725,0.08314087759815245
angwiki,False,35.0,0.04455445544554455,0.72,0.41517857142857145,0.5965996908809892,0.08391608391608392
angwiki,False,36.0,0.045112781954887216,0.72,0.4226190476190476,0.58887171561051,0.08490566037735849
angwiki,False,37.0,0.04580152671755725,0.72,0.43154761904761907,0.5795981452859351,0.0861244019138756
angwiki,False,38.0,0.046753246753246755,0.72,0.44345238095238093,0.5672333848531684,0.0878048780487805
angwiki,False,39.0,0.04825737265415549,0.72,0.46130952380952384,0.5486862442040186,0.09045226130653267
angwiki,False,40.0,0.04891304347826087,0.72,0.46875,0.5409582689335394,0.0916030534351145
angwiki,False,41.0,0.049586776859504134,0.72,0.47619047619047616,0.5332302936630603,0.09278350515463918
angwiki,False,42.0,0.05013927576601671,0.72,0.48214285714285715,0.527047913446677,0.09375
angwiki,False,43.0,0.05070422535211268,0.72,0.4880952380952381,0.5208655332302936,0.09473684210526315
angwiki,False,44.0,0.05113636363636364,0.72,0.49255952380952384,0.5162287480680062,0.09549071618037136
angwiki,False,45.0,0.05217391304347826,0.72,0.5029761904761905,0.5054095826893354,0.09729729729729727
angwiki,False,46.0,0.049707602339181284,0.68,0.5044642857142857,0.5023183925811437,0.09264305177111717
angwiki,False,47.0,0.04985337243401759,0.68,0.5059523809523809,0.500772797527048,0.09289617486338797
angwiki,False,48.0,0.04747774480712166,0.64,0.5089285714285714,0.49613601236476046,0.08839779005524863
angwiki,False,49.0,0.04790419161676647,0.64,0.5133928571428571,0.49149922720247297,0.08913649025069638
angwiki,False,50.0,0.048484848484848485,0.64,0.5193452380952381,0.4853168469860896,0.09014084507042254
angwiki,False,51.0,0.049079754601226995,0.64,0.5252976190476191,0.47913446676970634,0.09116809116809116
angwiki,False,52.0,0.04984423676012461,0.64,0.5327380952380952,0.4714064914992272,0.09248554913294797
angwiki,False,53.0,0.050955414012738856,0.64,0.5431547619047619,0.4605873261205564,0.09439528023598821
angwiki,False,54.0,0.05161290322580645,0.64,0.5491071428571429,0.45440494590417313,0.0955223880597015
angwiki,False,55.0,0.052805280528052806,0.64,0.5595238095238095,0.4435857805255023,0.09756097560975611
angwiki,False,56.0,0.053691275167785234,0.64,0.5669642857142857,0.43585780525502316,0.09907120743034054
angwiki,False,57.0,0.05387205387205387,0.64,0.5684523809523809,0.43431221020092736,0.09937888198757763
angwiki,False,58.0,0.05405405405405406,0.64,0.5699404761904762,0.4327666151468315,0.09968847352024922
angwiki,False,59.0,0.05517241379310345,0.64,0.5788690476190477,0.4234930448222566,0.10158730158730159
angwiki,False,60.0,0.055944055944055944,0.64,0.5848214285714286,0.41731066460587324,0.10289389067524116
angwiki,False,61.0,0.05693950177935943,0.64,0.5922619047619048,0.4095826893353941,0.1045751633986928
angwiki,False,62.0,0.05818181818181818,0.64,0.6011904761904762,0.40030911901081917,0.10666666666666666
angwiki,False,63.0,0.05925925925925926,0.64,0.6086309523809523,0.39258114374034003,0.10847457627118644
angwiki,False,64.0,0.06060606060606061,0.64,0.6175595238095238,0.38330757341576505,0.1107266435986159
angwiki,False,65.0,0.06153846153846154,0.64,0.6235119047619048,0.37712519319938176,0.11228070175438597
angwiki,False,66.0,0.0622568093385214,0.64,0.6279761904761905,0.37248840803709427,0.11347517730496455
angwiki,False,67.0,0.05976095617529881,0.6,0.6339285714285714,0.36476043276661513,0.10869565217391304
angwiki,False,68.0,0.056910569105691054,0.56,0.6383928571428571,0.35857805255023184,0.10332103321033209
angwiki,False,69.0,0.05042016806722689,0.48,0.6443452380952381,0.34930448222565685,0.09125475285171102
angwiki,False,70.0,0.05172413793103448,0.48,0.6532738095238095,0.3400309119010819,0.0933852140077821
angwiki,False,71.0,0.05405405405405406,0.48,0.6681547619047619,0.32457496136012365,0.09716599190283402
angwiki,False,72.0,0.056338028169014086,0.48,0.6815476190476191,0.3106646058732612,0.10084033613445377
angwiki,False,73.0,0.05825242718446602,0.48,0.6919642857142857,0.29984544049459044,0.1038961038961039
angwiki,False,74.0,0.05970149253731343,0.48,0.6994047619047619,0.2921174652241113,0.10619469026548672
angwiki,False,75.0,0.061855670103092786,0.48,0.7098214285714286,0.28129829984544047,0.1095890410958904
angwiki,False,76.0,0.060109289617486336,0.44,0.7232142857142857,0.26584234930448225,0.10576923076923077
angwiki,False,77.0,0.06179775280898876,0.44,0.7306547619047619,0.2581143740340031,0.1083743842364532
angwiki,False,78.0,0.06547619047619048,0.44,0.7455357142857143,0.2426584234930448,0.11398963730569948
angwiki,False,79.0,0.06962025316455696,0.44,0.7604166666666666,0.22720247295208656,0.12021857923497267
angwiki,False,80.0,0.07586206896551724,0.44,0.7797619047619048,0.2071097372488408,0.12941176470588237
angwiki,False,81.0,0.072992700729927,0.4,0.7886904761904762,0.19629057187017002,0.12345679012345677
angwiki,False,82.0,0.072,0.36,0.8035714285714286,0.17928902627511592,0.12
angwiki,False,83.0,0.07627118644067797,0.36,0.8139880952380952,0.16846986089644514,0.1258741258741259
angwiki,False,84.0,0.07766990291262135,0.32,0.8333333333333334,0.14683153013910355,0.12499999999999999
angwiki,False,85.0,0.08139534883720931,0.28,0.8556547619047619,0.12210200927357033,0.12612612612612614
angwiki,False,86.0,0.0945945945945946,0.28,0.8735119047619048,0.1035548686244204,0.1414141414141414
angwiki,False,87.0,0.1076923076923077,0.28,0.8869047619047619,0.08964451313755796,0.15555555555555556
angwiki,False,88.0,0.10344827586206896,0.24,0.8943452380952381,0.080370942812983,0.14457831325301204
angwiki,False,89.0,0.10204081632653061,0.2,0.9047619047619048,0.06800618238021638,0.13513513513513514
angwiki,False,90.0,0.09302325581395349,0.16,0.9107142857142857,0.06027820710973725,0.11764705882352942
angwiki,False,91.0,0.0625,0.08,0.9211309523809523,0.04636785162287481,0.07017543859649122
angwiki,False,92.0,0.034482758620689655,0.04,0.9226190476190477,0.04327666151468315,0.03703703703703704
angwiki,False,93.0,0.0,0.0,0.9300595238095238,0.03400309119010819,0.03703703703703704
angwiki,False,94.0,0.0,0.0,0.9404761904761905,0.023183925811437404,0.03703703703703704
angwiki,False,95.0,0.0,0.0,0.9508928571428571,0.012364760432766615,0.03703703703703704
angwiki,False,96.0,0.0,0.0,0.9553571428571429,0.0077279752704791345,0.03703703703703704
angwiki,False,97.0,0.0,0.0,0.9598214285714286,0.0030911901081916537,0.03703703703703704
angwiki,False,98.0,0.0,0.0,0.9627976190476191,0.0,0.03703703703703704
angwiki,False,99.0,0.0,0.0,0.9627976190476191,0.0,0.03703703703703704
