wiki_db,user_is_anonymous_or_bot,threshold,precision,recall,accuracy,fpr,F1
arwiki,True,0.0,0.11575283551680007,1.0,0.11575283551680007,1.0,0.20748831073001053
arwiki,True,1.0,0.1176632717131604,0.9983533058423049,0.13322804426625748,0.9800216285932176,0.2105157193065385
arwiki,True,2.0,0.1402303469655608,0.9802327512246423,0.30204560853289936,0.7867328325305635,0.2453599391774056
arwiki,True,3.0,0.17638059278452295,0.9579885423297263,0.47733028144536477,0.5855905384867592,0.2979111150796255
arwiki,True,4.0,0.21618664119755995,0.9349624996540559,0.6000892180685009,0.44374754323454346,0.3511732672559748
arwiki,True,5.0,0.2516798893113369,0.9036407162427698,0.6778418837986715,0.35171642994165353,0.3937057719698854
arwiki,True,6.0,0.2817651237870844,0.8671297705698392,0.7287642576720331,0.2893485518443176,0.42532511606439877
arwiki,True,7.0,0.3096417338491016,0.8296432623917195,0.7661701742555417,0.24213880339898597,0.4509708792634631
arwiki,True,8.0,0.3391856687059099,0.8017324883070877,0.7962480358409965,0.204469909264972,0.4766970680555041
arwiki,True,9.0,0.3656282272502129,0.7814186477735034,0.8177636858434791,0.17747854802217927,0.4981639741963941
arwiki,True,10.0,0.3890581707636817,0.7597417872858606,0.8340928348440606,0.1561742025588401,0.5145956838578157
arwiki,True,11.0,0.41343055464656536,0.7430119281543187,0.8482291735075195,0.13799730820020759,0.5312565702737932
arwiki,True,12.0,0.43669814406186735,0.7298314560097418,0.8597554431831469,0.12323678962117356,0.5464345564790809
arwiki,True,13.0,0.4588797236322617,0.7205324772368749,0.8692995340478253,0.11122603691352367,0.5606822513432901
arwiki,True,14.0,0.47983044531395563,0.7127141394293305,0.8773115408456976,0.10114175061181385,0.5735331781789027
arwiki,True,15.0,0.4975308581432642,0.7019552763401876,0.8834406779932502,0.09280188099926275,0.5823233816139521
arwiki,True,16.0,0.5145396130273295,0.6958666592865248,0.8887993682655976,0.08594467500049814,0.591621127183101
arwiki,True,17.0,0.5299598836839089,0.6910026845266101,0.8932907051430933,0.080228676181557,0.5998606539653557
arwiki,True,18.0,0.5445011819812309,0.6868651924833254,0.8972430495600764,0.07521732751015765,0.6074535035627637
arwiki,True,19.0,0.5575068326067807,0.6831013201228794,0.9005594949969006,0.07097402938517916,0.6139467203940006
arwiki,True,20.0,0.5700705696643298,0.6796418786151164,0.9035868226354409,0.06709754785371536,0.6200527704485488
arwiki,True,21.0,0.5817626900835297,0.6765629756732073,0.9062601611691571,0.06367120915429302,0.6255917803311412
arwiki,True,22.0,0.5950925869339363,0.6737262336368417,0.9091705602798597,0.060008477539050115,0.6319727935306755
arwiki,True,23.0,0.6042654471367422,0.671020950377771,0.9110518281695239,0.05752680478292609,0.6358960236828388
arwiki,True,24.0,0.6178529195563937,0.6687792322807405,0.9137796265655208,0.05414846924265506,0.6423082162424372
arwiki,True,25.0,0.6279971584428788,0.6666897296100518,0.9157049428732063,0.05169759096598659,0.64676526752783
arwiki,True,26.0,0.6364563737049893,0.6647801178977666,0.9172434339826337,0.049707724161167435,0.6503099872756315
arwiki,True,27.0,0.6491949413733075,0.6631057482080093,0.9195267437967815,0.04690633225069605,0.6560766152908841
arwiki,True,28.0,0.6569323500505158,0.6613275952730191,0.9208209664062738,0.045209918720688635,0.6591226455103074
arwiki,True,29.0,0.6646826364833878,0.6598400354246811,0.922094366127247,0.04357509414959233,0.662252483412092
arwiki,True,30.0,0.6772377169378835,0.6582417734480945,0.924127801279166,0.041066249793948705,0.6676046454510368
arwiki,True,31.0,0.684909064665127,0.6566089170564304,0.9252858742329568,0.039542828780882784,0.6704604863436622
arwiki,True,32.0,0.6916564399251987,0.6551144383250768,0.9262725587966293,0.0382313462440698,0.6728896911465809
arwiki,True,33.0,0.6986656810201441,0.6539174715633908,0.9272936812143908,0.03691986370725681,0.6755513621889374
arwiki,True,34.0,0.706588665338347,0.6526651537375806,0.9284237233567137,0.035477957492749713,0.6785572987476352
arwiki,True,35.0,0.7125982762404183,0.6515650513381119,0.9292494309745272,0.034400150711805334,0.6807163380739831
arwiki,True,36.0,0.7178057924757374,0.6504165167575346,0.9299365862956562,0.03347269344820278,0.6824515871431422
arwiki,True,37.0,0.7224061215377746,0.6492818199429884,0.9305236315758282,0.032660262622566556,0.683894852678604
arwiki,True,38.0,0.7266620643649987,0.6481747986605042,0.9310530134724089,0.031916666515713336,0.6851780744771496
arwiki,True,39.0,0.730402529965252,0.647185398389284,0.9315095152591729,0.031270888167130695,0.6862804799759352
arwiki,True,40.0,0.7339453868041691,0.6460437826917222,0.9319203668672605,0.0306568100179876,0.6871950366875925
arwiki,True,41.0,0.7372624055156709,0.6451581656657349,0.932312798227812,0.030097075067883713,0.6881420474672334
arwiki,True,42.0,0.7402221533128195,0.6441272520964215,0.9326403582818233,0.02959168331681904,0.6888394789512432
arwiki,True,43.0,0.7435436011869057,0.6432208784213876,0.9330215773177877,0.029041911286539008,0.6897534157135808
arwiki,True,44.0,0.7465904339155328,0.642369855810478,0.9333651549783522,0.028541953855378256,0.6905700514712446
arwiki,True,45.0,0.7495009254095645,0.6416226164448011,0.9336943167930188,0.02807188518368907,0.6913789182922602
arwiki,True,46.0,0.752357590181378,0.6408615393130933,0.9340114654027707,0.027613590871791712,0.6921481813596368
arwiki,True,47.0,0.7547319126717358,0.6400589488832923,0.9342589374240164,0.027228659878597294,0.6926815023361687
arwiki,True,48.0,0.7574759000590202,0.6393463039326931,0.9345584666665598,0.026796631446235557,0.6934159775479882
arwiki,True,49.0,0.7598722391893116,0.6386613345141561,0.9348123457304269,0.026419851932897018,0.694014112304471
arwiki,True,50.0,0.761928367827488,0.6380593916918053,0.9350269816582387,0.026098321338581677,0.6945140021162268
arwiki,True,51.0,0.7641228528536,0.6374228544543769,0.9352544316712931,0.025757770624602615,0.6950460016823903
arwiki,True,52.0,0.7659271710548214,0.6368347493980572,0.9354346297450157,0.025476997429566686,0.6954409453578336
arwiki,True,53.0,0.7676333990444051,0.635831511360806,0.9355675758794066,0.025195318514546768,0.6955435802730768
arwiki,True,54.0,0.7692945779952576,0.6352434063044862,0.9357269510646102,0.024938094039094496,0.6958719716233576
arwiki,True,55.0,0.7708648448791637,0.6347106523122907,0.9358783174465373,0.02469717252335399,0.696193309452978
arwiki,True,56.0,0.7724246612283422,0.6341778983200952,0.9360272811874812,0.024458968167565442,0.6965075457073816
arwiki,True,57.0,0.7739985968945727,0.633569036614729,0.9361706387661317,0.02421714093184095,0.6967786608634118
arwiki,True,58.0,0.7754425529028758,0.6328356350150832,0.9362867664136418,0.023989805215860242,0.6969186693284162
arwiki,True,59.0,0.7768009726485117,0.6321437467135306,0.9363948852578755,0.02377696101962333,0.6970463362438918
arwiki,True,60.0,0.7780458692130616,0.6313965073478538,0.9364837829742453,0.023578608343130206,0.6970919174095378
arwiki,True,61.0,0.7792595252139273,0.6307046190463012,0.9365726806906152,0.023387501426508975,0.6971561425714405
arwiki,True,62.0,0.7805037001466338,0.6297567320731741,0.9366431581594489,0.02318371443011193,0.6970733182972172
arwiki,True,63.0,0.7817290322580646,0.6287604129189384,0.9367064277053337,0.022981738873682857,0.6969499428641548
arwiki,True,64.0,0.7830245687943508,0.6275703650402679,0.9367608875676143,0.022764366077526008,0.6967315742981142
arwiki,True,65.0,0.784372183318311,0.6261865884371627,0.9368041351053078,0.022534313201593343,0.6964096092583758
arwiki,True,66.0,0.7854240090501675,0.6244776243323278,0.9367841130971164,0.022333243365148258,0.6957644528554965
arwiki,True,67.0,0.786904595369658,0.6227202280463842,0.9368089403872737,0.022075113169712,0.6952508226860507
arwiki,True,68.0,0.7882061333731795,0.6204508344172917,0.9367680954905633,0.021824228734147636,0.6943395934232278
arwiki,True,69.0,0.7896999504635199,0.6176763623280658,0.9367048259446784,0.021532586899303863,0.6931749359422316
arwiki,True,70.0,0.7913097731627969,0.6142653530014115,0.9365983088611001,0.02120652770506859,0.69163742029471
arwiki,True,71.0,0.7932134544702953,0.6107159660144467,0.9365102120250579,0.02084152255152188,0.6901032402828652
arwiki,True,72.0,0.7950031332588616,0.6056582625300971,0.9362763549693823,0.020443911478551645,0.6875326439968426
arwiki,True,73.0,0.7974879084907222,0.6000747239365677,0.9360689269645194,0.01994757692732684,0.6848384829797146
arwiki,True,74.0,0.7997482400111894,0.5934256773586473,0.9357381633891974,0.019451242376102035,0.6813092538238205
arwiki,True,75.0,0.802363264223174,0.5858564193396618,0.9353577452335607,0.01889060170601416,0.6772266299827243
arwiki,True,76.0,0.8051680834621329,0.5766958182271054,0.9348483853451715,0.018267466357031196,0.6720445712995662
arwiki,True,77.0,0.8082912832690214,0.5652312290703789,0.9341564247420765,0.017549230409729607,0.6652551689318491
arwiki,True,78.0,0.8113907580963223,0.5522859989483297,0.9333155003980376,0.016805634302876387,0.6572228397348812
arwiki,True,79.0,0.8148416118783227,0.5376594802535078,0.93234082903928,0.01599320347724016,0.6478476358800995
arwiki,True,80.0,0.8178282784392109,0.5208950267068885,0.9311114777363277,0.015188924131459822,0.6364312644766429
arwiki,True,81.0,0.8216014476362814,0.5026291755458999,0.9297948304776611,0.014286827027408898,0.6236993028606751
arwiki,True,82.0,0.8253802529482951,0.48133285362411093,0.9281754504551403,0.013330386724318763,0.6080640509050862
arwiki,True,83.0,0.8299613377876206,0.4589502670688844,0.9264879956047688,0.012308734582381572,0.5910583413156312
arwiki,True,84.0,0.8351068074805139,0.43440207012979826,0.9246019224331385,0.011228210641485235,0.571515697679711
arwiki,True,85.0,0.8409116874214555,0.40741150748623145,0.9224843948468157,0.01008972062161374,0.5488916646469919
arwiki,True,86.0,0.8458363605447434,0.3785874408435502,0.9200825547441748,0.009032745400301061,0.523059128298514
arwiki,True,87.0,0.8510174786793887,0.3486632718014004,0.9175405605841942,0.007990261698732173,0.4946624980981315
arwiki,True,88.0,0.856994299084511,0.3193064511665237,0.9150402122012516,0.006974949596682891,0.4652616403623295
arwiki,True,89.0,0.8621280637634475,0.28887720366424047,0.9123380419757398,0.006047492333080336,0.43275065945968355
arwiki,True,90.0,0.8681275362318841,0.2590291423352614,0.9096759157666107,0.005150829548933334,0.39900456684269714
arwiki,True,91.0,0.8737439350955802,0.22801178977665845,0.90682638356081,0.004313038563745478,0.3616480748865563
arwiki,True,92.0,0.8796978572529675,0.1974164890820026,0.9039736478336988,0.003534119377516769,0.32246690060858807
arwiki,True,93.0,0.8887172697852309,0.16720172695320068,0.9011777746098512,0.002740708671544271,0.2814516316880576
arwiki,True,94.0,0.8997382078721352,0.13554091827415382,0.8981880883467107,0.001977186725043339,0.23559123297555695
arwiki,True,95.0,0.9096490700054174,0.1045581601306285,0.895147946622928,0.0013594856959642928,0.18755778956840113
arwiki,True,96.0,0.9196827807306167,0.07542274375224864,0.892215122863051,0.0008622454247555009,0.13941234773155992
arwiki,True,97.0,0.928562267538797,0.050092713032408046,0.8895994477129261,0.000504486031080687,0.09505740863525658
arwiki,True,98.0,0.9281017097764138,0.02929455068773697,0.8873754030430249,0.00029707615474769357,0.05679638348961057
arwiki,True,99.0,0.9062972292191436,0.012447070544931226,0.8855389844517093,0.00016846391702155794,0.024556877358941284
arwiki,False,0.0,0.11787266786520423,1.0,0.11787266786520423,1.0,0.21088746733615926
arwiki,False,1.0,0.11910395103401997,0.9989851828163309,0.12897564241295065,0.9872778074686546,0.21283291053572279
arwiki,False,2.0,0.13280661418586917,0.9876644280993497,0.2383618802732344,0.8617623162378456,0.23413076054188325
arwiki,False,3.0,0.1517379057438582,0.9739047009913655,0.35517456111561496,0.7275021337548045,0.2625669263730863
arwiki,False,4.0,0.17002380993760755,0.9594243684042213,0.44316554645120465,0.6258186040628515,0.28885785039302353
arwiki,False,5.0,0.183829528788124,0.9395501545677433,0.5011763393204925,0.5574005681656318,0.3074954349735797
arwiki,False,6.0,0.1946984830160305,0.9163841807909604,0.543371261334297,0.5064719147728762,0.32116172031441464
arwiki,False,7.0,0.20408905583689024,0.8923867391536083,0.5771008626153282,0.46502864188358417,0.3322031692214407
arwiki,False,8.0,0.21338915618253324,0.8740816544078457,0.605359644198192,0.4305478479558686,0.34303366095401294
arwiki,False,9.0,0.22183261151537803,0.8605052766229613,0.6277505507258323,0.4033508781725715,0.35273297706387946
arwiki,False,10.0,0.22902752458810097,0.8458671783391962,0.6461975415739576,0.3804829521822415,0.36045738332836674
arwiki,False,11.0,0.2363813876043833,0.8341498774117898,0.6628215959916508,0.3600718354621502,0.3683731842986318
arwiki,False,12.0,0.24371604116893983,0.8247095192410191,0.6776800105747401,0.341966541357239,0.37624509669468836
arwiki,False,13.0,0.2512972921973771,0.8177038695235049,0.6913477616883799,0.325536344482036,0.3844462954554339
arwiki,False,14.0,0.2587357237860288,0.8112226841488114,0.7037992166449627,0.31055504973443443,0.3923372848483098
arwiki,False,15.0,0.2653133401342524,0.8028781579788935,0.71470165310731,0.29708077273260775,0.39883164430813156
arwiki,False,16.0,0.27241419999388156,0.7973520946594179,0.7250879176054847,0.2845682522354571,0.4060887580132381
arwiki,False,17.0,0.2792910680402211,0.7926745549514977,0.7344544032182593,0.2733251591627249,0.41304854990190487
arwiki,False,18.0,0.2860456300239059,0.788261379383861,0.7431323244776586,0.2628979637882723,0.419765897299077
arwiki,False,19.0,0.2926439156057975,0.7840486088903103,0.7511598791142349,0.25323481786451313,0.4262072034693844
arwiki,False,20.0,0.299287107712853,0.7797633514550688,0.7588471723878658,0.2439477141759946,0.4325527433395974
arwiki,False,21.0,0.3059733237384428,0.7759556550474364,0.766127358270085,0.235185930094888,0.4388859814346317
arwiki,False,22.0,0.31305395598259494,0.7721436947020573,0.7734251352124272,0.22640363461913188,0.4454905298790373
arwiki,False,23.0,0.3197265028854549,0.7682379277262552,0.7800117307240932,0.21841501616411851,0.4515331919036741
arwiki,False,24.0,0.3271496812381171,0.7645112461358065,0.7869024002750237,0.21010562228722562,0.45821848928484266
arwiki,False,25.0,0.3343126692211844,0.7607760366698646,0.7932407105381005,0.20242125618617965,0.46450495951680515
arwiki,False,26.0,0.3414665100153639,0.7571900650250506,0.7992528322863302,0.19512660658347397,0.47067492207544376
arwiki,False,27.0,0.3495168284488878,0.7536851081974203,0.8056288376782414,0.1874302755022158,0.4775655660415591
arwiki,False,28.0,0.3570774549950564,0.749945634793732,0.8113635232782499,0.1804296225561528,0.4837996264520371
arwiki,False,29.0,0.3648694847346544,0.7463298155846925,0.8169660246264789,0.17359533981113565,0.4901244541393008
arwiki,False,30.0,0.37361706144462775,0.7425775503677646,0.8229102951428068,0.1663553872608286,0.4971169710498221
arwiki,False,31.0,0.3818291226012934,0.7386376718899904,0.8282363655462501,0.1597911712120297,0.5034212090257728
arwiki,False,32.0,0.39049755301794453,0.7348896706108091,0.8335458500930064,0.1532713965183047,0.5099980026187887
arwiki,False,33.0,0.3993266949616202,0.7313506022812067,0.8386608277749772,0.14700003760422353,0.5165891622292365
arwiki,False,34.0,0.4085263969282182,0.7276708240059695,0.8437164984542485,0.14077710837195362,0.523276653742432
arwiki,False,35.0,0.4177197129777452,0.724063532672423,0.8485047850196542,0.13486697790808844,0.5297951466669993
arwiki,False,36.0,0.4268167291927192,0.7203880183349323,0.8530080964110719,0.12927078573455292,0.5360397233326988
arwiki,False,37.0,0.43577048959246445,0.7164566677326512,0.8572324638491149,0.12395662523744788,0.5419255584887223
arwiki,False,38.0,0.44494448406911014,0.7128749600255836,0.8613326886628633,0.11882991609700067,0.5479088866785847
arwiki,False,39.0,0.45465727140037937,0.7092634047542906,0.8654520123418877,0.11367756771324158,0.5541129578952102
arwiki,False,40.0,0.46385481375165394,0.7055537789148278,0.8691662390363718,0.10897134216310889,0.5597265468420456
arwiki,False,41.0,0.4730521710887492,0.7017631382581815,0.8727030473244751,0.10445541677444645,0.565145131327283
arwiki,False,42.0,0.48223572997838365,0.698207014177593,0.8760639450113512,0.10017024457559076,0.5704645495511974
arwiki,False,43.0,0.49126987957622414,0.6943993177699606,0.8792182733922148,0.09608562823553006,0.5754344803461356
arwiki,False,44.0,0.5003658299400162,0.6910947660164162,0.8822464487419125,0.09221125369062663,0.5804643600276481
arwiki,False,45.0,0.5095997448069155,0.6879906193369577,0.8851826479772542,0.08846792416709494,0.5855087925566272
arwiki,False,46.0,0.5185231834491133,0.6845965248907366,0.8878926764395896,0.08494224333123282,0.5900978381517337
arwiki,False,47.0,0.527381365024346,0.6811939025690225,0.8904649920312497,0.08157153747716683,0.594499953484045
arwiki,False,48.0,0.5362915065016587,0.6775738194222365,0.8929367872793516,0.07828572600651122,0.5987107080556257
arwiki,False,49.0,0.5446534077011324,0.6741115019720713,0.8951562764651217,0.07530701569463548,0.6025068884171694
arwiki,False,50.0,0.5529790501762513,0.67090075684895,0.8972802713245114,0.07247017586241868,0.6062589825492908
arwiki,False,51.0,0.5613224290185758,0.667557829655687,0.8993198290953118,0.06971139328206244,0.6098481602380823
arwiki,False,52.0,0.5694297184056392,0.6640955122055218,0.9012161453765417,0.06709903926906506,0.6131300943431507
arwiki,False,53.0,0.5775944653394117,0.6607099456347937,0.9030521494516364,0.06456531226889071,0.616362833583268
arwiki,False,54.0,0.585573025683494,0.6572774757488541,0.9047710473264855,0.06215807220238821,0.6193568087944585
arwiki,False,55.0,0.5934082089812088,0.6540027715595352,0.9063964612818254,0.059877888830520046,0.6222337615974102
arwiki,False,56.0,0.6010802803528443,0.65054045410937,0.9079173340798644,0.05769114625649955,0.6248331108144193
arwiki,False,57.0,0.6083374777405227,0.6467455495149771,0.909279887336799,0.055639437030588185,0.6269538314005998
arwiki,False,58.0,0.615662822737014,0.6430956188039655,0.9106092688803592,0.053644703900925406,0.6290802919708028
arwiki,False,59.0,0.6229746512101212,0.639539494723377,0.911888892853858,0.051718911847723405,0.6311484032771847
arwiki,False,60.0,0.6303251998139299,0.6355527129303912,0.9131056916126328,0.04980679405762107,0.6329281627193494
arwiki,False,61.0,0.6373214301072494,0.6319326297836052,0.9142264934433093,0.04805250005412729,0.6346155904827359
arwiki,False,62.0,0.6439696031621106,0.6279970152435774,0.9152256656582801,0.04639392589233113,0.6358830221508399
arwiki,False,63.0,0.6506659551286328,0.6238652595672103,0.9161831219306741,0.044756432886146946,0.6369838263784585
arwiki,False,64.0,0.657598783506741,0.6195714742564759,0.9171320339738657,0.04310697489975056,0.6380190037937333
arwiki,False,65.0,0.6639891364389615,0.6150517002451764,0.9179377045274866,0.04158970145665088,0.638584219671732
arwiki,False,66.0,0.6700259317162677,0.6103528408485236,0.9186403417289599,0.04016529905043638,0.6387988298900177
arwiki,False,67.0,0.6766438245189329,0.6054407845645453,0.9193882130850347,0.03866113010947387,0.6390651055086853
arwiki,False,68.0,0.6826457988676664,0.5999744163735209,0.9199707284759557,0.03727034360004604,0.6386458125306367
arwiki,False,69.0,0.6888271443191425,0.5940816544078457,0.9205195695517848,0.03586075497885617,0.6379558233667284
arwiki,False,70.0,0.6951124746440069,0.5873830082080802,0.920995533378534,0.034426096875316926,0.6367231103089186
arwiki,False,71.0,0.7012458604368494,0.5805607078136659,0.9214051537785346,0.033050124150913726,0.6352218863135893
arwiki,False,72.0,0.7073184857579108,0.5728216608037523,0.9217082226143632,0.03167244214362307,0.6330046765852682
arwiki,False,73.0,0.7139345852827667,0.5647670824005969,0.9220238564931367,0.030238353801046308,0.6306502336632155
arwiki,False,74.0,0.7198865928672882,0.5554077390470099,0.9221208586246706,0.028877764622630222,0.6270404798467264
arwiki,False,75.0,0.7262952934030439,0.5455367231638418,0.9221982592892106,0.027471024806252783,0.6230708918335841
arwiki,False,76.0,0.7329474699640446,0.5345570834665814,0.9221791604239346,0.026025541244426312,0.618226200162734
arwiki,False,77.0,0.7391438306510076,0.5216885193476175,0.9219183101324003,0.024601708599174304,0.6116639545260253
arwiki,False,78.0,0.745636596889765,0.508043918558789,0.921583074786633,0.023158504081197774,0.6043264353824305
arwiki,False,79.0,0.7522881433165384,0.4927619656753011,0.921084996484301,0.0216811139054721,0.5954764094676446
arwiki,False,80.0,0.7588524746149768,0.4760814412109583,0.9204115101824595,0.020215688709958626,0.5850929756667601
arwiki,False,81.0,0.7656941642728329,0.45803219272998613,0.9195957875944828,0.01872861259787069,0.573187910868266
arwiki,False,82.0,0.7723091041755993,0.43777848843406886,0.9185161991046653,0.01724609457348264,0.5588030392092831
arwiki,False,83.0,0.7799870740211763,0.4168212344099776,0.9174004232911668,0.015710588779583413,0.5433036731563357
arwiki,False,84.0,0.7876992078583184,0.39389830508474577,0.9160433986531279,0.014185908443971416,0.5251760933707029
arwiki,False,85.0,0.7963383989469905,0.36889457413921756,0.9144893541417146,0.012606531055960782,0.5042166181964414
arwiki,False,86.0,0.8036289757601233,0.34238140923142524,0.9126231939635523,0.011179279844933856,0.4801834692309303
arwiki,False,87.0,0.8111008589819636,0.3148534271399638,0.9105967038374144,0.00979817927186828,0.45362034383514105
arwiki,False,88.0,0.8200376922609277,0.2875770173755463,0.908585794364528,0.008433032005752307,0.4258231524449917
arwiki,False,89.0,0.8274699122866662,0.2594520839995736,0.9063331334653836,0.007228557331057328,0.3950399272868922
arwiki,False,90.0,0.8359353348729792,0.23150623600895426,0.9040598658958097,0.006071372816248671,0.36259454044578016
arwiki,False,91.0,0.8441878613741974,0.20295064492058415,0.9016343100057448,0.005005350055437742,0.32723172697803765
arwiki,False,92.0,0.8535734313664403,0.1752350495682763,0.8992394128204652,0.004016814785524881,0.2907751740533197
arwiki,False,93.0,0.8635177777225632,0.14818889244217034,0.896833960999112,0.0031296969669344925,0.25296609552647287
arwiki,False,94.0,0.8760811399415096,0.12006822300394414,0.8942782312641389,0.0022693579135809362,0.211192236009705
arwiki,False,95.0,0.8882295162478514,0.09254024091248268,0.8916626919247485,0.0015560171885487162,0.1676172675983457
arwiki,False,96.0,0.8989712172003237,0.06632128770919944,0.8890662514506342,0.000995942162425176,0.1235292482537615
arwiki,False,97.0,0.9111209964412811,0.04366698646199765,0.8867723772106308,0.0005691912015233129,0.08333977580208736
arwiki,False,98.0,0.9170631144941326,0.024658351988060975,0.8847710171703825,0.00029798498338007274,0.0480253787925973
arwiki,False,99.0,0.9036750483558994,0.009960558575844793,0.883176261919828,0.00014187047965896388,0.019703934882543968
