wiki_db,user_is_anonymous_or_bot,threshold,precision,recall,accuracy,fpr,F1
arywiki,True,0.0,0.021083485460108502,1.0,0.021083485460108502,1.0,0.041296300959383574
arywiki,True,1.0,0.021083485460108502,1.0,0.021083485460108502,1.0,0.041296300959383574
arywiki,True,2.0,0.021083485460108502,1.0,0.021083485460108502,1.0,0.041296300959383574
arywiki,True,3.0,0.021083485460108502,1.0,0.021083485460108502,1.0,0.041296300959383574
arywiki,True,4.0,0.021083485460108502,1.0,0.021083485460108502,1.0,0.041296300959383574
arywiki,True,5.0,0.021083485460108502,1.0,0.021083485460108502,1.0,0.041296300959383574
arywiki,True,6.0,0.02108890774888769,1.0,0.02134060113645129,0.9997373466761222,0.041306702264312524
arywiki,True,7.0,0.021049105992683052,0.9963414634146341,0.022960429897410845,0.9980038347385286,0.04122722914669224
arywiki,True,8.0,0.02110961458765023,0.9939024390243902,0.028154166559535135,0.9926457069314212,0.04134117885766461
arywiki,True,9.0,0.02145179342322656,0.9817073170731707,0.055459851387139075,0.9644892706117196,0.04198612632347572
arywiki,True,10.0,0.021673035619647986,0.947560975609756,0.09708687938703622,0.9212302681690436,0.042376810013362055
arywiki,True,11.0,0.021332638647678592,0.8987804878048781,0.12853212660375904,0.8880571533632758,0.041676091382040266
arywiki,True,12.0,0.02062862374122673,0.824390243902439,0.1711104826061245,0.8429595776534552,0.04025007442691277
arywiki,True,13.0,0.020685774806381146,0.7621951219512195,0.23420666958064434,0.7771649200220628,0.040278404330734034
arywiki,True,14.0,0.020874931929569795,0.7012195121951219,0.3002596868331062,0.7083760144984634,0.040542922615899875
arywiki,True,15.0,0.0207507218479307,0.6573170731707317,0.33877561514925564,0.6680849946156069,0.040231386452696395
arywiki,True,16.0,0.021085577794250885,0.624390243902439,0.38091687450183837,0.6243269508575631,0.0407935622659549
arywiki,True,17.0,0.02147887323943662,0.5951219512195122,0.4198441879001363,0.5839308696451554,0.041461342395921835
arywiki,True,18.0,0.022244594659379644,0.5658536585365853,0.4664592600210835,0.535681454048801,0.042806402509340834
arywiki,True,19.0,0.022750829187396352,0.5353658536585366,0.5053608618517471,0.49528537283639323,0.04364684827997614
arywiki,True,20.0,0.023383225077661676,0.5048780487804878,0.5449823875761706,0.4541538623171276,0.04469635627530364
arywiki,True,21.0,0.02399661508704062,0.4841463414634146,0.5739593243000025,0.42410632206550575,0.04572679106196729
arywiki,True,22.0,0.02493717378697081,0.4719512195121951,0.5997994497724526,0.39744700969190766,0.04737132015423221
arywiki,True,23.0,0.02628056083985063,0.4548780487804878,0.6331730645617464,0.3629868935991385,0.04969026843402385
arywiki,True,24.0,0.027479182437547312,0.4426829268292683,0.6579333041935567,0.33743072518582723,0.051746258018531714
arywiki,True,25.0,0.024766053565666343,0.374390243902439,0.6759828246728203,0.31752160323588896,0.046458837772397094
arywiki,True,26.0,0.025220350815952527,0.3524390243902439,0.6991489471113054,0.2933837627715179,0.047072237152862614
arywiki,True,27.0,0.026107899807321772,0.3304878048780488,0.725966112153858,0.26551624510808186,0.04839285714285715
arywiki,True,28.0,0.028761302974180194,0.32195121951219513,0.7564857429357468,0.23415543823707088,0.05280528052805281
arywiki,True,29.0,0.030678466076696165,0.3170731707317073,0.7743809940092048,0.21576970556562394,0.055944055944055944
arywiki,True,30.0,0.03238919485969053,0.30121951219512194,0.795541614172216,0.19381188768943872,0.058489225668955716
arywiki,True,31.0,0.034097421203438394,0.29024390243902437,0.811688478646543,0.17708087095842198,0.061025641025641016
arywiki,True,32.0,0.03570861767973338,0.27439024390243905,0.8284781323117271,0.15958815958815958,0.06319337171745543
arywiki,True,33.0,0.037948362502166,0.26707317073170733,0.8417967243462834,0.14582512541696216,0.06645425580336824
arywiki,True,34.0,0.04489455001044059,0.2621951219512195,0.8668397912220708,0.12013763034171197,0.07666250668568372
arywiki,True,35.0,0.052421367948077884,0.25609756097560976,0.8867148330033682,0.09970320174401807,0.0870285951098218
arywiki,True,36.0,0.058923512747875356,0.25365853658536586,0.8988506929267478,0.0872534341922097,0.09563218390804598
arywiki,True,37.0,0.06507177033492823,0.24878048780487805,0.9088010696012135,0.07698368922858718,0.10316055625790138
arywiki,True,38.0,0.07099964676792653,0.2451219512195122,0.9164631167562286,0.069077824179865,0.11010682004930156
arywiki,True,39.0,0.0765625,0.23902439024390243,0.9231738359087753,0.062091245764715156,0.11597633136094675
arywiki,True,40.0,0.08087930319369556,0.23780487804878048,0.9269534363510143,0.05820397657132351,0.12070566388115132
arywiki,True,41.0,0.09116945107398568,0.2329268292682927,0.9348725991823722,0.050009192866335726,0.13104631217838766
arywiki,True,42.0,0.09927234927234928,0.2329268292682927,0.9392692772478338,0.04551782102802511,0.1392128279883382
arywiki,True,43.0,0.10584958217270195,0.23170731707317074,0.9425346463373871,0.04215585848238909,0.1453154875717017
arywiki,True,44.0,0.11373260738052027,0.22926829268292684,0.9460828426709177,0.0384787119480997,0.15204205418520017
arywiki,True,45.0,0.11943189154293092,0.22560975609756098,0.948602576299077,0.035825913376933784,0.1561840439003799
arywiki,True,46.0,0.12491467576791809,0.22317073170731708,0.9506595017098193,0.033672156121135714,0.16017505470459517
arywiki,True,47.0,0.13217138707334786,0.22195121951219512,0.9528706965263672,0.03138707220339874,0.16568047337278108
arywiki,True,48.0,0.13746223564954682,0.22195121951219512,0.954233409610984,0.02999500958684632,0.16977611940298507
arywiki,True,49.0,0.1430817610062893,0.22195121951219512,0.9555704111279665,0.02862921230268169,0.1739961759082218
arywiki,True,50.0,0.14991762767710048,0.22195121951219512,0.9570616820507546,0.02710582302419037,0.17895771878072764
arywiki,True,51.0,0.15476190476190477,0.22195121951219512,0.9580387216208572,0.02610774039345468,0.18236472945891788
arywiki,True,52.0,0.16149068322981366,0.22195121951219512,0.9592985884349369,0.024820739106453393,0.1869542886492039
arywiki,True,53.0,0.17387127761767532,0.22073170731707317,0.9614583601162163,0.022588185853491975,0.19451907576571736
arywiki,True,54.0,0.18,0.21951219512195122,0.9624611112539532,0.021537572557980722,0.1978021978021978
arywiki,True,55.0,0.18967334035827185,0.21951219512195122,0.9637724012033013,0.020198040606203872,0.20350480497456191
arywiki,True,56.0,0.19435396308360478,0.21829268292682927,0.9644409019617927,0.019488876631733775,0.20562894887995406
arywiki,True,57.0,0.2,0.21707317073170732,0.9651865374231867,0.018700916660100333,0.20818713450292398
arywiki,True,58.0,0.20389461626575028,0.21707317073170732,0.9656236340729695,0.01825440600950805,0.2102776137034849
arywiki,True,59.0,0.2114695340501792,0.21585365853658536,0.9664978273725349,0.017335119375935702,0.21363910681955342
arywiki,True,60.0,0.21878862793572312,0.21585365853658536,0.9672177512662947,0.016599690069077824,0.21731123388581952
arywiki,True,61.0,0.2247765006385696,0.2146341463414634,0.9678348288895174,0.01594305675938329,0.2195882719900187
arywiki,True,62.0,0.2927241962774958,0.21097560975609755,0.9726171804694932,0.010978908938092611,0.2452161587526577
arywiki,True,63.0,0.3019197207678883,0.21097560975609755,0.9730799886869103,0.010506132955112548,0.24838478104809766
arywiki,True,64.0,0.3065953654188948,0.2097560975609756,0.973337104363253,0.010217214298846951,0.24909485879797244
arywiki,True,65.0,0.3109090909090909,0.20853658536585365,0.9735685084719615,0.009954560974969138,0.24963503649635035
arywiki,True,66.0,0.3333333333333333,0.20609756097560974,0.9745712596096984,0.008877682347070101,0.25470987189148453
arywiki,True,67.0,0.34210526315789475,0.20609756097560974,0.974905509988944,0.008536233026028944,0.25722983257229826
arywiki,True,68.0,0.3442622950819672,0.2048780487804878,0.9750083562594811,0.008404906364090038,0.2568807339449541
arywiki,True,69.0,0.34663865546218486,0.20121951219512196,0.9751626256652868,0.008168518372600006,0.2546296296296296
arywiki,True,70.0,0.35268817204301073,0.2,0.9753940297739954,0.007905865048722191,0.2552529182879377
arywiki,True,71.0,0.3537117903930131,0.1975609756097561,0.9754711644768982,0.007774538386783284,0.2535211267605634
arywiki,True,72.0,0.3663594470046083,0.19390243902439025,0.9759339726943151,0.007222966406639876,0.25358851674641153
arywiki,True,73.0,0.39348370927318294,0.19146341463414634,0.9767310312909778,0.006356210437843091,0.2575881870385562
arywiki,True,74.0,0.5551601423487544,0.1902439024390244,0.9797135731365542,0.003283166548472671,0.28337874659400547
arywiki,True,75.0,0.578544061302682,0.18414634146341463,0.979970688812897,0.0028891865626559502,0.2793709528214616
arywiki,True,76.0,0.578125,0.18048780487804877,0.9799449772452626,0.0028366558978803877,0.275092936802974
arywiki,True,77.0,0.6238938053097345,0.1719512195121951,0.9803563623274111,0.002232553252961416,0.2695984703632887
arywiki,True,78.0,0.6139534883720931,0.16097560975609757,0.9801763813539711,0.0021800225881858535,0.25507246376811593
arywiki,True,79.0,0.625,0.15853658536585366,0.9802535160568739,0.0020486959262469464,0.2529182879377432
arywiki,True,80.0,0.6888888888888889,0.15121951219512195,0.9806649011390225,0.0014708586137157566,0.24799999999999997
arywiki,True,81.0,0.6783625730994152,0.14146341463414633,0.9804849201655825,0.0014445932813279751,0.23410696266397574
arywiki,True,82.0,0.6842105263157895,0.12682926829268293,0.9803563623274111,0.0012607359546135057,0.2139917695473251
arywiki,True,83.0,0.7062937062937062,0.12317073170731707,0.9804334970303139,0.0011031439602868175,0.20976116303219108
arywiki,True,84.0,0.7076923076923077,0.11219512195121951,0.9803049391921426,0.000998082630735692,0.1936842105263158
arywiki,True,85.0,0.725,0.10609756097560975,0.9803049391921426,0.0008667559687967852,0.18510638297872342
arywiki,True,86.0,0.7272727272727273,0.0975609756097561,0.9802020929216054,0.000787959971633441,0.17204301075268819
arywiki,True,87.0,0.7647058823529411,0.0951219512195122,0.9803049391921426,0.0006303679773067528,0.16919739696312366
arywiki,True,88.0,0.7906976744186046,0.08292682926829269,0.9802020929216054,0.00047277598298006463,0.15011037527593818
arywiki,True,89.0,0.8354430379746836,0.08048780487804878,0.9802792276245083,0.00034144932104115776,0.14682981090100114
arywiki,True,90.0,0.8709677419354839,0.06585365853658537,0.9800992466510683,0.00021012265910225095,0.12244897959183675
arywiki,True,91.0,0.8846153846153846,0.05609756097560976,0.9799449772452626,0.0001575919943266882,0.10550458715596331
arywiki,True,92.0,0.9302325581395349,0.04878048780487805,0.9798678425423598,7.87959971633441e-05,0.09269988412514484
arywiki,True,93.0,0.918918918918919,0.041463414634146344,0.9797135731365542,7.87959971633441e-05,0.07934655775962661
arywiki,True,94.0,0.9375,0.036585365853658534,0.9796364384336513,5.2530664775562736e-05,0.0704225352112676
arywiki,True,95.0,0.9655172413793104,0.03414634146341464,0.979610726866017,2.6265332387781368e-05,0.06595995288574795
arywiki,True,96.0,1.0,0.02804878048780488,0.9795078805954799,0.0,0.054567022538552785
arywiki,True,97.0,1.0,0.023170731707317073,0.9794050343249427,0.0,0.04529201430274136
arywiki,True,98.0,1.0,0.018292682926829267,0.9793021880544057,0.0,0.03592814371257485
arywiki,True,99.0,1.0,0.007317073170731708,0.9790707839456971,0.0,0.014527845036319613
arywiki,False,0.0,0.017793150172047995,1.0,0.017793150172047995,1.0,0.03496417748349011
arywiki,False,1.0,0.017793150172047995,1.0,0.017793150172047995,1.0,0.03496417748349011
arywiki,False,2.0,0.017842138196120495,1.0,0.020538786571341974,0.9972046250748761,0.03505875327138917
arywiki,False,3.0,0.017993142032124165,0.998997995991984,0.029863253044268928,0.9876930896153636,0.0353495958020139
arywiki,False,4.0,0.018163930842245258,0.998997995991984,0.03915206190162064,0.9782360095115354,0.03567913826113407
arywiki,False,5.0,0.01830163741831265,0.998997995991984,0.046515359517909034,0.9707393222123396,0.03594476691783539
arywiki,False,6.0,0.01845134544916164,0.998997995991984,0.05439569256003851,0.9627162331415294,0.03623346416630324
arywiki,False,7.0,0.018538937375021023,0.9939879759519038,0.06357752857066448,0.9532773048229294,0.036398994624543636
arywiki,False,8.0,0.01872836306539793,0.9919839679358717,0.07505928078589384,0.9415512515655915,0.03676265805157913
arywiki,False,9.0,0.018969714675236147,0.9759519038076152,0.10151723154272674,0.9143235737234757,0.037216055633035934
arywiki,False,10.0,0.019124461425900335,0.9428857715430862,0.13851200770204497,0.876059610462689,0.03748854627305685
arywiki,False,11.0,0.018957345971563982,0.9018036072144289,0.16787605412826045,0.8454193969976947,0.03713407463949003
arywiki,False,12.0,0.01848903043170559,0.8376753507014028,0.20586924352368557,0.8055762284220653,0.03617951270177868
arywiki,False,13.0,0.0185325803236676,0.782565130260521,0.25871382980620083,0.7507759888185003,0.03620769587389894
arywiki,False,14.0,0.01877523726241609,0.7314629258517034,0.3150350336073027,0.6925087582363726,0.03661074751122144
arywiki,False,15.0,0.019117768766034927,0.6943887775551102,0.36064112392804293,0.6454048755695123,0.03721105055440707
arywiki,False,16.0,0.019608421300937665,0.6663326653306614,0.4012729768760363,0.6035287070483382,0.03809578368469294
arywiki,False,17.0,0.02006478598609932,0.6392785571142284,0.438053807341903,0.5655914759216569,0.038908370178380856
arywiki,False,18.0,0.020679368092752053,0.6112224448897795,0.478043823209542,0.5243687716686937,0.040005246589716686
arywiki,False,19.0,0.021288229504611234,0.5851703406813628,0.5139332132860276,0.4873572815886442,0.04108191762512751
arywiki,False,20.0,0.0216307462803753,0.5521042084168337,0.547700975235786,0.4523787914541395,0.04163046352612293
arywiki,False,21.0,0.022301255230125522,0.5340681362725451,0.5751038528053629,0.4241527654244795,0.04281468391035424
arywiki,False,22.0,0.02316807953486308,0.5230460921843687,0.5991192568952914,0.3995026410847507,0.044370776488588545
arywiki,False,23.0,0.0243738604740428,0.5090180360721442,0.6287329066305336,0.3690984008277214,0.04652014652014652
arywiki,False,24.0,0.02541159627773801,0.49799599198396793,0.6512328620585142,0.3459911782323792,0.04835571122786534
arywiki,False,25.0,0.023760442660301615,0.43887775551102204,0.6691686426928631,0.326659526964477,0.04508027995059694
arywiki,False,26.0,0.024271280919753804,0.4188376753507014,0.6900640054199576,0.30502259897260897,0.04588364434687157
arywiki,False,27.0,0.02485058194400755,0.39579158316633267,0.712902708195903,0.2813526710351963,0.04676493222044633
arywiki,False,28.0,0.026593907577536782,0.38577154308617234,0.7378273814830002,0.25579495743406366,0.049757673667205175
arywiki,False,29.0,0.028091130280911304,0.3817635270541082,0.7539802813385869,0.2392768328765134,0.052331570633885036
arywiki,False,30.0,0.029053945894029133,0.3637274549098196,0.7723974397832017,0.22019930660180428,0.05380966498665876
arywiki,False,31.0,0.029993124785149535,0.3496993987975952,0.787195350246929,0.20487919986930714,0.05524774418236505
arywiki,False,32.0,0.03129074315514994,0.3366733466933868,0.8027420706377365,0.18881486994245883,0.05725971370143149
arywiki,False,33.0,0.03281640820410205,0.3286573146292585,0.8157036138993385,0.17547330779982212,0.05967433821522788
arywiki,False,34.0,0.03635537377868666,0.32064128256513025,0.8366881206653711,0.15396344230455064,0.06530612244897958
arywiki,False,35.0,0.03991301010617884,0.312625250501002,0.8539642354115781,0.13622914813671924,0.0707884288145207
arywiki,False,36.0,0.042925055928411636,0.3076152304609218,0.8656421045124713,0.1242489698861883,0.07533742331288344
arywiki,False,37.0,0.046106870229007633,0.3026052104208417,0.8761967587227442,0.11341235410502623,0.0800211976682565
arywiki,False,38.0,0.04892110031296327,0.29759519038076154,0.8845584695751395,0.10480840790691764,0.0840288583958127
arywiki,False,39.0,0.051564722617354196,0.2905811623246493,0.8922783433471804,0.09682162240656368,0.08758683177287829
arywiki,False,40.0,0.053937229844014285,0.2875751503006012,0.8975734992601044,0.09137608683814052,0.09083715777812945
arywiki,False,41.0,0.05820433436532508,0.28256513026052105,0.9058817236891369,0.08282659599571618,0.09652575731644703
arywiki,False,42.0,0.062125582427335256,0.280561122244489,0.9118365454902031,0.07672759615908224,0.10172570390554043
arywiki,False,43.0,0.06493506493506493,0.2755511022044088,0.9165076931305604,0.07188106950318564,0.10510223581119814
arywiki,False,44.0,0.06828528072837632,0.27054108216432865,0.9213393000410063,0.06687117678023634,0.10904684975767366
arywiki,False,45.0,0.07096774193548387,0.26452905811623245,0.9252972953698586,0.06273256974823474,0.1119118270453582
arywiki,False,46.0,0.07402114889968563,0.2595190380761523,0.9290591738130471,0.05881178413897007,0.11518790304647543
arywiki,False,47.0,0.0774818401937046,0.2565130260521042,0.9324288184849079,0.05532664137517925,0.1190144119014412
arywiki,False,48.0,0.0809082187400064,0.2535070140280561,0.9354775446165915,0.05216823074549382,0.12266666666666665
arywiki,False,49.0,0.08415005069280163,0.24949899799599198,0.9383301538626112,0.04919133796808916,0.1258529188779378
arywiki,False,50.0,0.0886030725259021,0.24849699398797595,0.9411471054930557,0.04630520411682489,0.13062944429813012
arywiki,False,51.0,0.09172932330827067,0.24448897795591182,0.9434826793132344,0.04385471311103447,0.13340623291416073
arywiki,False,52.0,0.09622266401590457,0.24248496993987975,0.9459965412112892,0.04125900782341943,0.13777398235126673
arywiki,False,53.0,0.10330047149592798,0.24148296593186372,0.9492057266130614,0.03797353469713746,0.14470129090363254
arywiki,False,54.0,0.10898312813497492,0.23947895791583165,0.9516304444721781,0.03546858833566281,0.14979630209965528
arywiki,False,55.0,0.1146187469645459,0.23647294589178355,0.9539125318689939,0.0330907044707847,0.15439973830552828
arywiki,False,56.0,0.11965376782077393,0.23547094188376755,0.9555706109932429,0.03138443665934545,0.1586765698852127
arywiki,False,57.0,0.12432723358449946,0.23146292585170342,0.95731783415643,0.029532954566081574,0.16176470588235295
arywiki,False,58.0,0.12959818902093945,0.22945891783567135,0.9588689404339532,0.027917445680782704,0.16564195298372514
arywiki,False,59.0,0.13724304715840388,0.22745490981963928,0.9608122804828041,0.02590259752046614,0.17119155354449472
arywiki,False,60.0,0.14505776636713735,0.22645290581162325,0.9624881884148407,0.024178177923798807,0.17683881064162754
arywiki,False,61.0,0.15010141987829614,0.22244488977955912,0.9637540337677619,0.022816794031693018,0.17924909164311667
arywiki,False,62.0,0.1757085020242915,0.21743486973947895,0.9679259747900658,0.018478517362182572,0.1943573667711599
arywiki,False,63.0,0.18236301369863014,0.21342685370741482,0.9689778744495355,0.017334954892813708,0.19667590027700832
arywiki,False,64.0,0.19090909090909092,0.21042084168336672,0.9700832605323682,0.01615508885298869,0.2001906577693041
arywiki,False,65.0,0.1988472622478386,0.20741482965931865,0.9710281873451122,0.01513858888021637,0.20304070622854342
arywiki,False,66.0,0.21145833333333333,0.20340681362725452,0.9723296903136087,0.013740901417654426,0.20735444330949948
arywiki,False,67.0,0.2205240174672489,0.20240480961923848,0.9730785002406889,0.012960374652847108,0.21107628004179727
arywiki,False,68.0,0.22892938496583143,0.20140280561122245,0.9737203373210433,0.012288758599408253,0.2142857142857143
arywiki,False,69.0,0.23452380952380952,0.19739478957915832,0.974255201554672,0.011671597901653627,0.21436343852013057
arywiki,False,70.0,0.24341279799247176,0.19438877755511022,0.9749148674428141,0.010945526492530541,0.2161559888579387
arywiki,False,71.0,0.2509907529722589,0.1903807615230461,0.975485389292018,0.010292062224319762,0.21652421652421652
arywiki,False,72.0,0.2604456824512535,0.187374749498998,0.9760737399490096,0.009638597956108984,0.21794871794871795
arywiki,False,73.0,0.2837209302325581,0.18336673346693386,0.9772326124552051,0.008386124775371658,0.22276323797930614
arywiki,False,74.0,0.3584158415841584,0.1813627254509018,0.9796573303143219,0.005881178413897007,0.2408516300731869
arywiki,False,75.0,0.37339055793991416,0.1743486973947896,0.9801030505090125,0.005300321286598537,0.23770491803278687
arywiki,False,76.0,0.3854875283446712,0.17034068136272545,0.980406140241402,0.004919133796808916,0.23627519110493397
arywiki,False,77.0,0.41265822784810124,0.16332665330661322,0.980976662090606,0.004211214172913906,0.23402727925340988
arywiki,False,78.0,0.42032967032967034,0.1533066132264529,0.9811727789762699,0.0038300266831242853,0.22466960352422904
arywiki,False,79.0,0.44281524926686217,0.15130260521042085,0.9815115263242347,0.0034488391933346647,0.22554144884241975
arywiki,False,80.0,0.48013245033112584,0.14529058116232466,0.9819929041345006,0.0028498302808081175,0.22307692307692312
arywiki,False,81.0,0.475177304964539,0.1342685370741483,0.9819572465189252,0.002686464213755423,0.20937499999999998
arywiki,False,82.0,0.48031496062992124,0.12224448897795591,0.9820285617500758,0.002396035650106188,0.19488817891373802
arywiki,False,83.0,0.49372384937238495,0.11823647294589178,0.9821533634045891,0.002196366012597339,0.19078415521422798
arywiki,False,84.0,0.5117370892018779,0.1092184368737475,0.9822959938668901,0.001887785663720027,0.18001651527663087
arywiki,False,85.0,0.5425531914893617,0.10220440881763528,0.9824921107525539,0.0015610535296146377,0.17200674536256325
arywiki,False,86.0,0.5595238095238095,0.09418837675350701,0.9825634259837045,0.0013432321068777115,0.16123499142367068
arywiki,False,87.0,0.5974025974025974,0.09218436873747494,0.9827417140615807,0.0011254106841407853,0.15972222222222224
arywiki,False,88.0,0.627906976744186,0.0811623246492986,0.9827952004849436,0.0008712856909477047,0.1437444543034605
arywiki,False,89.0,0.6782608695652174,0.0781563126252505,0.9829378309472445,0.0006716160534388558,0.14016172506738545
arywiki,False,90.0,0.6989247311827957,0.06513026052104208,0.9828665157160941,0.0005082499863861611,0.11915673693858844
arywiki,False,91.0,0.7402597402597403,0.05711422845691383,0.9828665157160941,0.00036303570456154365,0.10604651162790697
arywiki,False,92.0,0.7692307692307693,0.050100200400801605,0.9828308581005188,0.0002722767784211577,0.09407337723424271
arywiki,False,93.0,0.8,0.04408817635270541,0.9827952004849436,0.000199669637508849,0.0835707502374169
arywiki,False,94.0,0.8695652173913043,0.04008016032064128,0.9828130292927312,0.00010891071136846309,0.07662835249042145
arywiki,False,95.0,0.9024390243902439,0.03707414829659319,0.9827952004849436,7.260714091230872e-05,0.0712223291626564
arywiki,False,96.0,0.9411764705882353,0.03206412825651302,0.9827417140615807,3.630357045615436e-05,0.062015503875968984
arywiki,False,97.0,1.0,0.027054108216432865,0.9826882276382178,0.0,0.05268292682926829
arywiki,False,98.0,1.0,0.022044088176352707,0.9825990835992797,0.0,0.04313725490196079
arywiki,False,99.0,1.0,0.009018036072144289,0.9823673090980406,0.0,0.017874875868917575
