wiki_db,user_is_anonymous_or_bot,threshold,precision,recall,accuracy,fpr,F1
bclwiki,True,0.0,0.1996996996996997,1.0,0.1996996996996997,1.0,0.33291614518147683
bclwiki,True,1.0,0.1996996996996997,1.0,0.1996996996996997,1.0,0.33291614518147683
bclwiki,True,2.0,0.1996996996996997,1.0,0.1996996996996997,1.0,0.33291614518147683
bclwiki,True,3.0,0.1996996996996997,1.0,0.1996996996996997,1.0,0.33291614518147683
bclwiki,True,4.0,0.1996996996996997,1.0,0.1996996996996997,1.0,0.33291614518147683
bclwiki,True,5.0,0.1996996996996997,1.0,0.1996996996996997,1.0,0.33291614518147683
bclwiki,True,6.0,0.1996996996996997,1.0,0.1996996996996997,1.0,0.33291614518147683
bclwiki,True,7.0,0.1996996996996997,1.0,0.1996996996996997,1.0,0.33291614518147683
bclwiki,True,8.0,0.2,1.0,0.2012012012012012,0.99812382739212,0.33333333333333337
bclwiki,True,9.0,0.20121028744326777,1.0,0.2072072072072072,0.9906191369606003,0.3350125944584383
bclwiki,True,10.0,0.20121028744326777,1.0,0.2072072072072072,0.9906191369606003,0.3350125944584383
bclwiki,True,11.0,0.2015151515151515,1.0,0.2087087087087087,0.9887429643527205,0.3354350567465322
bclwiki,True,12.0,0.2015151515151515,1.0,0.2087087087087087,0.9887429643527205,0.3354350567465322
bclwiki,True,13.0,0.20182094081942337,1.0,0.21021021021021022,0.9868667917448405,0.33585858585858586
bclwiki,True,14.0,0.20182094081942337,1.0,0.21021021021021022,0.9868667917448405,0.33585858585858586
bclwiki,True,15.0,0.20182094081942337,1.0,0.21021021021021022,0.9868667917448405,0.33585858585858586
bclwiki,True,16.0,0.2024353120243531,1.0,0.2132132132132132,0.9831144465290806,0.33670886075949363
bclwiki,True,17.0,0.2024353120243531,1.0,0.2132132132132132,0.9831144465290806,0.33670886075949363
bclwiki,True,18.0,0.20398773006134968,1.0,0.22072072072072071,0.9737335834896811,0.33885350318471336
bclwiki,True,19.0,0.20398773006134968,1.0,0.22072072072072071,0.9737335834896811,0.33885350318471336
bclwiki,True,20.0,0.20461538461538462,1.0,0.22372372372372373,0.9699812382739212,0.3397190293742018
bclwiki,True,21.0,0.20461538461538462,1.0,0.22372372372372373,0.9699812382739212,0.3397190293742018
bclwiki,True,22.0,0.20461538461538462,1.0,0.22372372372372373,0.9699812382739212,0.3397190293742018
bclwiki,True,23.0,0.2052469135802469,1.0,0.22672672672672672,0.9662288930581614,0.3405889884763124
bclwiki,True,24.0,0.2052469135802469,1.0,0.22672672672672672,0.9662288930581614,0.3405889884763124
bclwiki,True,25.0,0.2052469135802469,1.0,0.22672672672672672,0.9662288930581614,0.3405889884763124
bclwiki,True,26.0,0.2052469135802469,1.0,0.22672672672672672,0.9662288930581614,0.3405889884763124
bclwiki,True,27.0,0.20588235294117646,1.0,0.22972972972972974,0.9624765478424016,0.34146341463414637
bclwiki,True,28.0,0.2062015503875969,1.0,0.23123123123123124,0.9606003752345216,0.34190231362467866
bclwiki,True,29.0,0.20652173913043478,1.0,0.23273273273273273,0.9587242026266416,0.34234234234234234
bclwiki,True,30.0,0.20652173913043478,1.0,0.23273273273273273,0.9587242026266416,0.34234234234234234
bclwiki,True,31.0,0.20684292379471228,1.0,0.23423423423423423,0.9568480300187617,0.3427835051546392
bclwiki,True,32.0,0.20684292379471228,1.0,0.23423423423423423,0.9568480300187617,0.3427835051546392
bclwiki,True,33.0,0.20748829953198128,1.0,0.23723723723723725,0.9530956848030019,0.3436692506459948
bclwiki,True,34.0,0.20748829953198128,1.0,0.23723723723723725,0.9530956848030019,0.3436692506459948
bclwiki,True,35.0,0.20748829953198128,1.0,0.23723723723723725,0.9530956848030019,0.3436692506459948
bclwiki,True,36.0,0.2078125,1.0,0.23873873873873874,0.9512195121951219,0.3441138421733506
bclwiki,True,37.0,0.2078125,1.0,0.23873873873873874,0.9512195121951219,0.3441138421733506
bclwiki,True,38.0,0.2081377151799687,1.0,0.24024024024024024,0.949343339587242,0.344559585492228
bclwiki,True,39.0,0.2094488188976378,1.0,0.24624624624624625,0.9418386491557224,0.3463541666666667
bclwiki,True,40.0,0.20977917981072555,1.0,0.24774774774774774,0.9399624765478424,0.3468057366362451
bclwiki,True,41.0,0.21044303797468356,1.0,0.25075075075075076,0.9362101313320825,0.34771241830065364
bclwiki,True,42.0,0.21144674085850557,1.0,0.2552552552552553,0.9305816135084428,0.3490813648293963
bclwiki,True,43.0,0.21212121212121213,1.0,0.25825825825825827,0.926829268292683,0.35
bclwiki,True,44.0,0.2124600638977636,1.0,0.25975975975975973,0.924953095684803,0.35046113306982873
bclwiki,True,45.0,0.21314102564102563,1.0,0.2627627627627628,0.9212007504690432,0.3513870541611625
bclwiki,True,46.0,0.214170692431562,1.0,0.2672672672672673,0.9155722326454033,0.35278514588859416
bclwiki,True,47.0,0.2148626817447496,1.0,0.2702702702702703,0.9118198874296435,0.3537234042553191
bclwiki,True,48.0,0.2169657422512235,1.0,0.27927927927927926,0.900562851782364,0.35656836461126007
bclwiki,True,49.0,0.21947194719471946,1.0,0.2897897897897898,0.8874296435272045,0.35994587280108253
bclwiki,True,50.0,0.2289156626506024,1.0,0.32732732732732733,0.8405253283302064,0.37254901960784315
bclwiki,True,51.0,0.23581560283687944,1.0,0.35285285285285284,0.8086303939962477,0.381635581061693
bclwiki,True,52.0,0.24181818181818182,1.0,0.3738738738738739,0.7823639774859287,0.38945827232796487
bclwiki,True,53.0,0.24906367041198502,1.0,0.3978978978978979,0.7523452157598499,0.3988005997001499
bclwiki,True,54.0,0.2603550295857988,0.9924812030075187,0.43543543543543545,0.7035647279549718,0.41250000000000003
bclwiki,True,55.0,0.26774847870182555,0.9924812030075187,0.45645645645645644,0.6772983114446529,0.4217252396166134
bclwiki,True,56.0,0.2832618025751073,0.9924812030075187,0.496996996996997,0.626641651031895,0.44073455759599334
bclwiki,True,57.0,0.29333333333333333,0.9924812030075187,0.521021021021021,0.5966228893058161,0.45283018867924535
bclwiki,True,58.0,0.2997711670480549,0.9849624060150376,0.5375375375375375,0.574108818011257,0.4596491228070176
bclwiki,True,59.0,0.3075117370892019,0.9849624060150376,0.5540540540540541,0.5534709193245778,0.46869409660107336
bclwiki,True,60.0,0.3089622641509434,0.9849624060150376,0.5570570570570571,0.549718574108818,0.47037701974865354
bclwiki,True,61.0,0.3119047619047619,0.9849624060150376,0.5630630630630631,0.5422138836772983,0.47377938517179025
bclwiki,True,62.0,0.31100478468899523,0.9774436090225563,0.5630630630630631,0.5403377110694184,0.47186932849364793
bclwiki,True,63.0,0.3117505995203837,0.9774436090225563,0.5645645645645646,0.5384615384615384,0.4727272727272728
bclwiki,True,64.0,0.31476997578692495,0.9774436090225563,0.5705705705705706,0.5309568480300187,0.4761904761904762
bclwiki,True,65.0,0.31784841075794623,0.9774436090225563,0.5765765765765766,0.5234521575984991,0.4797047970479706
bclwiki,True,66.0,0.32019704433497537,0.9774436090225563,0.581081081081081,0.5178236397748592,0.4823747680890537
bclwiki,True,67.0,0.32098765432098764,0.9774436090225563,0.5825825825825826,0.5159474671669794,0.483271375464684
bclwiki,True,68.0,0.3192019950124688,0.9624060150375939,0.5825825825825826,0.5121951219512195,0.4794007490636703
bclwiki,True,69.0,0.3175,0.9548872180451128,0.581081081081081,0.5121951219512195,0.47654784240150094
bclwiki,True,70.0,0.32061068702290074,0.9473684210526315,0.5885885885885885,0.50093808630394,0.4790874524714828
bclwiki,True,71.0,0.3220779220779221,0.9323308270676691,0.5945945945945946,0.4896810506566604,0.47876447876447875
bclwiki,True,72.0,0.32266666666666666,0.9097744360902256,0.6006006006006006,0.47654784240150094,0.4763779527559055
bclwiki,True,73.0,0.3305785123966942,0.9022556390977443,0.6156156156156156,0.45590994371482174,0.48387096774193544
bclwiki,True,74.0,0.33714285714285713,0.8872180451127819,0.6291291291291291,0.4352720450281426,0.4886128364389234
bclwiki,True,75.0,0.33819241982507287,0.8721804511278195,0.6336336336336337,0.425891181988743,0.48739495798319316
bclwiki,True,76.0,0.34036144578313254,0.849624060150376,0.6411411411411412,0.41088180112570355,0.4860215053763441
bclwiki,True,77.0,0.34674922600619196,0.8421052631578947,0.6516516516516516,0.39587242026266417,0.4912280701754386
bclwiki,True,78.0,0.34627831715210355,0.8045112781954887,0.6576576576576577,0.3789868667917448,0.4841628959276019
bclwiki,True,79.0,0.3521594684385382,0.7969924812030075,0.6666666666666666,0.36585365853658536,0.48847926267281105
bclwiki,True,80.0,0.3515358361774744,0.7744360902255639,0.6696696696696697,0.35647279549718575,0.4835680751173709
bclwiki,True,81.0,0.3607142857142857,0.7593984962406015,0.6831831831831832,0.33583489681050654,0.4891041162227603
bclwiki,True,82.0,0.36162361623616235,0.7368421052631579,0.6876876876876877,0.324577861163227,0.4851485148514851
bclwiki,True,83.0,0.37209302325581395,0.7218045112781954,0.7012012012012012,0.30393996247654786,0.4910485933503836
bclwiki,True,84.0,0.38333333333333336,0.6917293233082706,0.7162162162162162,0.2776735459662289,0.49329758713136734
bclwiki,True,85.0,0.40444444444444444,0.6842105263157895,0.7357357357357357,0.25140712945590993,0.5083798882681564
bclwiki,True,86.0,0.4057971014492754,0.631578947368421,0.7417417417417418,0.23076923076923078,0.49411764705882355
bclwiki,True,87.0,0.39779005524861877,0.5413533834586466,0.7447447447447447,0.2045028142589118,0.45859872611464964
bclwiki,True,88.0,0.4155844155844156,0.48120300751879697,0.7612612612612613,0.16885553470919323,0.4459930313588851
bclwiki,True,89.0,0.4338235294117647,0.44360902255639095,0.7732732732732732,0.14446529080675422,0.43866171003717475
bclwiki,True,90.0,0.4434782608695652,0.38345864661654133,0.7807807807807807,0.1200750469043152,0.41129032258064513
bclwiki,True,91.0,0.4659090909090909,0.3082706766917293,0.7912912912912913,0.08818011257035648,0.37104072398190047
bclwiki,True,92.0,0.47058823529411764,0.24060150375939848,0.7942942942942943,0.0675422138836773,0.31840796019900497
bclwiki,True,93.0,0.4791666666666667,0.17293233082706766,0.7972972972972973,0.04690431519699812,0.25414364640883974
bclwiki,True,94.0,0.5714285714285714,0.15037593984962405,0.8078078078078078,0.028142589118198873,0.23809523809523808
bclwiki,True,95.0,0.6451612903225806,0.15037593984962405,0.8138138138138138,0.020637898686679174,0.24390243902439024
bclwiki,True,96.0,0.6666666666666666,0.12030075187969924,0.8123123123123123,0.0150093808630394,0.20382165605095542
bclwiki,True,97.0,0.7142857142857143,0.11278195488721804,0.8138138138138138,0.01125703564727955,0.19480519480519476
bclwiki,True,98.0,0.9166666666666666,0.08270676691729323,0.8153153153153153,0.001876172607879925,0.15172413793103448
bclwiki,True,99.0,1.0,0.045112781954887216,0.8093093093093093,0.0,0.08633093525179857
bclwiki,False,0.0,0.027730479202140598,1.0,0.027730479202140598,1.0,0.05396449704142012
bclwiki,False,1.0,0.027750730282375853,1.0,0.028460228654828508,0.9992494370778083,0.05400284225485552
bclwiki,False,2.0,0.02831946342069308,1.0,0.04852833860374605,0.9786089567175381,0.0550791158352458
bclwiki,False,3.0,0.029129934840935224,1.0,0.07577231817076137,0.9505879409557167,0.05661080074487895
bclwiki,False,4.0,0.029945673777659998,0.9912280701754386,0.10934079299440526,0.9158118588941706,0.058135048231511256
bclwiki,False,5.0,0.031288938114356915,0.9912280701754386,0.1487472634395524,0.8752814610958218,0.060662998255267754
bclwiki,False,6.0,0.03291102373671181,0.9912280701754386,0.19204573096570177,0.8307480610457844,0.06370683579985904
bclwiki,False,7.0,0.03467853306736228,0.9912280701754386,0.23461444903916323,0.7869652239179384,0.0670126019273536
bclwiki,False,8.0,0.03644905232463956,0.9868421052631579,0.2762101678423741,0.7440580435326495,0.07030151538822059
bclwiki,False,9.0,0.0383167978104687,0.9824561403508771,0.3157382631963026,0.7032774580935702,0.07375699703654924
bclwiki,False,10.0,0.03981981981981982,0.9692982456140351,0.35100948674288496,0.6666249687265449,0.07649705780546903
bclwiki,False,11.0,0.04199424736337488,0.9605263157894737,0.39126733154950133,0.6249687265449086,0.08047032886275948
bclwiki,False,12.0,0.04414157851912124,0.9517543859649122,0.42714667963999026,0.5878158618964223,0.08437013996889581
bclwiki,False,13.0,0.0468307558266173,0.9429824561403509,0.4661882753587935,0.5474105579184388,0.08923013073251712
bclwiki,False,14.0,0.0496192014770367,0.9429824561403509,0.49756750182437365,0.5151363522641982,0.09427757070817804
bclwiki,False,15.0,0.05185004868549172,0.9342105263157895,0.5244466066650451,0.48724043032274206,0.09824723247232471
bclwiki,False,16.0,0.05427547363031234,0.9298245614035088,0.5487715884213087,0.462096572429322,0.10256410256410256
bclwiki,False,17.0,0.056488142819078074,0.9298245614035088,0.5673801994648504,0.44295721791343506,0.10650590303943733
bclwiki,False,18.0,0.05822012752980316,0.9210526315789473,0.5846509365117977,0.4249437077808356,0.10951760104302477
bclwiki,False,19.0,0.06001154068090017,0.9122807017543859,0.6013135490148382,0.40755566675006255,0.11261505143475907
bclwiki,False,20.0,0.062071023575052224,0.9122807017543859,0.6153004135246899,0.39316987740805603,0.11623358480022353
bclwiki,False,21.0,0.06440572495332919,0.9078947368421053,0.6317197762101678,0.3761571178383788,0.12027890761185359
bclwiki,False,22.0,0.06673114119922631,0.9078947368421053,0.6453417659936755,0.3621466099574681,0.12432432432432433
bclwiki,False,23.0,0.06382264024185422,0.8333333333333334,0.6564096326927755,0.3486364773580185,0.11856474258970359
bclwiki,False,24.0,0.06522497384025114,0.8201754385964912,0.6690586232060326,0.3352514385789342,0.12084006462035542
bclwiki,False,25.0,0.06671474936891453,0.8114035087719298,0.6800048649963513,0.323742807105329,0.12329223592135953
bclwiki,False,26.0,0.0687593423019432,0.8070175438596491,0.6915592313305765,0.3117338003502627,0.12672176308539945
bclwiki,False,27.0,0.07090558766859345,0.8070175438596491,0.7014108489418633,0.3016012009006755,0.13035777541622387
bclwiki,False,28.0,0.07244094488188976,0.8070175438596491,0.7081002189248358,0.2947210407805854,0.1329479768786127
bclwiki,False,29.0,0.07417916497770571,0.8026315789473685,0.7167355874483095,0.2857142857142857,0.13580705009276436
bclwiki,False,30.0,0.07621824239900042,0.8026315789473685,0.7247628314278765,0.27745809357017764,0.1392164321034614
bclwiki,False,31.0,0.07787234042553191,0.8026315789473685,0.7309657017757236,0.27107830873154865,0.14197051978277736
bclwiki,False,32.0,0.07977332170880558,0.8026315789473685,0.7377766966674775,0.26407305479109333,0.1451229183187946
bclwiki,False,33.0,0.080301685891748,0.793859649122807,0.7421551933836049,0.2593194896172129,0.14585012087026591
bclwiki,False,34.0,0.08246013667425968,0.793859649122807,0.7493310630017027,0.25193895421566176,0.1494015683037557
bclwiki,False,35.0,0.08450046685340803,0.793859649122807,0.7557771831671126,0.24530898173630222,0.15274261603375527
bclwiki,False,36.0,0.0857551214864221,0.7894736842105263,0.7607638044271466,0.24005504128096072,0.15470562956596476
bclwiki,False,37.0,0.08767657087189479,0.7894736842105263,0.7663585502310873,0.23430072554415812,0.15782551512494522
bclwiki,False,38.0,0.09013520280420631,0.7894736842105263,0.7731695451228412,0.22729547160370278,0.16179775280898875
bclwiki,False,39.0,0.09222050489438434,0.7850877192982456,0.7797372901970323,0.2204153114836127,0.16505301982480405
bclwiki,False,40.0,0.09368421052631579,0.7807017543859649,0.7844806616395038,0.21541155866900175,0.16729323308270677
bclwiki,False,41.0,0.09546925566343042,0.7763157894736842,0.7898321576258818,0.2097823367525644,0.17002881844380405
bclwiki,False,42.0,0.0970231532524807,0.7719298245614035,0.7944539041595718,0.20490367775831875,0.17238001958863858
bclwiki,False,43.0,0.09904333145751266,0.7719298245614035,0.7989540257844807,0.2002752064048036,0.17556109725685787
bclwiki,False,44.0,0.10126582278481013,0.7719298245614035,0.8036973972269521,0.19539654741055792,0.1790437436419125
bclwiki,False,45.0,0.10277613703484938,0.7631578947368421,0.8086840184869861,0.19001751313485113,0.18115564809994794
bclwiki,False,46.0,0.10596833130328867,0.7631578947368421,0.8148868888348334,0.18363772829622216,0.18609625668449198
bclwiki,False,47.0,0.10729881472239551,0.7543859649122807,0.8191437606421795,0.17900925694270703,0.18787547788093936
bclwiki,False,48.0,0.10961538461538461,0.75,0.8241303819022135,0.17375531648736553,0.19127516778523487
bclwiki,False,49.0,0.11317008603573792,0.75,0.8300900024324982,0.1676257192894671,0.19666474985623922
bclwiki,False,50.0,0.1165644171779141,0.75,0.8354414984188762,0.16212159119339506,0.20176991150442478
bclwiki,False,51.0,0.11929824561403508,0.7456140350877193,0.840306494770129,0.1569927445584188,0.205686630369026
bclwiki,False,52.0,0.12083936324167872,0.7324561403508771,0.8448066163950377,0.15198899174380787,0.20745341614906831
bclwiki,False,53.0,0.1239731142643764,0.7280701754385965,0.8497932376550718,0.14673505128846634,0.211869814932993
bclwiki,False,54.0,0.12742812742812742,0.7192982456140351,0.8556312332765751,0.14048036027020266,0.2165016501650165
bclwiki,False,55.0,0.12965964343598055,0.7017543859649122,0.8611043541717344,0.13435076307230423,0.2188782489740082
bclwiki,False,56.0,0.13389830508474576,0.6929824561403509,0.8671855996108003,0.12784588441331,0.22443181818181818
bclwiki,False,57.0,0.13893805309734514,0.6885964912280702,0.8730235952323036,0.12171628721541156,0.23122238586156113
bclwiki,False,58.0,0.14312096029547552,0.6798245614035088,0.8782534663099003,0.11608706529897424,0.2364607170099161
bclwiki,False,59.0,0.1501937984496124,0.6798245614035088,0.8844563366577475,0.10970728046034525,0.246031746031746
bclwiki,False,60.0,0.15656565656565657,0.6798245614035088,0.8895645828265629,0.10445334000500375,0.2545155993431856
bclwiki,False,61.0,0.1608832807570978,0.6710526315789473,0.893821454633909,0.09982486865148861,0.2595419847328244
bclwiki,False,62.0,0.16685082872928178,0.6622807017543859,0.8989297008027244,0.09432074055541656,0.26654898499558694
bclwiki,False,63.0,0.1728538283062645,0.6535087719298246,0.9036730722451958,0.08919189392044033,0.27339449541284405
bclwiki,False,64.0,0.178743961352657,0.6491228070175439,0.907565069326198,0.08506379784838629,0.2803030303030303
bclwiki,False,65.0,0.18387909319899245,0.6403508771929824,0.9112138165896375,0.08106079559669753,0.28571428571428575
bclwiki,False,66.0,0.18922470433639949,0.631578947368421,0.9147409389442958,0.07718288716537403,0.29120323559150657
bclwiki,False,67.0,0.19433198380566802,0.631578947368421,0.9171734371199222,0.07468101075806854,0.29721362229102166
bclwiki,False,68.0,0.199438202247191,0.6228070175438597,0.9202140598394551,0.07130347760820616,0.3021276595744681
bclwiki,False,69.0,0.20321637426900585,0.6096491228070176,0.9228898078326441,0.0681761320990743,0.3048245614035088
bclwiki,False,70.0,0.21068702290076335,0.6052631578947368,0.9261736803697397,0.06467350512884663,0.3125707814269536
bclwiki,False,71.0,0.21462639109697934,0.5921052631578947,0.9286061785453661,0.06179634726044533,0.31505250875145857
bclwiki,False,72.0,0.22372881355932203,0.5789473684210527,0.9326198005351496,0.05729296972729547,0.32273838630806845
bclwiki,False,73.0,0.23434704830053668,0.5745614035087719,0.9361469228898078,0.05354015511633725,0.33290978398983484
bclwiki,False,74.0,0.24478178368121442,0.5657894736842105,0.9395524203356848,0.04978734050537904,0.3417218543046358
bclwiki,False,75.0,0.2514851485148515,0.5570175438596491,0.9417416686937485,0.047285464098073555,0.34652114597544337
bclwiki,False,76.0,0.25949367088607594,0.5394736842105263,0.9445390415957188,0.04390793094821116,0.3504273504273504
bclwiki,False,77.0,0.27069351230425054,0.5307017543859649,0.9473364144976891,0.04078058543907931,0.35851851851851846
bclwiki,False,78.0,0.2804878048780488,0.5043859649122807,0.9503770372172221,0.03690267700775582,0.36050156739811917
bclwiki,False,79.0,0.2857142857142857,0.5,0.9514716613962539,0.03565173880410308,0.36363636363636365
bclwiki,False,80.0,0.291005291005291,0.4824561403508772,0.9530527852104111,0.03352514385789342,0.36303630363036304
bclwiki,False,81.0,0.30857142857142855,0.47368421052631576,0.9559717830211627,0.030272704528396296,0.3737024221453287
bclwiki,False,82.0,0.31044776119402984,0.45614035087719296,0.956823157382632,0.028896672504378284,0.369449378330373
bclwiki,False,83.0,0.3238095238095238,0.4473684210526316,0.958769155923133,0.026644983737803354,0.37569060773480667
bclwiki,False,84.0,0.33676975945017185,0.4298245614035088,0.9607151544636342,0.024143107330497873,0.37764932562620424
bclwiki,False,85.0,0.3574144486692015,0.41228070175438597,0.9631476526392605,0.0211408556417313,0.3828920570264766
bclwiki,False,86.0,0.35684647302904565,0.37719298245614036,0.9638774020919484,0.019389542156617465,0.36673773987206826
bclwiki,False,87.0,0.35406698564593303,0.32456140350877194,0.964850401362199,0.016887665749311984,0.33867276887871856
bclwiki,False,88.0,0.3687150837988827,0.2894736842105263,0.9665531500851374,0.014135601701275957,0.32432432432432434
bclwiki,False,89.0,0.3860759493670886,0.2675438596491228,0.9678910240817319,0.012134100575431574,0.3160621761658031
bclwiki,False,90.0,0.3925925925925926,0.2324561403508772,0.9687423984432012,0.010257693269952465,0.29201101928374656
bclwiki,False,91.0,0.40186915887850466,0.18859649122807018,0.9697153977134517,0.008006004503377533,0.2567164179104478
bclwiki,False,92.0,0.425,0.14912280701754385,0.9708100218924836,0.005754315736802602,0.22077922077922077
bclwiki,False,93.0,0.43859649122807015,0.10964912280701754,0.9714181464363901,0.0040030022516887665,0.17543859649122806
bclwiki,False,94.0,0.5,0.09649122807017543,0.9722695207978594,0.0027520640480360272,0.16176470588235295
bclwiki,False,95.0,0.5714285714285714,0.08771929824561403,0.972877645341766,0.0018764073054791093,0.1520912547528517
bclwiki,False,96.0,0.6153846153846154,0.07017543859649122,0.9729992702505473,0.0012509382036527395,0.12598425196850394
bclwiki,False,97.0,0.6818181818181818,0.06578947368421052,0.97324252006811,0.0008756567425569177,0.11999999999999998
bclwiki,False,98.0,0.9166666666666666,0.04824561403508772,0.9734857698856726,0.00012509382036527395,0.09166666666666666
bclwiki,False,99.0,1.0,0.02631578947368421,0.9729992702505473,0.0,0.05128205128205127
