wiki_db,user_is_anonymous_or_bot,threshold,precision,recall,accuracy,fpr,F1
cdowiki,True,0.0,0.8478260869565217,1.0,0.8478260869565217,1.0,0.9176470588235294
cdowiki,True,1.0,0.8478260869565217,1.0,0.8478260869565217,1.0,0.9176470588235294
cdowiki,True,2.0,0.8478260869565217,1.0,0.8478260869565217,1.0,0.9176470588235294
cdowiki,True,3.0,0.8478260869565217,1.0,0.8478260869565217,1.0,0.9176470588235294
cdowiki,True,4.0,0.8478260869565217,1.0,0.8478260869565217,1.0,0.9176470588235294
cdowiki,True,5.0,0.8478260869565217,1.0,0.8478260869565217,1.0,0.9176470588235294
cdowiki,True,6.0,0.8478260869565217,1.0,0.8478260869565217,1.0,0.9176470588235294
cdowiki,True,7.0,0.8478260869565217,1.0,0.8478260869565217,1.0,0.9176470588235294
cdowiki,True,8.0,0.8478260869565217,1.0,0.8478260869565217,1.0,0.9176470588235294
cdowiki,True,9.0,0.8478260869565217,1.0,0.8478260869565217,1.0,0.9176470588235294
cdowiki,True,10.0,0.8478260869565217,1.0,0.8478260869565217,1.0,0.9176470588235294
cdowiki,True,11.0,0.8478260869565217,1.0,0.8478260869565217,1.0,0.9176470588235294
cdowiki,True,12.0,0.8478260869565217,1.0,0.8478260869565217,1.0,0.9176470588235294
cdowiki,True,13.0,0.8478260869565217,1.0,0.8478260869565217,1.0,0.9176470588235294
cdowiki,True,14.0,0.8478260869565217,1.0,0.8478260869565217,1.0,0.9176470588235294
cdowiki,True,15.0,0.8478260869565217,1.0,0.8478260869565217,1.0,0.9176470588235294
cdowiki,True,16.0,0.8478260869565217,1.0,0.8478260869565217,1.0,0.9176470588235294
cdowiki,True,17.0,0.8478260869565217,1.0,0.8478260869565217,1.0,0.9176470588235294
cdowiki,True,18.0,0.8478260869565217,1.0,0.8478260869565217,1.0,0.9176470588235294
cdowiki,True,19.0,0.8478260869565217,1.0,0.8478260869565217,1.0,0.9176470588235294
cdowiki,True,20.0,0.8478260869565217,1.0,0.8478260869565217,1.0,0.9176470588235294
cdowiki,True,21.0,0.8666666666666667,1.0,0.8695652173913043,0.8571428571428571,0.9285714285714286
cdowiki,True,22.0,0.8666666666666667,1.0,0.8695652173913043,0.8571428571428571,0.9285714285714286
cdowiki,True,23.0,0.8666666666666667,1.0,0.8695652173913043,0.8571428571428571,0.9285714285714286
cdowiki,True,24.0,0.8666666666666667,1.0,0.8695652173913043,0.8571428571428571,0.9285714285714286
cdowiki,True,25.0,0.8666666666666667,1.0,0.8695652173913043,0.8571428571428571,0.9285714285714286
cdowiki,True,26.0,0.8863636363636364,1.0,0.8913043478260869,0.7142857142857143,0.9397590361445783
cdowiki,True,27.0,0.8863636363636364,1.0,0.8913043478260869,0.7142857142857143,0.9397590361445783
cdowiki,True,28.0,0.8863636363636364,1.0,0.8913043478260869,0.7142857142857143,0.9397590361445783
cdowiki,True,29.0,0.8863636363636364,1.0,0.8913043478260869,0.7142857142857143,0.9397590361445783
cdowiki,True,30.0,0.8863636363636364,1.0,0.8913043478260869,0.7142857142857143,0.9397590361445783
cdowiki,True,31.0,0.8863636363636364,1.0,0.8913043478260869,0.7142857142857143,0.9397590361445783
cdowiki,True,32.0,0.8863636363636364,1.0,0.8913043478260869,0.7142857142857143,0.9397590361445783
cdowiki,True,33.0,0.8863636363636364,1.0,0.8913043478260869,0.7142857142857143,0.9397590361445783
cdowiki,True,34.0,0.8863636363636364,1.0,0.8913043478260869,0.7142857142857143,0.9397590361445783
cdowiki,True,35.0,0.8863636363636364,1.0,0.8913043478260869,0.7142857142857143,0.9397590361445783
cdowiki,True,36.0,0.8863636363636364,1.0,0.8913043478260869,0.7142857142857143,0.9397590361445783
cdowiki,True,37.0,0.8863636363636364,1.0,0.8913043478260869,0.7142857142857143,0.9397590361445783
cdowiki,True,38.0,0.8863636363636364,1.0,0.8913043478260869,0.7142857142857143,0.9397590361445783
cdowiki,True,39.0,0.8863636363636364,1.0,0.8913043478260869,0.7142857142857143,0.9397590361445783
cdowiki,True,40.0,0.8863636363636364,1.0,0.8913043478260869,0.7142857142857143,0.9397590361445783
cdowiki,True,41.0,0.8863636363636364,1.0,0.8913043478260869,0.7142857142857143,0.9397590361445783
cdowiki,True,42.0,0.8863636363636364,1.0,0.8913043478260869,0.7142857142857143,0.9397590361445783
cdowiki,True,43.0,0.8863636363636364,1.0,0.8913043478260869,0.7142857142857143,0.9397590361445783
cdowiki,True,44.0,0.8863636363636364,1.0,0.8913043478260869,0.7142857142857143,0.9397590361445783
cdowiki,True,45.0,0.8863636363636364,1.0,0.8913043478260869,0.7142857142857143,0.9397590361445783
cdowiki,True,46.0,0.9069767441860465,1.0,0.9130434782608695,0.5714285714285714,0.951219512195122
cdowiki,True,47.0,0.9069767441860465,1.0,0.9130434782608695,0.5714285714285714,0.951219512195122
cdowiki,True,48.0,0.9069767441860465,1.0,0.9130434782608695,0.5714285714285714,0.951219512195122
cdowiki,True,49.0,0.9069767441860465,1.0,0.9130434782608695,0.5714285714285714,0.951219512195122
cdowiki,True,50.0,0.9069767441860465,1.0,0.9130434782608695,0.5714285714285714,0.951219512195122
cdowiki,True,51.0,0.9069767441860465,1.0,0.9130434782608695,0.5714285714285714,0.951219512195122
cdowiki,True,52.0,0.9069767441860465,1.0,0.9130434782608695,0.5714285714285714,0.951219512195122
cdowiki,True,53.0,0.9069767441860465,1.0,0.9130434782608695,0.5714285714285714,0.951219512195122
cdowiki,True,54.0,0.9069767441860465,1.0,0.9130434782608695,0.5714285714285714,0.951219512195122
cdowiki,True,55.0,0.9069767441860465,1.0,0.9130434782608695,0.5714285714285714,0.951219512195122
cdowiki,True,56.0,0.9069767441860465,1.0,0.9130434782608695,0.5714285714285714,0.951219512195122
cdowiki,True,57.0,0.9069767441860465,1.0,0.9130434782608695,0.5714285714285714,0.951219512195122
cdowiki,True,58.0,0.9069767441860465,1.0,0.9130434782608695,0.5714285714285714,0.951219512195122
cdowiki,True,59.0,0.9069767441860465,1.0,0.9130434782608695,0.5714285714285714,0.951219512195122
cdowiki,True,60.0,0.9069767441860465,1.0,0.9130434782608695,0.5714285714285714,0.951219512195122
cdowiki,True,61.0,0.9069767441860465,1.0,0.9130434782608695,0.5714285714285714,0.951219512195122
cdowiki,True,62.0,0.9069767441860465,1.0,0.9130434782608695,0.5714285714285714,0.951219512195122
cdowiki,True,63.0,0.9069767441860465,1.0,0.9130434782608695,0.5714285714285714,0.951219512195122
cdowiki,True,64.0,0.9069767441860465,1.0,0.9130434782608695,0.5714285714285714,0.951219512195122
cdowiki,True,65.0,0.9069767441860465,1.0,0.9130434782608695,0.5714285714285714,0.951219512195122
cdowiki,True,66.0,0.9069767441860465,1.0,0.9130434782608695,0.5714285714285714,0.951219512195122
cdowiki,True,67.0,0.9069767441860465,1.0,0.9130434782608695,0.5714285714285714,0.951219512195122
cdowiki,True,68.0,0.9069767441860465,1.0,0.9130434782608695,0.5714285714285714,0.951219512195122
cdowiki,True,69.0,0.9069767441860465,1.0,0.9130434782608695,0.5714285714285714,0.951219512195122
cdowiki,True,70.0,0.9069767441860465,1.0,0.9130434782608695,0.5714285714285714,0.951219512195122
cdowiki,True,71.0,0.9069767441860465,1.0,0.9130434782608695,0.5714285714285714,0.951219512195122
cdowiki,True,72.0,0.9069767441860465,1.0,0.9130434782608695,0.5714285714285714,0.951219512195122
cdowiki,True,73.0,0.9047619047619048,0.9743589743589743,0.8913043478260869,0.5714285714285714,0.9382716049382716
cdowiki,True,74.0,0.9047619047619048,0.9743589743589743,0.8913043478260869,0.5714285714285714,0.9382716049382716
cdowiki,True,75.0,0.9024390243902439,0.9487179487179487,0.8695652173913043,0.5714285714285714,0.9249999999999999
cdowiki,True,76.0,0.9,0.9230769230769231,0.8478260869565217,0.5714285714285714,0.9113924050632911
cdowiki,True,77.0,0.9210526315789473,0.8974358974358975,0.8478260869565217,0.42857142857142855,0.9090909090909091
cdowiki,True,78.0,0.9166666666666666,0.8461538461538461,0.8043478260869565,0.42857142857142855,0.8799999999999999
cdowiki,True,79.0,0.9117647058823529,0.7948717948717948,0.7608695652173914,0.42857142857142855,0.8493150684931507
cdowiki,True,80.0,0.9090909090909091,0.7692307692307693,0.7391304347826086,0.42857142857142855,0.8333333333333333
cdowiki,True,81.0,0.9375,0.7692307692307693,0.7608695652173914,0.2857142857142857,0.8450704225352113
cdowiki,True,82.0,0.9375,0.7692307692307693,0.7608695652173914,0.2857142857142857,0.8450704225352113
cdowiki,True,83.0,0.9375,0.7692307692307693,0.7608695652173914,0.2857142857142857,0.8450704225352113
cdowiki,True,84.0,0.9354838709677419,0.7435897435897436,0.7391304347826086,0.2857142857142857,0.8285714285714285
cdowiki,True,85.0,0.9642857142857143,0.6923076923076923,0.717391304347826,0.14285714285714285,0.8059701492537313
cdowiki,True,86.0,1.0,0.6923076923076923,0.7391304347826086,0.0,0.8181818181818181
cdowiki,True,87.0,1.0,0.6923076923076923,0.7391304347826086,0.0,0.8181818181818181
cdowiki,True,88.0,1.0,0.6923076923076923,0.7391304347826086,0.0,0.8181818181818181
cdowiki,True,89.0,1.0,0.6666666666666666,0.717391304347826,0.0,0.8
cdowiki,True,90.0,1.0,0.6666666666666666,0.717391304347826,0.0,0.8
cdowiki,True,91.0,1.0,0.6410256410256411,0.6956521739130435,0.0,0.7812500000000001
cdowiki,True,92.0,1.0,0.6410256410256411,0.6956521739130435,0.0,0.7812500000000001
cdowiki,True,93.0,1.0,0.6153846153846154,0.6739130434782609,0.0,0.761904761904762
cdowiki,True,94.0,1.0,0.6153846153846154,0.6739130434782609,0.0,0.761904761904762
cdowiki,True,95.0,1.0,0.6153846153846154,0.6739130434782609,0.0,0.761904761904762
cdowiki,True,96.0,1.0,0.6153846153846154,0.6739130434782609,0.0,0.761904761904762
cdowiki,True,97.0,1.0,0.6153846153846154,0.6739130434782609,0.0,0.761904761904762
cdowiki,True,98.0,1.0,0.5384615384615384,0.6086956521739131,0.0,0.7000000000000001
cdowiki,True,99.0,1.0,0.4358974358974359,0.5217391304347826,0.0,0.6071428571428571
cdowiki,False,0.0,0.24390243902439024,1.0,0.24390243902439024,1.0,0.39215686274509803
cdowiki,False,1.0,0.24390243902439024,1.0,0.24390243902439024,1.0,0.39215686274509803
cdowiki,False,2.0,0.24390243902439024,1.0,0.24390243902439024,1.0,0.39215686274509803
cdowiki,False,3.0,0.24390243902439024,1.0,0.24390243902439024,1.0,0.39215686274509803
cdowiki,False,4.0,0.24390243902439024,1.0,0.24390243902439024,1.0,0.39215686274509803
cdowiki,False,5.0,0.24390243902439024,1.0,0.24390243902439024,1.0,0.39215686274509803
cdowiki,False,6.0,0.24509803921568626,1.0,0.24878048780487805,0.9935483870967742,0.39370078740157477
cdowiki,False,7.0,0.24509803921568626,1.0,0.24878048780487805,0.9935483870967742,0.39370078740157477
cdowiki,False,8.0,0.24752475247524752,1.0,0.25853658536585367,0.9806451612903225,0.3968253968253968
cdowiki,False,9.0,0.25252525252525254,1.0,0.2780487804878049,0.9548387096774194,0.40322580645161293
cdowiki,False,10.0,0.25252525252525254,1.0,0.2780487804878049,0.9548387096774194,0.40322580645161293
cdowiki,False,11.0,0.25252525252525254,1.0,0.2780487804878049,0.9548387096774194,0.40322580645161293
cdowiki,False,12.0,0.2564102564102564,1.0,0.2926829268292683,0.9354838709677419,0.4081632653061224
cdowiki,False,13.0,0.2631578947368421,1.0,0.3170731707317073,0.9032258064516129,0.4166666666666667
cdowiki,False,14.0,0.26455026455026454,1.0,0.32195121951219513,0.896774193548387,0.4184100418410041
cdowiki,False,15.0,0.26455026455026454,1.0,0.32195121951219513,0.896774193548387,0.4184100418410041
cdowiki,False,16.0,0.2702702702702703,1.0,0.34146341463414637,0.8709677419354839,0.4255319148936171
cdowiki,False,17.0,0.2777777777777778,1.0,0.36585365853658536,0.8387096774193549,0.4347826086956522
cdowiki,False,18.0,0.27932960893854747,1.0,0.37073170731707317,0.832258064516129,0.43668122270742354
cdowiki,False,19.0,0.2824858757062147,1.0,0.3804878048780488,0.8193548387096774,0.44052863436123346
cdowiki,False,20.0,0.28735632183908044,1.0,0.3951219512195122,0.8,0.4464285714285714
cdowiki,False,21.0,0.2994011976047904,1.0,0.4292682926829268,0.7548387096774194,0.4608294930875576
cdowiki,False,22.0,0.30303030303030304,1.0,0.43902439024390244,0.7419354838709677,0.4651162790697675
cdowiki,False,23.0,0.30303030303030304,1.0,0.43902439024390244,0.7419354838709677,0.4651162790697675
cdowiki,False,24.0,0.30864197530864196,1.0,0.45365853658536587,0.7225806451612903,0.4716981132075471
cdowiki,False,25.0,0.3125,1.0,0.4634146341463415,0.7096774193548387,0.47619047619047616
cdowiki,False,26.0,0.32051282051282054,1.0,0.48292682926829267,0.6838709677419355,0.48543689320388356
cdowiki,False,27.0,0.3225806451612903,1.0,0.4878048780487805,0.6774193548387096,0.4878048780487805
cdowiki,False,28.0,0.33112582781456956,1.0,0.5073170731707317,0.6516129032258065,0.49751243781094534
cdowiki,False,29.0,0.33112582781456956,1.0,0.5073170731707317,0.6516129032258065,0.49751243781094534
cdowiki,False,30.0,0.3472222222222222,1.0,0.5414634146341464,0.6064516129032258,0.5154639175257731
cdowiki,False,31.0,0.35714285714285715,1.0,0.5609756097560976,0.5806451612903226,0.5263157894736842
cdowiki,False,32.0,0.35714285714285715,1.0,0.5609756097560976,0.5806451612903226,0.5263157894736842
cdowiki,False,33.0,0.3597122302158273,1.0,0.5658536585365853,0.5741935483870968,0.5291005291005291
cdowiki,False,34.0,0.36764705882352944,1.0,0.5804878048780487,0.5548387096774193,0.5376344086021506
cdowiki,False,35.0,0.373134328358209,1.0,0.5902439024390244,0.5419354838709678,0.5434782608695653
cdowiki,False,36.0,0.373134328358209,1.0,0.5902439024390244,0.5419354838709678,0.5434782608695653
cdowiki,False,37.0,0.373134328358209,1.0,0.5902439024390244,0.5419354838709678,0.5434782608695653
cdowiki,False,38.0,0.38461538461538464,1.0,0.6097560975609756,0.5161290322580645,0.5555555555555556
cdowiki,False,39.0,0.3875968992248062,1.0,0.6146341463414634,0.5096774193548387,0.558659217877095
cdowiki,False,40.0,0.3937007874015748,1.0,0.624390243902439,0.4967741935483871,0.5649717514124294
cdowiki,False,41.0,0.3968253968253968,1.0,0.6292682926829268,0.49032258064516127,0.5681818181818182
cdowiki,False,42.0,0.4065040650406504,1.0,0.6439024390243903,0.47096774193548385,0.5780346820809249
cdowiki,False,43.0,0.4098360655737705,1.0,0.6487804878048781,0.4645161290322581,0.5813953488372093
cdowiki,False,44.0,0.4098360655737705,1.0,0.6487804878048781,0.4645161290322581,0.5813953488372093
cdowiki,False,45.0,0.42016806722689076,1.0,0.6634146341463415,0.44516129032258067,0.591715976331361
cdowiki,False,46.0,0.423728813559322,1.0,0.6682926829268293,0.43870967741935485,0.5952380952380952
cdowiki,False,47.0,0.423728813559322,1.0,0.6682926829268293,0.43870967741935485,0.5952380952380952
cdowiki,False,48.0,0.43103448275862066,1.0,0.6780487804878049,0.4258064516129032,0.6024096385542169
cdowiki,False,49.0,0.43103448275862066,1.0,0.6780487804878049,0.4258064516129032,0.6024096385542169
cdowiki,False,50.0,0.4424778761061947,1.0,0.6926829268292682,0.4064516129032258,0.6134969325153374
cdowiki,False,51.0,0.45045045045045046,1.0,0.7024390243902439,0.3935483870967742,0.6211180124223602
cdowiki,False,52.0,0.47619047619047616,1.0,0.7317073170731707,0.3548387096774194,0.6451612903225806
cdowiki,False,53.0,0.4807692307692308,1.0,0.7365853658536585,0.34838709677419355,0.6493506493506493
cdowiki,False,54.0,0.4854368932038835,1.0,0.7414634146341463,0.3419354838709677,0.6535947712418301
cdowiki,False,55.0,0.4854368932038835,1.0,0.7414634146341463,0.3419354838709677,0.6535947712418301
cdowiki,False,56.0,0.5,1.0,0.7560975609756098,0.3225806451612903,0.6666666666666666
cdowiki,False,57.0,0.5050505050505051,1.0,0.7609756097560976,0.3161290322580645,0.6711409395973155
cdowiki,False,58.0,0.5102040816326531,1.0,0.7658536585365854,0.3096774193548387,0.6756756756756758
cdowiki,False,59.0,0.5102040816326531,1.0,0.7658536585365854,0.3096774193548387,0.6756756756756758
cdowiki,False,60.0,0.5102040816326531,1.0,0.7658536585365854,0.3096774193548387,0.6756756756756758
cdowiki,False,61.0,0.5154639175257731,1.0,0.7707317073170732,0.3032258064516129,0.6802721088435374
cdowiki,False,62.0,0.5154639175257731,1.0,0.7707317073170732,0.3032258064516129,0.6802721088435374
cdowiki,False,63.0,0.5208333333333334,1.0,0.775609756097561,0.2967741935483871,0.684931506849315
cdowiki,False,64.0,0.5319148936170213,1.0,0.7853658536585366,0.2838709677419355,0.6944444444444444
cdowiki,False,65.0,0.5434782608695652,1.0,0.7951219512195122,0.2709677419354839,0.704225352112676
cdowiki,False,66.0,0.5617977528089888,1.0,0.8097560975609757,0.25161290322580643,0.7194244604316548
cdowiki,False,67.0,0.5697674418604651,0.98,0.8146341463414634,0.23870967741935484,0.7205882352941176
cdowiki,False,68.0,0.5975609756097561,0.98,0.8341463414634146,0.2129032258064516,0.7424242424242423
cdowiki,False,69.0,0.6049382716049383,0.98,0.8390243902439024,0.2064516129032258,0.7480916030534351
cdowiki,False,70.0,0.6282051282051282,0.98,0.8536585365853658,0.1870967741935484,0.765625
cdowiki,False,71.0,0.6233766233766234,0.96,0.848780487804878,0.1870967741935484,0.7559055118110236
cdowiki,False,72.0,0.6266666666666667,0.94,0.848780487804878,0.18064516129032257,0.752
cdowiki,False,73.0,0.6301369863013698,0.92,0.848780487804878,0.17419354838709677,0.7479674796747968
cdowiki,False,74.0,0.647887323943662,0.92,0.8585365853658536,0.16129032258064516,0.7603305785123967
cdowiki,False,75.0,0.6617647058823529,0.9,0.8634146341463415,0.14838709677419354,0.7627118644067796
cdowiki,False,76.0,0.676923076923077,0.88,0.8682926829268293,0.13548387096774195,0.7652173913043478
cdowiki,False,77.0,0.7192982456140351,0.82,0.8780487804878049,0.1032258064516129,0.7663551401869159
cdowiki,False,78.0,0.7090909090909091,0.78,0.8682926829268293,0.1032258064516129,0.7428571428571428
cdowiki,False,79.0,0.6981132075471698,0.74,0.8585365853658536,0.1032258064516129,0.7184466019417476
cdowiki,False,80.0,0.7446808510638298,0.7,0.8682926829268293,0.07741935483870968,0.7216494845360825
cdowiki,False,81.0,0.7674418604651163,0.66,0.8682926829268293,0.06451612903225806,0.7096774193548386
cdowiki,False,82.0,0.7804878048780488,0.64,0.8682926829268293,0.05806451612903226,0.7032967032967035
cdowiki,False,83.0,0.7948717948717948,0.62,0.8682926829268293,0.05161290322580645,0.6966292134831461
cdowiki,False,84.0,0.8108108108108109,0.6,0.8682926829268293,0.04516129032258064,0.6896551724137931
cdowiki,False,85.0,0.8235294117647058,0.56,0.8634146341463415,0.03870967741935484,0.6666666666666666
cdowiki,False,86.0,0.8484848484848485,0.56,0.8682926829268293,0.03225806451612903,0.6746987951807228
cdowiki,False,87.0,0.8484848484848485,0.56,0.8682926829268293,0.03225806451612903,0.6746987951807228
cdowiki,False,88.0,0.875,0.56,0.8731707317073171,0.025806451612903226,0.6829268292682927
cdowiki,False,89.0,0.9,0.54,0.8731707317073171,0.01935483870967742,0.675
cdowiki,False,90.0,0.9,0.54,0.8731707317073171,0.01935483870967742,0.675
cdowiki,False,91.0,0.896551724137931,0.52,0.8682926829268293,0.01935483870967742,0.6582278481012658
cdowiki,False,92.0,0.9285714285714286,0.52,0.8731707317073171,0.012903225806451613,0.6666666666666666
cdowiki,False,93.0,0.9259259259259259,0.5,0.8682926829268293,0.012903225806451613,0.6493506493506493
cdowiki,False,94.0,0.9259259259259259,0.5,0.8682926829268293,0.012903225806451613,0.6493506493506493
cdowiki,False,95.0,0.9259259259259259,0.5,0.8682926829268293,0.012903225806451613,0.6493506493506493
cdowiki,False,96.0,1.0,0.48,0.8731707317073171,0.0,0.6486486486486487
cdowiki,False,97.0,1.0,0.48,0.8731707317073171,0.0,0.6486486486486487
cdowiki,False,98.0,1.0,0.42,0.8585365853658536,0.0,0.5915492957746479
cdowiki,False,99.0,1.0,0.34,0.8390243902439024,0.0,0.5074626865671642
