wiki_db,user_is_anonymous_or_bot,threshold,precision,recall,accuracy,fpr,F1
cewiki,True,0.0,0.017721931782282145,1.0,0.017721931782282145,1.0,0.03482666773476459
cewiki,True,1.0,0.024792832794286148,0.9966647498562392,0.305187155421036,0.707288251649583,0.048382121616887395
cewiki,True,2.0,0.025158059731324758,0.5500862564692351,0.6142814923517482,0.38456031871187285,0.04811556588351869
cewiki,True,3.0,0.023250343646400717,0.3637722829212191,0.7178961957463288,0.27571481927210856,0.04370716338713244
cewiki,True,4.0,0.025407246825642615,0.3538240368027602,0.7480214416011903,0.244866580902187,0.0474100899581993
cewiki,True,5.0,0.01807657906580604,0.18246118458884417,0.8098637480000408,0.17881686516993817,0.03289429351910886
cewiki,True,6.0,0.0108284515689376,0.09959746981023576,0.8228061593649046,0.16414595177822966,0.01953321040493067
cewiki,True,7.0,0.006714010000223552,0.051811385853939046,0.8473559774577843,0.13829107357762377,0.011887562917664445
cewiki,True,8.0,0.006418028212381887,0.03835537665324899,0.8777278424898346,0.10712848072374155,0.010996076362557288
cewiki,True,9.0,0.007103383556644596,0.03133985048878666,0.9052004035586536,0.0790336971407229,0.011581698790828146
cewiki,True,10.0,0.009019668364284857,0.030247268545140885,0.9239200220122902,0.05995663360584305,0.013895676753800837
cewiki,True,11.0,0.011098614264796384,0.0300747556066705,0.935321573063479,0.04834626717018716,0.016213786368638877
cewiki,True,12.0,0.015624530512905261,0.029902242668200116,0.9494216678386173,0.033988670788894886,0.020524560399439524
cewiki,True,13.0,0.0076760987357013845,0.011730879815986198,0.955610586281044,0.027360252313566005,0.009279898103079652
cewiki,True,14.0,0.004555349512214786,0.006497987349051179,0.9572288972454065,0.025618334232477072,0.005355957910702436
cewiki,True,15.0,0.004540153282239254,0.006267970097757332,0.9580339763775515,0.024794580238203925,0.005265954877047201
cewiki,True,16.0,0.005251130451694462,0.00621046578493387,0.9615386183211553,0.021225671245383243,0.005690649945991516
cewiki,True,17.0,0.0053987980034633795,0.006095457159286947,0.9624853506170575,0.020259783375523924,0.005726015557476232
cewiki,True,18.0,0.006268458802965463,0.005980448533640023,0.9655823575570435,0.017104826326928665,0.006121067655454519
cewiki,True,19.0,0.006338947237586229,0.005865439907993099,0.9660878249615295,0.016588164501805204,0.006093007974672202
cewiki,True,20.0,0.006476850070539952,0.005807935595169638,0.9665922732785064,0.016073577623770593,0.0061241814212951735
cewiki,True,21.0,0.00706164818868724,0.005750431282346176,0.968050587503949,0.014587915508154543,0.006338943298152198
cewiki,True,22.0,0.008144126357354392,0.005692926969522714,0.9700918197845649,0.01250881852512761,0.006701414743112435
cewiki,True,23.0,0.01027610545982977,0.005692926969522714,0.9726619584823749,0.009892310246088725,0.007326820603907637
cewiki,True,24.0,0.016181758744687805,0.005692926969522714,0.9762450701641749,0.006244553263891771,0.008422664624808576
cewiki,True,25.0,0.02205716857978843,0.0056354226566992524,0.9779500035668063,0.004507822550524961,0.008977236293683874
cewiki,True,26.0,0.03993480032599837,0.0056354226566992524,0.9799769686222956,0.002444287670664398,0.009877040919169522
cewiki,True,27.0,0.0431148262208535,0.0056354226566992524,0.9801614234614326,0.002256504959123542,0.009967960128159486
cewiki,True,28.0,0.04454545454545455,0.0056354226566992524,0.9802358168495928,0.002180769390380545,0.010005104645227157
cewiki,True,29.0,0.04478301015697138,0.005577918343875791,0.9802684276498823,0.002146532763414533,0.009920229085702599
cewiki,True,30.0,0.045561296383278535,0.005577918343875791,0.9803061338877169,0.0021081462422708223,0.009939033761975512
cewiki,True,31.0,0.0480912245909767,0.005577918343875791,0.9804202716887299,0.001991949205295265,0.009996393054052661
cewiki,True,32.0,0.05164066702528241,0.005520414031052329,0.9805792493401408,0.0018290658588206,0.009974544132162708
cewiki,True,33.0,0.058146577831617204,0.005520414031052329,0.9807912195420221,0.0016132713615802797,0.010083504017646131
cewiki,True,34.0,0.05944272445820433,0.005520414031052329,0.9808279066923477,0.0015759223139809935,0.010102604577742697
cewiki,True,35.0,0.0636604774535809,0.005520414031052329,0.9809369490558154,0.0014649126447275594,0.010159805270398984
cewiki,True,36.0,0.06584362139917696,0.005520414031052329,0.9809879034312676,0.0014130389675063287,0.010186757215619695
cewiki,True,37.0,0.06666666666666667,0.005462909718228867,0.9810194951440481,0.001379839814084741,0.010098325803879883
cewiki,True,38.0,0.07078986587183309,0.005462909718228867,0.9811040794072987,0.0012937295098974977,0.010143070681187272
cewiki,True,39.0,0.07296466973886329,0.005462909718228867,0.9811448429076605,0.0012522305681205129,0.010164776374919752
cewiki,True,40.0,0.07521773555027712,0.005462909718228867,0.9811845873205132,0.0012117690998879529,0.010186029056988153
cewiki,True,41.0,0.07799671592775041,0.005462909718228867,0.9812304462584203,0.001165082790388845,0.010210662080825451
cewiki,True,42.0,0.07916666666666666,0.005462909718228867,0.981248789833583,0.001146408266589202,0.010220548682087143
cewiki,True,43.0,0.07976490344248531,0.005462909718228867,0.9812579616211644,0.0011370710046893805,0.010225499165814542
cewiki,True,44.0,0.08253692441355343,0.005462909718228867,0.9812987251215262,0.0010955720629123957,0.010247559462812146
cewiki,True,45.0,0.08304195804195805,0.005462909718228867,0.9813058587340895,0.0010883097481014235,0.010251429804683285
cewiki,True,46.0,0.08392226148409894,0.005462909718228867,0.981318087784198,0.001075860065568328,0.010258071482561278
cewiki,True,47.0,0.08636363636363636,0.005462909718228867,0.9813506985844874,0.0010426609121467402,0.010275824770146024
cewiki,True,48.0,0.08691674290942361,0.005462909718228867,0.9813578321970508,0.001035398597335768,0.010279716496239788
cewiki,True,49.0,0.08707607699358387,0.005462909718228867,0.9813598703720688,0.0010333236502469186,0.01028082895947189
cewiki,True,50.0,0.08796296296296297,0.005462909718228867,0.9813710803346684,0.001021911441258248,0.01028695181375203
cewiki,True,51.0,0.08861940298507463,0.005462909718228867,0.9813792330347407,0.001013611652902851,0.01029140938143213
cewiki,True,52.0,0.08945386064030132,0.005462909718228867,0.9813894239098311,0.0010032369174586048,0.010296986776501192
cewiki,True,53.0,0.08970727101038715,0.005462909718228867,0.9813924811723582,0.001000124496825331,0.010298661174047374
cewiki,True,54.0,0.09064885496183206,0.005462909718228867,0.9814036911349577,0.0009887122878366602,0.010304805293415771
cewiki,True,55.0,0.09152215799614644,0.005462909718228867,0.9814138820100482,0.000978337552392414,0.010310397221619276
cewiki,True,56.0,0.09205426356589147,0.005462909718228867,0.9814199965351025,0.0009721127111258663,0.010313755292584952
cewiki,True,57.0,0.0930460333006856,0.005462909718228867,0.981431206497702,0.0009607005021371955,0.010319917440660475
cewiki,True,58.0,0.09387755102040816,0.005290396779758482,0.9814668745605185,0.00092127650744906,0.010016330974414808
cewiki,True,59.0,0.10065645514223195,0.005290396779758482,0.9815341343361155,0.0008528032535170353,0.010052447552447554
cewiki,True,60.0,0.10188261351052048,0.005290396779758482,0.981545344298715,0.0008413910445283645,0.010058492319466462
cewiki,True,61.0,0.1038374717832957,0.005290396779758482,0.9815626687863687,0.000823753994273146,0.010067848544539286
cewiki,True,62.0,0.11288343558282209,0.005290396779758482,0.9816350239995109,0.0007500933726189982,0.01010711343037627
cewiki,True,63.0,0.11543287327478043,0.005290396779758482,0.9816533675746736,0.0007314188488193551,0.010117116621762798
cewiki,True,64.0,0.11630847029077118,0.005290396779758482,0.9816594820997279,0.0007251940075528074,0.010120455420493921
cewiki,True,65.0,0.12121212121212122,0.005290396779758482,0.9816920929000174,0.0006919948541312197,0.010138299630833654
cewiki,True,66.0,0.13935681470137826,0.0052328924669350204,0.981798078000958,0.0005830601319666348,0.010087014354597353
cewiki,True,67.0,0.14869281045751634,0.0052328924669350204,0.9818398605888288,0.0005405237166452256,0.010109987779135654
cewiki,True,68.0,0.16396396396396395,0.0052328924669350204,0.9818979485768443,0.00048138772461302237,0.01014210086375035
cewiki,True,69.0,0.18127490039840638,0.0052328924669350204,0.9819519602148237,0.00042640162675851767,0.010172143974960877
cewiki,True,70.0,0.19198312236286919,0.0052328924669350204,0.9819804946650769,0.0003973523675146284,0.010188087774294674
cewiki,True,71.0,0.1961206896551724,0.0052328924669350204,0.9819906855401673,0.0003869776320703822,0.010193794107762968
cewiki,True,72.0,0.2026726057906459,0.0052328924669350204,0.982005971852803,0.000371415528904013,0.010202365603453108
cewiki,True,73.0,0.21411764705882352,0.0052328924669350204,0.98203042995302,0.00034651616383782216,0.010216110019646367
cewiki,True,74.0,0.21291866028708134,0.005117883841288097,0.9820334872155472,0.00034132879611569904,0.009995507637017072
cewiki,True,75.0,0.22531645569620254,0.005117883841288097,0.9820569262282552,0.0003174669045939329,0.010008434073657578
cewiki,True,76.0,0.23306233062330622,0.004945370902817711,0.9820773079784361,0.00029360501307216667,0.009685230024213076
cewiki,True,77.0,0.23415977961432508,0.00488786658999425,0.9820813843284723,0.0002884176453500436,0.009575846335830565
cewiki,True,78.0,0.23119777158774374,0.004772857964347326,0.9820813843284723,0.00028634269826119434,0.00935263958532875
cewiki,True,79.0,0.22988505747126436,0.004600345025876941,0.9820864797660175,0.0002780429099057974,0.009020182658698838
cewiki,True,80.0,0.228486646884273,0.0044278320874065556,0.9820915752035627,0.00026974312155040046,0.008687313138150844
cewiki,True,81.0,0.2367601246105919,0.004370327774583094,0.9821058424286894,0.0002541810183840312,0.008582237027835808
cewiki,True,82.0,0.21710526315789475,0.003795284646348476,0.9821027851661622,0.0002469187035730589,0.0074601559850796875
cewiki,True,83.0,0.24444444444444444,0.003795284646348476,0.9821374341414697,0.0002116446030626219,0.007474518686296715
cewiki,True,84.0,0.24347826086956523,0.0032202415181138587,0.9821578158916506,0.0001805203967298834,0.006356413166855845
cewiki,True,85.0,0.23148148148148148,0.002875215641173088,0.9821598540666687,0.00017222060837448645,0.005679881858457344
cewiki,True,86.0,0.21717171717171718,0.0024726854514088557,0.9821639304167049,0.00016080839938581567,0.004889697521037071
cewiki,True,87.0,0.22702702702702704,0.0024151811385853938,0.9821751403793044,0.00014835871685272027,0.004779516358463727
cewiki,True,88.0,0.2611464968152866,0.0023576768257619323,0.9822016366545395,0.00012034693115325559,0.004673163503732832
cewiki,True,89.0,0.2517985611510791,0.0020126509488211618,0.9822077511795938,0.00010789724862016019,0.003993382394888471
cewiki,True,90.0,0.22033898305084745,0.0014951121334100057,0.9822108084421209,9.544756608706478e-05,0.0029700708247658216
cewiki,True,91.0,0.22093023255813954,0.0010925819436457735,0.9822291520172837,6.951072747644935e-05,0.00217441062027924
cewiki,True,92.0,0.19696969696969696,0.0007475560667050029,0.982237304717356,5.498609785450471e-05,0.0014894592117323554
cewiki,True,93.0,0.2,0.0005175388154111558,0.9822505528549736,3.734904759928622e-05,0.0010324060797246915
cewiki,True,94.0,0.34782608695652173,0.00046003450258769407,0.9822709346051546,1.5562103166369258e-05,0.00091885372997186
cewiki,True,95.0,0.42857142857142855,0.00034502587694077054,0.9822760300426998,8.299788355396937e-06,0.000689496667432774
cewiki,True,96.0,0.45454545454545453,0.0002875215641173088,0.9822770491302089,6.224841266547703e-06,0.0005746796161140165
cewiki,True,97.0,0.5555555555555556,0.0002875215641173088,0.982279087305227,4.149894177698469e-06,0.0005747456750387954
cewiki,True,98.0,0.5714285714285714,0.00023001725129384704,0.982279087305227,3.1124206332738515e-06,0.00045984939932172214
cewiki,True,99.0,0.5,5.750431282346176e-05,0.9822780682177179,1.0374735444246172e-06,0.00011499540018399264
cewiki,False,0.0,0.017516854816935816,1.0,0.017516854816935816,1.0,0.034430593918932814
cewiki,False,1.0,0.024288153634629883,0.9967011716528268,0.298570615879544,0.7138764694966319,0.04742073317584151
cewiki,False,2.0,0.02424185209936228,0.5549994312364919,0.6008912853099324,0.39829050121839055,0.04645461058915663
cewiki,False,3.0,0.022170746723539157,0.37072005460129676,0.7025691453484492,0.2915142622171159,0.0418393121355188
cewiki,False,4.0,0.024121306139830573,0.36082356955977707,0.7330946211041138,0.2602680966234915,0.04521964745211806
cewiki,False,5.0,0.017274403175532378,0.19133204413604823,0.7951687673542097,0.1940653276370322,0.03168786884010531
cewiki,False,6.0,0.010790316238836152,0.10925946991241042,0.8089405500941996,0.1785847199729855,0.019640921824836923
cewiki,False,7.0,0.007219378961045849,0.06193834603571835,0.8343679854620666,0.15186023848613325,0.012931495137330341
cewiki,False,8.0,0.007117021543190798,0.048458650892958706,0.8649113945237661,0.12053193420386822,0.012411231290287338
cewiki,False,9.0,0.007912925170068027,0.04134910704129223,0.8923971749065226,0.0924293480520455,0.013283755264624464
cewiki,False,10.0,0.009675247034894108,0.0400409509725856,0.9113925311765544,0.07307199709573822,0.015584703082627705
cewiki,False,11.0,0.01149311892665121,0.03975656921851894,0.9232823130776642,0.06096516001326388,0.01783140521166822
cewiki,False,12.0,0.014982081948102414,0.03947218746445228,0.9377156355513844,0.04626943315178317,0.02172008012018027
cewiki,False,13.0,0.009504132231404958,0.020930497099306108,0.9446398842703984,0.03889114798450925,0.013072359774075521
cewiki,False,14.0,0.007534417329159857,0.015470367421226254,0.9470578917007648,0.03633267994203645,0.010133561835217852
cewiki,False,15.0,0.007776049766718507,0.015072232965532931,0.949058451618431,0.03428935330486535,0.01025918971758193
cewiki,False,16.0,0.008635983263598327,0.014674098509839608,0.9532329267454337,0.03003335236381963,0.010873000821796572
cewiki,False,17.0,0.009018567639257295,0.014503469457399613,0.9548210206242982,0.028413901922349532,0.011121529973613625
cewiki,False,18.0,0.010080238700052417,0.014219087703332954,0.9582721857412284,0.02489613512118499,0.011797182832739544
cewiki,False,19.0,0.010285474391267842,0.013934705949266294,0.9592395879723309,0.02390641462595968,0.011835177044587218
cewiki,False,20.0,0.010454943132108487,0.013593447844386304,0.9601840754235,0.022939003404192318,0.011819395677760745
cewiki,False,21.0,0.01120206807410599,0.013309066090319645,0.9621378094865196,0.02094536560335937,0.01216500740817759
cewiki,False,22.0,0.012738147984049623,0.013081560687066318,0.9649523422392123,0.01807659584824421,0.012907570570739098
cewiki,False,23.0,0.015246338215712384,0.013024684336252985,0.9679751006008653,0.014998930168931904,0.014048217900742286
cewiki,False,24.0,0.020222901312241595,0.01279717893299966,0.9718467021148349,0.011054244998413,0.015675073150341372
cewiki,False,25.0,0.024537140307829577,0.012512797178933,0.9739887358912206,0.008868950257418594,0.016573753201747775
cewiki,False,26.0,0.0337356855462705,0.012399044477306337,0.9764794728405062,0.006331777430519289,0.018133422059557477
cewiki,False,27.0,0.03732370141038872,0.012342168126493004,0.9771230792682015,0.0056756819792787416,0.018550179517866302
cewiki,False,28.0,0.038729809104258446,0.012000910021613014,0.9774757676202204,0.005310621140875963,0.018323925314806772
cewiki,False,29.0,0.03439902873330635,0.00966897963826641,0.9778981966068192,0.004839084224605709,0.01509500976735926
cewiki,False,30.0,0.03111587982832618,0.008247070867933113,0.9781293369957129,0.004578471348301504,0.013038395827713335
cewiki,False,31.0,0.03260373917008664,0.00813331816630645,0.9783983365862358,0.004302647603730516,0.013018936635105609
cewiki,False,32.0,0.03501849568434032,0.008076441815493118,0.9787261175687618,0.003968008501861303,0.013125664371215972
cewiki,False,33.0,0.03801006148686417,0.007735183710613127,0.9791893946413289,0.0034903872382843356,0.012854442344045367
cewiki,False,34.0,0.04045549895115373,0.0076783073597997955,0.9794275090936806,0.003247013346015817,0.012906926717338304
cewiki,False,35.0,0.04266923323708694,0.007564554658173132,0.9796427087660988,0.003025948727205246,0.012850862360500507
cewiki,False,36.0,0.044928522804629,0.0075076783073598,0.9798190529421082,0.002845446423772762,0.012865497076023392
cewiki,False,37.0,0.04666904168151051,0.007450801956546468,0.9799475749686914,0.0027136188987939808,0.01285006621217323
cewiki,False,38.0,0.04967520061138708,0.007393925605733136,0.9801348783872778,0.002521961958632523,0.012871924352690727
cewiki,False,39.0,0.05087440381558029,0.0072801729041064725,0.98023151898091,0.0024215702280717586,0.012737585829435766
cewiki,False,40.0,0.05399659863945578,0.007223296553293141,0.9803929187352237,0.002256278792906057,0.012742048760911007
cewiki,False,41.0,0.05714285714285714,0.007166420202479809,0.9805373814782823,0.0021082263417760414,0.012735634507504926
cewiki,False,42.0,0.05965909090909091,0.007166420202479809,0.9806300368927957,0.0020139189585219905,0.01279577536305474
cewiki,False,43.0,0.06158357771260997,0.007166420202479809,0.9806957923482569,0.0019469911381481478,0.012838801711840228
cewiki,False,44.0,0.06488156539649846,0.007166420202479809,0.9807994070053471,0.001841529118165123,0.01290719114935464
cewiki,False,45.0,0.06621124540199684,0.007166420202479809,0.980838262501756,0.0018019808606714888,0.012933025404157044
cewiki,False,46.0,0.07062780269058296,0.007166420202479809,0.980956821580542,0.0016813079724216817,0.013012496127233295
cewiki,False,47.0,0.07365939893930465,0.007109543851666477,0.9810415066368177,0.001594098994358796,0.01296747756626381
cewiki,False,48.0,0.0749400479616307,0.007109543851666477,0.9810703991854294,0.0015646913157096834,0.012987012987012986
cewiki,False,49.0,0.0767341927562922,0.007109543851666477,0.9811092546818383,0.001525143058216049,0.013013377752329393
cewiki,False,50.0,0.0780274656679151,0.007109543851666477,0.9811361546408905,0.0014977634953358407,0.013031693077564636
cewiki,False,51.0,0.07966857871255577,0.007109543851666477,0.9811690323686211,0.0014642995851489194,0.013054148608427756
cewiki,False,52.0,0.08132726089785296,0.007109543851666477,0.9812009138015719,0.0014318497328464504,0.013075997698624406
cewiki,False,53.0,0.08261731658955718,0.007109543851666477,0.9812248248762852,0.0014075123436195986,0.013092432573972242
cewiki,False,54.0,0.08384043272481406,0.007052667500853145,0.981256706309236,0.0013740484334326772,0.013010859870940665
cewiki,False,55.0,0.0852233676975945,0.007052667500853145,0.9812806173839491,0.0013497110442058254,0.013027262698954666
cewiki,False,56.0,0.08701754385964912,0.007052667500853145,0.9813105062273405,0.0013192893076722605,0.013047824485715787
cewiki,False,57.0,0.08819345661450925,0.007052667500853145,0.9813294358281551,0.0013000222078676695,0.013060880556140719
cewiki,False,58.0,0.08936484490398819,0.0068820384484131495,0.981375265388022,0.0012503333715295137,0.01277989015631601
cewiki,False,59.0,0.09453125,0.0068820384484131495,0.9814489912017208,0.0011752930880800539,0.012830028628989503
cewiki,False,60.0,0.09626093874303898,0.0068820384484131495,0.9814719059816542,0.0011519697567376542,0.012845692446520517
cewiki,False,61.0,0.09805510534846029,0.0068820384484131495,0.9814948207615877,0.0011286464253952545,0.01286139455782313
cewiki,False,62.0,0.1048526863084922,0.0068820384484131495,0.9815745243439647,0.0010475217946390816,0.012916310845431255
cewiki,False,63.0,0.10717449069973428,0.0068820384484131495,0.9815994317134576,0.0010221703475277776,0.012933568489124045
cewiki,False,64.0,0.10832587287376902,0.0068820384484131495,0.9816113872508142,0.0010100016529143517,0.012941868549120272
cewiki,False,65.0,0.11297852474323063,0.0068820384484131495,0.9816572168106811,0.0009633549902295523,0.012973784377848066
cewiki,False,66.0,0.1248688352570829,0.006768285746786487,0.9817707944155685,0.0008457242756331017,0.012840571891016997
cewiki,False,67.0,0.1320754716981132,0.006768285746786487,0.9818226017441136,0.0007929932656415893,0.012876697505816156
cewiki,False,68.0,0.14234016887816647,0.006711409395973154,0.9818923423786936,0.0007209951558454859,0.012818423768399326
cewiki,False,69.0,0.15465268676277852,0.006711409395973154,0.9819580978341548,0.0006540673354716433,0.012864540746797493
cewiki,False,70.0,0.16115702479338842,0.006654533045159823,0.9819929681514448,0.0006175612516313656,0.012781297793314399
cewiki,False,71.0,0.16502115655853314,0.006654533045159823,0.9820099051626999,0.0006003222675956789,0.012793176972281453
cewiki,False,72.0,0.172821270310192,0.006654533045159823,0.9820417865956508,0.0005678724152932097,0.01281559778739252
cewiki,False,73.0,0.1796875,0.006540780343533159,0.9820746643233813,0.0005323803893373841,0.012622105147623752
cewiki,False,74.0,0.17828200972447325,0.0062563985894665,0.9820876161555177,0.0005141273474172452,0.012088576295400846
cewiki,False,75.0,0.1909722222222222,0.0062563985894665,0.9821284642414859,0.0004725509741547067,0.012115871792047582
cewiki,False,76.0,0.1970260223048327,0.006028893186213173,0.9821583530848773,0.00043807300608333325,0.011699779249448124
cewiki,False,77.0,0.20038167938931298,0.005972016835399841,0.9821703086222339,0.0004248902535854552,0.011598365182812327
cewiki,False,78.0,0.20078740157480315,0.005801387782959845,0.9821802715700311,0.00041170750108757706,0.011276948590381426
cewiki,False,79.0,0.20121951219512196,0.00563075873051985,0.9821902345178282,0.000398524748589699,0.010954962930175942
cewiki,False,80.0,0.20169851380042464,0.005403253327266522,0.9822031863499645,0.00038128576455401226,0.010524566554035341
cewiki,False,81.0,0.2081447963800905,0.005232624274826527,0.9822261011298979,0.0003549202595582561,0.010208610741233911
cewiki,False,82.0,0.1927710843373494,0.004550108065066546,0.9822290900142371,0.0003397093912914737,0.008890370617325111
cewiki,False,83.0,0.21505376344086022,0.004550108065066546,0.9822719306897648,0.0002961049022600308,0.008911663139133342
cewiki,False,84.0,0.21739130434782608,0.003981344556933227,0.9823018195331562,0.0002555425868819444,0.007819481680071494
cewiki,False,85.0,0.2135593220338983,0.0035832101012399043,0.9823147713652924,0.0002352614291929012,0.00704816244336298
cewiki,False,86.0,0.2037735849056604,0.003071322943919918,0.982326726902649,0.00021396621361940583,0.00605143721633888
cewiki,False,87.0,0.2157676348547718,0.0029575702422932545,0.9823466527982433,0.0001916569401614583,0.005835156819839533
cewiki,False,88.0,0.25,0.0029006938914799226,0.9823815231155333,0.00015515085632118053,0.005734847632969752
cewiki,False,89.0,0.24571428571428572,0.002445683084973268,0.9823944749476696,0.00013385564074768516,0.0048431604437686555
cewiki,False,90.0,0.22602739726027396,0.00187691957683995,0.982403441600687,0.00011458854094309412,0.003722924187725632
cewiki,False,91.0,0.21100917431192662,0.0013081560687066317,0.9824203786119422,8.720897806288579e-05,0.002600192188118252
cewiki,False,92.0,0.2125,0.0009668979638266409,0.9824373156231974,6.38856467204861e-05,0.001925036802174159
cewiki,False,93.0,0.21052631578947367,0.0006825162097599818,0.9824502674553336,4.5632604800347214e-05,0.0013606213504166905
cewiki,False,94.0,0.3225806451612903,0.0005687635081333182,0.9824721859404874,2.1295215573495366e-05,0.0011355248963833533
cewiki,False,95.0,0.4,0.00045501080650665453,0.9824791600039453,1.2168694613425924e-05,0.000908987615043745
cewiki,False,96.0,0.42857142857142855,0.0003412581048799909,0.9824811525935048,8.112463075617282e-06,0.000681973175721755
cewiki,False,97.0,0.6,0.0003412581048799909,0.9824851377726236,4.056231537808641e-06,0.0006821282401091406
cewiki,False,98.0,0.625,0.0002843817540666591,0.9824851377726236,3.042173653356481e-06,0.0005685048322910746
cewiki,False,99.0,0.6666666666666666,0.00011375270162666363,0.9824841414778439,1.0140578844521602e-06,0.0002274665908444697
