wiki_db,user_is_anonymous_or_bot,threshold,precision,recall,accuracy,fpr,F1
cywiki,True,0.0,0.027407385935416546,1.0,0.027407385935416546,1.0,0.05335251879752282
cywiki,True,1.0,0.029115590161594696,0.9709148598625066,0.11186155719172126,0.9123463229267565,0.05653579676674365
cywiki,True,2.0,0.03141786142133941,0.8598625066102591,0.26962432604788683,0.7470084196408613,0.06062074750675738
cywiki,True,3.0,0.031550193489642615,0.7329455314648334,0.3760652791466172,0.6339915058490425,0.060496278998712384
cywiki,True,4.0,0.032715620031796504,0.6964569011105235,0.4273146269348948,0.5802697265479473,0.06249555128478896
cywiki,True,5.0,0.033905432754225036,0.6821787414066631,0.4585483216418343,0.5477535206020415,0.0646001302018128
cywiki,True,6.0,0.03446485186399913,0.6668429402432575,0.4788538465998029,0.5264436331122867,0.06554224382130512
cywiki,True,7.0,0.034546646523957475,0.6409307244843998,0.4992463331207606,0.5047462931227181,0.06555958240926056
cywiki,True,8.0,0.03456064356435644,0.5906927551560022,0.5365383500492782,0.4649877058341405,0.06530063429890971
cywiki,True,9.0,0.03442991053925937,0.5108408249603384,0.5939474752159546,0.4037106027866776,0.06451182048884734
cywiki,True,10.0,0.038007620109655235,0.4325753569539926,0.6843730071308481,0.30853140600551376,0.06987571007559902
cywiki,True,11.0,0.042031213052731144,0.37599153886832365,0.7480288712389124,0.24148722151851576,0.07561014515871749
cywiki,True,12.0,0.04700823014754949,0.3352723426758329,0.7954953910371616,0.19153565308099246,0.08245545584601378
cywiki,True,13.0,0.050774603743171845,0.29984135378106824,0.8271783871528784,0.15796140377021087,0.08684331444325318
cywiki,True,14.0,0.056797322103444556,0.27815970386039135,0.8536147023015827,0.1301691379181879,0.09433285509325681
cywiki,True,15.0,0.06292993630573249,0.2612374405076679,0.8731375731926488,0.1096192534088369,0.10142695821784212
cywiki,True,16.0,0.06911249809712285,0.24008461131676362,0.8905443793843121,0.09112584755234335,0.10732860520094564
cywiki,True,17.0,0.07076923076923076,0.21893178212585934,0.8998057858426576,0.08100737649951568,0.10696292468673298
cywiki,True,18.0,0.07087798458356834,0.19936541512427286,0.9064293582236651,0.07364577900305491,0.10457697642163663
cywiki,True,19.0,0.07418032786885245,0.19143310417768378,0.9123572381007594,0.06732732285224648,0.10692659872987742
cywiki,True,20.0,0.08036127836961557,0.18350079323109467,0.9200678300191315,0.059175918336934655,0.11177323240457401
cywiki,True,21.0,0.08699019101703666,0.17821258593336858,0.9262131138036988,0.05270844199389017,0.11691240242844754
cywiki,True,22.0,0.09660574412532637,0.17609730301427817,0.9322859296191084,0.046404887862305344,0.12476582989883853
cywiki,True,23.0,0.10387547649301143,0.17292437863564253,0.9364455910487565,0.04203859622978914,0.12978765628100813
cywiki,True,24.0,0.11068702290076336,0.16869381279746165,0.9400689895066381,0.0381938752700991,0.13366855227320343
cywiki,True,25.0,0.11535608308605341,0.1644632469592808,0.9425329004579975,0.03554131584829744,0.1356006104207543
cywiki,True,26.0,0.11764705882352941,0.16076150185087257,0.9439532726534872,0.033976603829818944,0.13586592178770948
cywiki,True,27.0,0.12320328542094455,0.15864621893178213,0.9459968693837324,0.031815811042396246,0.13869625520110956
cywiki,True,28.0,0.12602503236944324,0.15441565309360128,0.9474752159545481,0.030176588927799716,0.13878326996197718
cywiki,True,29.0,0.1271186440677966,0.15071390798519302,0.9483593251782712,0.02916325162059459,0.13791434793128476
cywiki,True,30.0,0.13013382556529765,0.1491274457958752,0.9493593831526466,0.028090306236495045,0.1389847215377033
cywiki,True,31.0,0.13468013468013468,0.14806980433633,0.9505768450344948,0.026808732583265032,0.14105793450881612
cywiki,True,32.0,0.13647642679900746,0.14542570068746694,0.9513594991013972,0.02592951344907235,0.14080901177675373
cywiki,True,33.0,0.14181818181818182,0.14436805922792173,0.9526059481709085,0.02461813575739513,0.1430817610062893
cywiki,True,34.0,0.146223888591323,0.14436805922792173,0.953446576613137,0.02375381864242605,0.14529004789781802
cywiki,True,35.0,0.14953271028037382,0.14383923849814914,0.9541132819293872,0.023053423738916622,0.14663072776280325
cywiki,True,36.0,0.15384615384615385,0.14383923849814914,0.9548524552147951,0.022293420758512778,0.1486745012298442
cywiki,True,37.0,0.15579919215233698,0.1427815970386039,0.9553017566235724,0.02180165412413382,0.14900662251655628
cywiki,True,38.0,0.15964391691394658,0.14225277630883132,0.9559684619398225,0.021101259220624394,0.15044742729306487
cywiki,True,39.0,0.1623415811707906,0.14225277630883132,0.9563742825671053,0.02068400268236346,0.1516347237880496
cywiki,True,40.0,0.16553428042001236,0.1417239555790587,0.9568960519450402,0.020132627971090084,0.1527065527065527
cywiki,True,41.0,0.16781898177247015,0.14119513484928609,0.9572728853846599,0.019730273452052752,0.1533601378518093
cywiki,True,42.0,0.17049808429118773,0.14119513484928609,0.9576352252304482,0.019357722971462633,0.1544691929418571
cywiki,True,43.0,0.1729518855656697,0.1406663141195135,0.9580120586700678,0.018955368452425302,0.1551472732575095
cywiki,True,44.0,0.1746031746031746,0.13960867265996826,0.9583309177343614,0.01859771999105879,0.15515721422274462
cywiki,True,45.0,0.17651006711409395,0.13907985193019567,0.958620789610992,0.018284777587363087,0.15557527358769593
cywiki,True,46.0,0.17927743694614862,0.13907985193019567,0.958954142269117,0.017942031145220177,0.1566408576533651
cywiki,True,47.0,0.18093922651933703,0.13855103120042306,0.959200533364253,0.01767379479919529,0.1569332135369871
cywiki,True,48.0,0.18308874912648498,0.13855103120042306,0.959446924459389,0.017420460472394008,0.15773630343166767
cywiki,True,49.0,0.18621179815209665,0.13855103120042306,0.9597947707113456,0.017062812011027495,0.15888417222559126
cywiki,True,50.0,0.1884892086330935,0.13855103120042306,0.9600411618064816,0.016809477684226214,0.15970740627857358
cywiki,True,51.0,0.18895348837209303,0.13749338974087785,0.9601860977447968,0.016630653453542955,0.15916743189470461
cywiki,True,52.0,0.1906158357771261,0.13749338974087785,0.9603600208707751,0.016451829222859697,0.15975422427035332
cywiki,True,53.0,0.19227913882702302,0.13696456901110524,0.960577424778248,0.016213396915282022,0.15997529339098207
cywiki,True,54.0,0.19268110530246452,0.13643574828133262,0.9606643863412372,0.016109082780716787,0.1597523219814241
cywiki,True,55.0,0.19427710843373494,0.13643574828133262,0.960823815873384,0.015945160569257134,0.1602982292637465
cywiki,True,56.0,0.19575113808801214,0.13643574828133262,0.9609687518116993,0.015796140377021085,0.16079775631037704
cywiki,True,57.0,0.19588414634146342,0.13590692755156003,0.9610267261870253,0.01572163028090306,0.16047455510458947
cywiki,True,58.0,0.19618320610687023,0.13590692755156003,0.9610557133746884,0.015691826242455853,0.1605748203686348
cywiki,True,59.0,0.19737856592135697,0.13537810682178741,0.9612151429068352,0.015513002011772595,0.1606022584692597
cywiki,True,60.0,0.19890795631825273,0.1348492860920148,0.961403559626645,0.015304373742642128,0.16073116924046646
cywiki,True,61.0,0.19968676585747847,0.1348492860920148,0.9614760275958026,0.015229863646524105,0.16098484848484848
cywiki,True,62.0,0.2006294256490952,0.1348492860920148,0.9615629891587918,0.015140451531182476,0.16129032258064516
cywiki,True,63.0,0.2015810276679842,0.1348492860920148,0.9616499507217809,0.015051039415840847,0.16159695817490494
cywiki,True,64.0,0.20286396181384247,0.1348492860920148,0.9617658994724332,0.014931823262052009,0.16200762388818296
cywiki,True,65.0,0.20481927710843373,0.1348492860920148,0.9619398225984115,0.01475299903136875,0.16262755102040816
cywiki,True,66.0,0.20566801619433198,0.1343204653622422,0.9620557713490637,0.014618880858356307,0.16250799744081895
cywiki,True,67.0,0.20521172638436483,0.13326282390269698,0.9620992521305582,0.014544370762238284,0.16159025328630972
cywiki,True,68.0,0.20525451559934318,0.13220518244315177,0.9621862136935474,0.014425154608449444,0.16082341588935348
cywiki,True,69.0,0.20833333333333334,0.13220518244315177,0.962447098382515,0.014156918262424559,0.16175994823681658
cywiki,True,70.0,0.21043771043771045,0.13220518244315177,0.9626210215084933,0.0139780940317413,0.16239038648911983
cywiki,True,71.0,0.20999153259949196,0.13114754098360656,0.9626645022899878,0.013903583935623277,0.16145833333333334
cywiki,True,72.0,0.21079691516709512,0.13008989952406133,0.9628094382283031,0.013724759704940019,0.16088947024198821
cywiki,True,73.0,0.21335646140503037,0.13008989952406133,0.9630123485419445,0.013516131435809552,0.1616294349540079
cywiki,True,74.0,0.21616871704745166,0.13008989952406133,0.9632297524494173,0.01329260114745548,0.16242984483327827
cywiki,True,75.0,0.21704035874439462,0.12797461660497092,0.9634471563568903,0.01300946278220699,0.16101131071190952
cywiki,True,76.0,0.2184950135992747,0.1274457958751983,0.9635920922952055,0.012845540570747336,0.1609886439545758
cywiki,True,77.0,0.22211895910780668,0.1263881544156531,0.9639254449533307,0.012472990090157217,0.16110549376474556
cywiki,True,78.0,0.22639691714836224,0.12427287149656266,0.9643602527682764,0.011966321436554654,0.16046432229429838
cywiki,True,79.0,0.23269809428284854,0.12268640930724485,0.9648675285523799,0.01140004470605767,0.16066481994459833
cywiki,True,80.0,0.2449197860962567,0.12109994711792703,0.9656791698069453,0.010520825571864987,0.16206652512384997
cywiki,True,81.0,0.2590011614401858,0.11792702273929138,0.9665777726245,0.009507488264659861,0.16206395348837208
cywiki,True,82.0,0.26727509778357234,0.10840824960338445,0.9674184010667285,0.008374934803665897,0.15425131677953346
cywiki,True,83.0,0.26695526695526695,0.09783183500793231,0.9679111832570004,0.007570225765591238,0.1431888544891641
cywiki,True,84.0,0.282574568288854,0.09518773135906927,0.9685778885732507,0.006810222785187393,0.14240506329113922
cywiki,True,85.0,0.3,0.09201480698043363,0.9692301002956694,0.006050219804783548,0.14083367057871307
cywiki,True,86.0,0.3111111111111111,0.088841882601798,0.969635920922952,0.005543551151180985,0.1382147264500206
cywiki,True,87.0,0.3167701863354037,0.08090957165520889,0.9700272479564033,0.004917666343789584,0.12889637742207247
cywiki,True,88.0,0.3302540415704388,0.07562136435748282,0.970462055771349,0.004321585574845392,0.12306368330464718
cywiki,True,89.0,0.34366925064599485,0.07033315705975675,0.9708388892109687,0.003785112882795619,0.11676909569798069
cywiki,True,90.0,0.3492957746478873,0.06557377049180328,0.9710417995246101,0.0034423664406527084,0.11041852181656278
cywiki,True,91.0,0.36245954692556637,0.059227921734531994,0.9713606585889037,0.0029356977870501452,0.10181818181818181
cywiki,True,92.0,0.3688212927756654,0.05129561078794289,0.9715925560902081,0.0024737351911183966,0.09006499535747446
cywiki,True,93.0,0.39814814814814814,0.04547858276044421,0.9719548959359963,0.0019372624990686238,0.0816326530612245
cywiki,True,94.0,0.41954022988505746,0.03860391327340032,0.9721867934373007,0.0015051039415840846,0.07070217917675545
cywiki,True,95.0,0.5267857142857143,0.03120042305658382,0.9726795756275726,0.0007898070188510543,0.058911632551173244
cywiki,True,96.0,0.5737704918032787,0.01850872554204125,0.9727230564090672,0.00038745249981372474,0.035860655737704916
cywiki,True,97.0,0.6842105263157895,0.013749338974087784,0.9727955243782248,0.00017882423068325758,0.026956972524624156
cywiki,True,98.0,0.782608695652174,0.009518773135906928,0.9727810307843933,7.4510096118024e-05,0.018808777429467086
cywiki,True,99.0,0.9090909090909091,0.005288207297726071,0.9727230564090672,1.4902019223604798e-05,0.010515247108307046
cywiki,False,0.0,0.021681835028620845,1.0,0.021681835028620845,1.0,0.042443418851649574
cywiki,False,1.0,0.0224902681068041,0.9738841405508072,0.08167236338178972,0.9381011512638646,0.04396523081210276
cywiki,False,2.0,0.023082902853703798,0.8741690408357075,0.19511592472099823,0.819933491886431,0.04497813393271603
cywiki,False,3.0,0.022342000167565,0.7597340930674265,0.2739776798583371,0.7367878264895923,0.04340748779164405
cywiki,False,4.0,0.022763091379464154,0.7269705603038936,0.31740312152534694,0.6916738576810557,0.04414393633585145
cywiki,False,5.0,0.0234982857679603,0.7127255460588794,0.3515937075320183,0.6564098246795614,0.04549656729763728
cywiki,False,6.0,0.02399425052676282,0.6975308641975309,0.37825845241526995,0.6288173762970134,0.046392647918015444
cywiki,False,7.0,0.024265272898637648,0.6723646723646723,0.4066939834452086,0.5991939048260476,0.04684011180761151
cywiki,False,8.0,0.024253800007360788,0.6258309591642925,0.44599102252604705,0.5579946540946689,0.04669784580498866
cywiki,False,9.0,0.02391304347826087,0.553656220322887,0.5003294485854302,0.500852398290994,0.045845948177564586
cywiki,False,10.0,0.02454940203284574,0.4805318138651472,0.5747539430877568,0.42315787258224064,0.04671236354404672
cywiki,False,11.0,0.025357203365900492,0.4264007597340931,0.6322118354404316,0.36322690632037546,0.047867803837953096
cywiki,False,12.0,0.027166151904619573,0.38841405508072174,0.6851604002800313,0.3082630017047966,0.050780643759505854
cywiki,False,13.0,0.028075471698113207,0.35327635327635326,0.7208129143845489,0.27104160966472335,0.052017059358176604
cywiki,False,14.0,0.029557703824108137,0.32811016144349475,0.7518634435613392,0.23874518552817123,0.05423010516402448
cywiki,False,15.0,0.031017310884515058,0.31054131054131057,0.7747086439072602,0.21500431460863342,0.05640119011685568
cywiki,False,16.0,0.03236435138438646,0.28917378917378916,0.7971317382530989,0.191610717066908,0.058213449314151886
cywiki,False,17.0,0.032747049294144875,0.26875593542260207,0.8120289914755179,0.1759307978868941,0.058380608561113975
cywiki,False,18.0,0.0326351984995311,0.24786324786324787,0.8243936086974426,0.16282912045124492,0.05767637147118944
cywiki,False,19.0,0.03374540594721016,0.23979107312440645,0.8346476959189556,0.15216888009597374,0.05916466522172104
cywiki,False,20.0,0.03492474976596817,0.23029439696106363,0.8453341844088457,0.14103508513459473,0.06065153504658288
cywiki,False,21.0,0.03619385707670937,0.22269705603038936,0.8545690400691842,0.131427188348452,0.06226765799256506
cywiki,False,22.0,0.03812582345191041,0.2198480531813865,0.862825845241527,0.12292425230989414,0.06498245614035088
cywiki,False,23.0,0.03973741794310722,0.21557454890788225,0.8700428283161059,0.11545261296908214,0.06710516591530559
cywiki,False,24.0,0.04108188493354401,0.20987654320987653,0.8766523905612981,0.10857028602698209,0.06871356393315196
cywiki,False,25.0,0.04224525718756112,0.20512820512820512,0.8819338631964749,0.1030665291604403,0.07006162828413882
cywiki,False,26.0,0.0436124254268669,0.201329534662868,0.8869579541242845,0.09784690505756319,0.07169428474805546
cywiki,False,27.0,0.04584245076586433,0.19895536562203228,0.8928468475888481,0.09177488266369205,0.07451538324737683
cywiki,False,28.0,0.0469472710453284,0.19278252611585944,0.8976444426141745,0.08673415696756677,0.07550678817184303
cywiki,False,29.0,0.04786262331019364,0.1866096866096866,0.9018757978832929,0.08227222023446215,0.07618493748182611
cywiki,False,30.0,0.05013602798289934,0.18376068376068377,0.9068175266647449,0.07715783048849789,0.07877862595419848
cywiki,False,31.0,0.05227863692349802,0.18138651471984804,0.910956224519211,0.0728747921621451,0.0811643471794327
cywiki,False,32.0,0.05473868103071772,0.1785375118708452,0.9153420088127496,0.0683286679435102,0.0837883008356546
cywiki,False,33.0,0.057297297297297295,0.1761633428300095,0.9192953918379113,0.06423505145960053,0.0864701083789768
cywiki,False,34.0,0.06032520325203252,0.1761633428300095,0.9226413540336861,0.06081493485993307,0.08987403100775194
cywiki,False,35.0,0.06300153662284445,0.1752136752136752,0.925616686570852,0.05775261507376928,0.09267863870400601
cywiki,False,36.0,0.06604450825556353,0.17473884140550808,0.9285302474982498,0.05476395933744449,0.09585829643136232
cywiki,False,37.0,0.06880907372400756,0.1728395061728395,0.9313511510109953,0.0518384442152674,0.09843158464034613
cywiki,False,38.0,0.07222889155662265,0.17141500474833807,0.9342955977432772,0.048797171300486185,0.10163288288288289
cywiki,False,39.0,0.07570977917981073,0.17094017094017094,0.9367767574022979,0.046250499863195335,0.10494097070397901
cywiki,False,40.0,0.07968923418423973,0.1704653371320038,0.9393299839393815,0.0436301643760655,0.10860686734230826
cywiki,False,41.0,0.08457358847153319,0.16999050332383667,0.9421097063789482,0.0407783133037274,0.11295156964820949
cywiki,False,42.0,0.0888722927557879,0.16951566951566951,0.9443128937940123,0.03851577463010124,0.11660950514453698
cywiki,False,43.0,0.0933790556581377,0.16809116809116809,0.9465778528188444,0.03616904847094479,0.12006104799050364
cywiki,False,44.0,0.09791376912378304,0.1671415004748338,0.9485545443314253,0.0341275019468356,0.12348710752499563
cywiki,False,45.0,0.1018867924528302,0.16666666666666666,0.9500782440390396,0.03255951002883421,0.12646370023419204
cywiki,False,46.0,0.10665451230628988,0.16666666666666666,0.9516637153564221,0.030938900932376404,0.1300722623679822
cywiki,False,47.0,0.11150159744408945,0.16571699905033238,0.9532800724786888,0.02926567465746217,0.13330786860198626
cywiki,False,48.0,0.11548643282594308,0.16571699905033238,0.9543919614545155,0.028129143602803445,0.13611544461778471
cywiki,False,49.0,0.12046945115636866,0.16571699905033238,0.955678869991352,0.026813714141392882,0.13951629022586448
cywiki,False,50.0,0.12415269354263289,0.16524216524216523,0.9566260346744636,0.025835034622103424,0.14178040334080264
cywiki,False,51.0,0.1278167713335796,0.16429249762583095,0.9575731993575752,0.024845831667122682,0.14377726989403697
cywiki,False,52.0,0.13137852246763138,0.16381766381766383,0.9583865255528559,0.024003956811819924,0.14581572273879967
cywiki,False,53.0,0.13477406679764245,0.16286799620132952,0.9591792612115472,0.02317260539220845,0.14749516233068158
cywiki,False,54.0,0.13885505481120586,0.1623931623931624,0.9600028826751225,0.022320207101214403,0.14970453053184507
cywiki,False,55.0,0.14345637583892618,0.1623931623931624,0.9608162088704032,0.021488855681602928,0.15233853006681514
cywiki,False,56.0,0.14666666666666667,0.16191832858499525,0.9614030391632006,0.020878496411508428,0.15391559467388852
cywiki,False,57.0,0.148636763412489,0.16049382716049382,0.9618663262364617,0.020373371498326773,0.15433789954337898
cywiki,False,58.0,0.15141955835962145,0.15954415954415954,0.962391384919491,0.019815629406688694,0.1553757225433526
cywiki,False,59.0,0.15466297322253,0.1590693257359924,0.9629164436025203,0.019268410750741902,0.15683520599250936
cywiki,False,60.0,0.15664931377188832,0.15716999050332384,0.9633797306757814,0.01875276240186896,0.15690922019435885
cywiki,False,61.0,0.15932203389830507,0.15622032288698956,0.9638327224807478,0.018268684360069877,0.15775593382881803
cywiki,False,62.0,0.16167076167076166,0.15622032288698956,0.9641415805295886,0.01795298128933134,0.1588988167109394
cywiki,False,63.0,0.16408204102051024,0.1557454890788224,0.9644916196516081,0.017584661040136385,0.1598051157125457
cywiki,False,64.0,0.1668372569089048,0.15479582146248813,0.9649137256516905,0.017132153305411152,0.1605911330049261
cywiki,False,65.0,0.16927899686520376,0.15384615384615385,0.9652843553102994,0.01673226274914234,0.16119402985074627
cywiki,False,66.0,0.17147435897435898,0.15242165242165243,0.9656549849689083,0.016321848757182244,0.16138763197586725
cywiki,False,67.0,0.17263843648208468,0.150997150997151,0.9659020714079809,0.016037715993517564,0.16109422492401215
cywiki,False,68.0,0.1744186046511628,0.14957264957264957,0.9662109294568216,0.015690442615705177,0.16104294478527606
cywiki,False,69.0,0.1784090909090909,0.14909781576448244,0.9666639212617881,0.015216888009597373,0.16244180031039834
cywiki,False,70.0,0.18224027858386535,0.14909781576448244,0.9670448461886917,0.014827520889019848,0.16401149125097936
cywiki,False,71.0,0.18402366863905326,0.14767331433998102,0.9673228184326483,0.014511817818281312,0.16385669125395153
cywiki,False,72.0,0.18659420289855072,0.1467236467236467,0.9676316764814891,0.014175067876160208,0.164274322169059
cywiki,False,73.0,0.18927250308261406,0.14577397910731243,0.9679405345303299,0.013838317934039106,0.16469957081545064
cywiki,False,74.0,0.19257394587791063,0.1452991452991453,0.9682596878474653,0.013501567991918002,0.16562922868741542
cywiki,False,75.0,0.19505851755526657,0.14245014245014245,0.9686612033109583,0.0130280133858102,0.1646542261251372
cywiki,False,76.0,0.1989354624085163,0.1419753086419753,0.9690009471646831,0.012670216572306527,0.1656968689387642
cywiki,False,77.0,0.2026098901098901,0.14007597340930675,0.9694024626281761,0.012217708837581293,0.16563728242560363
cywiki,False,78.0,0.20603015075376885,0.1362773029439696,0.9698863402380266,0.011638919874560647,0.16404687053443842
cywiki,False,79.0,0.21283018867924527,0.1339031339031339,0.9704834657991187,0.010975943426009724,0.1643835616438356
cywiki,False,80.0,0.225,0.13247863247863248,0.9712967919943993,0.010113021699324395,0.16676628810520025
cywiki,False,81.0,0.23642732049036777,0.1282051282051282,0.9721204134579747,0.009176435922800076,0.16625615763546797
cywiki,False,82.0,0.24168297455968688,0.11728395061728394,0.972882263311782,0.00815566266074548,0.15792838874680307
cywiki,False,83.0,0.24268689057421453,0.1063627730294397,0.9734279125314006,0.007355881548207859,0.1479035985473754
cywiki,False,84.0,0.25589622641509435,0.1030389363722697,0.9740559238973767,0.006640287921200513,0.14691943127962084
cywiki,False,85.0,0.266839378238342,0.09781576448243115,0.9746118683852901,0.005956264601267022,0.1431549687282835
cywiki,False,86.0,0.27668539325842695,0.09354226020892688,0.9750442696536672,0.005419569381011512,0.1398154719659333
cywiki,False,87.0,0.28164556962025317,0.08452041785375118,0.9754766709220443,0.004777639803843159,0.13002191380569758
cywiki,False,88.0,0.2956989247311828,0.07834757834757834,0.9759708438001894,0.004135710226674805,0.12387387387387389
cywiki,False,89.0,0.3064516129032258,0.0721747388414055,0.9763414734587983,0.0036200618778018646,0.11683320522674864
cywiki,False,90.0,0.31363636363636366,0.06552706552706553,0.9766297409710497,0.003178077578767916,0.1084053417124902
cywiki,False,91.0,0.3333333333333333,0.05887939221272555,0.9770415517028374,0.0026098120514385535,0.10008071025020178
cywiki,False,92.0,0.33962264150943394,0.05128205128205128,0.9772680476053206,0.002209921495169743,0.08910891089108912
cywiki,False,93.0,0.3682170542635659,0.04510921177587844,0.9776180867273401,0.001715320017679372,0.08037225042301184
cywiki,False,94.0,0.3902439024390244,0.03798670465337132,0.977854877898118,0.0013154294614105614,0.06923409779316313
cywiki,False,95.0,0.49242424242424243,0.030864197530864196,0.9782975744347898,0.0007050701913160609,0.058087578194816795
cywiki,False,96.0,0.5492957746478874,0.018518518518518517,0.978390231849442,0.0003367499421211037,0.035829122645842905
cywiki,False,97.0,0.6428571428571429,0.01282051282051282,0.9784417081909155,0.00015785153536926737,0.025139664804469275
cywiki,False,98.0,0.782608695652174,0.008547008547008548,0.9784520034592101,5.261717845642245e-05,0.01690934711131987
cywiki,False,99.0,0.9090909090909091,0.004748338081671415,0.9784108223860314,1.052343569128449e-05,0.00944733112895607
