wiki_db,user_is_anonymous_or_bot,threshold,precision,recall,accuracy,fpr,F1
emlwiki,True,0.0,0.6233766233766234,1.0,0.6233766233766234,1.0,0.768
emlwiki,True,1.0,0.6233766233766234,1.0,0.6233766233766234,1.0,0.768
emlwiki,True,2.0,0.6233766233766234,1.0,0.6233766233766234,1.0,0.768
emlwiki,True,3.0,0.6233766233766234,1.0,0.6233766233766234,1.0,0.768
emlwiki,True,4.0,0.6233766233766234,1.0,0.6233766233766234,1.0,0.768
emlwiki,True,5.0,0.6233766233766234,1.0,0.6233766233766234,1.0,0.768
emlwiki,True,6.0,0.6233766233766234,1.0,0.6233766233766234,1.0,0.768
emlwiki,True,7.0,0.6233766233766234,1.0,0.6233766233766234,1.0,0.768
emlwiki,True,8.0,0.6233766233766234,1.0,0.6233766233766234,1.0,0.768
emlwiki,True,9.0,0.6233766233766234,1.0,0.6233766233766234,1.0,0.768
emlwiki,True,10.0,0.6233766233766234,1.0,0.6233766233766234,1.0,0.768
emlwiki,True,11.0,0.6233766233766234,1.0,0.6233766233766234,1.0,0.768
emlwiki,True,12.0,0.6233766233766234,1.0,0.6233766233766234,1.0,0.768
emlwiki,True,13.0,0.6233766233766234,1.0,0.6233766233766234,1.0,0.768
emlwiki,True,14.0,0.6233766233766234,1.0,0.6233766233766234,1.0,0.768
emlwiki,True,15.0,0.6233766233766234,1.0,0.6233766233766234,1.0,0.768
emlwiki,True,16.0,0.6233766233766234,1.0,0.6233766233766234,1.0,0.768
emlwiki,True,17.0,0.6233766233766234,1.0,0.6233766233766234,1.0,0.768
emlwiki,True,18.0,0.6233766233766234,1.0,0.6233766233766234,1.0,0.768
emlwiki,True,19.0,0.6233766233766234,1.0,0.6233766233766234,1.0,0.768
emlwiki,True,20.0,0.6233766233766234,1.0,0.6233766233766234,1.0,0.768
emlwiki,True,21.0,0.6233766233766234,1.0,0.6233766233766234,1.0,0.768
emlwiki,True,22.0,0.6233766233766234,1.0,0.6233766233766234,1.0,0.768
emlwiki,True,23.0,0.6233766233766234,1.0,0.6233766233766234,1.0,0.768
emlwiki,True,24.0,0.6233766233766234,1.0,0.6233766233766234,1.0,0.768
emlwiki,True,25.0,0.6233766233766234,1.0,0.6233766233766234,1.0,0.768
emlwiki,True,26.0,0.6233766233766234,1.0,0.6233766233766234,1.0,0.768
emlwiki,True,27.0,0.6233766233766234,1.0,0.6233766233766234,1.0,0.768
emlwiki,True,28.0,0.6233766233766234,1.0,0.6233766233766234,1.0,0.768
emlwiki,True,29.0,0.6233766233766234,1.0,0.6233766233766234,1.0,0.768
emlwiki,True,30.0,0.6233766233766234,1.0,0.6233766233766234,1.0,0.768
emlwiki,True,31.0,0.6233766233766234,1.0,0.6233766233766234,1.0,0.768
emlwiki,True,32.0,0.6233766233766234,1.0,0.6233766233766234,1.0,0.768
emlwiki,True,33.0,0.6233766233766234,1.0,0.6233766233766234,1.0,0.768
emlwiki,True,34.0,0.6233766233766234,1.0,0.6233766233766234,1.0,0.768
emlwiki,True,35.0,0.6260869565217392,1.0,0.6277056277056277,0.9885057471264368,0.770053475935829
emlwiki,True,36.0,0.6260869565217392,1.0,0.6277056277056277,0.9885057471264368,0.770053475935829
emlwiki,True,37.0,0.6260869565217392,1.0,0.6277056277056277,0.9885057471264368,0.770053475935829
emlwiki,True,38.0,0.6260869565217392,1.0,0.6277056277056277,0.9885057471264368,0.770053475935829
emlwiki,True,39.0,0.62882096069869,1.0,0.6320346320346321,0.9770114942528736,0.7721179624664879
emlwiki,True,40.0,0.62882096069869,1.0,0.6320346320346321,0.9770114942528736,0.7721179624664879
emlwiki,True,41.0,0.62882096069869,1.0,0.6320346320346321,0.9770114942528736,0.7721179624664879
emlwiki,True,42.0,0.62882096069869,1.0,0.6320346320346321,0.9770114942528736,0.7721179624664879
emlwiki,True,43.0,0.631578947368421,1.0,0.6363636363636364,0.9655172413793104,0.7741935483870968
emlwiki,True,44.0,0.631578947368421,1.0,0.6363636363636364,0.9655172413793104,0.7741935483870968
emlwiki,True,45.0,0.6343612334801763,1.0,0.6406926406926406,0.9540229885057471,0.7762803234501348
emlwiki,True,46.0,0.6343612334801763,1.0,0.6406926406926406,0.9540229885057471,0.7762803234501348
emlwiki,True,47.0,0.6343612334801763,1.0,0.6406926406926406,0.9540229885057471,0.7762803234501348
emlwiki,True,48.0,0.6343612334801763,1.0,0.6406926406926406,0.9540229885057471,0.7762803234501348
emlwiki,True,49.0,0.6343612334801763,1.0,0.6406926406926406,0.9540229885057471,0.7762803234501348
emlwiki,True,50.0,0.6343612334801763,1.0,0.6406926406926406,0.9540229885057471,0.7762803234501348
emlwiki,True,51.0,0.6343612334801763,1.0,0.6406926406926406,0.9540229885057471,0.7762803234501348
emlwiki,True,52.0,0.6371681415929203,1.0,0.645021645021645,0.9425287356321839,0.7783783783783783
emlwiki,True,53.0,0.6371681415929203,1.0,0.645021645021645,0.9425287356321839,0.7783783783783783
emlwiki,True,54.0,0.6371681415929203,1.0,0.645021645021645,0.9425287356321839,0.7783783783783783
emlwiki,True,55.0,0.64,1.0,0.6493506493506493,0.9310344827586207,0.7804878048780487
emlwiki,True,56.0,0.6428571428571429,1.0,0.6536796536796536,0.9195402298850575,0.782608695652174
emlwiki,True,57.0,0.6428571428571429,1.0,0.6536796536796536,0.9195402298850575,0.782608695652174
emlwiki,True,58.0,0.6428571428571429,1.0,0.6536796536796536,0.9195402298850575,0.782608695652174
emlwiki,True,59.0,0.6428571428571429,1.0,0.6536796536796536,0.9195402298850575,0.782608695652174
emlwiki,True,60.0,0.6428571428571429,1.0,0.6536796536796536,0.9195402298850575,0.782608695652174
emlwiki,True,61.0,0.6428571428571429,1.0,0.6536796536796536,0.9195402298850575,0.782608695652174
emlwiki,True,62.0,0.6428571428571429,1.0,0.6536796536796536,0.9195402298850575,0.782608695652174
emlwiki,True,63.0,0.6428571428571429,1.0,0.6536796536796536,0.9195402298850575,0.782608695652174
emlwiki,True,64.0,0.6428571428571429,1.0,0.6536796536796536,0.9195402298850575,0.782608695652174
emlwiki,True,65.0,0.6428571428571429,1.0,0.6536796536796536,0.9195402298850575,0.782608695652174
emlwiki,True,66.0,0.6396396396396397,0.9861111111111112,0.645021645021645,0.9195402298850575,0.7759562841530054
emlwiki,True,67.0,0.6396396396396397,0.9861111111111112,0.645021645021645,0.9195402298850575,0.7759562841530054
emlwiki,True,68.0,0.6396396396396397,0.9861111111111112,0.645021645021645,0.9195402298850575,0.7759562841530054
emlwiki,True,69.0,0.6396396396396397,0.9861111111111112,0.645021645021645,0.9195402298850575,0.7759562841530054
emlwiki,True,70.0,0.6396396396396397,0.9861111111111112,0.645021645021645,0.9195402298850575,0.7759562841530054
emlwiki,True,71.0,0.6425339366515838,0.9861111111111112,0.6493506493506493,0.9080459770114943,0.778082191780822
emlwiki,True,72.0,0.6425339366515838,0.9861111111111112,0.6493506493506493,0.9080459770114943,0.778082191780822
emlwiki,True,73.0,0.6484018264840182,0.9861111111111112,0.658008658008658,0.8850574712643678,0.7823691460055096
emlwiki,True,74.0,0.6497695852534562,0.9791666666666666,0.658008658008658,0.8735632183908046,0.781163434903047
emlwiki,True,75.0,0.6619718309859155,0.9791666666666666,0.6753246753246753,0.8275862068965517,0.7899159663865546
emlwiki,True,76.0,0.6619718309859155,0.9791666666666666,0.6753246753246753,0.8275862068965517,0.7899159663865546
emlwiki,True,77.0,0.6619718309859155,0.9791666666666666,0.6753246753246753,0.8275862068965517,0.7899159663865546
emlwiki,True,78.0,0.6619718309859155,0.9791666666666666,0.6753246753246753,0.8275862068965517,0.7899159663865546
emlwiki,True,79.0,0.6619718309859155,0.9791666666666666,0.6753246753246753,0.8275862068965517,0.7899159663865546
emlwiki,True,80.0,0.6635071090047393,0.9722222222222222,0.6753246753246753,0.8160919540229885,0.7887323943661972
emlwiki,True,81.0,0.6666666666666666,0.9722222222222222,0.6796536796536796,0.8045977011494253,0.7909604519774012
emlwiki,True,82.0,0.6666666666666666,0.9722222222222222,0.6796536796536796,0.8045977011494253,0.7909604519774012
emlwiki,True,83.0,0.6682692307692307,0.9652777777777778,0.6796536796536796,0.7931034482758621,0.7897727272727273
emlwiki,True,84.0,0.6666666666666666,0.9583333333333334,0.6753246753246753,0.7931034482758621,0.7863247863247863
emlwiki,True,85.0,0.6748768472906403,0.9513888888888888,0.683982683982684,0.7586206896551724,0.7896253602305474
emlwiki,True,86.0,0.6748768472906403,0.9513888888888888,0.683982683982684,0.7586206896551724,0.7896253602305474
emlwiki,True,87.0,0.6782178217821783,0.9513888888888888,0.6883116883116883,0.7471264367816092,0.791907514450867
emlwiki,True,88.0,0.6903553299492385,0.9444444444444444,0.7012987012987013,0.7011494252873564,0.7976539589442815
emlwiki,True,89.0,0.6855670103092784,0.9236111111111112,0.6883116883116883,0.7011494252873564,0.7869822485207101
emlwiki,True,90.0,0.6927083333333334,0.9236111111111112,0.696969696969697,0.6781609195402298,0.7916666666666667
emlwiki,True,91.0,0.6894736842105263,0.9097222222222222,0.6883116883116883,0.6781609195402298,0.7844311377245509
emlwiki,True,92.0,0.6914893617021277,0.9027777777777778,0.6883116883116883,0.6666666666666666,0.783132530120482
emlwiki,True,93.0,0.6978021978021978,0.8819444444444444,0.6883116883116883,0.632183908045977,0.7791411042944785
emlwiki,True,94.0,0.6976744186046512,0.8333333333333334,0.670995670995671,0.5977011494252874,0.759493670886076
emlwiki,True,95.0,0.6894409937888198,0.7708333333333334,0.6406926406926406,0.5747126436781609,0.7278688524590164
emlwiki,True,96.0,0.6428571428571429,0.5625,0.5324675324675324,0.5172413793103449,0.6000000000000001
emlwiki,True,97.0,0.5625,0.375,0.42857142857142855,0.4827586206896552,0.45
emlwiki,True,98.0,0.36363636363636365,0.16666666666666666,0.2987012987012987,0.4827586206896552,0.2285714285714286
emlwiki,True,99.0,0.16326530612244897,0.05555555555555555,0.23376623376623376,0.47126436781609193,0.08290155440414507
emlwiki,False,0.0,0.04777415852334419,1.0,0.04777415852334419,1.0,0.09119170984455958
emlwiki,False,1.0,0.04807429664026222,1.0,0.05401737242128122,0.9934435575826682,0.09173833724263747
emlwiki,False,2.0,0.0499001996007984,0.9943181818181818,0.09527687296416938,0.9498289623717218,0.09503122454520771
emlwiki,False,3.0,0.05041774704696053,0.9943181818181818,0.10504885993485343,0.9395667046750285,0.09596928982725528
emlwiki,False,4.0,0.05112474437627812,0.9943181818181818,0.11807817589576547,0.9258836944127709,0.09724923589886081
emlwiki,False,5.0,0.051882597094574566,0.9943181818181818,0.13165038002171553,0.9116305587229191,0.09861932938856016
emlwiki,False,6.0,0.05283935621014273,0.9886363636363636,0.15282301845819762,0.8891106043329533,0.10031709426347651
emlwiki,False,7.0,0.054631083202511775,0.9886363636363636,0.18213897937024973,0.8583238312428735,0.10354061291282357
emlwiki,False,8.0,0.05725699067909454,0.9772727272727273,0.2301845819761129,0.8072976054732041,0.10817610062893081
emlwiki,False,9.0,0.05950297514875744,0.9659090909090909,0.2690010857763301,0.765963511972634,0.11210023079459282
emlwiki,False,10.0,0.06263817243920412,0.9659090909090909,0.30781758957654726,0.7251995438996579,0.11764705882352941
emlwiki,False,11.0,0.06505931879066207,0.9659090909090909,0.3352334419109663,0.6964082098061574,0.1219074937253496
emlwiki,False,12.0,0.06714342471195868,0.9602272727272727,0.36074918566775244,0.669327251995439,0.12551058299294465
emlwiki,False,13.0,0.07009539610120281,0.9602272727272727,0.38952225841476656,0.6391106043329533,0.1306532663316583
emlwiki,False,14.0,0.07275075333620319,0.9602272727272727,0.41340933767643867,0.6140250855188142,0.13525410164065624
emlwiki,False,15.0,0.07479964381121995,0.9545454545454546,0.43376764386536376,0.5923603192702395,0.13872832369942195
emlwiki,False,16.0,0.07709958696649839,0.9545454545454546,0.4519543973941368,0.5732611174458381,0.14267515923566879
emlwiki,False,17.0,0.07925961082107262,0.9488636363636364,0.47095548317046687,0.5530216647662486,0.14629872974156813
emlwiki,False,18.0,0.08291956305858987,0.9488636363636364,0.496199782844734,0.5265108323831242,0.15251141552511416
emlwiki,False,19.0,0.08546571136131013,0.9488636363636364,0.512486427795874,0.5094070695553021,0.15680751173708923
emlwiki,False,20.0,0.08803373748023194,0.9488636363636364,0.5279587404994571,0.49315849486887114,0.16111915098890497
emlwiki,False,21.0,0.0919603524229075,0.9488636363636364,0.5499457111834962,0.4700684150513113,0.1676706827309237
emlwiki,False,22.0,0.09692396982008125,0.9488636363636364,0.5751900108577633,0.443557582668187,0.17588204318062134
emlwiki,False,23.0,0.1012734990903578,0.9488636363636364,0.5952768729641694,0.4224629418472064,0.183013698630137
emlwiki,False,24.0,0.10828440965427266,0.9431818181818182,0.6262214983713354,0.3896807297605473,0.19426565242832067
emlwiki,False,25.0,0.11472011057360056,0.9431818181818182,0.6495656894679696,0.3651653363740023,0.20455945779420825
emlwiki,False,26.0,0.12081513828238719,0.9431818181818182,0.6693811074918566,0.3443557582668187,0.21419354838709678
emlwiki,False,27.0,0.12808641975308643,0.9431818181818182,0.6905537459283387,0.3221208665906499,0.22554347826086962
emlwiki,False,28.0,0.13651315789473684,0.9431818181818182,0.7122692725298588,0.2993158494868871,0.23850574712643677
emlwiki,False,29.0,0.14485165794066318,0.9431818181818182,0.7312703583061889,0.27936145952109465,0.25113464447806355
emlwiki,False,30.0,0.1561618062088429,0.9431818181818182,0.753800217155266,0.2557012542759407,0.26795803066989504
emlwiki,False,31.0,0.16533864541832669,0.9431818181818182,0.7698154180238871,0.23888255416191562,0.28135593220338984
emlwiki,False,32.0,0.1790722761596548,0.9431818181818182,0.7907166123778502,0.2169327251995439,0.30099728014505894
emlwiki,False,33.0,0.19168591224018475,0.9431818181818182,0.8072747014115093,0.19954389965792474,0.3186180422264875
emlwiki,False,34.0,0.20395550061804696,0.9375,0.8222041259500543,0.18358038768529075,0.3350253807106599
emlwiki,False,35.0,0.21262886597938144,0.9375,0.8311617806731814,0.1741733181299886,0.34663865546218486
emlwiki,False,36.0,0.22948539638386647,0.9375,0.8466340933767644,0.15792474344355759,0.3687150837988826
emlwiki,False,37.0,0.2470059880239521,0.9375,0.8604777415852335,0.14338654503990877,0.3909952606635071
emlwiki,False,38.0,0.26025236593059936,0.9375,0.8697068403908795,0.13369441277080957,0.4074074074074074
emlwiki,False,39.0,0.27408637873754155,0.9375,0.8783930510314875,0.12457240592930445,0.42416452442159386
emlwiki,False,40.0,0.2920353982300885,0.9375,0.8884364820846905,0.11402508551881414,0.4453441295546559
emlwiki,False,41.0,0.30711610486891383,0.9318181818181818,0.8963083604777415,0.10547320410490307,0.4619718309859155
emlwiki,False,42.0,0.3159922928709056,0.9318181818181818,0.9003800217155266,0.10119726339794755,0.47194244604316543
emlwiki,False,43.0,0.332657200811359,0.9318181818181818,0.9074375678610206,0.09378563283922463,0.49028400597907323
emlwiki,False,44.0,0.3474576271186441,0.9318181818181818,0.9131378935939196,0.08779931584948689,0.5061728395061729
emlwiki,False,45.0,0.36283185840707965,0.9318181818181818,0.9185667752442996,0.08209806157354618,0.5222929936305732
emlwiki,False,46.0,0.37528604118993136,0.9318181818181818,0.9226384364820847,0.07782212086659065,0.535073409461664
emlwiki,False,47.0,0.38497652582159625,0.9318181818181818,0.9256243213897937,0.07468643101482327,0.5448504983388703
emlwiki,False,48.0,0.3961352657004831,0.9318181818181818,0.9288816503800217,0.07126567844925884,0.5559322033898305
emlwiki,False,49.0,0.4049382716049383,0.9318181818181818,0.9313246471226927,0.06870011402508552,0.5645438898450946
emlwiki,False,50.0,0.41102756892230574,0.9318181818181818,0.9329533116178067,0.06698973774230331,0.5704347826086956
emlwiki,False,51.0,0.4270833333333333,0.9318181818181818,0.9370249728555917,0.06271379703534778,0.5857142857142857
emlwiki,False,52.0,0.43617021276595747,0.9318181818181818,0.9391965255157437,0.06043329532497149,0.5942028985507247
emlwiki,False,53.0,0.44565217391304346,0.9318181818181818,0.9413680781758957,0.05815279361459521,0.6029411764705883
emlwiki,False,54.0,0.45555555555555555,0.9318181818181818,0.9435396308360477,0.055872291904218926,0.6119402985074627
emlwiki,False,55.0,0.4632768361581921,0.9318181818181818,0.9451682953311618,0.05416191562143672,0.6188679245283019
emlwiki,False,56.0,0.47246376811594204,0.9261363636363636,0.9470684039087948,0.05188141391106044,0.6257197696737045
emlwiki,False,57.0,0.4808259587020649,0.9261363636363636,0.9486970684039088,0.05017103762827822,0.6330097087378641
emlwiki,False,58.0,0.4880239520958084,0.9261363636363636,0.9500542888165038,0.04874572405929305,0.6392156862745099
emlwiki,False,59.0,0.49244712990936557,0.9261363636363636,0.9508686210640608,0.04789053591790194,0.6429980276134123
emlwiki,False,60.0,0.5,0.9261363636363636,0.9522258414766558,0.046465222348916764,0.649402390438247
emlwiki,False,61.0,0.5109717868338558,0.9261363636363636,0.9541259500542888,0.04446978335233751,0.6585858585858586
emlwiki,False,62.0,0.5158227848101266,0.9261363636363636,0.9549402823018458,0.043614595210946405,0.6626016260162602
emlwiki,False,63.0,0.5241157556270096,0.9261363636363636,0.9562975027144408,0.04218928164196123,0.6694045174537988
emlwiki,False,64.0,0.5344262295081967,0.9261363636363636,0.9579261672095548,0.04047890535917902,0.6777546777546777
emlwiki,False,65.0,0.5379537953795379,0.9261363636363636,0.9584690553745928,0.039908779931584946,0.6805845511482255
emlwiki,False,66.0,0.5476190476190477,0.9147727272727273,0.9598262757871878,0.0379133409350057,0.6851063829787234
emlwiki,False,67.0,0.5532646048109966,0.9147727272727273,0.9606406080347448,0.037058152793614595,0.6895074946466809
emlwiki,False,68.0,0.5609756097560976,0.9147727272727273,0.9617263843648208,0.03591790193842646,0.6954643628509719
emlwiki,False,69.0,0.5609756097560976,0.9147727272727273,0.9617263843648208,0.03591790193842646,0.6954643628509719
emlwiki,False,70.0,0.5669014084507042,0.9147727272727273,0.9625407166123778,0.03506271379703535,0.7000000000000001
emlwiki,False,71.0,0.568904593639576,0.9147727272727273,0.9628121606948968,0.03477765108323831,0.7015250544662309
emlwiki,False,72.0,0.575,0.9147727272727273,0.9636264929424538,0.033922462941847205,0.706140350877193
emlwiki,False,73.0,0.579136690647482,0.9147727272727273,0.9641693811074918,0.033352337514253136,0.7092511013215859
emlwiki,False,74.0,0.5904059040590406,0.9090909090909091,0.9655266015200868,0.03164196123147092,0.7158836689038031
emlwiki,False,75.0,0.6060606060606061,0.9090909090909091,0.9674267100977199,0.029646522234891677,0.7272727272727273
emlwiki,False,76.0,0.6130268199233716,0.9090909090909091,0.9682410423452769,0.02879133409350057,0.7322654462242562
emlwiki,False,77.0,0.6153846153846154,0.9090909090909091,0.9685124864277959,0.028506271379703536,0.7339449541284404
emlwiki,False,78.0,0.6153846153846154,0.9090909090909091,0.9685124864277959,0.028506271379703536,0.7339449541284404
emlwiki,False,79.0,0.6153846153846154,0.9090909090909091,0.9685124864277959,0.028506271379703536,0.7339449541284404
emlwiki,False,80.0,0.6186770428015564,0.9034090909090909,0.9687839305103149,0.027936145952109463,0.7344110854503466
emlwiki,False,81.0,0.6235294117647059,0.9034090909090909,0.9693268186753529,0.027366020524515394,0.7378190255220418
emlwiki,False,82.0,0.6235294117647059,0.9034090909090909,0.9693268186753529,0.027366020524515394,0.7378190255220418
emlwiki,False,83.0,0.6245059288537549,0.8977272727272727,0.9693268186753529,0.02708095781071836,0.7365967365967365
emlwiki,False,84.0,0.628,0.8920454545454546,0.9695982627578719,0.026510832383124287,0.7370892018779343
emlwiki,False,85.0,0.636734693877551,0.8863636363636364,0.9704125950054289,0.025370581527936146,0.7410926365795724
emlwiki,False,86.0,0.636734693877551,0.8863636363636364,0.9704125950054289,0.025370581527936146,0.7410926365795724
emlwiki,False,87.0,0.6419753086419753,0.8863636363636364,0.9709554831704669,0.024800456100342077,0.7446300715990453
emlwiki,False,88.0,0.6567796610169492,0.8806818181818182,0.9723127035830619,0.023090079817559863,0.7524271844660195
emlwiki,False,89.0,0.6523605150214592,0.8636363636363636,0.9714983713355049,0.023090079817559863,0.7432762836185819
emlwiki,False,90.0,0.6608695652173913,0.8636363636363636,0.9723127035830619,0.022234891676168756,0.7487684729064039
emlwiki,False,91.0,0.6607929515418502,0.8522727272727273,0.9720412595005429,0.02194982896237172,0.7444168734491315
emlwiki,False,92.0,0.6607142857142857,0.8409090909090909,0.9717698154180239,0.021664766248574687,0.74
emlwiki,False,93.0,0.6651376146788991,0.8238636363636364,0.9717698154180239,0.02080957810718358,0.7360406091370559
emlwiki,False,94.0,0.6666666666666666,0.7840909090909091,0.9709554831704669,0.01966932725199544,0.720626631853786
emlwiki,False,95.0,0.654639175257732,0.7215909090909091,0.9685124864277959,0.01909920182440137,0.6864864864864865
emlwiki,False,96.0,0.5947712418300654,0.5170454545454546,0.9600977198697068,0.01767388825541619,0.5531914893617021
emlwiki,False,97.0,0.5042016806722689,0.3409090909090909,0.9524972855591748,0.016818700114025087,0.4067796610169491
emlwiki,False,98.0,0.3058823529411765,0.14772727272727273,0.9432681867535287,0.016818700114025087,0.19923371647509583
emlwiki,False,99.0,0.13793103448275862,0.045454545454545456,0.9408251900108577,0.014253135689851768,0.06837606837606837
