wiki_db,user_is_anonymous_or_bot,threshold,precision,recall,accuracy,fpr,F1
gvwiki,True,0.0,0.38181818181818183,1.0,0.38181818181818183,1.0,0.5526315789473685
gvwiki,True,1.0,0.38181818181818183,1.0,0.38181818181818183,1.0,0.5526315789473685
gvwiki,True,2.0,0.38181818181818183,1.0,0.38181818181818183,1.0,0.5526315789473685
gvwiki,True,3.0,0.38181818181818183,1.0,0.38181818181818183,1.0,0.5526315789473685
gvwiki,True,4.0,0.38181818181818183,1.0,0.38181818181818183,1.0,0.5526315789473685
gvwiki,True,5.0,0.38181818181818183,1.0,0.38181818181818183,1.0,0.5526315789473685
gvwiki,True,6.0,0.38181818181818183,1.0,0.38181818181818183,1.0,0.5526315789473685
gvwiki,True,7.0,0.38181818181818183,1.0,0.38181818181818183,1.0,0.5526315789473685
gvwiki,True,8.0,0.38181818181818183,1.0,0.38181818181818183,1.0,0.5526315789473685
gvwiki,True,9.0,0.38181818181818183,1.0,0.38181818181818183,1.0,0.5526315789473685
gvwiki,True,10.0,0.38181818181818183,1.0,0.38181818181818183,1.0,0.5526315789473685
gvwiki,True,11.0,0.38181818181818183,1.0,0.38181818181818183,1.0,0.5526315789473685
gvwiki,True,12.0,0.38181818181818183,1.0,0.38181818181818183,1.0,0.5526315789473685
gvwiki,True,13.0,0.38181818181818183,1.0,0.38181818181818183,1.0,0.5526315789473685
gvwiki,True,14.0,0.38181818181818183,1.0,0.38181818181818183,1.0,0.5526315789473685
gvwiki,True,15.0,0.38181818181818183,1.0,0.38181818181818183,1.0,0.5526315789473685
gvwiki,True,16.0,0.3888888888888889,1.0,0.4,0.9705882352941176,0.56
gvwiki,True,17.0,0.3888888888888889,1.0,0.4,0.9705882352941176,0.56
gvwiki,True,18.0,0.3888888888888889,1.0,0.4,0.9705882352941176,0.56
gvwiki,True,19.0,0.3888888888888889,1.0,0.4,0.9705882352941176,0.56
gvwiki,True,20.0,0.3888888888888889,1.0,0.4,0.9705882352941176,0.56
gvwiki,True,21.0,0.3888888888888889,1.0,0.4,0.9705882352941176,0.56
gvwiki,True,22.0,0.3888888888888889,1.0,0.4,0.9705882352941176,0.56
gvwiki,True,23.0,0.3888888888888889,1.0,0.4,0.9705882352941176,0.56
gvwiki,True,24.0,0.3888888888888889,1.0,0.4,0.9705882352941176,0.56
gvwiki,True,25.0,0.3888888888888889,1.0,0.4,0.9705882352941176,0.56
gvwiki,True,26.0,0.3888888888888889,1.0,0.4,0.9705882352941176,0.56
gvwiki,True,27.0,0.3888888888888889,1.0,0.4,0.9705882352941176,0.56
gvwiki,True,28.0,0.3888888888888889,1.0,0.4,0.9705882352941176,0.56
gvwiki,True,29.0,0.3888888888888889,1.0,0.4,0.9705882352941176,0.56
gvwiki,True,30.0,0.3888888888888889,1.0,0.4,0.9705882352941176,0.56
gvwiki,True,31.0,0.3888888888888889,1.0,0.4,0.9705882352941176,0.56
gvwiki,True,32.0,0.3888888888888889,1.0,0.4,0.9705882352941176,0.56
gvwiki,True,33.0,0.3888888888888889,1.0,0.4,0.9705882352941176,0.56
gvwiki,True,34.0,0.39622641509433965,1.0,0.41818181818181815,0.9411764705882353,0.5675675675675675
gvwiki,True,35.0,0.40384615384615385,1.0,0.43636363636363634,0.9117647058823529,0.5753424657534247
gvwiki,True,36.0,0.4117647058823529,1.0,0.45454545454545453,0.8823529411764706,0.5833333333333334
gvwiki,True,37.0,0.4117647058823529,1.0,0.45454545454545453,0.8823529411764706,0.5833333333333334
gvwiki,True,38.0,0.4117647058823529,1.0,0.45454545454545453,0.8823529411764706,0.5833333333333334
gvwiki,True,39.0,0.42,1.0,0.4727272727272727,0.8529411764705882,0.5915492957746479
gvwiki,True,40.0,0.42,1.0,0.4727272727272727,0.8529411764705882,0.5915492957746479
gvwiki,True,41.0,0.42,1.0,0.4727272727272727,0.8529411764705882,0.5915492957746479
gvwiki,True,42.0,0.42,1.0,0.4727272727272727,0.8529411764705882,0.5915492957746479
gvwiki,True,43.0,0.42,1.0,0.4727272727272727,0.8529411764705882,0.5915492957746479
gvwiki,True,44.0,0.42,1.0,0.4727272727272727,0.8529411764705882,0.5915492957746479
gvwiki,True,45.0,0.42857142857142855,1.0,0.4909090909090909,0.8235294117647058,0.6
gvwiki,True,46.0,0.42857142857142855,1.0,0.4909090909090909,0.8235294117647058,0.6
gvwiki,True,47.0,0.42857142857142855,1.0,0.4909090909090909,0.8235294117647058,0.6
gvwiki,True,48.0,0.42857142857142855,1.0,0.4909090909090909,0.8235294117647058,0.6
gvwiki,True,49.0,0.42857142857142855,1.0,0.4909090909090909,0.8235294117647058,0.6
gvwiki,True,50.0,0.42857142857142855,1.0,0.4909090909090909,0.8235294117647058,0.6
gvwiki,True,51.0,0.42857142857142855,1.0,0.4909090909090909,0.8235294117647058,0.6
gvwiki,True,52.0,0.42857142857142855,1.0,0.4909090909090909,0.8235294117647058,0.6
gvwiki,True,53.0,0.4375,1.0,0.509090909090909,0.7941176470588235,0.6086956521739131
gvwiki,True,54.0,0.4375,1.0,0.509090909090909,0.7941176470588235,0.6086956521739131
gvwiki,True,55.0,0.4375,1.0,0.509090909090909,0.7941176470588235,0.6086956521739131
gvwiki,True,56.0,0.44680851063829785,1.0,0.5272727272727272,0.7647058823529411,0.6176470588235294
gvwiki,True,57.0,0.44680851063829785,1.0,0.5272727272727272,0.7647058823529411,0.6176470588235294
gvwiki,True,58.0,0.44680851063829785,1.0,0.5272727272727272,0.7647058823529411,0.6176470588235294
gvwiki,True,59.0,0.44680851063829785,1.0,0.5272727272727272,0.7647058823529411,0.6176470588235294
gvwiki,True,60.0,0.44680851063829785,1.0,0.5272727272727272,0.7647058823529411,0.6176470588235294
gvwiki,True,61.0,0.44680851063829785,1.0,0.5272727272727272,0.7647058823529411,0.6176470588235294
gvwiki,True,62.0,0.44680851063829785,1.0,0.5272727272727272,0.7647058823529411,0.6176470588235294
gvwiki,True,63.0,0.44680851063829785,1.0,0.5272727272727272,0.7647058823529411,0.6176470588235294
gvwiki,True,64.0,0.44680851063829785,1.0,0.5272727272727272,0.7647058823529411,0.6176470588235294
gvwiki,True,65.0,0.44680851063829785,1.0,0.5272727272727272,0.7647058823529411,0.6176470588235294
gvwiki,True,66.0,0.44680851063829785,1.0,0.5272727272727272,0.7647058823529411,0.6176470588235294
gvwiki,True,67.0,0.44680851063829785,1.0,0.5272727272727272,0.7647058823529411,0.6176470588235294
gvwiki,True,68.0,0.44680851063829785,1.0,0.5272727272727272,0.7647058823529411,0.6176470588235294
gvwiki,True,69.0,0.45652173913043476,1.0,0.5454545454545454,0.7352941176470589,0.626865671641791
gvwiki,True,70.0,0.45652173913043476,1.0,0.5454545454545454,0.7352941176470589,0.626865671641791
gvwiki,True,71.0,0.45652173913043476,1.0,0.5454545454545454,0.7352941176470589,0.626865671641791
gvwiki,True,72.0,0.45652173913043476,1.0,0.5454545454545454,0.7352941176470589,0.626865671641791
gvwiki,True,73.0,0.4666666666666667,1.0,0.5636363636363636,0.7058823529411765,0.6363636363636364
gvwiki,True,74.0,0.4666666666666667,1.0,0.5636363636363636,0.7058823529411765,0.6363636363636364
gvwiki,True,75.0,0.4666666666666667,1.0,0.5636363636363636,0.7058823529411765,0.6363636363636364
gvwiki,True,76.0,0.4772727272727273,1.0,0.5818181818181818,0.6764705882352942,0.6461538461538462
gvwiki,True,77.0,0.4772727272727273,1.0,0.5818181818181818,0.6764705882352942,0.6461538461538462
gvwiki,True,78.0,0.4772727272727273,1.0,0.5818181818181818,0.6764705882352942,0.6461538461538462
gvwiki,True,79.0,0.4772727272727273,1.0,0.5818181818181818,0.6764705882352942,0.6461538461538462
gvwiki,True,80.0,0.4772727272727273,1.0,0.5818181818181818,0.6764705882352942,0.6461538461538462
gvwiki,True,81.0,0.4883720930232558,1.0,0.6,0.6470588235294118,0.65625
gvwiki,True,82.0,0.4878048780487805,0.9523809523809523,0.6,0.6176470588235294,0.6451612903225806
gvwiki,True,83.0,0.4878048780487805,0.9523809523809523,0.6,0.6176470588235294,0.6451612903225806
gvwiki,True,84.0,0.4878048780487805,0.9523809523809523,0.6,0.6176470588235294,0.6451612903225806
gvwiki,True,85.0,0.4878048780487805,0.9523809523809523,0.6,0.6176470588235294,0.6451612903225806
gvwiki,True,86.0,0.5,0.9523809523809523,0.6181818181818182,0.5882352941176471,0.6557377049180327
gvwiki,True,87.0,0.48717948717948717,0.9047619047619048,0.6,0.5882352941176471,0.6333333333333333
gvwiki,True,88.0,0.5135135135135135,0.9047619047619048,0.6363636363636364,0.5294117647058824,0.6551724137931034
gvwiki,True,89.0,0.5294117647058824,0.8571428571428571,0.6545454545454545,0.47058823529411764,0.6545454545454545
gvwiki,True,90.0,0.5625,0.8571428571428571,0.6909090909090909,0.4117647058823529,0.6792452830188678
gvwiki,True,91.0,0.6153846153846154,0.7619047619047619,0.7272727272727273,0.29411764705882354,0.6808510638297872
gvwiki,True,92.0,0.5652173913043478,0.6190476190476191,0.6727272727272727,0.29411764705882354,0.5909090909090909
gvwiki,True,93.0,0.5909090909090909,0.6190476190476191,0.6909090909090909,0.2647058823529412,0.6046511627906977
gvwiki,True,94.0,0.631578947368421,0.5714285714285714,0.7090909090909091,0.20588235294117646,0.6
gvwiki,True,95.0,0.6470588235294118,0.5238095238095238,0.7090909090909091,0.17647058823529413,0.5789473684210527
gvwiki,True,96.0,0.7692307692307693,0.47619047619047616,0.7454545454545455,0.08823529411764706,0.588235294117647
gvwiki,True,97.0,0.8,0.38095238095238093,0.7272727272727273,0.058823529411764705,0.5161290322580645
gvwiki,True,98.0,0.7777777777777778,0.3333333333333333,0.7090909090909091,0.058823529411764705,0.4666666666666666
gvwiki,True,99.0,0.8333333333333334,0.23809523809523808,0.6909090909090909,0.029411764705882353,0.37037037037037035
gvwiki,False,0.0,0.2229299363057325,1.0,0.2229299363057325,1.0,0.36458333333333337
gvwiki,False,1.0,0.2229299363057325,1.0,0.2229299363057325,1.0,0.36458333333333337
gvwiki,False,2.0,0.2229299363057325,1.0,0.2229299363057325,1.0,0.36458333333333337
gvwiki,False,3.0,0.2229299363057325,1.0,0.2229299363057325,1.0,0.36458333333333337
gvwiki,False,4.0,0.22435897435897437,1.0,0.22929936305732485,0.9918032786885246,0.36649214659685864
gvwiki,False,5.0,0.22435897435897437,1.0,0.22929936305732485,0.9918032786885246,0.36649214659685864
gvwiki,False,6.0,0.22727272727272727,1.0,0.24203821656050956,0.9754098360655737,0.37037037037037035
gvwiki,False,7.0,0.2348993288590604,1.0,0.27388535031847133,0.9344262295081968,0.3804347826086956
gvwiki,False,8.0,0.23809523809523808,1.0,0.28662420382165604,0.9180327868852459,0.3846153846153846
gvwiki,False,9.0,0.2413793103448276,1.0,0.29936305732484075,0.9016393442622951,0.3888888888888889
gvwiki,False,10.0,0.24475524475524477,1.0,0.31210191082802546,0.8852459016393442,0.39325842696629215
gvwiki,False,11.0,0.24647887323943662,1.0,0.3184713375796178,0.8770491803278688,0.3954802259887006
gvwiki,False,12.0,0.25,1.0,0.33121019108280253,0.860655737704918,0.4
gvwiki,False,13.0,0.2536231884057971,1.0,0.34394904458598724,0.8442622950819673,0.4046242774566474
gvwiki,False,14.0,0.25735294117647056,1.0,0.35668789808917195,0.8278688524590164,0.4093567251461988
gvwiki,False,15.0,0.25925925925925924,1.0,0.3630573248407643,0.819672131147541,0.4117647058823529
gvwiki,False,16.0,0.2631578947368421,1.0,0.37579617834394907,0.8032786885245902,0.4166666666666667
gvwiki,False,17.0,0.2631578947368421,1.0,0.37579617834394907,0.8032786885245902,0.4166666666666667
gvwiki,False,18.0,0.26515151515151514,1.0,0.3821656050955414,0.7950819672131147,0.41916167664670656
gvwiki,False,19.0,0.26515151515151514,1.0,0.3821656050955414,0.7950819672131147,0.41916167664670656
gvwiki,False,20.0,0.2692307692307692,1.0,0.39490445859872614,0.7786885245901639,0.42424242424242425
gvwiki,False,21.0,0.2713178294573643,1.0,0.4012738853503185,0.7704918032786885,0.42682926829268286
gvwiki,False,22.0,0.2777777777777778,1.0,0.42038216560509556,0.7459016393442623,0.4347826086956522
gvwiki,False,23.0,0.2777777777777778,1.0,0.42038216560509556,0.7459016393442623,0.4347826086956522
gvwiki,False,24.0,0.2777777777777778,1.0,0.42038216560509556,0.7459016393442623,0.4347826086956522
gvwiki,False,25.0,0.2845528455284553,1.0,0.4394904458598726,0.7213114754098361,0.4430379746835443
gvwiki,False,26.0,0.2845528455284553,1.0,0.4394904458598726,0.7213114754098361,0.4430379746835443
gvwiki,False,27.0,0.2845528455284553,1.0,0.4394904458598726,0.7213114754098361,0.4430379746835443
gvwiki,False,28.0,0.2845528455284553,1.0,0.4394904458598726,0.7213114754098361,0.4430379746835443
gvwiki,False,29.0,0.2845528455284553,1.0,0.4394904458598726,0.7213114754098361,0.4430379746835443
gvwiki,False,30.0,0.2845528455284553,1.0,0.4394904458598726,0.7213114754098361,0.4430379746835443
gvwiki,False,31.0,0.28688524590163933,1.0,0.445859872611465,0.7131147540983607,0.4458598726114649
gvwiki,False,32.0,0.2892561983471074,1.0,0.45222929936305734,0.7049180327868853,0.44871794871794873
gvwiki,False,33.0,0.2916666666666667,1.0,0.4585987261146497,0.6967213114754098,0.45161290322580644
gvwiki,False,34.0,0.29411764705882354,1.0,0.46496815286624205,0.6885245901639344,0.45454545454545453
gvwiki,False,35.0,0.2966101694915254,1.0,0.4713375796178344,0.680327868852459,0.457516339869281
gvwiki,False,36.0,0.30434782608695654,1.0,0.49044585987261147,0.6557377049180327,0.4666666666666667
gvwiki,False,37.0,0.30434782608695654,1.0,0.49044585987261147,0.6557377049180327,0.4666666666666667
gvwiki,False,38.0,0.30434782608695654,1.0,0.49044585987261147,0.6557377049180327,0.4666666666666667
gvwiki,False,39.0,0.30973451327433627,1.0,0.5031847133757962,0.639344262295082,0.4729729729729729
gvwiki,False,40.0,0.3125,1.0,0.5095541401273885,0.6311475409836066,0.47619047619047616
gvwiki,False,41.0,0.3153153153153153,1.0,0.5159235668789809,0.6229508196721312,0.4794520547945206
gvwiki,False,42.0,0.3153153153153153,1.0,0.5159235668789809,0.6229508196721312,0.4794520547945206
gvwiki,False,43.0,0.3181818181818182,1.0,0.5222929936305732,0.6147540983606558,0.4827586206896552
gvwiki,False,44.0,0.32407407407407407,1.0,0.535031847133758,0.5983606557377049,0.48951048951048953
gvwiki,False,45.0,0.32710280373831774,1.0,0.5414012738853503,0.5901639344262295,0.49295774647887325
gvwiki,False,46.0,0.330188679245283,1.0,0.5477707006369427,0.5819672131147541,0.4964539007092198
gvwiki,False,47.0,0.33653846153846156,1.0,0.5605095541401274,0.5655737704918032,0.5035971223021583
gvwiki,False,48.0,0.33653846153846156,1.0,0.5605095541401274,0.5655737704918032,0.5035971223021583
gvwiki,False,49.0,0.33980582524271846,1.0,0.5668789808917197,0.5573770491803278,0.5072463768115942
gvwiki,False,50.0,0.3431372549019608,1.0,0.5732484076433121,0.5491803278688525,0.510948905109489
gvwiki,False,51.0,0.35,1.0,0.5859872611464968,0.5327868852459017,0.5185185185185185
gvwiki,False,52.0,0.35353535353535354,1.0,0.5923566878980892,0.5245901639344263,0.5223880597014925
gvwiki,False,53.0,0.3684210526315789,1.0,0.6178343949044586,0.4918032786885246,0.5384615384615384
gvwiki,False,54.0,0.3723404255319149,1.0,0.6242038216560509,0.48360655737704916,0.5426356589147286
gvwiki,False,55.0,0.3723404255319149,1.0,0.6242038216560509,0.48360655737704916,0.5426356589147286
gvwiki,False,56.0,0.3888888888888889,1.0,0.6496815286624203,0.45081967213114754,0.56
gvwiki,False,57.0,0.3888888888888889,1.0,0.6496815286624203,0.45081967213114754,0.56
gvwiki,False,58.0,0.40229885057471265,1.0,0.6687898089171974,0.4262295081967213,0.5737704918032787
gvwiki,False,59.0,0.40229885057471265,1.0,0.6687898089171974,0.4262295081967213,0.5737704918032787
gvwiki,False,60.0,0.40229885057471265,1.0,0.6687898089171974,0.4262295081967213,0.5737704918032787
gvwiki,False,61.0,0.40229885057471265,1.0,0.6687898089171974,0.4262295081967213,0.5737704918032787
gvwiki,False,62.0,0.4069767441860465,1.0,0.6751592356687898,0.4180327868852459,0.5785123966942148
gvwiki,False,63.0,0.4117647058823529,1.0,0.6815286624203821,0.4098360655737705,0.5833333333333334
gvwiki,False,64.0,0.42168674698795183,1.0,0.6942675159235668,0.39344262295081966,0.5932203389830509
gvwiki,False,65.0,0.4268292682926829,1.0,0.7006369426751592,0.38524590163934425,0.5982905982905983
gvwiki,False,66.0,0.4268292682926829,1.0,0.7006369426751592,0.38524590163934425,0.5982905982905983
gvwiki,False,67.0,0.4430379746835443,1.0,0.7197452229299363,0.36065573770491804,0.6140350877192983
gvwiki,False,68.0,0.45454545454545453,1.0,0.732484076433121,0.3442622950819672,0.625
gvwiki,False,69.0,0.4666666666666667,1.0,0.7452229299363057,0.32786885245901637,0.6363636363636364
gvwiki,False,70.0,0.4666666666666667,1.0,0.7452229299363057,0.32786885245901637,0.6363636363636364
gvwiki,False,71.0,0.47297297297297297,1.0,0.7515923566878981,0.319672131147541,0.6422018348623852
gvwiki,False,72.0,0.4794520547945205,1.0,0.7579617834394905,0.3114754098360656,0.6481481481481481
gvwiki,False,73.0,0.4861111111111111,1.0,0.7643312101910829,0.30327868852459017,0.6542056074766355
gvwiki,False,74.0,0.49295774647887325,1.0,0.7707006369426752,0.29508196721311475,0.660377358490566
gvwiki,False,75.0,0.49295774647887325,1.0,0.7707006369426752,0.29508196721311475,0.660377358490566
gvwiki,False,76.0,0.5,1.0,0.7770700636942676,0.28688524590163933,0.6666666666666666
gvwiki,False,77.0,0.5072463768115942,1.0,0.7834394904458599,0.2786885245901639,0.6730769230769231
gvwiki,False,78.0,0.5147058823529411,1.0,0.7898089171974523,0.27049180327868855,0.6796116504854368
gvwiki,False,79.0,0.5147058823529411,1.0,0.7898089171974523,0.27049180327868855,0.6796116504854368
gvwiki,False,80.0,0.5223880597014925,1.0,0.7961783439490446,0.26229508196721313,0.6862745098039216
gvwiki,False,81.0,0.5384615384615384,1.0,0.8089171974522293,0.2459016393442623,0.7000000000000001
gvwiki,False,82.0,0.5483870967741935,0.9714285714285714,0.8152866242038217,0.22950819672131148,0.7010309278350515
gvwiki,False,83.0,0.5409836065573771,0.9428571428571428,0.8089171974522293,0.22950819672131148,0.6875
gvwiki,False,84.0,0.5409836065573771,0.9428571428571428,0.8089171974522293,0.22950819672131148,0.6875
gvwiki,False,85.0,0.5517241379310345,0.9142857142857143,0.8152866242038217,0.21311475409836064,0.6881720430107526
gvwiki,False,86.0,0.5925925925925926,0.9142857142857143,0.8407643312101911,0.18032786885245902,0.7191011235955056
gvwiki,False,87.0,0.5961538461538461,0.8857142857142857,0.8407643312101911,0.1721311475409836,0.7126436781609196
gvwiki,False,88.0,0.6041666666666666,0.8285714285714286,0.8407643312101911,0.1557377049180328,0.6987951807228916
gvwiki,False,89.0,0.6136363636363636,0.7714285714285715,0.8407643312101911,0.13934426229508196,0.6835443037974683
gvwiki,False,90.0,0.6428571428571429,0.7714285714285715,0.8535031847133758,0.12295081967213115,0.7012987012987013
gvwiki,False,91.0,0.6944444444444444,0.7142857142857143,0.8662420382165605,0.09016393442622951,0.7042253521126761
gvwiki,False,92.0,0.65625,0.6,0.8407643312101911,0.09016393442622951,0.626865671641791
gvwiki,False,93.0,0.6774193548387096,0.6,0.8471337579617835,0.08196721311475409,0.6363636363636364
gvwiki,False,94.0,0.7142857142857143,0.5714285714285714,0.8535031847133758,0.06557377049180328,0.634920634920635
gvwiki,False,95.0,0.72,0.5142857142857142,0.8471337579617835,0.05737704918032787,0.6
gvwiki,False,96.0,0.8421052631578947,0.45714285714285713,0.8598726114649682,0.02459016393442623,0.5925925925925926
gvwiki,False,97.0,0.8666666666666667,0.37142857142857144,0.8471337579617835,0.01639344262295082,0.52
gvwiki,False,98.0,0.8571428571428571,0.34285714285714286,0.8407643312101911,0.01639344262295082,0.4897959183673469
gvwiki,False,99.0,0.9090909090909091,0.2857142857142857,0.8343949044585988,0.00819672131147541,0.43478260869565216
