wiki_db,user_is_anonymous_or_bot,threshold,precision,recall,accuracy,fpr,F1
hawwiki,True,0.0,0.057971014492753624,1.0,0.057971014492753624,1.0,0.1095890410958904
hawwiki,True,1.0,0.057971014492753624,1.0,0.057971014492753624,1.0,0.1095890410958904
hawwiki,True,2.0,0.057971014492753624,1.0,0.057971014492753624,1.0,0.1095890410958904
hawwiki,True,3.0,0.057971014492753624,1.0,0.057971014492753624,1.0,0.1095890410958904
hawwiki,True,4.0,0.057971014492753624,1.0,0.057971014492753624,1.0,0.1095890410958904
hawwiki,True,5.0,0.057971014492753624,1.0,0.057971014492753624,1.0,0.1095890410958904
hawwiki,True,6.0,0.057971014492753624,1.0,0.057971014492753624,1.0,0.1095890410958904
hawwiki,True,7.0,0.057971014492753624,1.0,0.057971014492753624,1.0,0.1095890410958904
hawwiki,True,8.0,0.057971014492753624,1.0,0.057971014492753624,1.0,0.1095890410958904
hawwiki,True,9.0,0.057971014492753624,1.0,0.057971014492753624,1.0,0.1095890410958904
hawwiki,True,10.0,0.057971014492753624,1.0,0.057971014492753624,1.0,0.1095890410958904
hawwiki,True,11.0,0.057971014492753624,1.0,0.057971014492753624,1.0,0.1095890410958904
hawwiki,True,12.0,0.058394160583941604,1.0,0.06521739130434782,0.9923076923076923,0.1103448275862069
hawwiki,True,13.0,0.058394160583941604,1.0,0.06521739130434782,0.9923076923076923,0.1103448275862069
hawwiki,True,14.0,0.058394160583941604,1.0,0.06521739130434782,0.9923076923076923,0.1103448275862069
hawwiki,True,15.0,0.058823529411764705,1.0,0.07246376811594203,0.9846153846153847,0.1111111111111111
hawwiki,True,16.0,0.058823529411764705,1.0,0.07246376811594203,0.9846153846153847,0.1111111111111111
hawwiki,True,17.0,0.058823529411764705,1.0,0.07246376811594203,0.9846153846153847,0.1111111111111111
hawwiki,True,18.0,0.058823529411764705,1.0,0.07246376811594203,0.9846153846153847,0.1111111111111111
hawwiki,True,19.0,0.058823529411764705,1.0,0.07246376811594203,0.9846153846153847,0.1111111111111111
hawwiki,True,20.0,0.058823529411764705,1.0,0.07246376811594203,0.9846153846153847,0.1111111111111111
hawwiki,True,21.0,0.05925925925925926,1.0,0.07971014492753623,0.9769230769230769,0.11188811188811189
hawwiki,True,22.0,0.05970149253731343,1.0,0.08695652173913043,0.9692307692307692,0.11267605633802817
hawwiki,True,23.0,0.05970149253731343,1.0,0.08695652173913043,0.9692307692307692,0.11267605633802817
hawwiki,True,24.0,0.06015037593984962,1.0,0.09420289855072464,0.9615384615384616,0.11347517730496454
hawwiki,True,25.0,0.06015037593984962,1.0,0.09420289855072464,0.9615384615384616,0.11347517730496454
hawwiki,True,26.0,0.06060606060606061,1.0,0.10144927536231885,0.9538461538461539,0.1142857142857143
hawwiki,True,27.0,0.06060606060606061,1.0,0.10144927536231885,0.9538461538461539,0.1142857142857143
hawwiki,True,28.0,0.061068702290076333,1.0,0.10869565217391304,0.9461538461538461,0.11510791366906473
hawwiki,True,29.0,0.06201550387596899,1.0,0.12318840579710146,0.9307692307692308,0.1167883211678832
hawwiki,True,30.0,0.0625,1.0,0.13043478260869565,0.9230769230769231,0.11764705882352941
hawwiki,True,31.0,0.0625,1.0,0.13043478260869565,0.9230769230769231,0.11764705882352941
hawwiki,True,32.0,0.06299212598425197,1.0,0.13768115942028986,0.9153846153846154,0.11851851851851852
hawwiki,True,33.0,0.06779661016949153,1.0,0.2028985507246377,0.8461538461538461,0.12698412698412698
hawwiki,True,34.0,0.06956521739130435,1.0,0.2246376811594203,0.823076923076923,0.13008130081300812
hawwiki,True,35.0,0.07079646017699115,1.0,0.2391304347826087,0.8076923076923077,0.13223140495867766
hawwiki,True,36.0,0.07272727272727272,1.0,0.2608695652173913,0.7846153846153846,0.13559322033898305
hawwiki,True,37.0,0.07339449541284404,1.0,0.26811594202898553,0.7769230769230769,0.13675213675213677
hawwiki,True,38.0,0.07476635514018691,1.0,0.2826086956521739,0.7615384615384615,0.1391304347826087
hawwiki,True,39.0,0.07547169811320754,1.0,0.2898550724637681,0.7538461538461538,0.14035087719298245
hawwiki,True,40.0,0.0761904761904762,1.0,0.2971014492753623,0.7461538461538462,0.14159292035398233
hawwiki,True,41.0,0.08,1.0,0.3333333333333333,0.7076923076923077,0.14814814814814814
hawwiki,True,42.0,0.08247422680412371,1.0,0.35507246376811596,0.6846153846153846,0.1523809523809524
hawwiki,True,43.0,0.08421052631578947,1.0,0.3695652173913043,0.6692307692307692,0.1553398058252427
hawwiki,True,44.0,0.0851063829787234,1.0,0.37681159420289856,0.6615384615384615,0.1568627450980392
hawwiki,True,45.0,0.08791208791208792,1.0,0.39855072463768115,0.6384615384615384,0.16161616161616163
hawwiki,True,46.0,0.08888888888888889,1.0,0.4057971014492754,0.6307692307692307,0.163265306122449
hawwiki,True,47.0,0.09195402298850575,1.0,0.427536231884058,0.6076923076923076,0.16842105263157897
hawwiki,True,48.0,0.09411764705882353,1.0,0.4420289855072464,0.5923076923076923,0.17204301075268816
hawwiki,True,49.0,0.09411764705882353,1.0,0.4420289855072464,0.5923076923076923,0.17204301075268816
hawwiki,True,50.0,0.09411764705882353,1.0,0.4420289855072464,0.5923076923076923,0.17204301075268816
hawwiki,True,51.0,0.09523809523809523,1.0,0.4492753623188406,0.5846153846153846,0.17391304347826084
hawwiki,True,52.0,0.09523809523809523,1.0,0.4492753623188406,0.5846153846153846,0.17391304347826084
hawwiki,True,53.0,0.09523809523809523,1.0,0.4492753623188406,0.5846153846153846,0.17391304347826084
hawwiki,True,54.0,0.0975609756097561,1.0,0.463768115942029,0.5692307692307692,0.17777777777777776
hawwiki,True,55.0,0.1,1.0,0.4782608695652174,0.5538461538461539,0.18181818181818182
hawwiki,True,56.0,0.1,1.0,0.4782608695652174,0.5538461538461539,0.18181818181818182
hawwiki,True,57.0,0.1,1.0,0.4782608695652174,0.5538461538461539,0.18181818181818182
hawwiki,True,58.0,0.10126582278481013,1.0,0.4855072463768116,0.5461538461538461,0.18390804597701146
hawwiki,True,59.0,0.1038961038961039,1.0,0.5,0.5307692307692308,0.18823529411764706
hawwiki,True,60.0,0.1038961038961039,1.0,0.5,0.5307692307692308,0.18823529411764706
hawwiki,True,61.0,0.10666666666666667,1.0,0.5144927536231884,0.5153846153846153,0.1927710843373494
hawwiki,True,62.0,0.1095890410958904,1.0,0.5289855072463768,0.5,0.19753086419753085
hawwiki,True,63.0,0.1095890410958904,1.0,0.5289855072463768,0.5,0.19753086419753085
hawwiki,True,64.0,0.1111111111111111,1.0,0.5362318840579711,0.49230769230769234,0.19999999999999998
hawwiki,True,65.0,0.11267605633802817,1.0,0.5434782608695652,0.4846153846153846,0.20253164556962025
hawwiki,True,66.0,0.11428571428571428,1.0,0.5507246376811594,0.47692307692307695,0.20512820512820512
hawwiki,True,67.0,0.11764705882352941,1.0,0.5652173913043478,0.46153846153846156,0.21052631578947367
hawwiki,True,68.0,0.11764705882352941,1.0,0.5652173913043478,0.46153846153846156,0.21052631578947367
hawwiki,True,69.0,0.11764705882352941,1.0,0.5652173913043478,0.46153846153846156,0.21052631578947367
hawwiki,True,70.0,0.11764705882352941,1.0,0.5652173913043478,0.46153846153846156,0.21052631578947367
hawwiki,True,71.0,0.12121212121212122,1.0,0.5797101449275363,0.4461538461538462,0.21621621621621626
hawwiki,True,72.0,0.12307692307692308,1.0,0.5869565217391305,0.43846153846153846,0.21917808219178084
hawwiki,True,73.0,0.12698412698412698,1.0,0.6014492753623188,0.4230769230769231,0.22535211267605632
hawwiki,True,74.0,0.13333333333333333,1.0,0.6231884057971014,0.4,0.23529411764705882
hawwiki,True,75.0,0.13559322033898305,1.0,0.6304347826086957,0.3923076923076923,0.23880597014925373
hawwiki,True,76.0,0.13793103448275862,1.0,0.6376811594202898,0.38461538461538464,0.2424242424242424
hawwiki,True,77.0,0.14035087719298245,1.0,0.644927536231884,0.3769230769230769,0.24615384615384614
hawwiki,True,78.0,0.1509433962264151,1.0,0.6739130434782609,0.34615384615384615,0.26229508196721313
hawwiki,True,79.0,0.16,1.0,0.6956521739130435,0.3230769230769231,0.2758620689655173
hawwiki,True,80.0,0.18181818181818182,1.0,0.7391304347826086,0.27692307692307694,0.3076923076923077
hawwiki,True,81.0,0.18604651162790697,1.0,0.7463768115942029,0.2692307692307692,0.3137254901960785
hawwiki,True,82.0,0.2,1.0,0.7681159420289855,0.24615384615384617,0.33333333333333337
hawwiki,True,83.0,0.21052631578947367,1.0,0.782608695652174,0.23076923076923078,0.34782608695652173
hawwiki,True,84.0,0.21052631578947367,1.0,0.782608695652174,0.23076923076923078,0.34782608695652173
hawwiki,True,85.0,0.21621621621621623,1.0,0.7898550724637681,0.2230769230769231,0.35555555555555557
hawwiki,True,86.0,0.2222222222222222,1.0,0.7971014492753623,0.2153846153846154,0.3636363636363636
hawwiki,True,87.0,0.27586206896551724,1.0,0.8478260869565217,0.16153846153846155,0.4324324324324324
hawwiki,True,88.0,0.2962962962962963,1.0,0.8623188405797102,0.14615384615384616,0.45714285714285713
hawwiki,True,89.0,0.32,1.0,0.8768115942028986,0.13076923076923078,0.48484848484848486
hawwiki,True,90.0,0.3888888888888889,0.875,0.9130434782608695,0.08461538461538462,0.5384615384615385
hawwiki,True,91.0,0.5384615384615384,0.875,0.9492753623188406,0.046153846153846156,0.6666666666666667
hawwiki,True,92.0,0.5384615384615384,0.875,0.9492753623188406,0.046153846153846156,0.6666666666666667
hawwiki,True,93.0,0.5833333333333334,0.875,0.9565217391304348,0.038461538461538464,0.7000000000000001
hawwiki,True,94.0,0.5454545454545454,0.75,0.9492753623188406,0.038461538461538464,0.631578947368421
hawwiki,True,95.0,0.6,0.75,0.9565217391304348,0.03076923076923077,0.6666666666666665
hawwiki,True,96.0,0.5714285714285714,0.5,0.9492753623188406,0.023076923076923078,0.5333333333333333
hawwiki,True,97.0,0.8,0.5,0.9637681159420289,0.007692307692307693,0.6153846153846154
hawwiki,True,98.0,0.8,0.5,0.9637681159420289,0.007692307692307693,0.6153846153846154
hawwiki,True,99.0,0.8,0.5,0.9637681159420289,0.007692307692307693,0.6153846153846154
hawwiki,False,0.0,0.04722792607802875,1.0,0.04722792607802875,1.0,0.09019607843137253
hawwiki,False,1.0,0.04722792607802875,1.0,0.04722792607802875,1.0,0.09019607843137253
hawwiki,False,2.0,0.04722792607802875,1.0,0.04722792607802875,1.0,0.09019607843137253
hawwiki,False,3.0,0.04722792607802875,1.0,0.04722792607802875,1.0,0.09019607843137253
hawwiki,False,4.0,0.04722792607802875,1.0,0.04722792607802875,1.0,0.09019607843137253
hawwiki,False,5.0,0.04722792607802875,1.0,0.04722792607802875,1.0,0.09019607843137253
hawwiki,False,6.0,0.04722792607802875,1.0,0.04722792607802875,1.0,0.09019607843137253
hawwiki,False,7.0,0.047325102880658436,1.0,0.049281314168377825,0.9978448275862069,0.09037328094302553
hawwiki,False,8.0,0.047325102880658436,1.0,0.049281314168377825,0.9978448275862069,0.09037328094302553
hawwiki,False,9.0,0.047325102880658436,1.0,0.049281314168377825,0.9978448275862069,0.09037328094302553
hawwiki,False,10.0,0.04742268041237113,1.0,0.0513347022587269,0.9956896551724138,0.0905511811023622
hawwiki,False,11.0,0.04742268041237113,1.0,0.0513347022587269,0.9956896551724138,0.0905511811023622
hawwiki,False,12.0,0.047520661157024795,1.0,0.053388090349075976,0.9935344827586207,0.09072978303747535
hawwiki,False,13.0,0.047619047619047616,1.0,0.055441478439425054,0.9913793103448276,0.0909090909090909
hawwiki,False,14.0,0.04771784232365145,1.0,0.057494866529774126,0.9892241379310345,0.09108910891089107
hawwiki,False,15.0,0.04791666666666667,1.0,0.061601642710472276,0.9849137931034483,0.09145129224652089
hawwiki,False,16.0,0.04791666666666667,1.0,0.061601642710472276,0.9849137931034483,0.09145129224652089
hawwiki,False,17.0,0.04811715481171548,1.0,0.06570841889117043,0.9806034482758621,0.09181636726546907
hawwiki,False,18.0,0.04831932773109244,1.0,0.06981519507186858,0.9762931034482759,0.09218436873747494
hawwiki,False,19.0,0.048728813559322036,1.0,0.07802874743326489,0.9676724137931034,0.09292929292929293
hawwiki,False,20.0,0.04904051172707889,1.0,0.08418891170431211,0.9612068965517241,0.09349593495934959
hawwiki,False,21.0,0.04925053533190578,1.0,0.08829568788501027,0.9568965517241379,0.09387755102040816
hawwiki,False,22.0,0.04956896551724138,1.0,0.0944558521560575,0.9504310344827587,0.09445585215605751
hawwiki,False,23.0,0.049783549783549784,1.0,0.09856262833675565,0.9461206896551724,0.09484536082474228
hawwiki,False,24.0,0.05010893246187364,1.0,0.10472279260780287,0.9396551724137931,0.09543568464730291
hawwiki,False,25.0,0.05032822757111598,1.0,0.10882956878850103,0.9353448275862069,0.09583333333333335
hawwiki,False,26.0,0.05077262693156733,1.0,0.11704312114989733,0.9267241379310345,0.09663865546218488
hawwiki,False,27.0,0.051685393258426963,1.0,0.13347022587268995,0.9094827586206896,0.09829059829059829
hawwiki,False,28.0,0.05191873589164785,1.0,0.1375770020533881,0.9051724137931034,0.09871244635193134
hawwiki,False,29.0,0.05239179954441914,1.0,0.1457905544147844,0.896551724137931,0.09956709956709957
hawwiki,False,30.0,0.052995391705069124,1.0,0.15605749486652978,0.8857758620689655,0.10065645514223194
hawwiki,False,31.0,0.052995391705069124,1.0,0.15605749486652978,0.8857758620689655,0.10065645514223194
hawwiki,False,32.0,0.05324074074074074,1.0,0.1601642710472279,0.8814655172413793,0.1010989010989011
hawwiki,False,33.0,0.05515587529976019,1.0,0.19096509240246407,0.8491379310344828,0.10454545454545452
hawwiki,False,34.0,0.05569007263922518,1.0,0.19917864476386038,0.8405172413793104,0.10550458715596331
hawwiki,False,35.0,0.056511056511056514,1.0,0.21149897330595482,0.8275862068965517,0.10697674418604652
hawwiki,False,36.0,0.05707196029776675,1.0,0.21971252566735114,0.8189655172413793,0.10798122065727699
hawwiki,False,37.0,0.0583756345177665,1.0,0.23819301848049282,0.7995689655172413,0.11031175059952039
hawwiki,False,38.0,0.05897435897435897,1.0,0.2464065708418891,0.790948275862069,0.11138014527845036
hawwiki,False,39.0,0.05958549222797927,1.0,0.2546201232032854,0.7823275862068966,0.11246943765281173
hawwiki,False,40.0,0.060209424083769635,1.0,0.26283367556468173,0.7737068965517241,0.11358024691358025
hawwiki,False,41.0,0.06133333333333333,1.0,0.27720739219712526,0.7586206896551724,0.11557788944723618
hawwiki,False,42.0,0.06267029972752043,1.0,0.2936344969199179,0.7413793103448276,0.11794871794871795
hawwiki,False,43.0,0.06111111111111111,0.9565217391304348,0.30390143737166325,0.728448275862069,0.11488250652741513
hawwiki,False,44.0,0.061452513966480445,0.9565217391304348,0.3080082135523614,0.7241379310344828,0.11548556430446193
hawwiki,False,45.0,0.0625,0.9565217391304348,0.3203285420944558,0.7112068965517241,0.11733333333333333
hawwiki,False,46.0,0.06340057636887608,0.9565217391304348,0.33059548254620125,0.7004310344827587,0.11891891891891893
hawwiki,False,47.0,0.06470588235294118,0.9565217391304348,0.34496919917864477,0.6853448275862069,0.12121212121212123
hawwiki,False,48.0,0.06606606606606606,0.9565217391304348,0.3593429158110883,0.6702586206896551,0.12359550561797752
hawwiki,False,49.0,0.06626506024096386,0.9565217391304348,0.3613963039014374,0.6681034482758621,0.123943661971831
hawwiki,False,50.0,0.06646525679758308,0.9565217391304348,0.36344969199178645,0.665948275862069,0.12429378531073447
hawwiki,False,51.0,0.06748466257668712,0.9565217391304348,0.3737166324435318,0.6551724137931034,0.12607449856733524
hawwiki,False,52.0,0.06875,0.9565217391304348,0.3860369609856263,0.6422413793103449,0.1282798833819242
hawwiki,False,53.0,0.0694006309148265,0.9565217391304348,0.3921971252566735,0.6357758620689655,0.12941176470588234
hawwiki,False,54.0,0.0707395498392283,0.9565217391304348,0.40451745379876797,0.6228448275862069,0.13173652694610777
hawwiki,False,55.0,0.07166123778501629,0.9565217391304348,0.4127310061601643,0.6142241379310345,0.13333333333333336
hawwiki,False,56.0,0.07308970099667775,0.9565217391304348,0.42505133470225875,0.6012931034482759,0.1358024691358025
hawwiki,False,57.0,0.07167235494880546,0.9130434782608695,0.43737166324435317,0.5862068965517241,0.13291139240506328
hawwiki,False,58.0,0.07342657342657342,0.9130434782608695,0.4517453798767967,0.5711206896551724,0.13592233009708737
hawwiki,False,59.0,0.07394366197183098,0.9130434782608695,0.45585215605749485,0.5668103448275862,0.13680781758957655
hawwiki,False,60.0,0.07526881720430108,0.9130434782608695,0.46611909650924027,0.5560344827586207,0.1390728476821192
hawwiki,False,61.0,0.07806691449814127,0.9130434782608695,0.486652977412731,0.5344827586206896,0.14383561643835616
hawwiki,False,62.0,0.08045977011494253,0.9130434782608695,0.5030800821355236,0.5172413793103449,0.14788732394366197
hawwiki,False,63.0,0.08108108108108109,0.9130434782608695,0.5071868583162218,0.5129310344827587,0.14893617021276598
hawwiki,False,64.0,0.08333333333333333,0.9130434782608695,0.5215605749486653,0.4978448275862069,0.1527272727272727
hawwiki,False,65.0,0.08433734939759036,0.9130434782608695,0.5277207392197125,0.49137931034482757,0.15441176470588233
hawwiki,False,66.0,0.0875,0.9130434782608695,0.5462012320328542,0.47198275862068967,0.1596958174904943
hawwiki,False,67.0,0.09012875536480687,0.9130434782608695,0.5605749486652978,0.45689655172413796,0.16406250000000003
hawwiki,False,68.0,0.09210526315789473,0.9130434782608695,0.5708418891170431,0.44612068965517243,0.16733067729083664
hawwiki,False,69.0,0.09090909090909091,0.8695652173913043,0.5831622176591376,0.43103448275862066,0.1646090534979424
hawwiki,False,70.0,0.09345794392523364,0.8695652173913043,0.5954825462012321,0.41810344827586204,0.16877637130801687
hawwiki,False,71.0,0.0966183574879227,0.8695652173913043,0.6098562628336756,0.40301724137931033,0.17391304347826086
hawwiki,False,72.0,0.09547738693467336,0.8260869565217391,0.62217659137577,0.3879310344827586,0.17117117117117117
hawwiki,False,73.0,0.09326424870466321,0.782608695652174,0.6303901437371663,0.3771551724137931,0.16666666666666666
hawwiki,False,74.0,0.0962566844919786,0.782608695652174,0.6427104722792608,0.3642241379310345,0.1714285714285714
hawwiki,False,75.0,0.1005586592178771,0.782608695652174,0.6591375770020534,0.34698275862068967,0.17821782178217824
hawwiki,False,76.0,0.10303030303030303,0.7391304347826086,0.6837782340862423,0.31896551724137934,0.18085106382978725
hawwiki,False,77.0,0.1032258064516129,0.6956521739130435,0.7002053388090349,0.2995689655172414,0.1797752808988764
hawwiki,False,78.0,0.1095890410958904,0.6956521739130435,0.7186858316221766,0.2801724137931034,0.1893491124260355
hawwiki,False,79.0,0.11029411764705882,0.6521739130434783,0.7351129363449692,0.2607758620689655,0.18867924528301885
hawwiki,False,80.0,0.12195121951219512,0.6521739130434783,0.7618069815195072,0.23275862068965517,0.20547945205479454
hawwiki,False,81.0,0.12605042016806722,0.6521739130434783,0.7700205338809035,0.22413793103448276,0.2112676056338028
hawwiki,False,82.0,0.13333333333333333,0.6086956521739131,0.7946611909650924,0.1961206896551724,0.21875000000000003
hawwiki,False,83.0,0.14285714285714285,0.6086956521739131,0.8090349075975359,0.1810344827586207,0.23140495867768596
hawwiki,False,84.0,0.14285714285714285,0.5652173913043478,0.8193018480492813,0.16810344827586207,0.22807017543859645
hawwiki,False,85.0,0.14285714285714285,0.5217391304347826,0.8295687885010267,0.15517241379310345,0.2242990654205607
hawwiki,False,86.0,0.1518987341772152,0.5217391304347826,0.839835728952772,0.14439655172413793,0.2352941176470588
hawwiki,False,87.0,0.1791044776119403,0.5217391304347826,0.864476386036961,0.11853448275862069,0.26666666666666666
hawwiki,False,88.0,0.19672131147540983,0.5217391304347826,0.8767967145790554,0.10560344827586207,0.2857142857142857
hawwiki,False,89.0,0.23076923076923078,0.5217391304347826,0.8952772073921971,0.08620689655172414,0.32
hawwiki,False,90.0,0.2619047619047619,0.4782608695652174,0.9117043121149897,0.0668103448275862,0.3384615384615384
hawwiki,False,91.0,0.29411764705882354,0.43478260869565216,0.9240246406570842,0.05172413793103448,0.3508771929824562
hawwiki,False,92.0,0.30303030303030304,0.43478260869565216,0.9260780287474333,0.04956896551724138,0.35714285714285715
hawwiki,False,93.0,0.3333333333333333,0.43478260869565216,0.9322381930184805,0.04310344827586207,0.3773584905660377
hawwiki,False,94.0,0.34615384615384615,0.391304347826087,0.9363449691991786,0.036637931034482756,0.36734693877551017
hawwiki,False,95.0,0.47058823529411764,0.34782608695652173,0.9507186858316222,0.01939655172413793,0.39999999999999997
hawwiki,False,96.0,0.42857142857142855,0.2608695652173913,0.9486652977412731,0.017241379310344827,0.3243243243243243
hawwiki,False,97.0,0.6,0.2608695652173913,0.9568788501026694,0.008620689655172414,0.36363636363636365
hawwiki,False,98.0,0.75,0.2608695652173913,0.9609856262833676,0.004310344827586207,0.3870967741935483
hawwiki,False,99.0,0.8571428571428571,0.2608695652173913,0.9630390143737166,0.0021551724137931034,0.4
