wiki_db,user_is_anonymous_or_bot,threshold,precision,recall,accuracy,fpr,F1
kawiki,True,0.0,0.10019349164467899,1.0,0.10019349164467899,1.0,0.18213794647139708
kawiki,True,1.0,0.10020054181472751,1.0,0.10026385224274406,0.9999218047464519,0.18214959547184292
kawiki,True,2.0,0.10023933549204561,1.0,0.10065083553210202,0.9994917308519373,0.182213691618682
kawiki,True,3.0,0.10034528926784582,1.0,0.10170624450307827,0.9983188020487156,0.18238872878642332
kawiki,True,4.0,0.10063604240282685,1.0,0.1045910290237467,0.9951127966532431,0.1828688840374984
kawiki,True,5.0,0.10146786375944136,1.0,0.1127528583992964,0.9860421472416624,0.18424116962090828
kawiki,True,6.0,0.1128290516967967,0.9992977528089888,0.21266490765171503,0.8749266919497987,0.20276432031917926
kawiki,True,7.0,0.12209776404446161,0.9989466292134831,0.2802462620932278,0.7997810532900653,0.21759914337068337
kawiki,True,8.0,0.13594602354292276,0.9975421348314607,0.36450307827616535,0.7059858466591078,0.2392824054577613
kawiki,True,9.0,0.15413023407375223,0.9964887640449438,0.45171503957783643,0.6089455370059037,0.26696768731480175
kawiki,True,10.0,0.17323797298123358,0.9950842696629213,0.5236939313984169,0.5287954021190914,0.295100744520227
kawiki,True,11.0,0.19162204297431032,0.992626404494382,0.5797009674582234,0.4662782969073777,0.32123174819612527
kawiki,True,12.0,0.20843800797990247,0.9905196629213483,0.6221635883905013,0.4188528756304492,0.3444023928702234
kawiki,True,13.0,0.22251184834123222,0.9891151685393258,0.6526297273526825,0.38483794033702157,0.36329636316739744
kawiki,True,14.0,0.23655913978494625,0.9887640449438202,0.679155672823219,0.3553192321226102,0.38177874186550975
kawiki,True,15.0,0.2523087958396844,0.988061797752809,0.7054353562005277,0.3260351096688431,0.40197128776515967
kawiki,True,16.0,0.2680461523791361,0.9870084269662921,0.7286543535620053,0.30011338311764474,0.42159730033745785
kawiki,True,17.0,0.28409665352340513,0.9866573033707865,0.7495514511873351,0.27685029518708215,0.44116492660334405
kawiki,True,18.0,0.30210798021079804,0.9863061797752809,0.7703430079155673,0.2537045001368417,0.4625391075251111
kawiki,True,19.0,0.31441683456458475,0.9863061797752809,0.7831486367634125,0.23947296399108575,0.4768290612799186
kawiki,True,20.0,0.32681791739383365,0.9863061797752809,0.7950747581354441,0.22621886851468115,0.49095516909901254
kawiki,True,21.0,0.33733637564549057,0.9863061797752809,0.8045030782761653,0.21574070453923447,0.5027293064876956
kawiki,True,22.0,0.35157815631262523,0.9856039325842697,0.816429199648197,0.2024084138092818,0.5182791728212702
kawiki,True,23.0,0.3676277850589777,0.9849016853932584,0.8287423043095866,0.18864604918481448,0.535407520519183
kawiki,True,24.0,0.38054538054538056,0.9849016853932584,0.8378540017590149,0.17851976385033427,0.5489773950484391
kawiki,True,25.0,0.3913771452490582,0.9849016853932584,0.8450307827616534,0.17054384798842712,0.5601597603594608
kawiki,True,26.0,0.4054640069384215,0.9849016853932584,0.8537906772207564,0.16080853892168745,0.5744419414294492
kawiki,True,27.0,0.41641923990498814,0.9849016853932584,0.860193491644679,0.15369277084880947,0.5853505843071786
kawiki,True,28.0,0.4240133071223348,0.9845505617977528,0.8644503078276166,0.1489228603823748,0.5927491808476906
kawiki,True,29.0,0.43127597352624286,0.9838483146067416,0.8683905013192612,0.14446573093013254,0.5996789727126806
kawiki,True,30.0,0.441051471745632,0.9838483146067416,0.8734564643799473,0.13883567267466865,0.6090642321486794
kawiki,True,31.0,0.4508447304907482,0.9838483146067416,0.878311345646438,0.1334402001798491,0.6183382985766303
kawiki,True,32.0,0.45987198424421466,0.9838483146067416,0.8826033421284081,0.1286702897134144,0.6267755284643776
kawiki,True,33.0,0.4653712007972098,0.9838483146067416,0.8851363236587511,0.12585526058568244,0.6318637952418537
kawiki,True,34.0,0.4702920443101712,0.9838483146067416,0.8873526824978012,0.123392110098917,0.6363842834431069
kawiki,True,35.0,0.47741605590591446,0.983497191011236,0.8904837291116975,0.11987332368925206,0.642799770510614
kawiki,True,36.0,0.48300845264792136,0.9831460674157303,0.8928759894459103,0.11717558744184228,0.6477732793522267
kawiki,True,37.0,0.48653344917463076,0.9831460674157303,0.894353562005277,0.11553348711733198,0.6509357200976403
kawiki,True,38.0,0.4904503241633082,0.9827949438202247,0.895971855760774,0.1136958986589514,0.654354178842782
kawiki,True,39.0,0.493215859030837,0.9827949438202247,0.8970976253298153,0.11244477460218165,0.6568109820485745
kawiki,True,40.0,0.49627659574468086,0.9827949438202247,0.8983289357959543,0.11107635766508973,0.6595193213949105
kawiki,True,41.0,0.4992864787727435,0.9827949438202247,0.8995250659630607,0.10974703835477187,0.6621717530163237
kawiki,True,42.0,0.503145784648571,0.9827949438202247,0.90103781882146,0.1080658404034875,0.6655570086791106
kawiki,True,43.0,0.5055083980494853,0.9827949438202247,0.9019525065963061,0.10704930210736208,0.6676207513416816
kawiki,True,44.0,0.5083575581395349,0.9824438202247191,0.9030430958663148,0.10579817805059233,0.6700191570881225
kawiki,True,45.0,0.5105839416058394,0.9824438202247191,0.9038874230430959,0.10485983500801502,0.6719500480307398
kawiki,True,46.0,0.5143382352941176,0.9824438202247191,0.9052946350043976,0.10329592993705282,0.6751930501930502
kawiki,True,47.0,0.5166174298375185,0.9824438202247191,0.9061389621811785,0.10235758689447551,0.6771539206195546
kawiki,True,48.0,0.5188346632028206,0.9817415730337079,0.906948109058927,0.10138014622512413,0.6788879446400389
kawiki,True,49.0,0.5200967621883141,0.9813904494382022,0.90740545294635,0.10083277945028737,0.67988324008757
kawiki,True,50.0,0.5221371193723146,0.9813904494382022,0.9081442392260334,0.10001172928803222,0.6816241921716862
kawiki,True,51.0,0.5242918776964922,0.9813904494382022,0.9089182058047494,0.09915158149900301,0.6834576354077516
kawiki,True,52.0,0.5250798421942514,0.9813904494382022,0.9091996481970097,0.09883880048481057,0.6841267898666015
kawiki,True,53.0,0.5260681347637869,0.9813904494382022,0.909551451187335,0.09844782421707002,0.6849650778090919
kawiki,True,54.0,0.5264744676841907,0.9810393258426966,0.9096921723834652,0.09825233608319975,0.6852237890864501
kawiki,True,55.0,0.5269811320754717,0.980688202247191,0.909868073878628,0.09801775032255543,0.6855670103092784
kawiki,True,56.0,0.528177004538578,0.980688202247191,0.9102902374670184,0.09754857880126676,0.6865781710914455
kawiki,True,57.0,0.529478672985782,0.980688202247191,0.9107475813544416,0.09704030965320405,0.6876769666379416
kawiki,True,58.0,0.5299810246679317,0.980688202247191,0.9109234828496042,0.09684482151933378,0.6881005173688101
kawiki,True,59.0,0.5307984790874525,0.9803370786516854,0.9112049252418646,0.09649294287836728,0.688702516033547
kawiki,True,60.0,0.5317203276814632,0.9799859550561798,0.9115215479331574,0.09610196661062674,0.6893911325182167
kawiki,True,61.0,0.5323905981272693,0.9782303370786517,0.9117326297273527,0.09567189271611214,0.6895186239326816
kawiki,True,62.0,0.5332057416267942,0.9782303370786517,0.912014072119613,0.0953591117019197,0.6902019075932119
kawiki,True,63.0,0.5337552742616034,0.9771769662921348,0.9121899736147757,0.09504633068772725,0.6903994046142397
kawiki,True,64.0,0.5346420323325635,0.9754213483146067,0.9124714160070361,0.09453806153966454,0.6907011437095972
kawiki,True,65.0,0.5354801388353259,0.9750702247191011,0.9127528583992964,0.09418618289869805,0.6913119243216331
kawiki,True,66.0,0.5365380887768948,0.9719101123595506,0.9130694810905893,0.09348242561676506,0.6913950293493194
kawiki,True,67.0,0.5375194401244168,0.9708567415730337,0.9133861037818821,0.09301325409547641,0.6919419419419419
kawiki,True,68.0,0.5387317073170732,0.9694522471910112,0.91377308707124,0.09242678969386559,0.6925874827542958
kawiki,True,69.0,0.5385672227674191,0.9634831460674157,0.91363236587511,0.09191852054580286,0.6909228251290445
kawiki,True,70.0,0.5392659826361483,0.9596207865168539,0.9138082673702727,0.09129295851741799,0.6905002526528549
kawiki,True,71.0,0.5398493259318001,0.9561095505617978,0.9139489885664028,0.09074559174258122,0.6900658895083629
kawiki,True,72.0,0.5406430996604753,0.9504915730337079,0.9141248900615655,0.08992454158032608,0.6892425206874603
kawiki,True,73.0,0.5401209677419355,0.9406601123595506,0.9138082673702727,0.08918168667161903,0.686219262295082
kawiki,True,74.0,0.5416242621616121,0.9343398876404494,0.9141952506596306,0.08804785549517144,0.6857363741785852
kawiki,True,75.0,0.5418902187371027,0.9220505617977528,0.914089709762533,0.08679673143840169,0.6826098258383156
kawiki,True,76.0,0.543778801843318,0.9115168539325843,0.9145118733509234,0.08515463111389139,0.6811860404093414
kawiki,True,77.0,0.5442930153321976,0.8974719101123596,0.9144415127528585,0.08366892129647731,0.6776246023329798
kawiki,True,78.0,0.5460269214068606,0.8830758426966292,0.9147229551451187,0.08175313758454862,0.674805473571237
kawiki,True,79.0,0.547291296625222,0.8655196629213483,0.9147933157431838,0.07972006099229777,0.6705658324265507
kawiki,True,80.0,0.5481599273057701,0.8472612359550562,0.9147229551451187,0.07776517965359503,0.665655172413793
kawiki,True,81.0,0.5489876658133581,0.8283005617977528,0.9146174142480211,0.07577120068811823,0.6603219034289713
kawiki,True,82.0,0.5480861244019138,0.8044241573033708,0.9139489885664028,0.07385541697618954,0.6519635742743313
kawiki,True,83.0,0.5491843796342066,0.7801966292134831,0.9138082673702727,0.07131407123587598,0.6446185088482739
kawiki,True,84.0,0.5495772482705611,0.7531601123595506,0.9134212840809147,0.06873362786878837,0.6354614131239816
kawiki,True,85.0,0.5487412961971077,0.7194522471910112,0.9126121372031663,0.06587950111428237,0.6226071103008204
kawiki,True,86.0,0.5471963933502395,0.6818820224719101,0.9115919085312225,0.06282988622590609,0.6071596060653432
kawiki,True,87.0,0.5451003895714713,0.6386938202247191,0.9103957783641161,0.05935019744301521,0.588197251414713
kawiki,True,88.0,0.5495759947814742,0.5916432584269663,0.9105013192612137,0.0539938225749697,0.5698342915116672
kawiki,True,89.0,0.5540683339203945,0.5523174157303371,0.9106068601583114,0.049497595495953395,0.553191489361702
kawiki,True,90.0,0.5641721597518418,0.5108848314606742,0.9114511873350923,0.04394573249403761,0.5362078496406855
kawiki,True,91.0,0.5755208333333334,0.46558988764044945,0.9120492524186455,0.03823747898502561,0.514751552795031
kawiki,True,92.0,0.5927808845958312,0.40941011235955055,0.9126473175021987,0.03131719904601791,0.4843198338525442
kawiki,True,93.0,0.6175200493522517,0.3514747191011236,0.9132102022867195,0.024240528599913984,0.44797493846498093
kawiki,True,94.0,0.6598746081504702,0.29564606741573035,0.9141600703605981,0.01696837001993979,0.408341416100873
kawiki,True,95.0,0.6994764397905759,0.2345505617977528,0.9132102022867195,0.011221018884153732,0.35130160399684457
kawiki,True,96.0,0.7622585438335809,0.18012640449438203,0.9122251539138083,0.006255620283848771,0.2913944902016473
kawiki,True,97.0,0.8648018648018648,0.13026685393258428,0.9108179419525066,0.0022676623528951794,0.22642660970399756
kawiki,True,98.0,0.9461538461538461,0.08637640449438203,0.9079683377308707,0.0005473667748367674,0.15830115830115832
kawiki,True,99.0,0.9794520547945206,0.05021067415730337,0.9047317502198768,0.00011729288032216445,0.09552438209752839
kawiki,False,0.0,0.04295544294357914,1.0,0.04295544294357914,1.0,0.08237253707089173
kawiki,False,1.0,0.04299698028704238,1.0,0.04392149551717709,0.9989905876727733,0.08244890656386984
kawiki,False,2.0,0.04332885997828856,1.0,0.05157364879751877,0.9909949795018461,0.08305887365023186
kawiki,False,3.0,0.04447410946392187,0.9990136121522983,0.07797061166381371,0.9633689579145895,0.08515718934189838
kawiki,False,4.0,0.04605454810283301,0.9980272243045966,0.11191803806586106,0.9278535820855875,0.08804615505103683
kawiki,False,5.0,0.047862664847658026,0.9966462813178142,0.14820432859346136,0.8898766568972082,0.09133889586968116
kawiki,False,6.0,0.051093259670752636,0.992503452357467,0.20788773452197346,0.8273285105855477,0.09718358831710708
kawiki,False,7.0,0.05418383569644074,0.9883606233971197,0.2584105892920699,0.7743520723943438,0.10273551244719682
kawiki,False,8.0,0.05768562089988178,0.9818504636022884,0.31026388488720913,0.7198792247004967,0.10896909586521726
kawiki,False,9.0,0.061530236721702804,0.9763266916551588,0.3593291866515262,0.6683637780355419,0.1157647278979193
kawiki,False,10.0,0.06537430671655654,0.9719865851252713,0.40188634476213075,0.6237017098028104,0.12250885808416735
kawiki,False,11.0,0.0689703728737186,0.9662655356086013,0.4382573767435554,0.5854414408032798,0.12875073930472497
kawiki,False,12.0,0.0723271375464684,0.9595580982442297,0.46959476636781183,0.5523964688277535,0.1345151343353752
kawiki,False,13.0,0.07546786640422408,0.9530479384493983,0.4964578072301408,0.5240355242303231,0.13986074721711567
kawiki,False,14.0,0.0786682622166123,0.9467350562241074,0.5214311136721862,0.49765798631095215,0.14526577067441582
kawiki,False,15.0,0.08194688436498915,0.9386466758729533,0.5456586953205769,0.47197995342536103,0.1507341876415707
kawiki,False,16.0,0.08522460761320584,0.9319392385085816,0.5673864040811484,0.4489759777575108,0.15616787054331474
kawiki,False,17.0,0.08890780141843972,0.9274018544091537,0.5886480348456858,0.42655639870016027,0.16226011321275713
kawiki,False,18.0,0.09278800380831483,0.9228644703097257,0.6090961476535092,0.40498685107626375,0.16862215013066595
kawiki,False,19.0,0.09622919214743257,0.9157624778062734,0.6269342236835416,0.3860293792114188,0.17415772491933668
kawiki,False,20.0,0.10005191883355687,0.9124087591240876,0.6437045573953867,0.3683558089908533,0.18032946680963058
kawiki,False,21.0,0.10371974464821457,0.9070822647464983,0.6593054590444554,0.35181561401489325,0.18615384615384614
kawiki,False,22.0,0.10749116607773851,0.9001775498125864,0.6746521363320509,0.33547021790909975,0.19204949599107726
kawiki,False,23.0,0.11154897662619147,0.8934701124482146,0.6897445892581733,0.31939931112035913,0.19833588789139475
kawiki,False,24.0,0.11546471268800618,0.8859735648056816,0.7035574462315476,0.30463001496409503,0.20430352106268762
kawiki,False,25.0,0.11967649192573286,0.8786742947326889,0.7171499754249784,0.29009979014848986,0.21066073877879204
kawiki,False,26.0,0.12460656474820143,0.874728743341882,0.7306492890192025,0.27581749116764215,0.21813888273928123
kawiki,False,27.0,0.12909384637979146,0.8670349181298086,0.7430300154229446,0.26253575001992263,0.22472771897530297
kawiki,False,28.0,0.13371558226528485,0.860327480765437,0.7545802755792078,0.2501660217643465,0.23145715574662315
kawiki,False,29.0,0.1385176184690158,0.854606431248767,0.7654441299594936,0.23855778000123962,0.2383952893266929
kawiki,False,30.0,0.1436,0.8498717695797988,0.7758334321983628,0.22748966237814003,0.24568707405400786
kawiki,False,31.0,0.14914663880181123,0.8447425527717498,0.7863244241818212,0.2162975818376617,0.2535302998904645
kawiki,False,32.0,0.15506639985446607,0.8407970013809429,0.7963662864600105,0.2056279164489937,0.2618418627511212
kawiki,False,33.0,0.16040166729821903,0.8350759518642731,0.8051539752215989,0.19618902574001434,0.2691121777551734
kawiki,False,34.0,0.16643583554271696,0.8297494574866837,0.8141789400538956,0.18651991818447453,0.2772577455504285
kawiki,False,35.0,0.1727701082913119,0.8246202406786348,0.8228649390708948,0.1772138448869724,0.28568499470320885
kawiki,False,36.0,0.17886038905147186,0.8198855790096666,0.8305764113689135,0.16894374739899237,0.2936583642465996
kawiki,False,37.0,0.18543758967001434,0.8159400276188598,0.8381353490500483,0.1608684487811789,0.30219559419866293
kawiki,False,38.0,0.19163795511686377,0.8119944762280529,0.8447960273206447,0.15373172653780426,0.31009153576675325
kawiki,False,39.0,0.19822871799835454,0.808048924837246,0.8513634899920343,0.14669240372951292,0.3183584641691279
kawiki,False,40.0,0.2048701952103039,0.8033142631682778,0.8576258834296561,0.13993642473237292,0.3264782521547404
kawiki,False,41.0,0.2119181023197361,0.7983823239297692,0.8638035354134536,0.13326013618211924,0.33493337747248203
kawiki,False,42.0,0.21919148011301892,0.7958177155257448,0.8694557903835398,0.12723908019515304,0.34371405444553316
kawiki,False,43.0,0.22698278295230032,0.7932531071217203,0.8750741487720963,0.12125344218458078,0.3529669943820225
kawiki,False,44.0,0.23433833880807134,0.7881238903136714,0.8802857481822958,0.11557771146745531,0.361260568793236
kawiki,False,45.0,0.24193155523078796,0.7837837837837838,0.8852177007948748,0.11022959703197358,0.3697361686287283
kawiki,False,46.0,0.2501738635645192,0.7806273426711383,0.8900733860990119,0.10501430000796905,0.37891410514220053
kawiki,False,47.0,0.2572660178956306,0.7770763464194121,0.8940562344287578,0.10069330688791096,0.38655544651619234
kawiki,False,48.0,0.2645413493293792,0.7743144604458473,0.8978357032693253,0.0966202396026103,0.3943534612679594
kawiki,False,49.0,0.2723729993041058,0.7721444071809035,0.9016066979645103,0.09258259029370357,0.4026956119141931
kawiki,False,50.0,0.27960997992543735,0.7693825212073387,0.904945511245191,0.08896995670152386,0.4101593311247831
kawiki,False,51.0,0.28661997788426097,0.7670151903728546,0.9079877294374862,0.0856849393909879,0.41730170655790483
kawiki,False,52.0,0.29332827899924185,0.7632669165515881,0.9108435164313679,0.08253273949192913,0.42379100717454404
kawiki,False,53.0,0.3010844971522197,0.7612941408561846,0.9138348897513686,0.079318558134181,0.431510678743151
kawiki,False,54.0,0.30709543236541076,0.7573485894653778,0.9161737538769215,0.07669762788103102,0.4369948776323278
kawiki,False,55.0,0.31451612903225806,0.7539948707831919,0.9188431096723896,0.07375793584033576,0.4438766622147378
kawiki,False,56.0,0.3217721518987342,0.7522193726573289,0.921249766961002,0.07116356906948121,0.4507358590933271
kawiki,False,57.0,0.32897471423623137,0.7494574866837641,0.92357168279579,0.06861347476911907,0.45724258289703307
kawiki,False,58.0,0.3355187383715779,0.74709015584928,0.925580055251428,0.06640870573859763,0.463071655661531
kawiki,False,59.0,0.3416402356139556,0.7437364371670941,0.9274274189447994,0.0643278996254549,0.46820665673124695
kawiki,False,60.0,0.3486298188574083,0.7403827184849082,0.9294273172550548,0.06208771261853954,0.4740431981811293
kawiki,False,61.0,0.3556740289413557,0.7370289998027224,0.9313509482568683,0.0599272160585105,0.4798047903422591
kawiki,False,62.0,0.3631399317406143,0.7346616689682383,0.9332576309679169,0.05782870095717081,0.4860349778125816
kawiki,False,63.0,0.3696993828389409,0.7326888932728349,0.9348592444451977,0.056066656631573356,0.4914323519682435
kawiki,False,64.0,0.3766432283705289,0.7291378970211086,0.9365286510855381,0.05416294040040023,0.49670743179680155
kawiki,False,65.0,0.38405419489317355,0.726967843756165,0.9381895835804959,0.05233006012201493,0.5025913802509547
kawiki,False,66.0,0.39145755472504007,0.7232195699348984,0.939816619493924,0.050461761867235715,0.5079672994318969
kawiki,False,67.0,0.3991041188681307,0.7206549615308739,0.9413928105350575,0.04869971754163826,0.513711151736746
kawiki,False,68.0,0.4072164948453608,0.7169066877096074,0.9430113723031033,0.04684027378095752,0.5194025584220682
kawiki,False,69.0,0.4136942309897924,0.7115801933320182,0.9442909682558513,0.04526417383142814,0.5232085871772555
kawiki,False,70.0,0.4206079098697336,0.7070428092325902,0.945579038353982,0.043714637364194196,0.5274466519499632
kawiki,False,71.0,0.4278338136407301,0.7028999802722431,0.9468586343067301,0.04219166437925569,0.5319101291333881
kawiki,False,72.0,0.4333578792341679,0.6965870980469521,0.947841635171093,0.040881199252680696,0.5343118710751305
kawiki,False,73.0,0.4387575452716298,0.6883014401262576,0.9487907394539261,0.039517607161514826,0.5359035404346825
kawiki,False,74.0,0.44587628865979384,0.6825803906095876,0.9499262749351728,0.038074324623462635,0.5394029152700912
kawiki,False,75.0,0.4505015839493136,0.6733083448411915,0.9506889480195923,0.036861258931970925,0.5398181099248714
kawiki,False,76.0,0.45734854659060037,0.6642335766423357,0.9517227937562497,0.035373703923426335,0.541710240527713
kawiki,False,77.0,0.46330532212885156,0.6525942000394556,0.9526041048760232,0.033930421385374145,0.5418953231222869
kawiki,False,78.0,0.4691161579632576,0.6397711580193332,0.9534260969781198,0.03249599334142044,0.5413119679519279
kawiki,False,79.0,0.476941565269641,0.6263562832905899,0.9544429944240124,0.030831348450906258,0.5415316390926147
kawiki,False,80.0,0.48330212234706615,0.6109686328664431,0.9552310899445791,0.02931722996006623,0.5396880717957654
kawiki,False,81.0,0.4909800097513408,0.595975537581377,0.9561039269189702,0.02773227551643837,0.5384067011227944
kawiki,False,82.0,0.4963540783449211,0.5774314460445847,0.956680168804976,0.026297847472484658,0.533831843881087
kawiki,False,83.0,0.5055436337625179,0.5577036890905505,0.957569954070132,0.024482676182296326,0.5303442453803583
kawiki,False,84.0,0.511400037686075,0.5354113237324916,0.9580699286476959,0.02295970319735782,0.523130300693909
kawiki,False,85.0,0.5199839325165696,0.5107516275399487,0.958730911987526,0.021162240895366443,0.515326433121019
kawiki,False,86.0,0.5241054210413542,0.48254093509567964,0.9589512397674694,0.019665831392723376,0.5024650780608053
kawiki,False,87.0,0.5293571594337433,0.449990136121523,0.9591885158381778,0.017956914031716797,0.48645766687993175
kawiki,False,88.0,0.5363497712252161,0.4162556717301243,0.9594681626357981,0.01615059723562694,0.4687326446739976
kawiki,False,89.0,0.5447761194029851,0.38883408956401655,0.9597901801603308,0.01458335178019604,0.453781512605042
kawiki,False,90.0,0.555079559363525,0.3578615111461827,0.9600952493940986,0.01287443441918946,0.43516852584862664
kawiki,False,91.0,0.5696990660671049,0.32491615703294535,0.9604596376455434,0.011014990658508726,0.41381909547738693
kawiki,False,92.0,0.5853263072557763,0.28486881041625567,0.9606121722624273,0.009058147462744717,0.38322717622080676
kawiki,False,93.0,0.6073170731707317,0.24561057407772735,0.9607731810246937,0.007127867749276145,0.3497682258744206
kawiki,False,94.0,0.6495098039215687,0.20911422371276386,0.9611799400030507,0.005064770624330379,0.3163706909416505
kawiki,False,95.0,0.6864337936636881,0.16669954626159006,0.96093418978696,0.003417834722013158,0.2682539682539683
kawiki,False,96.0,0.75,0.13020319589662654,0.9607731810246937,0.0019479887016655303,0.22188603126575893
kawiki,False,97.0,0.8353552859618717,0.09508778851844546,0.9603240513194244,0.0008411769393555699,0.17074034714842368
kawiki,False,98.0,0.906158357771261,0.06095876898796607,0.9593918953273562,0.0002833438111513499,0.11423290203327172
kawiki,False,99.0,0.9662921348314607,0.03393174196093904,0.9584512651899056,5.31269645908781e-05,0.06556127310844291
