wiki_db,user_is_anonymous_or_bot,threshold,precision,recall,accuracy,fpr,F1
lldwiki,True,0.0,0.012195121951219513,1.0,0.012195121951219513,1.0,0.024096385542168676
lldwiki,True,1.0,0.012195121951219513,1.0,0.012195121951219513,1.0,0.024096385542168676
lldwiki,True,2.0,0.012195121951219513,1.0,0.012195121951219513,1.0,0.024096385542168676
lldwiki,True,3.0,0.012195121951219513,1.0,0.012195121951219513,1.0,0.024096385542168676
lldwiki,True,4.0,0.012195121951219513,1.0,0.012195121951219513,1.0,0.024096385542168676
lldwiki,True,5.0,0.012195121951219513,1.0,0.012195121951219513,1.0,0.024096385542168676
lldwiki,True,6.0,0.012195121951219513,1.0,0.012195121951219513,1.0,0.024096385542168676
lldwiki,True,7.0,0.012195121951219513,1.0,0.012195121951219513,1.0,0.024096385542168676
lldwiki,True,8.0,0.012195121951219513,1.0,0.012195121951219513,1.0,0.024096385542168676
lldwiki,True,9.0,0.012195121951219513,1.0,0.012195121951219513,1.0,0.024096385542168676
lldwiki,True,10.0,0.012195121951219513,1.0,0.012195121951219513,1.0,0.024096385542168676
lldwiki,True,11.0,0.012195121951219513,1.0,0.012195121951219513,1.0,0.024096385542168676
lldwiki,True,12.0,0.012195121951219513,1.0,0.012195121951219513,1.0,0.024096385542168676
lldwiki,True,13.0,0.012195121951219513,1.0,0.012195121951219513,1.0,0.024096385542168676
lldwiki,True,14.0,0.012195121951219513,1.0,0.012195121951219513,1.0,0.024096385542168676
lldwiki,True,15.0,0.012195121951219513,1.0,0.012195121951219513,1.0,0.024096385542168676
lldwiki,True,16.0,0.012195121951219513,1.0,0.012195121951219513,1.0,0.024096385542168676
lldwiki,True,17.0,0.012195121951219513,1.0,0.012195121951219513,1.0,0.024096385542168676
lldwiki,True,18.0,0.012195121951219513,1.0,0.012195121951219513,1.0,0.024096385542168676
lldwiki,True,19.0,0.012195121951219513,1.0,0.012195121951219513,1.0,0.024096385542168676
lldwiki,True,20.0,0.012195121951219513,1.0,0.012195121951219513,1.0,0.024096385542168676
lldwiki,True,21.0,0.0125,1.0,0.036585365853658534,0.9753086419753086,0.02469135802469136
lldwiki,True,22.0,0.0125,1.0,0.036585365853658534,0.9753086419753086,0.02469135802469136
lldwiki,True,23.0,0.0125,1.0,0.036585365853658534,0.9753086419753086,0.02469135802469136
lldwiki,True,24.0,0.0125,1.0,0.036585365853658534,0.9753086419753086,0.02469135802469136
lldwiki,True,25.0,0.0125,1.0,0.036585365853658534,0.9753086419753086,0.02469135802469136
lldwiki,True,26.0,0.0125,1.0,0.036585365853658534,0.9753086419753086,0.02469135802469136
lldwiki,True,27.0,0.0125,1.0,0.036585365853658534,0.9753086419753086,0.02469135802469136
lldwiki,True,28.0,0.0125,1.0,0.036585365853658534,0.9753086419753086,0.02469135802469136
lldwiki,True,29.0,0.0125,1.0,0.036585365853658534,0.9753086419753086,0.02469135802469136
lldwiki,True,30.0,0.012658227848101266,1.0,0.04878048780487805,0.9629629629629629,0.024999999999999998
lldwiki,True,31.0,0.012658227848101266,1.0,0.04878048780487805,0.9629629629629629,0.024999999999999998
lldwiki,True,32.0,0.012658227848101266,1.0,0.04878048780487805,0.9629629629629629,0.024999999999999998
lldwiki,True,33.0,0.012658227848101266,1.0,0.04878048780487805,0.9629629629629629,0.024999999999999998
lldwiki,True,34.0,0.012658227848101266,1.0,0.04878048780487805,0.9629629629629629,0.024999999999999998
lldwiki,True,35.0,0.012658227848101266,1.0,0.04878048780487805,0.9629629629629629,0.024999999999999998
lldwiki,True,36.0,0.012658227848101266,1.0,0.04878048780487805,0.9629629629629629,0.024999999999999998
lldwiki,True,37.0,0.012658227848101266,1.0,0.04878048780487805,0.9629629629629629,0.024999999999999998
lldwiki,True,38.0,0.01282051282051282,1.0,0.06097560975609756,0.9506172839506173,0.02531645569620253
lldwiki,True,39.0,0.012987012987012988,1.0,0.07317073170731707,0.9382716049382716,0.025641025641025647
lldwiki,True,40.0,0.012987012987012988,1.0,0.07317073170731707,0.9382716049382716,0.025641025641025647
lldwiki,True,41.0,0.012987012987012988,1.0,0.07317073170731707,0.9382716049382716,0.025641025641025647
lldwiki,True,42.0,0.012987012987012988,1.0,0.07317073170731707,0.9382716049382716,0.025641025641025647
lldwiki,True,43.0,0.012987012987012988,1.0,0.07317073170731707,0.9382716049382716,0.025641025641025647
lldwiki,True,44.0,0.012987012987012988,1.0,0.07317073170731707,0.9382716049382716,0.025641025641025647
lldwiki,True,45.0,0.012987012987012988,1.0,0.07317073170731707,0.9382716049382716,0.025641025641025647
lldwiki,True,46.0,0.012987012987012988,1.0,0.07317073170731707,0.9382716049382716,0.025641025641025647
lldwiki,True,47.0,0.013157894736842105,1.0,0.08536585365853659,0.9259259259259259,0.025974025974025976
lldwiki,True,48.0,0.013157894736842105,1.0,0.08536585365853659,0.9259259259259259,0.025974025974025976
lldwiki,True,49.0,0.013157894736842105,1.0,0.08536585365853659,0.9259259259259259,0.025974025974025976
lldwiki,True,50.0,0.013157894736842105,1.0,0.08536585365853659,0.9259259259259259,0.025974025974025976
lldwiki,True,51.0,0.013157894736842105,1.0,0.08536585365853659,0.9259259259259259,0.025974025974025976
lldwiki,True,52.0,0.013157894736842105,1.0,0.08536585365853659,0.9259259259259259,0.025974025974025976
lldwiki,True,53.0,0.013157894736842105,1.0,0.08536585365853659,0.9259259259259259,0.025974025974025976
lldwiki,True,54.0,0.013333333333333334,1.0,0.0975609756097561,0.9135802469135802,0.02631578947368421
lldwiki,True,55.0,0.013333333333333334,1.0,0.0975609756097561,0.9135802469135802,0.02631578947368421
lldwiki,True,56.0,0.013333333333333334,1.0,0.0975609756097561,0.9135802469135802,0.02631578947368421
lldwiki,True,57.0,0.013333333333333334,1.0,0.0975609756097561,0.9135802469135802,0.02631578947368421
lldwiki,True,58.0,0.013513513513513514,1.0,0.10975609756097561,0.9012345679012346,0.026666666666666665
lldwiki,True,59.0,0.0136986301369863,1.0,0.12195121951219512,0.8888888888888888,0.027027027027027025
lldwiki,True,60.0,0.013888888888888888,1.0,0.13414634146341464,0.8765432098765432,0.0273972602739726
lldwiki,True,61.0,0.013888888888888888,1.0,0.13414634146341464,0.8765432098765432,0.0273972602739726
lldwiki,True,62.0,0.014084507042253521,1.0,0.14634146341463414,0.8641975308641975,0.02777777777777778
lldwiki,True,63.0,0.014492753623188406,1.0,0.17073170731707318,0.8395061728395061,0.02857142857142857
lldwiki,True,64.0,0.014492753623188406,1.0,0.17073170731707318,0.8395061728395061,0.02857142857142857
lldwiki,True,65.0,0.014705882352941176,1.0,0.18292682926829268,0.8271604938271605,0.028985507246376812
lldwiki,True,66.0,0.014705882352941176,1.0,0.18292682926829268,0.8271604938271605,0.028985507246376812
lldwiki,True,67.0,0.015151515151515152,1.0,0.2073170731707317,0.8024691358024691,0.02985074626865672
lldwiki,True,68.0,0.016129032258064516,1.0,0.25609756097560976,0.7530864197530864,0.031746031746031744
lldwiki,True,69.0,0.01639344262295082,1.0,0.2682926829268293,0.7407407407407407,0.03225806451612903
lldwiki,True,70.0,0.017241379310344827,1.0,0.3048780487804878,0.7037037037037037,0.03389830508474576
lldwiki,True,71.0,0.01818181818181818,1.0,0.34146341463414637,0.6666666666666666,0.03571428571428572
lldwiki,True,72.0,0.018518518518518517,1.0,0.35365853658536583,0.654320987654321,0.03636363636363636
lldwiki,True,73.0,0.018867924528301886,1.0,0.36585365853658536,0.6419753086419753,0.037037037037037035
lldwiki,True,74.0,0.0196078431372549,1.0,0.3902439024390244,0.6172839506172839,0.038461538461538464
lldwiki,True,75.0,0.02,1.0,0.4024390243902439,0.6049382716049383,0.0392156862745098
lldwiki,True,76.0,0.022222222222222223,1.0,0.4634146341463415,0.5432098765432098,0.04347826086956522
lldwiki,True,77.0,0.023809523809523808,1.0,0.5,0.5061728395061729,0.046511627906976744
lldwiki,True,78.0,0.02564102564102564,1.0,0.5365853658536586,0.4691358024691358,0.05
lldwiki,True,79.0,0.027777777777777776,1.0,0.573170731707317,0.43209876543209874,0.05405405405405406
lldwiki,True,80.0,0.02857142857142857,1.0,0.5853658536585366,0.41975308641975306,0.05555555555555556
lldwiki,True,81.0,0.03225806451612903,1.0,0.6341463414634146,0.37037037037037035,0.0625
lldwiki,True,82.0,0.034482758620689655,1.0,0.6585365853658537,0.345679012345679,0.06666666666666667
lldwiki,True,83.0,0.037037037037037035,1.0,0.6829268292682927,0.32098765432098764,0.07142857142857142
lldwiki,True,84.0,0.041666666666666664,1.0,0.7195121951219512,0.2839506172839506,0.07999999999999999
lldwiki,True,85.0,0.047619047619047616,1.0,0.7560975609756098,0.24691358024691357,0.0909090909090909
lldwiki,True,86.0,0.05555555555555555,1.0,0.7926829268292683,0.20987654320987653,0.10526315789473684
lldwiki,True,87.0,0.0625,1.0,0.8170731707317073,0.18518518518518517,0.11764705882352941
lldwiki,True,88.0,0.08333333333333333,1.0,0.8658536585365854,0.13580246913580246,0.15384615384615385
lldwiki,True,89.0,0.08333333333333333,1.0,0.8658536585365854,0.13580246913580246,0.15384615384615385
lldwiki,True,90.0,0.09090909090909091,1.0,0.8780487804878049,0.12345679012345678,0.16666666666666669
lldwiki,True,91.0,0.09090909090909091,1.0,0.8780487804878049,0.12345679012345678,0.16666666666666669
lldwiki,True,92.0,0.1,1.0,0.8902439024390244,0.1111111111111111,0.18181818181818182
lldwiki,True,93.0,0.2,1.0,0.9512195121951219,0.04938271604938271,0.33333333333333337
lldwiki,True,94.0,0.3333333333333333,1.0,0.975609756097561,0.024691358024691357,0.5
lldwiki,True,95.0,0.3333333333333333,1.0,0.975609756097561,0.024691358024691357,0.5
lldwiki,True,96.0,0.0,0.0,0.9634146341463414,0.024691358024691357,0.5
lldwiki,True,97.0,0.0,0.0,0.975609756097561,0.012345679012345678,0.5
lldwiki,True,98.0,0.0,0.0,0.9878048780487805,0.0,0.5
lldwiki,True,99.0,0.0,0.0,0.9878048780487805,0.0,0.5
lldwiki,False,0.0,0.0034502587694077054,1.0,0.0034502587694077054,1.0,0.006876790830945559
lldwiki,False,1.0,0.0034502587694077054,1.0,0.0034502587694077054,1.0,0.006876790830945559
lldwiki,False,2.0,0.0034542314335060447,1.0,0.004600345025876941,0.9988459319099827,0.0068846815834767644
lldwiki,False,3.0,0.0034542314335060447,1.0,0.004600345025876941,0.9988459319099827,0.0068846815834767644
lldwiki,False,4.0,0.00345821325648415,1.0,0.005750431282346176,0.9976918638199653,0.006892590465249856
lldwiki,False,5.0,0.0034732272069464545,1.0,0.010063254744105807,0.9933641084824004,0.006922411306605134
lldwiki,False,6.0,0.0034934497816593887,1.0,0.015813686026451983,0.9875937680323139,0.006962576153176675
lldwiki,False,7.0,0.0035149384885764497,1.0,0.02185163887291547,0.981534910559723,0.0070052539404553416
lldwiki,False,8.0,0.0035502958579881655,1.0,0.03162737205290397,0.9717253317945759,0.007075471698113207
lldwiki,False,9.0,0.0035863717872086074,1.0,0.041403105232892465,0.9619157530294288,0.00714711137581894
lldwiki,False,10.0,0.0036452004860267314,1.0,0.056929269695227144,0.9463358338141951,0.007263922518159806
lldwiki,False,11.0,0.0037025609379821045,1.0,0.07159286946520989,0.9316214656664743,0.007377805102981863
lldwiki,False,12.0,0.003771213073538655,1.0,0.0885566417481311,0.914598961338719,0.007514088916718849
lldwiki,False,13.0,0.0038363171355498722,1.0,0.10408280621046578,0.8990190421234853,0.007643312101910829
lldwiki,False,14.0,0.003913894324853229,1.0,0.12190914318573894,0.881130986728217,0.0077972709551656924
lldwiki,False,15.0,0.003986710963455149,1.0,0.13801035077630822,0.8649740334679746,0.007941760423560556
lldwiki,False,16.0,0.004076086956521739,1.0,0.1569867740080506,0.845931909982689,0.008119079837618403
lldwiki,False,17.0,0.00414651002073255,1.0,0.17136285221391603,0.8315060588574726,0.008258774948382657
lldwiki,False,18.0,0.004267425320056899,1.0,0.19493962047153537,0.8078476630121177,0.0084985835694051
lldwiki,False,19.0,0.004032258064516129,0.9166666666666666,0.2185163887291547,0.7839007501442585,0.008029197080291971
lldwiki,False,20.0,0.0041572184429327285,0.9166666666666666,0.242093156986774,0.7602423542989036,0.008276899924755455
lldwiki,False,21.0,0.004281821720513819,0.9166666666666666,0.26423231742380676,0.7380265435660704,0.008523827973653622
lldwiki,False,22.0,0.00443906376109766,0.9166666666666666,0.2903967797584819,0.7117714945181766,0.008835341365461847
lldwiki,False,23.0,0.004610226320201173,0.9166666666666666,0.31684876365727427,0.6852279284477785,0.009174311926605503
lldwiki,False,24.0,0.004772234273318872,0.9166666666666666,0.3401380103507763,0.6618580496249279,0.009495036685369012
lldwiki,False,25.0,0.004514672686230248,0.8333333333333334,0.3654399079930995,0.6361800346220428,0.008980691513246519
lldwiki,False,26.0,0.004670714619336758,0.8333333333333334,0.3867165037377803,0.6148297749567224,0.009289363678588016
lldwiki,False,27.0,0.0048756704046806435,0.8333333333333334,0.4125934445083381,0.588863242931333,0.009694619486185167
lldwiki,False,28.0,0.005076142131979695,0.8333333333333334,0.43588269120184014,0.5654933641084824,0.010090817356205851
lldwiki,False,29.0,0.00482315112540193,0.75,0.46520989074180563,0.5357761107905367,0.009584664536741215
lldwiki,False,30.0,0.005039193729003359,0.75,0.48821161587119033,0.5126947489901904,0.010011123470522803
lldwiki,False,31.0,0.005275498241500586,0.75,0.511213341000575,0.4896133871898442,0.010477299185098952
lldwiki,False,32.0,0.004956629491945477,0.6666666666666666,0.5370902817711328,0.4633583381419504,0.009840098400984008
lldwiki,False,33.0,0.005235602094240838,0.6666666666666666,0.5618171362852213,0.4385458742065782,0.010389610389610391
lldwiki,False,34.0,0.005457025920873124,0.6666666666666666,0.5796434732604946,0.42065781881130987,0.010825439783491203
lldwiki,False,35.0,0.005028735632183908,0.5833333333333334,0.6003450258769407,0.39959607616849396,0.009971509971509971
lldwiki,False,36.0,0.005339435545385202,0.5833333333333334,0.6236342725704428,0.3762261973456434,0.010582010582010581
lldwiki,False,37.0,0.004862236628849271,0.5,0.6451983898792409,0.35429890363531447,0.009630818619582664
lldwiki,False,38.0,0.004325259515570935,0.4166666666666667,0.6670500287521565,0.3320830929024812,0.00856164383561644
lldwiki,False,39.0,0.004612546125461255,0.4166666666666667,0.6877515813686026,0.31130986728216964,0.009124087591240875
lldwiki,False,40.0,0.003861003861003861,0.3333333333333333,0.7009775733179988,0.2977495672244662,0.0076335877862595426
lldwiki,False,41.0,0.003089598352214212,0.25,0.7190914318573893,0.27928447778418924,0.006103763987792471
lldwiki,False,42.0,0.0032751091703056767,0.25,0.7349051178838413,0.26341604154645126,0.00646551724137931
lldwiki,False,43.0,0.0035335689045936395,0.25,0.754169062679701,0.24408540103866128,0.0069686411149825775
lldwiki,False,44.0,0.0036900369003690036,0.25,0.7645198389879241,0.23369878822850548,0.007272727272727273
lldwiki,False,45.0,0.003875968992248062,0.25,0.7757331799884991,0.2224466243508367,0.007633587786259542
lldwiki,False,46.0,0.004166666666666667,0.25,0.7912593444508338,0.206866705135603,0.00819672131147541
lldwiki,False,47.0,0.004392386530014641,0.25,0.8018976423231743,0.19619157530294287,0.008633093525179858
lldwiki,False,48.0,0.0046439628482972135,0.25,0.8125359401955147,0.18551644547028276,0.00911854103343465
lldwiki,False,49.0,0.004966887417218543,0.25,0.8246118458884416,0.173398730525101,0.00974025974025974
lldwiki,False,50.0,0.005226480836236934,0.25,0.8332374928119609,0.16474321984997115,0.010238907849829351
lldwiki,False,51.0,0.005649717514124294,0.25,0.8456009200690052,0.15233698788228506,0.011049723756906077
lldwiki,False,52.0,0.006160164271047228,0.25,0.8582518688901668,0.13964223889209462,0.012024048096192386
lldwiki,False,53.0,0.006622516556291391,0.25,0.8680276020701553,0.1298326601269475,0.012903225806451615
lldwiki,False,54.0,0.007075471698113208,0.25,0.8763657274295572,0.12146566647432198,0.013761467889908256
lldwiki,False,55.0,0.007653061224489796,0.25,0.8855664174813112,0.1122331217541835,0.014851485148514853
lldwiki,False,56.0,0.008,0.25,0.8904542840713053,0.10732833237160992,0.015503875968992248
lldwiki,False,57.0,0.008426966292134831,0.25,0.8959171937895342,0.10184650894402769,0.016304347826086956
lldwiki,False,58.0,0.00909090909090909,0.25,0.9033927544565843,0.09434506635891518,0.017543859649122806
lldwiki,False,59.0,0.010101010101010102,0.25,0.9128809660724554,0.08482400461627236,0.01941747572815534
lldwiki,False,60.0,0.010714285714285714,0.25,0.9177688326624497,0.07991921523369878,0.02054794520547945
lldwiki,False,61.0,0.011673151750972763,0.25,0.9243818286371478,0.07328332371609925,0.022304832713754646
lldwiki,False,62.0,0.012396694214876033,0.25,0.9286946520989074,0.06895556837853434,0.023622047244094488
lldwiki,False,63.0,0.013452914798206279,0.25,0.9341575618171363,0.06347374495095211,0.025531914893617023
lldwiki,False,64.0,0.014285714285714285,0.25,0.9378953421506613,0.059723023658395845,0.027027027027027025
lldwiki,False,65.0,0.015151515151515152,0.25,0.941345600920069,0.05626081938834391,0.028571428571428574
lldwiki,False,66.0,0.015463917525773196,0.25,0.9424956871765382,0.0551067512983266,0.02912621359223301
lldwiki,False,67.0,0.01675977653631285,0.25,0.9468085106382979,0.050778995960761686,0.031413612565445025
lldwiki,False,68.0,0.01818181818181818,0.25,0.9508338125359402,0.0467397576457011,0.03389830508474576
lldwiki,False,69.0,0.013422818791946308,0.16666666666666666,0.9548591144335825,0.04241200230813618,0.024844720496894408
lldwiki,False,70.0,0.014184397163120567,0.16666666666666666,0.957159286946521,0.04010386612810156,0.026143790849673203
lldwiki,False,71.0,0.015037593984962405,0.16666666666666666,0.9594594594594594,0.03779572994806694,0.027586206896551724
lldwiki,False,72.0,0.016260162601626018,0.16666666666666666,0.9623346751006325,0.034910559723023656,0.02962962962962963
lldwiki,False,73.0,0.017543859649122806,0.16666666666666666,0.9649223691776884,0.03231390652048471,0.031746031746031744
lldwiki,False,74.0,0.019230769230769232,0.16666666666666666,0.9677975848188615,0.029428736295441432,0.034482758620689655
lldwiki,False,75.0,0.02,0.16666666666666666,0.9689476710753306,0.02827466820542412,0.03571428571428571
lldwiki,False,76.0,0.022988505747126436,0.16666666666666666,0.9726854514088557,0.02452394691286786,0.0404040404040404
lldwiki,False,77.0,0.02666666666666667,0.16666666666666666,0.9761357101782634,0.021061742642815927,0.04597701149425287
lldwiki,False,78.0,0.028169014084507043,0.16666666666666666,0.9772857964347326,0.019907674552798616,0.04819277108433735
lldwiki,False,79.0,0.03076923076923077,0.16666666666666666,0.9790109258194365,0.01817657241777265,0.05194805194805195
lldwiki,False,80.0,0.03508771929824561,0.16666666666666666,0.981311098332375,0.015868436237738027,0.057971014492753624
lldwiki,False,81.0,0.04,0.16666666666666666,0.983323749281196,0.013848817080207732,0.06451612903225806
lldwiki,False,82.0,0.0425531914893617,0.16666666666666666,0.984186313973548,0.012983266012694748,0.06779661016949153
lldwiki,False,83.0,0.045454545454545456,0.16666666666666666,0.9850488786659,0.012117714945181766,0.07142857142857144
lldwiki,False,84.0,0.05,0.16666666666666666,0.9861989649223691,0.010963646855164455,0.07692307692307691
lldwiki,False,85.0,0.06060606060606061,0.16666666666666666,0.9882116158711903,0.00894402769763416,0.08888888888888888
lldwiki,False,86.0,0.06666666666666667,0.16666666666666666,0.9890741805635422,0.008078476630121177,0.09523809523809522
lldwiki,False,87.0,0.07692307692307693,0.16666666666666666,0.9902242668200115,0.006924408540103866,0.10526315789473684
lldwiki,False,88.0,0.09523809523809523,0.16666666666666666,0.9916618746405981,0.005481823427582228,0.12121212121212123
lldwiki,False,89.0,0.1,0.16666666666666666,0.9919493962047153,0.0051933064050779,0.125
lldwiki,False,90.0,0.11764705882352941,0.16666666666666666,0.9928119608970672,0.004327755337564916,0.13793103448275862
lldwiki,False,91.0,0.13333333333333333,0.16666666666666666,0.9933870040253019,0.0037507212925562607,0.14814814814814814
lldwiki,False,92.0,0.15384615384615385,0.16666666666666666,0.9939620471535365,0.0031736872475476054,0.16
lldwiki,False,93.0,0.14285714285714285,0.08333333333333333,0.9951121334100057,0.0017311021350259665,0.10526315789473685
lldwiki,False,94.0,0.2,0.08333333333333333,0.9956871765382403,0.001154068090017311,0.11764705882352941
lldwiki,False,95.0,0.2,0.08333333333333333,0.9956871765382403,0.001154068090017311,0.11764705882352941
lldwiki,False,96.0,0.0,0.0,0.9953996549741231,0.001154068090017311,0.11764705882352941
lldwiki,False,97.0,0.0,0.0,0.9959746981023577,0.0005770340450086555,0.11764705882352941
lldwiki,False,98.0,0.0,0.0,0.996262219666475,0.00028851702250432774,0.11764705882352941
lldwiki,False,99.0,0.0,0.0,0.9965497412305923,0.0,0.11764705882352941
