wiki_db,user_is_anonymous_or_bot,threshold,precision,recall,accuracy,fpr,F1
minwiki,True,0.0,0.1188118811881188,1.0,0.1188118811881188,1.0,0.21238938053097342
minwiki,True,1.0,0.1188118811881188,1.0,0.1188118811881188,1.0,0.21238938053097342
minwiki,True,2.0,0.1188118811881188,1.0,0.1188118811881188,1.0,0.21238938053097342
minwiki,True,3.0,0.1188118811881188,1.0,0.1188118811881188,1.0,0.21238938053097342
minwiki,True,4.0,0.1188118811881188,1.0,0.1188118811881188,1.0,0.21238938053097342
minwiki,True,5.0,0.1188118811881188,1.0,0.1188118811881188,1.0,0.21238938053097342
minwiki,True,6.0,0.1188118811881188,1.0,0.1188118811881188,1.0,0.21238938053097342
minwiki,True,7.0,0.1188118811881188,1.0,0.1188118811881188,1.0,0.21238938053097342
minwiki,True,8.0,0.1188118811881188,1.0,0.1188118811881188,1.0,0.21238938053097342
minwiki,True,9.0,0.1188118811881188,1.0,0.1188118811881188,1.0,0.21238938053097342
minwiki,True,10.0,0.11895910780669144,1.0,0.12004950495049505,0.9985955056179775,0.21262458471760798
minwiki,True,11.0,0.11910669975186104,1.0,0.12128712871287128,0.9971910112359551,0.21286031042128603
minwiki,True,12.0,0.11940298507462686,1.0,0.12376237623762376,0.9943820224719101,0.21333333333333335
minwiki,True,13.0,0.1198501872659176,1.0,0.12747524752475248,0.9901685393258427,0.2140468227424749
minwiki,True,14.0,0.1213653603034134,1.0,0.13985148514851486,0.976123595505618,0.21645997745208564
minwiki,True,15.0,0.12213740458015267,1.0,0.14603960396039603,0.9691011235955056,0.21768707482993196
minwiki,True,16.0,0.12276214833759591,1.0,0.15099009900990099,0.9634831460674157,0.21867881548974946
minwiki,True,17.0,0.12323491655969192,1.0,0.1547029702970297,0.9592696629213483,0.21942857142857142
minwiki,True,18.0,0.12323491655969192,1.0,0.1547029702970297,0.9592696629213483,0.21942857142857142
minwiki,True,19.0,0.12355212355212356,1.0,0.15717821782178218,0.9564606741573034,0.21993127147766325
minwiki,True,20.0,0.12435233160621761,1.0,0.16336633663366337,0.949438202247191,0.22119815668202764
minwiki,True,21.0,0.125,1.0,0.16831683168316833,0.9438202247191011,0.2222222222222222
minwiki,True,22.0,0.12549019607843137,1.0,0.17202970297029702,0.9396067415730337,0.2229965156794425
minwiki,True,23.0,0.12614980289093297,1.0,0.17698019801980197,0.9339887640449438,0.22403733955659275
minwiki,True,24.0,0.12532981530343007,0.9895833333333334,0.1782178217821782,0.9311797752808989,0.2224824355971897
minwiki,True,25.0,0.12582781456953643,0.9895833333333334,0.18193069306930693,0.9269662921348315,0.22326674500587543
minwiki,True,26.0,0.1259946949602122,0.9895833333333334,0.18316831683168316,0.925561797752809,0.22352941176470592
minwiki,True,27.0,0.12751677852348994,0.9895833333333334,0.1943069306930693,0.9129213483146067,0.2259215219976219
minwiki,True,28.0,0.1280323450134771,0.9895833333333334,0.19801980198019803,0.9087078651685393,0.22673031026252982
minwiki,True,29.0,0.12754409769335143,0.9791666666666666,0.20173267326732675,0.9030898876404494,0.2256902761104442
minwiki,True,30.0,0.12722298221614228,0.96875,0.20668316831683167,0.8960674157303371,0.2249093107617896
minwiki,True,31.0,0.1270718232044199,0.9583333333333334,0.21287128712871287,0.8876404494382022,0.22439024390243906
minwiki,True,32.0,0.12742382271468145,0.9583333333333334,0.21534653465346534,0.8848314606741573,0.22493887530562348
minwiki,True,33.0,0.12831241283124128,0.9583333333333334,0.22153465346534654,0.8778089887640449,0.22632226322263224
minwiki,True,34.0,0.13031161473087818,0.9583333333333334,0.23514851485148514,0.8623595505617978,0.22942643391521197
minwiki,True,35.0,0.13105413105413105,0.9583333333333334,0.2400990099009901,0.8567415730337079,0.23057644110275693
minwiki,True,36.0,0.13093525179856116,0.9479166666666666,0.24628712871287128,0.848314606741573,0.23008849557522126
minwiki,True,37.0,0.13196480938416422,0.9375,0.2599009900990099,0.8314606741573034,0.23136246786632395
minwiki,True,38.0,0.1329394387001477,0.9375,0.2660891089108911,0.824438202247191,0.2328589909443726
minwiki,True,39.0,0.13452914798206278,0.9375,0.275990099009901,0.8132022471910112,0.23529411764705885
minwiki,True,40.0,0.13692307692307693,0.9270833333333334,0.297029702970297,0.7879213483146067,0.23860589812332442
minwiki,True,41.0,0.1375,0.9166666666666666,0.3069306930693069,0.7752808988764045,0.23913043478260868
minwiki,True,42.0,0.13946117274167988,0.9166666666666666,0.3180693069306931,0.7626404494382022,0.24209078404401654
minwiki,True,43.0,0.14102564102564102,0.9166666666666666,0.32673267326732675,0.7528089887640449,0.2444444444444444
minwiki,True,44.0,0.1407766990291262,0.90625,0.3316831683168317,0.7457865168539326,0.24369747899159663
minwiki,True,45.0,0.14072847682119205,0.8854166666666666,0.34405940594059403,0.7289325842696629,0.24285714285714288
minwiki,True,46.0,0.1423785594639866,0.8854166666666666,0.3527227722772277,0.7191011235955056,0.24531024531024534
minwiki,True,47.0,0.14382402707275804,0.8854166666666666,0.36014851485148514,0.7106741573033708,0.24745269286754001
minwiki,True,48.0,0.14604810996563575,0.8854166666666666,0.3712871287128713,0.6980337078651685,0.2507374631268437
minwiki,True,49.0,0.14535901926444833,0.8645833333333334,0.37995049504950495,0.6853932584269663,0.2488755622188905
minwiki,True,50.0,0.14664310954063603,0.8645833333333334,0.38613861386138615,0.6783707865168539,0.2507552870090634
minwiki,True,51.0,0.14928057553956833,0.8645833333333334,0.39851485148514854,0.6643258426966292,0.254601226993865
minwiki,True,52.0,0.15173674588665448,0.8645833333333334,0.40965346534653463,0.651685393258427,0.2581648522550544
minwiki,True,53.0,0.15543071161048688,0.8645833333333334,0.42574257425742573,0.6334269662921348,0.26349206349206344
minwiki,True,54.0,0.15689981096408318,0.8645833333333334,0.4319306930693069,0.6264044943820225,0.26559999999999995
minwiki,True,55.0,0.1579961464354528,0.8541666666666666,0.44183168316831684,0.6137640449438202,0.26666666666666666
minwiki,True,56.0,0.16173570019723865,0.8541666666666666,0.4566831683168317,0.5969101123595506,0.2719734660033167
minwiki,True,57.0,0.1623246492985972,0.84375,0.46410891089108913,0.5870786516853933,0.2722689075630252
minwiki,True,58.0,0.1653061224489796,0.84375,0.4752475247524752,0.574438202247191,0.2764505119453925
minwiki,True,59.0,0.1683991683991684,0.84375,0.4863861386138614,0.5617977528089888,0.2807625649913345
minwiki,True,60.0,0.17016806722689076,0.84375,0.49257425742574257,0.5547752808988764,0.28321678321678323
minwiki,True,61.0,0.1723404255319149,0.84375,0.5,0.5463483146067416,0.2862190812720848
minwiki,True,62.0,0.17494600431965443,0.84375,0.5086633663366337,0.5365168539325843,0.2898032200357782
minwiki,True,63.0,0.175704989154013,0.84375,0.5111386138613861,0.5337078651685393,0.29084380610412924
minwiki,True,64.0,0.175054704595186,0.8333333333333334,0.5136138613861386,0.5294943820224719,0.28933092224231466
minwiki,True,65.0,0.17752808988764046,0.8229166666666666,0.525990099009901,0.5140449438202247,0.2920517560073937
minwiki,True,66.0,0.17995444191343962,0.8229166666666666,0.5334158415841584,0.5056179775280899,0.29532710280373825
minwiki,True,67.0,0.18055555555555555,0.8125,0.5396039603960396,0.49719101123595505,0.29545454545454547
minwiki,True,68.0,0.18309859154929578,0.8125,0.5470297029702971,0.4887640449438202,0.2988505747126437
minwiki,True,69.0,0.18615751789976134,0.8125,0.5556930693069307,0.4789325842696629,0.30291262135922337
minwiki,True,70.0,0.1896551724137931,0.8020833333333334,0.5693069306930693,0.46207865168539325,0.30677290836653387
minwiki,True,71.0,0.19338422391857507,0.7916666666666666,0.5829207920792079,0.4452247191011236,0.310838445807771
minwiki,True,72.0,0.1968503937007874,0.78125,0.5952970297029703,0.4297752808988764,0.3144654088050315
minwiki,True,73.0,0.20215633423180593,0.78125,0.6076732673267327,0.4157303370786517,0.32119914346895073
minwiki,True,74.0,0.20555555555555555,0.7708333333333334,0.6188118811881188,0.40168539325842695,0.3245614035087719
minwiki,True,75.0,0.20809248554913296,0.75,0.6311881188118812,0.3848314606741573,0.3257918552036199
minwiki,True,76.0,0.21296296296296297,0.71875,0.650990099009901,0.35814606741573035,0.3285714285714285
minwiki,True,77.0,0.21451104100946372,0.7083333333333334,0.6571782178217822,0.3497191011235955,0.32929782082324455
minwiki,True,78.0,0.21428571428571427,0.6875,0.6633663366336634,0.3398876404494382,0.32673267326732675
minwiki,True,79.0,0.2181208053691275,0.6770833333333334,0.6732673267326733,0.32724719101123595,0.3299492385786802
minwiki,True,80.0,0.22939068100358423,0.6666666666666666,0.6943069306930693,0.30196629213483145,0.3413333333333333
minwiki,True,81.0,0.23018867924528302,0.6354166666666666,0.7042079207920792,0.28651685393258425,0.33795013850415506
minwiki,True,82.0,0.23529411764705882,0.625,0.7141089108910891,0.273876404494382,0.3418803418803419
minwiki,True,83.0,0.2565217391304348,0.6145833333333334,0.7425742574257426,0.2401685393258427,0.36196319018404916
minwiki,True,84.0,0.27184466019417475,0.5833333333333334,0.7648514851485149,0.21067415730337077,0.3708609271523179
minwiki,True,85.0,0.27807486631016043,0.5416666666666666,0.7784653465346535,0.1896067415730337,0.36749116607773846
minwiki,True,86.0,0.28484848484848485,0.4895833333333333,0.7933168316831684,0.16573033707865167,0.36015325670498083
minwiki,True,87.0,0.3142857142857143,0.4583333333333333,0.8168316831683168,0.1348314606741573,0.3728813559322034
minwiki,True,88.0,0.35537190082644626,0.4479166666666667,0.8378712871287128,0.10955056179775281,0.39631336405529954
minwiki,True,89.0,0.3684210526315789,0.3645833333333333,0.8502475247524752,0.08426966292134831,0.36649214659685864
minwiki,True,90.0,0.4117647058823529,0.2916666666666667,0.8663366336633663,0.056179775280898875,0.34146341463414637
minwiki,True,91.0,0.4,0.22916666666666666,0.8675742574257426,0.046348314606741575,0.29139072847682124
minwiki,True,92.0,0.4318181818181818,0.19791666666666666,0.8737623762376238,0.0351123595505618,0.2714285714285714
minwiki,True,93.0,0.32,0.08333333333333333,0.870049504950495,0.023876404494382022,0.1322314049586777
minwiki,True,94.0,0.35294117647058826,0.0625,0.875,0.01544943820224719,0.10619469026548672
minwiki,True,95.0,0.4166666666666667,0.052083333333333336,0.8787128712871287,0.009831460674157303,0.0925925925925926
minwiki,True,96.0,0.5714285714285714,0.041666666666666664,0.8824257425742574,0.004213483146067416,0.07766990291262137
minwiki,True,97.0,0.6,0.03125,0.8824257425742574,0.0028089887640449437,0.0594059405940594
minwiki,True,98.0,0.75,0.03125,0.8836633663366337,0.0014044943820224719,0.06
minwiki,True,99.0,0.6666666666666666,0.020833333333333332,0.8824257425742574,0.0014044943820224719,0.0404040404040404
minwiki,False,0.0,0.02484695714800144,1.0,0.02484695714800144,1.0,0.04848910751932537
minwiki,False,1.0,0.02484695714800144,1.0,0.02484695714800144,1.0,0.04848910751932537
minwiki,False,2.0,0.024959305480195332,1.0,0.02934821750090025,0.995384047267356,0.048703017469560614
minwiki,False,3.0,0.02553191489361702,1.0,0.051674468851278355,0.9724889217134417,0.04979253112033195
minwiki,False,4.0,0.026416539050535988,1.0,0.08426359380626576,0.939069423929099,0.05147333084669899
minwiki,False,5.0,0.02695789059425423,0.9927536231884058,0.1094706517824991,0.9130354505169868,0.0524904214559387
minwiki,False,6.0,0.02769857433808554,0.9855072463768116,0.14007922218221103,0.8814623338257016,0.05388272583201267
minwiki,False,7.0,0.028991686207631637,0.9855072463768116,0.1795102628736046,0.84102658788774,0.056326361565541515
minwiki,False,8.0,0.03023465703971119,0.9710144927536232,0.22542311847317248,0.7935745937961596,0.0586433260393873
minwiki,False,9.0,0.03201146679407549,0.9710144927536232,0.2697155203456968,0.7481536189069424,0.06197964847363552
minwiki,False,10.0,0.033941236068895646,0.9710144927536232,0.3125675189052935,0.7042097488921714,0.06558981889378365
minwiki,False,11.0,0.03542162305048903,0.9710144927536232,0.3422758372344256,0.6737444608567208,0.06834991073705687
minwiki,False,12.0,0.03653473567672295,0.9565217391304348,0.37216420597767375,0.642725258493353,0.07038123167155426
minwiki,False,13.0,0.03795284646348476,0.9565217391304348,0.39647101188332734,0.6177991137370753,0.07300884955752213
minwiki,False,14.0,0.03912127595546193,0.9420289855072463,0.42365862441483615,0.5895494830132939,0.07512279687951459
minwiki,False,15.0,0.040739580068943904,0.9420289855072463,0.4474252790781419,0.5651772525849336,0.07810153199158906
minwiki,False,16.0,0.0425531914893617,0.9420289855072463,0.47191213539791144,0.5400664697193501,0.08142812402129658
minwiki,False,17.0,0.044232732221844165,0.9420289855072463,0.4927979834353619,0.5186484490398818,0.08449788755281118
minwiki,False,18.0,0.045952633439377874,0.9420289855072463,0.5126035289881167,0.4983382570162482,0.08763060330299967
minwiki,False,19.0,0.04756677643615075,0.9420289855072463,0.5298883687432481,0.48061299852289513,0.09056078021595264
minwiki,False,20.0,0.04878048780487805,0.927536231884058,0.5487936622254231,0.4608567208271787,0.09268645908761766
minwiki,False,21.0,0.05055292259083728,0.927536231884058,0.5653583003240907,0.44387001477104876,0.09588014981273409
minwiki,False,22.0,0.052070520705207055,0.9202898550724637,0.5817428880086424,0.42688330871491875,0.09856422196352349
minwiki,False,23.0,0.05420401195049082,0.9202898550724637,0.5990277277637739,0.4091580502215657,0.10237807335751713
minwiki,False,24.0,0.05595026642984014,0.9130434782608695,0.6150522146200936,0.39254062038404725,0.10543933054393305
minwiki,False,25.0,0.05779816513761468,0.9130434782608695,0.6280158444364422,0.3792466765140325,0.1087144089732528
minwiki,False,26.0,0.0587406015037594,0.9057971014492754,0.6370183651422399,0.3698301329394387,0.11032656663724624
minwiki,False,27.0,0.06106497313141182,0.9057971014492754,0.651602448685632,0.3548744460856721,0.11441647597254004
minwiki,False,28.0,0.0630401626842908,0.8985507246376812,0.6656463809866763,0.340288035450517,0.11781472684085512
minwiki,False,29.0,0.0647902283590016,0.8840579710144928,0.6800504141159525,0.3251477104874446,0.12073231073725878
minwiki,False,30.0,0.06597600872410032,0.8768115942028986,0.6885127835794023,0.3162850812407681,0.1227180527383367
minwiki,False,31.0,0.06704225352112676,0.8623188405797102,0.6984155563557796,0.30576070901033975,0.1244119184526921
minwiki,False,32.0,0.06824754193175246,0.855072463768116,0.7063377745768815,0.2974519940915805,0.12640599892876273
minwiki,False,33.0,0.0695026962252846,0.8405797101449275,0.7164205977673749,0.28674298375184637,0.1283895960154953
minwiki,False,34.0,0.0715607649599013,0.8405797101449275,0.7250630176449406,0.27788035450516985,0.1318931210915293
minwiki,False,35.0,0.07337128399746995,0.8405797101449275,0.7322650342095787,0.27049483013293946,0.13496218731820825
minwiki,False,36.0,0.07428940568475452,0.8333333333333334,0.7378465970471733,0.2645864106351551,0.13641755634638197
minwiki,False,37.0,0.0759493670886076,0.8260869565217391,0.745948865682391,0.2560930576070901,0.13910921293471631
minwiki,False,38.0,0.07818930041152264,0.8260869565217391,0.753691033489377,0.2481536189069424,0.14285714285714288
minwiki,False,39.0,0.08050847457627118,0.8260869565217391,0.761253150882247,0.24039881831610044,0.1467181467181467
minwiki,False,40.0,0.08302718589272594,0.8188405797101449,0.7707958228303925,0.23042836041358936,0.15076717811874585
minwiki,False,41.0,0.08446455505279035,0.8115942028985508,0.776737486496219,0.2241506646971935,0.15300546448087432
minwiki,False,42.0,0.08675445391169635,0.8115942028985508,0.7830392509902773,0.21768833087149186,0.15675297410776765
minwiki,False,43.0,0.08867775138558986,0.8115942028985508,0.7880806625855239,0.21251846381093056,0.15988579586009993
minwiki,False,44.0,0.08964955175224124,0.7971014492753623,0.7938422758372344,0.2062407680945347,0.16117216117216118
minwiki,False,45.0,0.09060118543607112,0.7753623188405797,0.8010442924018725,0.198301329394387,0.16224412433661867
minwiki,False,46.0,0.09209383145091225,0.7681159420289855,0.8060857039971192,0.19294682422451995,0.16446858029480219
minwiki,False,47.0,0.09472743521000894,0.7681159420289855,0.8118473172488296,0.1870384047267356,0.16865552903739062
minwiki,False,48.0,0.09769585253456221,0.7681159420289855,0.8179690313287721,0.18076070901033972,0.17334423548650857
minwiki,False,49.0,0.0985781990521327,0.7536231884057971,0.8226503420957868,0.17559084194977845,0.17435037720033528
minwiki,False,50.0,0.09970958373668926,0.7463768115942029,0.8262513503781058,0.17171344165435745,0.1759180187873612
minwiki,False,51.0,0.10320641282565131,0.7463768115942029,0.8325531148721642,0.16525110782865585,0.18133802816901406
minwiki,False,52.0,0.10607621009268794,0.7463768115942029,0.8374144760532949,0.1602658788774003,0.18575293056807932
minwiki,False,53.0,0.10876451953537487,0.7463768115942029,0.8417356859920778,0.15583456425406203,0.18986175115207374
minwiki,False,54.0,0.11003236245954692,0.7391304347826086,0.8449765934461649,0.15232644017725258,0.19154929577464785
minwiki,False,55.0,0.1111111111111111,0.7318840579710145,0.8478574000720202,0.14918759231905465,0.1929321872015282
minwiki,False,56.0,0.11412429378531073,0.7318840579710145,0.852178610010803,0.1447562776957164,0.19745845552297164
minwiki,False,57.0,0.11560693641618497,0.7246376811594203,0.8554195174648902,0.14124815361890694,0.19940179461615154
minwiki,False,58.0,0.1179245283018868,0.7246376811594203,0.8584803745048614,0.138109305760709,0.2028397565922921
minwiki,False,59.0,0.12121212121212122,0.7246376811594203,0.8626215340295282,0.13386262924667652,0.20768431983385255
minwiki,False,60.0,0.12391573729863693,0.7246376811594203,0.8658624414836155,0.13053914327917282,0.21164021164021163
minwiki,False,61.0,0.1272264631043257,0.7246376811594203,0.8696435001800504,0.12666174298375185,0.21645021645021645
minwiki,False,62.0,0.1297016861219196,0.7246376811594203,0.8723442563917897,0.12389217134416544,0.22002200220022003
minwiki,False,63.0,0.13164893617021275,0.717391304347826,0.8754051134317609,0.12056868537666174,0.22247191011235953
minwiki,False,64.0,0.1307277628032345,0.7028985507246377,0.8764854159164566,0.11909158050221566,0.22045454545454546
minwiki,False,65.0,0.13194444444444445,0.6884057971014492,0.8797263233705438,0.11539881831610044,0.22144522144522147
minwiki,False,66.0,0.13352272727272727,0.6811594202898551,0.8822470291681671,0.11262924667651403,0.22327790973871733
minwiki,False,67.0,0.13576642335766423,0.6739130434782609,0.8853078862081383,0.10930576070901034,0.22600243013365737
minwiki,False,68.0,0.13818722139673106,0.6739130434782609,0.8874684911775297,0.10709010339734121,0.22934648581997535
minwiki,False,69.0,0.1415525114155251,0.6739130434782609,0.8903492978033849,0.10413589364844904,0.2339622641509434
minwiki,False,70.0,0.14556962025316456,0.6666666666666666,0.8944904573280519,0.09970457902511078,0.23896103896103896
minwiki,False,71.0,0.14893617021276595,0.6594202898550725,0.897911415196255,0.09601181683899557,0.24299065420560748
minwiki,False,72.0,0.1505922165820643,0.644927536231884,0.9007922218221102,0.09268833087149188,0.24417009602194786
minwiki,False,73.0,0.15236427320490367,0.6304347826086957,0.9036730284479654,0.08936484490398819,0.24541607898448517
minwiki,False,74.0,0.15636363636363637,0.6231884057971014,0.9070939863161686,0.08567208271787297,0.25
minwiki,False,75.0,0.164,0.5942028985507246,0.9146561037090385,0.07717872968980798,0.25705329153605017
minwiki,False,76.0,0.16772823779193205,0.572463768115942,0.9187972632337055,0.0723781388478582,0.2594417077175698
minwiki,False,77.0,0.17607223476297967,0.5652173913043478,0.9234785740007202,0.06739290989660265,0.2685025817555938
minwiki,False,78.0,0.17798594847775176,0.5507246376811594,0.9256391789701116,0.064807976366322,0.26902654867256637
minwiki,False,79.0,0.1884422110552764,0.5434782608695652,0.9305005401512424,0.05963810930576071,0.27985074626865675
minwiki,False,80.0,0.19623655913978494,0.5289855072463768,0.9344616492617933,0.055206794682422455,0.2862745098039216
minwiki,False,81.0,0.19658119658119658,0.5,0.9368023046453007,0.05206794682422452,0.2822085889570552
minwiki,False,82.0,0.20303030303030303,0.4855072463768116,0.9398631616852718,0.04855982274741507,0.2863247863247863
minwiki,False,83.0,0.22,0.4782608695652174,0.9449045732805186,0.043205317577548,0.30136986301369867
minwiki,False,84.0,0.23048327137546468,0.4492753623188406,0.9490457328051854,0.03822008862629247,0.3046683046683047
minwiki,False,85.0,0.23868312757201646,0.42028985507246375,0.9522866402592726,0.03415805022156573,0.3044619422572178
minwiki,False,86.0,0.24537037037037038,0.38405797101449274,0.9553474972992438,0.030096011816838995,0.2994350282485876
minwiki,False,87.0,0.2702702702702703,0.36231884057971014,0.9598487576521426,0.024926144756277694,0.30959752321981426
minwiki,False,88.0,0.3076923076923077,0.34782608695652173,0.9643500180050414,0.019940915805022157,0.32653061224489793
minwiki,False,89.0,0.32,0.2898550724637681,0.9670507742167807,0.01569423929098966,0.3041825095057034
minwiki,False,90.0,0.3473684210526316,0.2391304347826087,0.969931580842636,0.011447562776957163,0.2832618025751073
minwiki,False,91.0,0.34210526315789475,0.18840579710144928,0.9708318329132157,0.009231905465288036,0.24299065420560748
minwiki,False,92.0,0.3548387096774194,0.15942028985507245,0.9719121353979114,0.007385524372230428,0.22000000000000003
minwiki,False,93.0,0.28205128205128205,0.07971014492753623,0.9720921858120274,0.0051698670605613,0.12429378531073444
minwiki,False,94.0,0.32,0.057971014492753624,0.973532589124955,0.003138847858197932,0.09815950920245399
minwiki,False,95.0,0.4117647058823529,0.050724637681159424,0.9746128916096507,0.001846381093057607,0.0903225806451613
minwiki,False,96.0,0.5,0.043478260869565216,0.9751530428519986,0.0011078286558345643,0.08
minwiki,False,97.0,0.42857142857142855,0.021739130434782608,0.9749729924378826,0.0007385524372230429,0.041379310344827586
minwiki,False,98.0,0.75,0.021739130434782608,0.9755131436802305,0.00018463810930576072,0.04225352112676056
minwiki,False,99.0,0.6666666666666666,0.014492753623188406,0.9753330932661145,0.00018463810930576072,0.028368794326241138
