wiki_db,user_is_anonymous_or_bot,threshold,precision,recall,accuracy,fpr,F1
ndswiki,True,0.0,0.49044585987261147,1.0,0.49044585987261147,1.0,0.6581196581196581
ndswiki,True,1.0,0.49044585987261147,1.0,0.49044585987261147,1.0,0.6581196581196581
ndswiki,True,2.0,0.49044585987261147,1.0,0.49044585987261147,1.0,0.6581196581196581
ndswiki,True,3.0,0.49044585987261147,1.0,0.49044585987261147,1.0,0.6581196581196581
ndswiki,True,4.0,0.49044585987261147,1.0,0.49044585987261147,1.0,0.6581196581196581
ndswiki,True,5.0,0.49044585987261147,1.0,0.49044585987261147,1.0,0.6581196581196581
ndswiki,True,6.0,0.49044585987261147,1.0,0.49044585987261147,1.0,0.6581196581196581
ndswiki,True,7.0,0.49044585987261147,1.0,0.49044585987261147,1.0,0.6581196581196581
ndswiki,True,8.0,0.49044585987261147,1.0,0.49044585987261147,1.0,0.6581196581196581
ndswiki,True,9.0,0.4935897435897436,1.0,0.4968152866242038,0.9875,0.6609442060085837
ndswiki,True,10.0,0.4935897435897436,1.0,0.4968152866242038,0.9875,0.6609442060085837
ndswiki,True,11.0,0.4935897435897436,1.0,0.4968152866242038,0.9875,0.6609442060085837
ndswiki,True,12.0,0.4935897435897436,1.0,0.4968152866242038,0.9875,0.6609442060085837
ndswiki,True,13.0,0.4935897435897436,1.0,0.4968152866242038,0.9875,0.6609442060085837
ndswiki,True,14.0,0.4967741935483871,1.0,0.5031847133757962,0.975,0.6637931034482758
ndswiki,True,15.0,0.4967741935483871,1.0,0.5031847133757962,0.975,0.6637931034482758
ndswiki,True,16.0,0.4967741935483871,1.0,0.5031847133757962,0.975,0.6637931034482758
ndswiki,True,17.0,0.4967741935483871,1.0,0.5031847133757962,0.975,0.6637931034482758
ndswiki,True,18.0,0.4967741935483871,1.0,0.5031847133757962,0.975,0.6637931034482758
ndswiki,True,19.0,0.4967741935483871,1.0,0.5031847133757962,0.975,0.6637931034482758
ndswiki,True,20.0,0.4967741935483871,1.0,0.5031847133757962,0.975,0.6637931034482758
ndswiki,True,21.0,0.4967741935483871,1.0,0.5031847133757962,0.975,0.6637931034482758
ndswiki,True,22.0,0.4967741935483871,1.0,0.5031847133757962,0.975,0.6637931034482758
ndswiki,True,23.0,0.4967741935483871,1.0,0.5031847133757962,0.975,0.6637931034482758
ndswiki,True,24.0,0.4967741935483871,1.0,0.5031847133757962,0.975,0.6637931034482758
ndswiki,True,25.0,0.4967741935483871,1.0,0.5031847133757962,0.975,0.6637931034482758
ndswiki,True,26.0,0.4967741935483871,1.0,0.5031847133757962,0.975,0.6637931034482758
ndswiki,True,27.0,0.4967741935483871,1.0,0.5031847133757962,0.975,0.6637931034482758
ndswiki,True,28.0,0.4967741935483871,1.0,0.5031847133757962,0.975,0.6637931034482758
ndswiki,True,29.0,0.4967741935483871,1.0,0.5031847133757962,0.975,0.6637931034482758
ndswiki,True,30.0,0.4967741935483871,1.0,0.5031847133757962,0.975,0.6637931034482758
ndswiki,True,31.0,0.4967741935483871,1.0,0.5031847133757962,0.975,0.6637931034482758
ndswiki,True,32.0,0.4967741935483871,1.0,0.5031847133757962,0.975,0.6637931034482758
ndswiki,True,33.0,0.5032679738562091,1.0,0.5159235668789809,0.95,0.6695652173913044
ndswiki,True,34.0,0.506578947368421,1.0,0.5222929936305732,0.9375,0.6724890829694323
ndswiki,True,35.0,0.506578947368421,1.0,0.5222929936305732,0.9375,0.6724890829694323
ndswiki,True,36.0,0.506578947368421,1.0,0.5222929936305732,0.9375,0.6724890829694323
ndswiki,True,37.0,0.506578947368421,1.0,0.5222929936305732,0.9375,0.6724890829694323
ndswiki,True,38.0,0.506578947368421,1.0,0.5222929936305732,0.9375,0.6724890829694323
ndswiki,True,39.0,0.506578947368421,1.0,0.5222929936305732,0.9375,0.6724890829694323
ndswiki,True,40.0,0.506578947368421,1.0,0.5222929936305732,0.9375,0.6724890829694323
ndswiki,True,41.0,0.5099337748344371,1.0,0.5286624203821656,0.925,0.6754385964912281
ndswiki,True,42.0,0.5133333333333333,1.0,0.535031847133758,0.9125,0.6784140969162996
ndswiki,True,43.0,0.5133333333333333,1.0,0.535031847133758,0.9125,0.6784140969162996
ndswiki,True,44.0,0.5133333333333333,1.0,0.535031847133758,0.9125,0.6784140969162996
ndswiki,True,45.0,0.5167785234899329,1.0,0.5414012738853503,0.9,0.6814159292035399
ndswiki,True,46.0,0.5167785234899329,1.0,0.5414012738853503,0.9,0.6814159292035399
ndswiki,True,47.0,0.5167785234899329,1.0,0.5414012738853503,0.9,0.6814159292035399
ndswiki,True,48.0,0.5167785234899329,1.0,0.5414012738853503,0.9,0.6814159292035399
ndswiki,True,49.0,0.5167785234899329,1.0,0.5414012738853503,0.9,0.6814159292035399
ndswiki,True,50.0,0.5167785234899329,1.0,0.5414012738853503,0.9,0.6814159292035399
ndswiki,True,51.0,0.5167785234899329,1.0,0.5414012738853503,0.9,0.6814159292035399
ndswiki,True,52.0,0.5202702702702703,1.0,0.5477707006369427,0.8875,0.6844444444444445
ndswiki,True,53.0,0.5202702702702703,1.0,0.5477707006369427,0.8875,0.6844444444444445
ndswiki,True,54.0,0.5170068027210885,0.987012987012987,0.5414012738853503,0.8875,0.6785714285714286
ndswiki,True,55.0,0.5205479452054794,0.987012987012987,0.5477707006369427,0.875,0.6816143497757847
ndswiki,True,56.0,0.5205479452054794,0.987012987012987,0.5477707006369427,0.875,0.6816143497757847
ndswiki,True,57.0,0.5241379310344828,0.987012987012987,0.554140127388535,0.8625,0.6846846846846847
ndswiki,True,58.0,0.5277777777777778,0.987012987012987,0.5605095541401274,0.85,0.6877828054298643
ndswiki,True,59.0,0.5277777777777778,0.987012987012987,0.5605095541401274,0.85,0.6877828054298643
ndswiki,True,60.0,0.5314685314685315,0.987012987012987,0.5668789808917197,0.8375,0.6909090909090909
ndswiki,True,61.0,0.5314685314685315,0.987012987012987,0.5668789808917197,0.8375,0.6909090909090909
ndswiki,True,62.0,0.5314685314685315,0.987012987012987,0.5668789808917197,0.8375,0.6909090909090909
ndswiki,True,63.0,0.5314685314685315,0.987012987012987,0.5668789808917197,0.8375,0.6909090909090909
ndswiki,True,64.0,0.5352112676056338,0.987012987012987,0.5732484076433121,0.825,0.6940639269406392
ndswiki,True,65.0,0.5428571428571428,0.987012987012987,0.5859872611464968,0.8,0.7004608294930875
ndswiki,True,66.0,0.5467625899280576,0.987012987012987,0.5923566878980892,0.7875,0.7037037037037037
ndswiki,True,67.0,0.5467625899280576,0.987012987012987,0.5923566878980892,0.7875,0.7037037037037037
ndswiki,True,68.0,0.5467625899280576,0.987012987012987,0.5923566878980892,0.7875,0.7037037037037037
ndswiki,True,69.0,0.5474452554744526,0.974025974025974,0.5923566878980892,0.775,0.7009345794392522
ndswiki,True,70.0,0.5474452554744526,0.974025974025974,0.5923566878980892,0.775,0.7009345794392522
ndswiki,True,71.0,0.5474452554744526,0.974025974025974,0.5923566878980892,0.775,0.7009345794392522
ndswiki,True,72.0,0.5474452554744526,0.974025974025974,0.5923566878980892,0.775,0.7009345794392522
ndswiki,True,73.0,0.5474452554744526,0.974025974025974,0.5923566878980892,0.775,0.7009345794392522
ndswiki,True,74.0,0.5488721804511278,0.948051948051948,0.5923566878980892,0.75,0.6952380952380953
ndswiki,True,75.0,0.5538461538461539,0.935064935064935,0.5987261146496815,0.725,0.6956521739130435
ndswiki,True,76.0,0.5511811023622047,0.9090909090909091,0.5923566878980892,0.7125,0.6862745098039216
ndswiki,True,77.0,0.5483870967741935,0.8831168831168831,0.5859872611464968,0.7,0.6766169154228856
ndswiki,True,78.0,0.5491803278688525,0.8701298701298701,0.5859872611464968,0.6875,0.6733668341708543
ndswiki,True,79.0,0.5454545454545454,0.8571428571428571,0.5796178343949044,0.6875,0.6666666666666665
ndswiki,True,80.0,0.5470085470085471,0.8311688311688312,0.5796178343949044,0.6625,0.6597938144329897
ndswiki,True,81.0,0.5486725663716814,0.8051948051948052,0.5796178343949044,0.6375,0.6526315789473685
ndswiki,True,82.0,0.5535714285714286,0.8051948051948052,0.5859872611464968,0.625,0.656084656084656
ndswiki,True,83.0,0.5566037735849056,0.7662337662337663,0.5859872611464968,0.5875,0.644808743169399
ndswiki,True,84.0,0.5588235294117647,0.7402597402597403,0.5859872611464968,0.5625,0.6368715083798882
ndswiki,True,85.0,0.5463917525773195,0.6883116883116883,0.5668789808917197,0.55,0.6091954022988505
ndswiki,True,86.0,0.5444444444444444,0.6363636363636364,0.5605095541401274,0.5125,0.5868263473053892
ndswiki,True,87.0,0.5529411764705883,0.6103896103896104,0.5668789808917197,0.475,0.580246913580247
ndswiki,True,88.0,0.5822784810126582,0.5974025974025974,0.5923566878980892,0.4125,0.5897435897435898
ndswiki,True,89.0,0.5915492957746479,0.5454545454545454,0.5923566878980892,0.3625,0.5675675675675675
ndswiki,True,90.0,0.6229508196721312,0.4935064935064935,0.6050955414012739,0.2875,0.5507246376811594
ndswiki,True,91.0,0.6551724137931034,0.4935064935064935,0.6242038216560509,0.25,0.562962962962963
ndswiki,True,92.0,0.6545454545454545,0.4675324675324675,0.6178343949044586,0.2375,0.5454545454545454
ndswiki,True,93.0,0.7083333333333334,0.44155844155844154,0.6369426751592356,0.175,0.5439999999999999
ndswiki,True,94.0,0.7441860465116279,0.4155844155844156,0.643312101910828,0.1375,0.5333333333333332
ndswiki,True,95.0,0.7894736842105263,0.38961038961038963,0.6496815286624203,0.1,0.5217391304347826
ndswiki,True,96.0,0.78125,0.3246753246753247,0.6242038216560509,0.0875,0.4587155963302752
ndswiki,True,97.0,0.782608695652174,0.23376623376623376,0.5923566878980892,0.0625,0.36
ndswiki,True,98.0,0.8,0.15584415584415584,0.5668789808917197,0.0375,0.2608695652173913
ndswiki,True,99.0,0.7777777777777778,0.09090909090909091,0.5414012738853503,0.025,0.1627906976744186
ndswiki,False,0.0,0.06302757456387169,1.0,0.06302757456387169,1.0,0.1185812599258867
ndswiki,False,1.0,0.06302757456387169,1.0,0.06302757456387169,1.0,0.1185812599258867
ndswiki,False,2.0,0.06313416009019165,1.0,0.06471581316826111,0.9981981981981982,0.11876988335100742
ndswiki,False,3.0,0.06360022714366836,1.0,0.07203151378728194,0.9903903903903903,0.11959423384943939
ndswiki,False,4.0,0.06492753623188406,1.0,0.09229037703995498,0.9687687687687687,0.12193794229722375
ndswiki,False,5.0,0.0665083135391924,1.0,0.11536297129994373,0.9441441441441442,0.12472160356347439
ndswiki,False,6.0,0.06965174129353234,1.0,0.15813168261114238,0.8984984984984985,0.1302325581395349
ndswiki,False,7.0,0.07272727272727272,1.0,0.1963984243106359,0.8576576576576577,0.13559322033898305
ndswiki,False,8.0,0.07582938388625593,1.0,0.23185143500281374,0.8198198198198198,0.14096916299559473
ndswiki,False,9.0,0.07934238741958542,0.9910714285714286,0.2746201463140124,0.7735735735735736,0.1469225678358703
ndswiki,False,10.0,0.0835214446952596,0.9910714285714286,0.3140123804164322,0.7315315315315315,0.15405968077723803
ndswiki,False,11.0,0.08485329103885805,0.9553571428571429,0.3477771525042206,0.6930930930930931,0.15586307356154405
ndswiki,False,12.0,0.08724279835390947,0.9464285714285714,0.3725379853685988,0.6660660660660661,0.15975885455915598
ndswiki,False,13.0,0.08959044368600683,0.9375,0.39561057962858753,0.6408408408408408,0.16355140186915887
ndswiki,False,14.0,0.09316770186335403,0.9375,0.4209341586944288,0.6138138138138138,0.16949152542372878
ndswiki,False,15.0,0.09497716894977169,0.9285714285714286,0.43781654473832304,0.5951951951951951,0.1723280861640431
ndswiki,False,16.0,0.09689557855126998,0.9196428571428571,0.45469893078221724,0.5765765765765766,0.1753191489361702
ndswiki,False,17.0,0.09903846153846153,0.9196428571428571,0.46764209341586943,0.5627627627627627,0.17881944444444445
ndswiki,False,18.0,0.10137795275590551,0.9196428571428571,0.4811480022509848,0.5483483483483483,0.18262411347517732
ndswiki,False,19.0,0.10520939734422881,0.9196428571428571,0.501969611705121,0.5261261261261261,0.18881759853345553
ndswiki,False,20.0,0.10751565762004175,0.9196428571428571,0.5137872819358469,0.5135135135135135,0.1925233644859813
ndswiki,False,21.0,0.11027837259100642,0.9196428571428571,0.5272931907709623,0.4990990990990991,0.19694072657743783
ndswiki,False,22.0,0.11220043572984749,0.9196428571428571,0.5362971299943725,0.4894894894894895,0.19999999999999998
ndswiki,False,23.0,0.11469933184855234,0.9196428571428571,0.5475520540236354,0.4774774774774775,0.20396039603960398
ndswiki,False,24.0,0.11710677382319173,0.9107142857142857,0.5616207090602139,0.46186186186186184,0.20752797558494404
ndswiki,False,25.0,0.1191588785046729,0.9107142857142857,0.5700619020821609,0.45285285285285287,0.21074380165289253
ndswiki,False,26.0,0.12289156626506025,0.9107142857142857,0.5846933033202026,0.43723723723723723,0.21656050955414016
ndswiki,False,27.0,0.12530712530712532,0.9107142857142857,0.5936972425436128,0.4276276276276276,0.22030237580993522
ndswiki,False,28.0,0.12814070351758794,0.9107142857142857,0.6038266741699494,0.4168168168168168,0.22466960352422904
ndswiki,False,29.0,0.13127413127413126,0.9107142857142857,0.614518851997749,0.40540540540540543,0.2294713160854893
ndswiki,False,30.0,0.13385826771653545,0.9107142857142857,0.6229600450196962,0.3963963963963964,0.2334096109839817
ndswiki,False,31.0,0.13520749665327977,0.9017857142857143,0.6302757456387169,0.387987987987988,0.23515715948777646
ndswiki,False,32.0,0.14125874125874127,0.9017857142857143,0.6482836240855374,0.3687687687687688,0.24425634824667472
ndswiki,False,33.0,0.14511494252873564,0.9017857142857143,0.658975801913337,0.35735735735735735,0.25
ndswiki,False,34.0,0.15074626865671642,0.9017857142857143,0.6736072031513787,0.34174174174174177,0.25831202046035806
ndswiki,False,35.0,0.1558641975308642,0.9017857142857143,0.6859876195835678,0.32852852852852854,0.2657894736842105
ndswiki,False,36.0,0.15981012658227847,0.9017857142857143,0.694991558806978,0.31891891891891894,0.27150537634408595
ndswiki,False,37.0,0.16181229773462782,0.8928571428571429,0.7017445132245357,0.3111111111111111,0.273972602739726
ndswiki,False,38.0,0.16722408026755853,0.8928571428571429,0.7129994372537986,0.2990990990990991,0.2816901408450704
ndswiki,False,39.0,0.1718213058419244,0.8928571428571429,0.7220033764772088,0.2894894894894895,0.2881844380403458
ndswiki,False,40.0,0.17543859649122806,0.8928571428571429,0.7287563308947664,0.2822822822822823,0.29325513196480935
ndswiki,False,41.0,0.17953321364452424,0.8928571428571429,0.7360720315137873,0.2744744744744745,0.2989536621823617
ndswiki,False,42.0,0.18518518518518517,0.8928571428571429,0.7456387169386607,0.26426426426426425,0.3067484662576687
ndswiki,False,43.0,0.1893939393939394,0.8928571428571429,0.7523916713562183,0.25705705705705706,0.3125
ndswiki,False,44.0,0.19569471624266144,0.8928571428571429,0.7619583567810917,0.24684684684684685,0.3210272873194221
ndswiki,False,45.0,0.1988071570576541,0.8928571428571429,0.7664603263927968,0.24204204204204205,0.3252032520325204
ndswiki,False,46.0,0.19919517102615694,0.8839285714285714,0.7687113111986494,0.23903903903903903,0.32512315270935954
ndswiki,False,47.0,0.20162932790224034,0.8839285714285714,0.7720877884074282,0.23543543543543544,0.3283582089552239
ndswiki,False,48.0,0.20754716981132076,0.8839285714285714,0.7799662352279122,0.22702702702702704,0.33616298811545
ndswiki,False,49.0,0.21244635193133046,0.8839285714285714,0.7861564434440067,0.22042042042042043,0.34256055363321797
ndswiki,False,50.0,0.21521739130434783,0.8839285714285714,0.7895329206527856,0.2168168168168168,0.34615384615384615
ndswiki,False,51.0,0.21663019693654267,0.8839285714285714,0.7912211592571751,0.21501501501501502,0.34797891036906853
ndswiki,False,52.0,0.2214765100671141,0.8839285714285714,0.7968486212718064,0.209009009009009,0.3542039355992845
ndswiki,False,53.0,0.22580645161290322,0.875,0.803038829487901,0.2018018018018018,0.358974358974359
ndswiki,False,54.0,0.2261072261072261,0.8660714285714286,0.8047270680922903,0.1993993993993994,0.35859519408502777
ndswiki,False,55.0,0.23095238095238096,0.8660714285714286,0.8097917839054586,0.193993993993994,0.36466165413533835
ndswiki,False,56.0,0.23486682808716708,0.8660714285714286,0.8137310073157006,0.1897897897897898,0.36952380952380953
ndswiki,False,57.0,0.23832923832923833,0.8660714285714286,0.8171074845244795,0.18618618618618618,0.3737957610789981
ndswiki,False,58.0,0.24310776942355888,0.8660714285714286,0.8216094541361846,0.18138138138138138,0.37964774951076324
ndswiki,False,59.0,0.24871794871794872,0.8660714285714286,0.8266741699493528,0.17597597597597597,0.38645418326693226
ndswiki,False,60.0,0.25326370757180156,0.8660714285714286,0.8306133933595948,0.17177177177177178,0.3919191919191919
ndswiki,False,61.0,0.2566137566137566,0.8660714285714286,0.8334271243669106,0.16876876876876876,0.39591836734693886
ndswiki,False,62.0,0.26287262872628725,0.8660714285714286,0.8384918401800788,0.16336336336336335,0.4033264033264033
ndswiki,False,63.0,0.26721763085399447,0.8660714285714286,0.8418683173888576,0.15975975975975976,0.40842105263157896
ndswiki,False,64.0,0.27247191011235955,0.8660714285714286,0.8458075407990996,0.15555555555555556,0.4145299145299145
ndswiki,False,65.0,0.27906976744186046,0.8571428571428571,0.851435002813731,0.14894894894894894,0.4210526315789474
ndswiki,False,66.0,0.2857142857142857,0.8571428571428571,0.8559369724254361,0.14414414414414414,0.42857142857142855
ndswiki,False,67.0,0.2891566265060241,0.8571428571428571,0.8581879572312887,0.14174174174174173,0.43243243243243246
ndswiki,False,68.0,0.2896341463414634,0.8482142857142857,0.859313449634215,0.13993993993993994,0.43181818181818177
ndswiki,False,69.0,0.2946708463949843,0.8392857142857143,0.863252673044457,0.13513513513513514,0.43619489559164726
ndswiki,False,70.0,0.3042071197411003,0.8392857142857143,0.8688801350590883,0.12912912912912913,0.44655581947743467
ndswiki,False,71.0,0.3122923588039867,0.8392857142857143,0.8733821046707935,0.12432432432432433,0.4552058111380146
ndswiki,False,72.0,0.3141891891891892,0.8303571428571429,0.8750703432751828,0.12192192192192192,0.4558823529411765
ndswiki,False,73.0,0.3217993079584775,0.8303571428571429,0.8790095666854248,0.11771771771771772,0.4638403990024938
ndswiki,False,74.0,0.32269503546099293,0.8125,0.8806978052898143,0.11471471471471471,0.4619289340101522
ndswiki,False,75.0,0.3284671532846715,0.8035714285714286,0.8840742824985931,0.11051051051051052,0.4663212435233161
ndswiki,False,76.0,0.3411764705882353,0.7767857142857143,0.891389983117614,0.1009009009009009,0.47411444141689374
ndswiki,False,77.0,0.34439834024896265,0.7410714285714286,0.8947664603263928,0.0948948948948949,0.47025495750708224
ndswiki,False,78.0,0.3504273504273504,0.7321428571428571,0.8975801913337085,0.0912912912912913,0.47398843930635837
ndswiki,False,79.0,0.3537117903930131,0.7232142857142857,0.899268429938098,0.08888888888888889,0.47507331378299117
ndswiki,False,80.0,0.3640552995391705,0.7053571428571429,0.9037703995498031,0.08288288288288288,0.48024316109422494
ndswiki,False,81.0,0.37373737373737376,0.6607142857142857,0.9088351153629713,0.07447447447447447,0.4774193548387097
ndswiki,False,82.0,0.387434554973822,0.6607142857142857,0.9127743387732132,0.07027027027027027,0.4884488448844884
ndswiki,False,83.0,0.40229885057471265,0.625,0.9178390545863815,0.06246246246246246,0.4895104895104895
ndswiki,False,84.0,0.422360248447205,0.6071428571428571,0.9229037703995498,0.055855855855855854,0.4981684981684981
ndswiki,False,85.0,0.43661971830985913,0.5535714285714286,0.9268429938097917,0.04804804804804805,0.4881889763779527
ndswiki,False,86.0,0.4453125,0.5089285714285714,0.9290939786156444,0.04264264264264264,0.475
ndswiki,False,87.0,0.4576271186440678,0.48214285714285715,0.9313449634214969,0.03843843843843844,0.46956521739130436
ndswiki,False,88.0,0.4818181818181818,0.4732142857142857,0.9347214406302757,0.03423423423423423,0.47747747747747743
ndswiki,False,89.0,0.5053763440860215,0.41964285714285715,0.9375351716375915,0.02762762762762763,0.4585365853658537
ndswiki,False,90.0,0.5316455696202531,0.375,0.939786156443444,0.022222222222222223,0.43979057591623033
ndswiki,False,91.0,0.5753424657534246,0.375,0.9431626336522229,0.018618618618618618,0.454054054054054
ndswiki,False,92.0,0.582089552238806,0.3482142857142857,0.9431626336522229,0.016816816816816817,0.4357541899441341
ndswiki,False,93.0,0.6271186440677966,0.33035714285714285,0.9454136184580754,0.013213213213213212,0.4327485380116958
ndswiki,False,94.0,0.7,0.3125,0.9482273494653911,0.009009009009009009,0.4320987654320988
ndswiki,False,95.0,0.7948717948717948,0.2767857142857143,0.9499155880697805,0.004804804804804805,0.4105960264900662
ndswiki,False,96.0,0.7878787878787878,0.23214285714285715,0.947664603263928,0.004204204204204204,0.3586206896551724
ndswiki,False,97.0,0.782608695652174,0.16071428571428573,0.9442881260551491,0.003003003003003003,0.2666666666666667
ndswiki,False,98.0,0.8,0.10714285714285714,0.9420371412492966,0.0018018018018018018,0.1889763779527559
ndswiki,False,99.0,0.7777777777777778,0.0625,0.939786156443444,0.0012012012012012011,0.11570247933884298
