wiki_db,user_is_anonymous_or_bot,threshold,precision,recall,accuracy,fpr,F1
newiki,True,0.0,0.043094160741219564,1.0,0.043094160741219564,1.0,0.08262755629002272
newiki,True,1.0,0.043094160741219564,1.0,0.043094160741219564,1.0,0.08262755629002272
newiki,True,2.0,0.043094160741219564,1.0,0.043094160741219564,1.0,0.08262755629002272
newiki,True,3.0,0.043094160741219564,1.0,0.043094160741219564,1.0,0.08262755629002272
newiki,True,4.0,0.043215211754537596,1.0,0.04589528118939883,0.9970727313668093,0.0828500414250207
newiki,True,5.0,0.043756906077348064,0.99,0.06722689075630252,0.9743301058320198,0.08380952380952379
newiki,True,6.0,0.045612410280157445,0.985,0.11118293471234647,0.9281693312317045,0.08718743084753264
newiki,True,7.0,0.04938271604938271,0.98,0.18616677440206852,0.849583427156046,0.09402734468697528
newiki,True,8.0,0.050927135022199005,0.975,0.21590174531351003,0.8182841702319298,0.0967982129560685
newiki,True,9.0,0.0521785906401291,0.97,0.2393880629174747,0.7935149741049313,0.09903011740684023
newiki,True,10.0,0.05248769819573537,0.96,0.25145442792501616,0.7804548525106958,0.09953343701399688
newiki,True,11.0,0.052398114776822845,0.945,0.2611506140917906,0.7696464760189147,0.09929078014184398
newiki,True,12.0,0.05289672544080604,0.945,0.2684766214177979,0.7619905426705696,0.10018552875695733
newiki,True,13.0,0.053480475382003394,0.945,0.2768799827623357,0.7532087367709975,0.10123192287091591
newiki,True,14.0,0.053830817430931356,0.945,0.28183581124757595,0.7480297230353524,0.10185933710590137
newiki,True,15.0,0.05391453971895612,0.94,0.2865761689291101,0.7428507092997073,0.10197992948196366
newiki,True,16.0,0.05430387059503177,0.94,0.29196293902176257,0.7372213465435713,0.10267613326051338
newiki,True,17.0,0.05465116279069768,0.94,0.2967032967032967,0.7322675073181716,0.1032967032967033
newiki,True,18.0,0.05509964830011723,0.94,0.3027364792070674,0.7259626210312993,0.10409745293466223
newiki,True,19.0,0.05555555555555555,0.94,0.3087696617108382,0.719657734744427,0.10491071428571429
newiki,True,20.0,0.0558858501783591,0.94,0.31307907778496014,0.7151542445395181,0.10549943883277217
newiki,True,21.0,0.05608591885441527,0.94,0.3156647274294333,0.7124521504165728,0.10585585585585586
newiki,True,22.0,0.056253740275284264,0.94,0.31781943546649427,0.7102004053141184,0.10615471485036702
newiki,True,23.0,0.05635491606714628,0.94,0.31911226028873085,0.7088493582526458,0.10633484162895927
newiki,True,24.0,0.056405640564056406,0.94,0.31975867269984914,0.7081738347219095,0.10642513444664592
newiki,True,25.0,0.05650736399158401,0.94,0.3210514975220858,0.7068227876604368,0.10660618089027502
newiki,True,26.0,0.05660945498343872,0.94,0.32234432234432236,0.7054717405989642,0.10678784436239704
newiki,True,27.0,0.056729028364514184,0.94,0.32385261797026504,0.7038955190272461,0.10700056915196357
newiki,True,28.0,0.05674615152429822,0.94,0.32406808877397114,0.7036703445170007,0.10703102761172786
newiki,True,29.0,0.056831922611850064,0.94,0.3251454427925016,0.7025444719657735,0.10718358038768529
newiki,True,30.0,0.056917953375719046,0.94,0.3262227968110321,0.7014185994145463,0.10733656865543821
newiki,True,31.0,0.057056145675265554,0.94,0.3279465632406809,0.6996172033325827,0.10758226037195995
newiki,True,32.0,0.05709079866383237,0.94,0.3283775048480931,0.6991668543120919,0.10764385914686515
newiki,True,33.0,0.05714285714285714,0.94,0.3290239172592114,0.6984913307813555,0.10773638968481375
newiki,True,34.0,0.0571950106480073,0.94,0.32967032967032966,0.6978158072506192,0.10782907943791226
newiki,True,35.0,0.05722983257229833,0.94,0.33010127127774186,0.6973654582301283,0.10789096126255382
newiki,True,36.0,0.05722983257229833,0.94,0.33010127127774186,0.6973654582301283,0.10789096126255382
newiki,True,37.0,0.05735204392922514,0.94,0.33160956690368454,0.6957892366584103,0.10810810810810811
newiki,True,38.0,0.05750994187825023,0.94,0.3335488041370394,0.6937626660662013,0.10838858460651485
newiki,True,39.0,0.05761569108182654,0.94,0.334841628959276,0.6924116190047287,0.10857637886225817
newiki,True,40.0,0.05768640687327401,0.94,0.3357035121741004,0.6915109209637469,0.10870193697600464
newiki,True,41.0,0.057467732022126614,0.935,0.33634992458521873,0.6906102229227652,0.10828025477707005
newiki,True,42.0,0.05757389162561576,0.935,0.3376427494074553,0.6892591758612925,0.10846867749419953
newiki,True,43.0,0.05738969453872261,0.93,0.3387201034259858,0.6879081287998199,0.1081081081081081
newiki,True,44.0,0.05749613601236476,0.93,0.3400129282482224,0.6865570817383472,0.10829694323144104
newiki,True,45.0,0.057692307692307696,0.93,0.34238310708898945,0.6840801621256474,0.10864485981308412
newiki,True,46.0,0.057799875699192045,0.93,0.34367593191122603,0.6827291150641748,0.1088355763604447
newiki,True,47.0,0.05805243445692884,0.93,0.3466925231631114,0.6795766719207386,0.10928319623971798
newiki,True,48.0,0.05819774718397998,0.93,0.34841628959276016,0.6777752758387751,0.10954063604240283
newiki,True,49.0,0.05841708542713568,0.93,0.35100193923723333,0.6750731817158298,0.10992907801418442
newiki,True,50.0,0.05826771653543307,0.925,0.35251023486317606,0.6732717856338662,0.10962962962962963
newiki,True,51.0,0.05843335439039798,0.925,0.35444947209653094,0.6712452150416572,0.10992275698158051
newiki,True,52.0,0.05865567533291059,0.925,0.3570351217410041,0.668543120918712,0.11031604054859868
newiki,True,53.0,0.058505564387917326,0.92,0.3585434173669468,0.6667417248367484,0.11001494768310911
newiki,True,54.0,0.058823529411764705,0.92,0.36220642102995043,0.662913758162576,0.11057692307692309
newiki,True,55.0,0.059031119666345847,0.92,0.3645765998707175,0.6604368385498761,0.11094362375640639
newiki,True,56.0,0.058842443729903535,0.915,0.365653953889248,0.6590857914884035,0.1105740181268882
newiki,True,57.0,0.0590513068731849,0.915,0.3680241327300151,0.6566088718757037,0.11094270991209457
newiki,True,58.0,0.0593192868719611,0.915,0.37104072398190047,0.6534564287322675,0.11141552511415526
newiki,True,59.0,0.059092393078681034,0.905,0.3749191984486102,0.6489529385273587,0.11094085197670855
newiki,True,60.0,0.05940269117164424,0.905,0.37836673130790777,0.6453501463634317,0.11148752694795196
newiki,True,61.0,0.05942555298778475,0.9,0.3818142641672053,0.6415221796892592,0.11148962527098173
newiki,True,62.0,0.05964214711729622,0.9,0.38418444300797244,0.6390452600765594,0.11187072715972654
newiki,True,63.0,0.05998000666444518,0.9,0.3878474466709761,0.6352172934023869,0.11246485473289597
newiki,True,64.0,0.06050420168067227,0.9,0.3934496875673346,0.6293627561360055,0.11338582677165354
newiki,True,65.0,0.06076975016880486,0.9,0.3962508080155139,0.6264354875028146,0.11385199240986718
newiki,True,66.0,0.061016949152542375,0.9,0.3988364576599871,0.6237333933798694,0.11428571428571428
newiki,True,67.0,0.061224489795918366,0.9,0.40099116569704807,0.621481648277415,0.11464968152866242
newiki,True,68.0,0.06125941136208077,0.895,0.4044386985563456,0.6176536816032425,0.11467008327994874
newiki,True,69.0,0.061506565307532825,0.89,0.41004093945270415,0.6115739698266156,0.11506140917905625
newiki,True,70.0,0.06169397002439875,0.885,0.41499676793794443,0.6061697815807251,0.11534701857282502
newiki,True,71.0,0.06128918633321592,0.87,0.42016806722689076,0.6000900698040982,0.11451135241855875
newiki,True,72.0,0.060767590618336885,0.855,0.4242620124973066,0.5951362305786985,0.11347047113470471
newiki,True,73.0,0.060866451843895455,0.85,0.42835595776772245,0.5906327403737897,0.11359839625793518
newiki,True,74.0,0.06134969325153374,0.85,0.43309631544925664,0.58567890114839,0.1144395826321104
newiki,True,75.0,0.062111801242236024,0.85,0.44042232277526394,0.578022967800045,0.11576438542730677
newiki,True,76.0,0.06092124814264487,0.82,0.4475328592975652,0.5692411619004729,0.11341632088520054
newiki,True,77.0,0.0613012410680707,0.815,0.4542124542124542,0.5620355775726188,0.11402588317593565
newiki,True,78.0,0.060629316960859554,0.79,0.46347769877181644,0.5512272010808377,0.11261582323592301
newiki,True,79.0,0.060795011691348405,0.78,0.47123464770523593,0.542670569691511,0.11279826464208244
newiki,True,80.0,0.061086870289567635,0.77,0.48006895065718597,0.532988065750957,0.11319367879456083
newiki,True,81.0,0.0615071283095723,0.755,0.49299719887955185,0.5188020716054943,0.11374764595103577
newiki,True,82.0,0.061795407098121084,0.74,0.5046326222796811,0.5059671245215042,0.11406551059730251
newiki,True,83.0,0.06135492117596932,0.72,0.513251454427925,0.4960594460707048,0.11307420494699646
newiki,True,84.0,0.059163701067615655,0.665,0.5298427063132946,0.47624408916910604,0.10866013071895424
newiki,True,85.0,0.05865921787709497,0.63,0.548373195432019,0.4553028597162801,0.10732538330494039
newiki,True,86.0,0.059745347698334964,0.61,0.5694893341952165,0.4323350596712452,0.10883140053523639
newiki,True,87.0,0.0583637311099531,0.56,0.5916828269769446,0.4068903400135105,0.10571024067956583
newiki,True,88.0,0.059293044469783354,0.52,0.6237879767291532,0.37153794190497635,0.10644831115660185
newiki,True,89.0,0.061548223350253804,0.485,0.6591251885369532,0.33303310065300606,0.10923423423423423
newiki,True,90.0,0.06608569353667393,0.455,0.6994182288299935,0.2895744201756361,0.11540900443880787
newiki,True,91.0,0.07033898305084746,0.415,0.7384184443007973,0.24701643773924792,0.12028985507246377
newiki,True,92.0,0.07863974495217853,0.37,0.7860374919198448,0.19522630038279667,0.12971078001752848
newiki,True,93.0,0.07981927710843373,0.265,0.8366731307907779,0.13758162575996397,0.12268518518518519
newiki,True,94.0,0.10975609756097561,0.225,0.8879551820728291,0.08218869623958568,0.14754098360655737
newiki,True,95.0,0.14912280701754385,0.17,0.9224305106658048,0.0436838549876154,0.15887850467289721
newiki,True,96.0,0.21100917431192662,0.115,0.9433311786252963,0.019365007881107857,0.1488673139158576
newiki,True,97.0,0.2777777777777778,0.075,0.951734539969834,0.008781805899572169,0.11811023622047243
newiki,True,98.0,0.40625,0.065,0.9556130144365439,0.004278315694663364,0.11206896551724138
newiki,True,99.0,0.5454545454545454,0.03,0.9571213100624866,0.001125872551227201,0.056872037914691934
newiki,False,0.0,0.02789925269858843,1.0,0.02789925269858843,1.0,0.05428402175669126
newiki,False,1.0,0.02789925269858843,1.0,0.02789925269858843,1.0,0.05428402175669126
newiki,False,2.0,0.028096777790166127,1.0,0.03492942153335179,0.9927680655999089,0.05465784622058344
newiki,False,3.0,0.02865101472343812,1.0,0.054137835593689454,0.9730083708217072,0.05570599613152804
newiki,False,4.0,0.0290883704694863,0.9920634920634921,0.07594796567949073,0.950344513410398,0.05651952749675013
newiki,False,5.0,0.02992968327423523,0.9880952380952381,0.10617215610296153,0.9191390011958317,0.05809951583736801
newiki,False,6.0,0.031145996860282573,0.9841269841269841,0.1454746747854968,0.8785946130630374,0.06038103353825552
newiki,False,7.0,0.03263108925367183,0.9742063492063492,0.1935233877663991,0.8288821821080804,0.06314706449745996
newiki,False,8.0,0.033714880332986474,0.9642857142857143,0.22795460835870468,0.7931780650304653,0.06515181982706617
newiki,False,9.0,0.03488708743485813,0.9563492063492064,0.2606698034874066,0.7592961676442116,0.06731843575418994
newiki,False,10.0,0.03612095618731619,0.9503968253968254,0.2910600608912261,0.727862877968225,0.06959680348710498
newiki,False,11.0,0.037120798565078376,0.9444444444444444,0.31497370606144476,0.7030920790387791,0.0714339311172807
newiki,False,12.0,0.038039974210186976,0.9365079365079365,0.3375034597287573,0.6796879448778543,0.07311028500619579
newiki,False,13.0,0.03865700241606265,0.9206349206349206,0.3590368115139773,0.6570810318319003,0.07419844886863357
newiki,False,14.0,0.03932729624838292,0.9047619047619048,0.38073623027954606,0.634303285689881,0.07537813042400199
newiki,False,15.0,0.040371561271882815,0.8968253968253969,0.4023802933849986,0.611810261374637,0.07726495726495726
newiki,False,16.0,0.04146273894173054,0.8908730158730159,0.4223636866869637,0.5910825123853994,0.0792376246360187
newiki,False,17.0,0.042536957558416785,0.8849206349206349,0.44107389980625517,0.5716644837993281,0.08117208117208118
newiki,False,18.0,0.04355967280969745,0.876984126984127,0.45934126764461664,0.552645065770742,0.08299690169937095
newiki,False,19.0,0.045013779728488315,0.875,0.4786050373650706,0.5327714822618302,0.08562275507232309
newiki,False,20.0,0.04636883336862164,0.8690476190476191,0.49770274010517573,0.5129548431182734,0.08804020100502513
newiki,False,21.0,0.04740529888329319,0.8591269841269841,0.5144201494602824,0.4954729229542737,0.08985266652832538
newiki,False,22.0,0.04854258818192129,0.8492063492063492,0.5314143371159701,0.47770628096349865,0.09183563995279477
newiki,False,23.0,0.05008797653958944,0.8472222222222222,0.5474674785496817,0.4611354706451797,0.09458411784250748
newiki,False,24.0,0.050814725407362704,0.8353174603174603,0.560088569056186,0.4478104891520984,0.09580157014449882
newiki,False,25.0,0.05226393912935013,0.8313492063492064,0.5747024633268751,0.4326632879676556,0.09834526464030043
newiki,False,26.0,0.053288711545887504,0.8214285714285714,0.5878771104345419,0.4188258071863789,0.10008461259518918
newiki,False,27.0,0.05483098216662231,0.8174603174603174,0.6017713811237199,0.40441888275155174,0.10276877026689948
newiki,False,28.0,0.05644829007004532,0.8154761904761905,0.614558538610573,0.39120778998918054,0.10558766859344892
newiki,False,29.0,0.05783371040723982,0.8115079365079365,0.6259064489344035,0.37942030636068563,0.10797254487856388
newiki,False,30.0,0.0594059405940594,0.8095238095238095,0.6370882922778854,0.36786060019361083,0.11068909386869233
newiki,False,31.0,0.06074696265186741,0.8035714285714286,0.6478826460005536,0.35658561585331133,0.11295495746757775
newiki,False,32.0,0.061991713978824615,0.8015873015873016,0.6560752836977581,0.34810090541540917,0.1150833214641789
newiki,False,33.0,0.06317119393556538,0.7936507936507936,0.6658732355383338,0.3377939752861454,0.11702750146284377
newiki,False,34.0,0.06433317128504294,0.7876984126984127,0.674453362856352,0.32879676556004783,0.11895131086142323
newiki,False,35.0,0.0651015651015651,0.7757936507936508,0.6829227788541379,0.3197426114685952,0.12012288786482335
newiki,False,36.0,0.06606504341903627,0.7698412698412699,0.6899529476889011,0.3123398439724389,0.12168731378391094
newiki,False,37.0,0.06722396377568791,0.7658730158730159,0.6969831165236645,0.30499402084163774,0.12359910342619275
newiki,False,38.0,0.06748575498575499,0.751984126984127,0.7031829504566842,0.298217641364387,0.12385620915032679
newiki,False,39.0,0.06717501815541031,0.7341269841269841,0.7081649598671464,0.29258014919423725,0.12308715901530273
newiki,False,40.0,0.06763999260765108,0.7261904761904762,0.7130916136174924,0.2872843232162178,0.12375316990701606
newiki,False,41.0,0.06813063063063063,0.7202380952380952,0.7173539994464434,0.28272877398781393,0.12448559670781893
newiki,False,42.0,0.06880121974461598,0.7162698412698413,0.7216163852753944,0.2782301691247651,0.1255433837593462
newiki,False,43.0,0.06910569105691057,0.7083333333333334,0.7256573484638804,0.2738454529924264,0.12592592592592594
newiki,False,44.0,0.06986813619366267,0.7043650793650794,0.7301411569332964,0.2691190706679574,0.12712623097582812
newiki,False,45.0,0.07001795332136446,0.6964285714285714,0.7334624965402713,0.26547463128523435,0.12724306688417616
newiki,False,46.0,0.07041969330104923,0.6924603174603174,0.7363963465264324,0.2623426911907067,0.12783882783882783
newiki,False,47.0,0.07045129671227282,0.6845238095238095,0.7392194851923609,0.259210751096179,0.12775411960748012
newiki,False,48.0,0.07107438016528926,0.6825396825396826,0.7422640464987545,0.25602186663629634,0.1287425149700599
newiki,False,49.0,0.07180238643500104,0.6805555555555556,0.7456407417658456,0.25249131598428337,0.12989964021965536
newiki,False,50.0,0.07265774378585087,0.6785714285714286,0.7494049266537504,0.24856215477478502,0.13126079447322972
newiki,False,51.0,0.07339055793991417,0.6785714285714286,0.7520066426792139,0.24588576960309777,0.13245546088303642
newiki,False,52.0,0.07434782608695652,0.6785714285714286,0.7553279822861888,0.2424691076817949,0.13401253918495296
newiki,False,53.0,0.0749228735125606,0.6746031746031746,0.758538610572931,0.239052445760492,0.13486711622372075
newiki,False,54.0,0.07520642713679983,0.6686507936507936,0.7613617492388597,0.2359774500313194,0.13520561685055166
newiki,False,55.0,0.0759493670886076,0.6666666666666666,0.7644063105452532,0.2327885655714367,0.13636363636363638
newiki,False,56.0,0.07597535934291581,0.6607142857142857,0.7663437586493219,0.23062467968794487,0.13627992633517497
newiki,False,57.0,0.0766398158803222,0.6607142857142857,0.7684472737337392,0.22846079380445306,0.1373479067849041
newiki,False,58.0,0.07703081232492998,0.6547619047619048,0.7714918350401329,0.22515802061386025,0.13784461152882205
newiki,False,59.0,0.07719546742209632,0.6488095238095238,0.7738167727650153,0.22259552417288309,0.13797468354430378
newiki,False,60.0,0.0781922525107604,0.6488095238095238,0.7768059784112925,0.2195205284437105,0.13956466069142123
newiki,False,61.0,0.07869808112703425,0.6428571428571429,0.7800719623581511,0.2159899777916975,0.14022938757844622
newiki,False,62.0,0.07919331037875062,0.6388888888888888,0.7826736783836147,0.21319970388930015,0.1409190371991247
newiki,False,63.0,0.07954262987820035,0.6349206349206349,0.7848325491281484,0.21086498490974317,0.14137397835210955
newiki,False,64.0,0.08069820389577537,0.6329365079365079,0.7885967340160531,0.20693582370024485,0.1431456136414629
newiki,False,65.0,0.08132375577219086,0.628968253968254,0.7914198726819818,0.2039177723364273,0.1440254429804634
newiki,False,66.0,0.08224882873503384,0.626984126984127,0.794409078328259,0.20078583224189966,0.14542107685227795
newiki,False,67.0,0.08293838862559241,0.625,0.7967340160531414,0.1983372245316326,0.14644351464435146
newiki,False,68.0,0.08393477679764769,0.623015873015873,0.7997785773595351,0.1951483400717499,0.14793875147232036
newiki,False,69.0,0.08475957620211899,0.6190476190476191,0.8028784943260449,0.19184556688115711,0.14910394265232976
newiki,False,70.0,0.0858167770419426,0.6170634920634921,0.8059230556324384,0.18865668242127442,0.1506782945736434
newiki,False,71.0,0.08527349228611501,0.6031746031746031,0.8084140603376695,0.18569557542281193,0.14942246252150407
newiki,False,72.0,0.0853554096488724,0.5932539682539683,0.8112925546637144,0.18244974659757418,0.14923883204392313
newiki,False,73.0,0.08523548107483386,0.5853174603174603,0.8131746471076667,0.18028586071408234,0.14880201765447668
newiki,False,74.0,0.08495002939447384,0.5734126984126984,0.8157763631331304,0.1772678093502648,0.14797747055811572
newiki,False,75.0,0.08633093525179857,0.5714285714285714,0.8193191253805702,0.17356642560218666,0.15
newiki,False,76.0,0.08606431852986217,0.5575396825396826,0.8224743980071962,0.16992198621946358,0.14911117007163704
newiki,False,77.0,0.08598130841121496,0.5476190476190477,0.8249654027124274,0.16707476795171117,0.14862681744749595
newiki,False,78.0,0.08554101500159592,0.5317460317460317,0.8283420979795184,0.16314560674221285,0.14737420951333516
newiki,False,79.0,0.08624632473048023,0.5238095238095238,0.8318848602269582,0.15927338989806958,0.14810659186535763
newiki,False,80.0,0.08704385671242049,0.5158730158730159,0.8355383337946305,0.15528728432321623,0.14895445431108564
newiki,False,81.0,0.08606982371240926,0.49404761904761907,0.8395239413230002,0.15056090199874722,0.14659994112452163
newiki,False,82.0,0.08666191155492155,0.48214285714285715,0.8437863271519512,0.14583451967427824,0.14691656590084642
newiki,False,83.0,0.08577712609970674,0.4642857142857143,0.8469969554386936,0.14201924719549,0.14480198019801976
newiki,False,84.0,0.08464794151596768,0.4365079365079365,0.8525878771104345,0.13547064517965948,0.14179825974863036
newiki,False,85.0,0.08552898256992299,0.41865079365079366,0.8588984223636867,0.12846648824098855,0.1420397172669135
newiki,False,86.0,0.08658379768538363,0.4007936507936508,0.8653196789371713,0.12134844257160754,0.14240394783221716
newiki,False,87.0,0.08337150710032067,0.3611111111111111,0.8714088015499585,0.11394567507545128,0.13546706363974695
newiki,False,88.0,0.08413098236775819,0.33134920634920634,0.880708552449488,0.10352485621547748,0.13419043792687826
newiki,False,89.0,0.08693213684800898,0.30753968253968256,0.8905618599501799,0.09270542679801834,0.1355487538259729
newiki,False,90.0,0.09383033419023136,0.2896825396825397,0.9021311929144755,0.08029155515061785,0.141747572815534
newiki,False,91.0,0.10193452380952381,0.2718253968253968,0.9128701909770274,0.06873184898354308,0.14826839826839827
newiki,False,92.0,0.11285846438482887,0.24206349206349206,0.9257680597841129,0.05460964637549114,0.15394321766561517
newiki,False,93.0,0.12179487179487179,0.1884920634920635,0.9394409078328259,0.03900689026820796,0.14797507788161993
newiki,False,94.0,0.1646586345381526,0.1626984126984127,0.9536119568225851,0.023688855987700017,0.16367265469061876
newiki,False,95.0,0.2255892255892256,0.13293650793650794,0.9630777747024634,0.013097204031661067,0.16729088639201
newiki,False,96.0,0.3270440251572327,0.10317460317460317,0.969056185995018,0.0060930470929901484,0.15686274509803919
newiki,False,97.0,0.45348837209302323,0.07738095238095238,0.9716579020204816,0.0026763851716872615,0.13220338983050847
newiki,False,98.0,0.5714285714285714,0.06349206349206349,0.9725435925823416,0.0013666647685211548,0.11428571428571427
newiki,False,99.0,0.7741935483870968,0.047619047619047616,0.9730417935233878,0.00039861055748533685,0.08971962616822429
