wiki_db,user_is_anonymous_or_bot,threshold,precision,recall,accuracy,fpr,F1
nsowiki,True,0.0,0.023255813953488372,1.0,0.023255813953488372,1.0,0.04545454545454545
nsowiki,True,1.0,0.023255813953488372,1.0,0.023255813953488372,1.0,0.04545454545454545
nsowiki,True,2.0,0.023255813953488372,1.0,0.023255813953488372,1.0,0.04545454545454545
nsowiki,True,3.0,0.023255813953488372,1.0,0.023255813953488372,1.0,0.04545454545454545
nsowiki,True,4.0,0.023255813953488372,1.0,0.023255813953488372,1.0,0.04545454545454545
nsowiki,True,5.0,0.023255813953488372,1.0,0.023255813953488372,1.0,0.04545454545454545
nsowiki,True,6.0,0.023255813953488372,1.0,0.023255813953488372,1.0,0.04545454545454545
nsowiki,True,7.0,0.023255813953488372,1.0,0.023255813953488372,1.0,0.04545454545454545
nsowiki,True,8.0,0.023255813953488372,1.0,0.023255813953488372,1.0,0.04545454545454545
nsowiki,True,9.0,0.023255813953488372,1.0,0.023255813953488372,1.0,0.04545454545454545
nsowiki,True,10.0,0.023255813953488372,1.0,0.023255813953488372,1.0,0.04545454545454545
nsowiki,True,11.0,0.023255813953488372,1.0,0.023255813953488372,1.0,0.04545454545454545
nsowiki,True,12.0,0.023255813953488372,1.0,0.023255813953488372,1.0,0.04545454545454545
nsowiki,True,13.0,0.023255813953488372,1.0,0.023255813953488372,1.0,0.04545454545454545
nsowiki,True,14.0,0.023255813953488372,1.0,0.023255813953488372,1.0,0.04545454545454545
nsowiki,True,15.0,0.023255813953488372,1.0,0.023255813953488372,1.0,0.04545454545454545
nsowiki,True,16.0,0.023255813953488372,1.0,0.023255813953488372,1.0,0.04545454545454545
nsowiki,True,17.0,0.023255813953488372,1.0,0.023255813953488372,1.0,0.04545454545454545
nsowiki,True,18.0,0.023255813953488372,1.0,0.023255813953488372,1.0,0.04545454545454545
nsowiki,True,19.0,0.023255813953488372,1.0,0.023255813953488372,1.0,0.04545454545454545
nsowiki,True,20.0,0.023255813953488372,1.0,0.023255813953488372,1.0,0.04545454545454545
nsowiki,True,21.0,0.023255813953488372,1.0,0.023255813953488372,1.0,0.04545454545454545
nsowiki,True,22.0,0.023255813953488372,1.0,0.023255813953488372,1.0,0.04545454545454545
nsowiki,True,23.0,0.023255813953488372,1.0,0.023255813953488372,1.0,0.04545454545454545
nsowiki,True,24.0,0.023255813953488372,1.0,0.023255813953488372,1.0,0.04545454545454545
nsowiki,True,25.0,0.023255813953488372,1.0,0.023255813953488372,1.0,0.04545454545454545
nsowiki,True,26.0,0.023255813953488372,1.0,0.023255813953488372,1.0,0.04545454545454545
nsowiki,True,27.0,0.023255813953488372,1.0,0.023255813953488372,1.0,0.04545454545454545
nsowiki,True,28.0,0.023255813953488372,1.0,0.023255813953488372,1.0,0.04545454545454545
nsowiki,True,29.0,0.023255813953488372,1.0,0.023255813953488372,1.0,0.04545454545454545
nsowiki,True,30.0,0.023255813953488372,1.0,0.023255813953488372,1.0,0.04545454545454545
nsowiki,True,31.0,0.023255813953488372,1.0,0.023255813953488372,1.0,0.04545454545454545
nsowiki,True,32.0,0.023255813953488372,1.0,0.023255813953488372,1.0,0.04545454545454545
nsowiki,True,33.0,0.023255813953488372,1.0,0.023255813953488372,1.0,0.04545454545454545
nsowiki,True,34.0,0.023255813953488372,1.0,0.023255813953488372,1.0,0.04545454545454545
nsowiki,True,35.0,0.023255813953488372,1.0,0.023255813953488372,1.0,0.04545454545454545
nsowiki,True,36.0,0.023255813953488372,1.0,0.023255813953488372,1.0,0.04545454545454545
nsowiki,True,37.0,0.023255813953488372,1.0,0.023255813953488372,1.0,0.04545454545454545
nsowiki,True,38.0,0.023255813953488372,1.0,0.023255813953488372,1.0,0.04545454545454545
nsowiki,True,39.0,0.023255813953488372,1.0,0.023255813953488372,1.0,0.04545454545454545
nsowiki,True,40.0,0.0234375,1.0,0.031007751937984496,0.9920634920634921,0.04580152671755725
nsowiki,True,41.0,0.0234375,1.0,0.031007751937984496,0.9920634920634921,0.04580152671755725
nsowiki,True,42.0,0.0234375,1.0,0.031007751937984496,0.9920634920634921,0.04580152671755725
nsowiki,True,43.0,0.0234375,1.0,0.031007751937984496,0.9920634920634921,0.04580152671755725
nsowiki,True,44.0,0.0234375,1.0,0.031007751937984496,0.9920634920634921,0.04580152671755725
nsowiki,True,45.0,0.0234375,1.0,0.031007751937984496,0.9920634920634921,0.04580152671755725
nsowiki,True,46.0,0.023622047244094488,1.0,0.03875968992248062,0.9841269841269841,0.046153846153846156
nsowiki,True,47.0,0.024193548387096774,1.0,0.06201550387596899,0.9603174603174603,0.047244094488188976
nsowiki,True,48.0,0.024793388429752067,1.0,0.08527131782945736,0.9365079365079365,0.048387096774193554
nsowiki,True,49.0,0.025,1.0,0.09302325581395349,0.9285714285714286,0.04878048780487806
nsowiki,True,50.0,0.02608695652173913,1.0,0.13178294573643412,0.8888888888888888,0.05084745762711864
nsowiki,True,51.0,0.028037383177570093,1.0,0.1937984496124031,0.8253968253968254,0.05454545454545455
nsowiki,True,52.0,0.02912621359223301,1.0,0.2248062015503876,0.7936507936507936,0.05660377358490566
nsowiki,True,53.0,0.031914893617021274,1.0,0.29457364341085274,0.7222222222222222,0.06185567010309278
nsowiki,True,54.0,0.03571428571428571,1.0,0.37209302325581395,0.6428571428571429,0.0689655172413793
nsowiki,True,55.0,0.03896103896103896,1.0,0.4263565891472868,0.5873015873015873,0.07500000000000001
nsowiki,True,56.0,0.04411764705882353,1.0,0.49612403100775193,0.5158730158730159,0.08450704225352113
nsowiki,True,57.0,0.04838709677419355,1.0,0.5426356589147286,0.46825396825396826,0.09230769230769231
nsowiki,True,58.0,0.05263157894736842,1.0,0.5813953488372093,0.42857142857142855,0.1
nsowiki,True,59.0,0.057692307692307696,1.0,0.6201550387596899,0.3888888888888889,0.1090909090909091
nsowiki,True,60.0,0.061224489795918366,1.0,0.6434108527131783,0.36507936507936506,0.11538461538461538
nsowiki,True,61.0,0.06521739130434782,1.0,0.6666666666666666,0.3412698412698413,0.12244897959183672
nsowiki,True,62.0,0.06818181818181818,1.0,0.6821705426356589,0.3253968253968254,0.1276595744680851
nsowiki,True,63.0,0.07317073170731707,1.0,0.7054263565891473,0.30158730158730157,0.13636363636363635
nsowiki,True,64.0,0.07692307692307693,1.0,0.7209302325581395,0.2857142857142857,0.14285714285714288
nsowiki,True,65.0,0.09375,1.0,0.7751937984496124,0.23015873015873015,0.17142857142857143
nsowiki,True,66.0,0.10344827586206896,1.0,0.7984496124031008,0.20634920634920634,0.1875
nsowiki,True,67.0,0.11538461538461539,1.0,0.8217054263565892,0.18253968253968253,0.20689655172413793
nsowiki,True,68.0,0.11538461538461539,1.0,0.8217054263565892,0.18253968253968253,0.20689655172413793
nsowiki,True,69.0,0.13636363636363635,1.0,0.8527131782945736,0.15079365079365079,0.24000000000000002
nsowiki,True,70.0,0.16666666666666666,1.0,0.8837209302325582,0.11904761904761904,0.2857142857142857
nsowiki,True,71.0,0.16666666666666666,1.0,0.8837209302325582,0.11904761904761904,0.2857142857142857
nsowiki,True,72.0,0.1875,1.0,0.8992248062015504,0.10317460317460317,0.3157894736842105
nsowiki,True,73.0,0.1875,1.0,0.8992248062015504,0.10317460317460317,0.3157894736842105
nsowiki,True,74.0,0.1875,1.0,0.8992248062015504,0.10317460317460317,0.3157894736842105
nsowiki,True,75.0,0.2,1.0,0.9069767441860465,0.09523809523809523,0.33333333333333337
nsowiki,True,76.0,0.2,1.0,0.9069767441860465,0.09523809523809523,0.33333333333333337
nsowiki,True,77.0,0.23076923076923078,1.0,0.9224806201550387,0.07936507936507936,0.375
nsowiki,True,78.0,0.23076923076923078,1.0,0.9224806201550387,0.07936507936507936,0.375
nsowiki,True,79.0,0.23076923076923078,1.0,0.9224806201550387,0.07936507936507936,0.375
nsowiki,True,80.0,0.25,1.0,0.9302325581395349,0.07142857142857142,0.4
nsowiki,True,81.0,0.2727272727272727,1.0,0.937984496124031,0.06349206349206349,0.42857142857142855
nsowiki,True,82.0,0.3,1.0,0.9457364341085271,0.05555555555555555,0.4615384615384615
nsowiki,True,83.0,0.2222222222222222,0.6666666666666666,0.937984496124031,0.05555555555555555,0.3333333333333333
nsowiki,True,84.0,0.2222222222222222,0.6666666666666666,0.937984496124031,0.05555555555555555,0.3333333333333333
nsowiki,True,85.0,0.14285714285714285,0.3333333333333333,0.937984496124031,0.047619047619047616,0.2
nsowiki,True,86.0,0.16666666666666666,0.3333333333333333,0.9457364341085271,0.03968253968253968,0.2222222222222222
nsowiki,True,87.0,0.16666666666666666,0.3333333333333333,0.9457364341085271,0.03968253968253968,0.2222222222222222
nsowiki,True,88.0,0.25,0.3333333333333333,0.9612403100775194,0.023809523809523808,0.28571428571428575
nsowiki,True,89.0,0.0,0.0,0.9534883720930233,0.023809523809523808,0.28571428571428575
nsowiki,True,90.0,0.0,0.0,0.9534883720930233,0.023809523809523808,0.28571428571428575
nsowiki,True,91.0,0.0,0.0,0.9534883720930233,0.023809523809523808,0.28571428571428575
nsowiki,True,92.0,0.0,0.0,0.9689922480620154,0.007936507936507936,0.28571428571428575
nsowiki,True,93.0,0.0,0.0,0.9689922480620154,0.007936507936507936,0.28571428571428575
nsowiki,True,94.0,0.0,0.0,0.9689922480620154,0.007936507936507936,0.28571428571428575
nsowiki,True,95.0,0.0,0.0,0.9689922480620154,0.007936507936507936,0.28571428571428575
nsowiki,True,96.0,0.0,0.0,0.9767441860465116,0.0,0.28571428571428575
nsowiki,True,97.0,0.0,0.0,0.9767441860465116,0.0,0.28571428571428575
nsowiki,True,98.0,0.0,0.0,0.9767441860465116,0.0,0.28571428571428575
nsowiki,True,99.0,0.0,0.0,0.9767441860465116,0.0,0.28571428571428575
nsowiki,False,0.0,0.008710801393728223,1.0,0.008710801393728223,1.0,0.017271157167530225
nsowiki,False,1.0,0.008710801393728223,1.0,0.008710801393728223,1.0,0.017271157167530225
nsowiki,False,2.0,0.008710801393728223,1.0,0.008710801393728223,1.0,0.017271157167530225
nsowiki,False,3.0,0.008741258741258742,1.0,0.012195121951219513,0.9964850615114236,0.01733102253032929
nsowiki,False,4.0,0.008771929824561403,1.0,0.0156794425087108,0.9929701230228472,0.017391304347826087
nsowiki,False,5.0,0.008787346221441126,1.0,0.017421602787456445,0.9912126537785588,0.017421602787456445
nsowiki,False,6.0,0.008928571428571428,1.0,0.033101045296167246,0.9753954305799648,0.017699115044247787
nsowiki,False,7.0,0.009025270758122744,1.0,0.04355400696864112,0.9648506151142355,0.01788908765652952
nsowiki,False,8.0,0.00909090909090909,1.0,0.050522648083623695,0.9578207381370826,0.018018018018018018
nsowiki,False,9.0,0.009578544061302681,1.0,0.09930313588850175,0.9086115992970123,0.01897533206831119
nsowiki,False,10.0,0.009940357852882704,1.0,0.13240418118466898,0.875219683655536,0.01968503937007874
nsowiki,False,11.0,0.010526315789473684,1.0,0.18118466898954705,0.8260105448154658,0.020833333333333332
nsowiki,False,12.0,0.011990407673860911,1.0,0.28222996515679444,0.7240773286467487,0.023696682464454978
nsowiki,False,13.0,0.012987012987012988,1.0,0.33797909407665505,0.6678383128295254,0.025641025641025647
nsowiki,False,14.0,0.013440860215053764,1.0,0.3606271777003484,0.6449912126537786,0.026525198938992044
nsowiki,False,15.0,0.014792899408284023,1.0,0.41986062717770034,0.5852372583479789,0.029154518950437316
nsowiki,False,16.0,0.017857142857142856,1.0,0.5209059233449478,0.4833040421792619,0.03508771929824561
nsowiki,False,17.0,0.02074688796680498,1.0,0.5888501742160279,0.4147627416520211,0.04065040650406504
nsowiki,False,18.0,0.021929824561403508,1.0,0.6114982578397212,0.39191564147627417,0.04291845493562232
nsowiki,False,19.0,0.022222222222222223,1.0,0.6167247386759582,0.3866432337434095,0.04347826086956522
nsowiki,False,20.0,0.02262443438914027,1.0,0.6236933797909407,0.37961335676625657,0.04424778761061947
nsowiki,False,21.0,0.02304147465437788,1.0,0.6306620209059234,0.37258347978910367,0.04504504504504504
nsowiki,False,22.0,0.02358490566037736,1.0,0.6393728222996515,0.36379613356766255,0.04608294930875576
nsowiki,False,23.0,0.02358490566037736,1.0,0.6393728222996515,0.36379613356766255,0.04608294930875576
nsowiki,False,24.0,0.023923444976076555,1.0,0.6445993031358885,0.3585237258347979,0.04672897196261682
nsowiki,False,25.0,0.02403846153846154,1.0,0.6463414634146342,0.35676625659050965,0.04694835680751174
nsowiki,False,26.0,0.024390243902439025,1.0,0.6515679442508711,0.351493848857645,0.047619047619047616
nsowiki,False,27.0,0.025,1.0,0.6602787456445993,0.3427065026362039,0.04878048780487806
nsowiki,False,28.0,0.025,1.0,0.6602787456445993,0.3427065026362039,0.04878048780487806
nsowiki,False,29.0,0.025,1.0,0.6602787456445993,0.3427065026362039,0.04878048780487806
nsowiki,False,30.0,0.02577319587628866,1.0,0.6707317073170732,0.3321616871704745,0.05025125628140704
nsowiki,False,31.0,0.025906735751295335,1.0,0.6724738675958188,0.3304042179261863,0.0505050505050505
nsowiki,False,32.0,0.026041666666666668,1.0,0.6742160278745645,0.3286467486818981,0.050761421319796954
nsowiki,False,33.0,0.02617801047120419,1.0,0.6759581881533101,0.3268892794376098,0.05102040816326531
nsowiki,False,34.0,0.02631578947368421,1.0,0.6777003484320557,0.3251318101933216,0.05128205128205127
nsowiki,False,35.0,0.026595744680851064,1.0,0.681184668989547,0.3216168717047452,0.05181347150259067
nsowiki,False,36.0,0.026595744680851064,1.0,0.681184668989547,0.3216168717047452,0.05181347150259067
nsowiki,False,37.0,0.026881720430107527,1.0,0.6846689895470384,0.3181019332161687,0.05235602094240838
nsowiki,False,38.0,0.02702702702702703,1.0,0.686411149825784,0.3163444639718805,0.052631578947368425
nsowiki,False,39.0,0.02702702702702703,1.0,0.686411149825784,0.3163444639718805,0.052631578947368425
nsowiki,False,40.0,0.027472527472527472,1.0,0.6916376306620209,0.3110720562390158,0.05347593582887701
nsowiki,False,41.0,0.027472527472527472,1.0,0.6916376306620209,0.3110720562390158,0.05347593582887701
nsowiki,False,42.0,0.027777777777777776,1.0,0.6951219512195121,0.30755711775043937,0.05405405405405406
nsowiki,False,43.0,0.028089887640449437,1.0,0.6986062717770035,0.30404217926186294,0.0546448087431694
nsowiki,False,44.0,0.02824858757062147,1.0,0.7003484320557491,0.3022847100175747,0.054945054945054944
nsowiki,False,45.0,0.02824858757062147,1.0,0.7003484320557491,0.3022847100175747,0.054945054945054944
nsowiki,False,46.0,0.02857142857142857,1.0,0.7038327526132404,0.29876977152899825,0.05555555555555556
nsowiki,False,47.0,0.029069767441860465,1.0,0.7090592334494773,0.29349736379613356,0.05649717514124294
nsowiki,False,48.0,0.029585798816568046,1.0,0.7142857142857143,0.28822495606326887,0.05747126436781609
nsowiki,False,49.0,0.02976190476190476,1.0,0.7160278745644599,0.28646748681898065,0.05780346820809249
nsowiki,False,50.0,0.03067484662576687,1.0,0.7247386759581882,0.27768014059753954,0.05952380952380952
nsowiki,False,51.0,0.032467532467532464,1.0,0.740418118466899,0.2618629173989455,0.06289308176100628
nsowiki,False,52.0,0.03333333333333333,1.0,0.7473867595818815,0.2548330404217926,0.06451612903225806
nsowiki,False,53.0,0.03546099290780142,1.0,0.7630662020905923,0.2390158172231986,0.06849315068493152
nsowiki,False,54.0,0.03875968992248062,1.0,0.7839721254355401,0.2179261862917399,0.07462686567164178
nsowiki,False,55.0,0.040983606557377046,1.0,0.7961672473867596,0.2056239015817223,0.07874015748031496
nsowiki,False,56.0,0.045454545454545456,1.0,0.8170731707317073,0.18453427065026362,0.08695652173913045
nsowiki,False,57.0,0.049019607843137254,1.0,0.8310104529616724,0.1704745166959578,0.09345794392523364
nsowiki,False,58.0,0.05154639175257732,1.0,0.8397212543554007,0.1616871704745167,0.0980392156862745
nsowiki,False,59.0,0.05434782608695652,1.0,0.8484320557491289,0.15289982425307558,0.10309278350515463
nsowiki,False,60.0,0.056818181818181816,1.0,0.8554006968641115,0.14586994727592267,0.1075268817204301
nsowiki,False,61.0,0.06097560975609756,1.0,0.8658536585365854,0.13532513181019332,0.11494252873563218
nsowiki,False,62.0,0.0625,1.0,0.8693379790940766,0.13181019332161686,0.11764705882352941
nsowiki,False,63.0,0.06578947368421052,1.0,0.8763066202090593,0.12478031634446397,0.12345679012345677
nsowiki,False,64.0,0.06756756756756757,1.0,0.8797909407665505,0.12126537785588752,0.12658227848101267
nsowiki,False,65.0,0.07462686567164178,1.0,0.89198606271777,0.10896309314586995,0.13888888888888887
nsowiki,False,66.0,0.078125,1.0,0.8972125435540069,0.10369068541300527,0.14492753623188406
nsowiki,False,67.0,0.08333333333333333,1.0,0.9041811846689896,0.09666080843585237,0.15384615384615385
nsowiki,False,68.0,0.0847457627118644,1.0,0.9059233449477352,0.09490333919156414,0.15625
nsowiki,False,69.0,0.09433962264150944,1.0,0.9163763066202091,0.0843585237258348,0.1724137931034483
nsowiki,False,70.0,0.10204081632653061,1.0,0.9233449477351916,0.0773286467486819,0.1851851851851852
nsowiki,False,71.0,0.10204081632653061,1.0,0.9233449477351916,0.0773286467486819,0.1851851851851852
nsowiki,False,72.0,0.10638297872340426,1.0,0.926829268292683,0.07381370826010544,0.1923076923076923
nsowiki,False,73.0,0.10869565217391304,1.0,0.9285714285714286,0.07205623901581722,0.19607843137254902
nsowiki,False,74.0,0.1111111111111111,1.0,0.9303135888501742,0.070298769771529,0.19999999999999998
nsowiki,False,75.0,0.11627906976744186,1.0,0.9337979094076655,0.06678383128295255,0.20833333333333334
nsowiki,False,76.0,0.11627906976744186,1.0,0.9337979094076655,0.06678383128295255,0.20833333333333334
nsowiki,False,77.0,0.125,1.0,0.9390243902439024,0.061511423550087874,0.2222222222222222
nsowiki,False,78.0,0.1282051282051282,1.0,0.9407665505226481,0.05975395430579965,0.22727272727272727
nsowiki,False,79.0,0.13513513513513514,1.0,0.9442508710801394,0.056239015817223195,0.2380952380952381
nsowiki,False,80.0,0.14705882352941177,1.0,0.9494773519163763,0.050966608084358524,0.25641025641025644
nsowiki,False,81.0,0.15625,1.0,0.9529616724738676,0.04745166959578207,0.2702702702702703
nsowiki,False,82.0,0.14285714285714285,0.8,0.9564459930313589,0.0421792618629174,0.24242424242424243
nsowiki,False,83.0,0.11538461538461539,0.6,0.9564459930313589,0.040421792618629174,0.1935483870967742
nsowiki,False,84.0,0.11538461538461539,0.6,0.9564459930313589,0.040421792618629174,0.1935483870967742
nsowiki,False,85.0,0.09090909090909091,0.4,0.9599303135888502,0.0351493848857645,0.14814814814814814
nsowiki,False,86.0,0.125,0.4,0.9703832752613241,0.02460456942003515,0.19047619047619047
nsowiki,False,87.0,0.09090909090909091,0.2,0.975609756097561,0.01757469244288225,0.12500000000000003
nsowiki,False,88.0,0.1111111111111111,0.2,0.9790940766550522,0.014059753954305799,0.14285714285714285
nsowiki,False,89.0,0.0,0.0,0.9773519163763066,0.014059753954305799,0.14285714285714285
nsowiki,False,90.0,0.0,0.0,0.980836236933798,0.01054481546572935,0.14285714285714285
nsowiki,False,91.0,0.0,0.0,0.9825783972125436,0.008787346221441126,0.14285714285714285
nsowiki,False,92.0,0.0,0.0,0.9878048780487805,0.0035149384885764497,0.14285714285714285
nsowiki,False,93.0,0.0,0.0,0.9895470383275261,0.0017574692442882249,0.14285714285714285
nsowiki,False,94.0,0.0,0.0,0.9895470383275261,0.0017574692442882249,0.14285714285714285
nsowiki,False,95.0,0.0,0.0,0.9895470383275261,0.0017574692442882249,0.14285714285714285
nsowiki,False,96.0,0.0,0.0,0.9912891986062717,0.0,0.14285714285714285
nsowiki,False,97.0,0.0,0.0,0.9912891986062717,0.0,0.14285714285714285
nsowiki,False,98.0,0.0,0.0,0.9912891986062717,0.0,0.14285714285714285
nsowiki,False,99.0,0.0,0.0,0.9912891986062717,0.0,0.14285714285714285
