wiki_db,user_is_anonymous_or_bot,threshold,precision,recall,accuracy,fpr,F1
pswiki,True,0.0,0.15555555555555556,1.0,0.15555555555555556,1.0,0.2692307692307693
pswiki,True,1.0,0.15555555555555556,1.0,0.15555555555555556,1.0,0.2692307692307693
pswiki,True,2.0,0.15555555555555556,1.0,0.15555555555555556,1.0,0.2692307692307693
pswiki,True,3.0,0.15555555555555556,1.0,0.15555555555555556,1.0,0.2692307692307693
pswiki,True,4.0,0.15555555555555556,1.0,0.15555555555555556,1.0,0.2692307692307693
pswiki,True,5.0,0.15555555555555556,1.0,0.15555555555555556,1.0,0.2692307692307693
pswiki,True,6.0,0.15555555555555556,1.0,0.15555555555555556,1.0,0.2692307692307693
pswiki,True,7.0,0.15555555555555556,1.0,0.15555555555555556,1.0,0.2692307692307693
pswiki,True,8.0,0.15555555555555556,1.0,0.15555555555555556,1.0,0.2692307692307693
pswiki,True,9.0,0.15555555555555556,1.0,0.15555555555555556,1.0,0.2692307692307693
pswiki,True,10.0,0.15555555555555556,1.0,0.15555555555555556,1.0,0.2692307692307693
pswiki,True,11.0,0.15555555555555556,1.0,0.15555555555555556,1.0,0.2692307692307693
pswiki,True,12.0,0.15555555555555556,1.0,0.15555555555555556,1.0,0.2692307692307693
pswiki,True,13.0,0.15555555555555556,1.0,0.15555555555555556,1.0,0.2692307692307693
pswiki,True,14.0,0.15625,1.0,0.16,0.9947368421052631,0.2702702702702703
pswiki,True,15.0,0.15695067264573992,1.0,0.16444444444444445,0.9894736842105263,0.2713178294573644
pswiki,True,16.0,0.1583710407239819,1.0,0.17333333333333334,0.9789473684210527,0.2734375
pswiki,True,17.0,0.1583710407239819,1.0,0.17333333333333334,0.9789473684210527,0.2734375
pswiki,True,18.0,0.1590909090909091,1.0,0.17777777777777778,0.9736842105263158,0.2745098039215686
pswiki,True,19.0,0.16055045871559634,1.0,0.18666666666666668,0.9631578947368421,0.2766798418972332
pswiki,True,20.0,0.16055045871559634,1.0,0.18666666666666668,0.9631578947368421,0.2766798418972332
pswiki,True,21.0,0.16129032258064516,1.0,0.19111111111111112,0.9578947368421052,0.27777777777777773
pswiki,True,22.0,0.16203703703703703,1.0,0.19555555555555557,0.9526315789473684,0.27888446215139445
pswiki,True,23.0,0.16279069767441862,1.0,0.2,0.9473684210526315,0.28
pswiki,True,24.0,0.1643192488262911,1.0,0.2088888888888889,0.9368421052631579,0.28225806451612906
pswiki,True,25.0,0.1650943396226415,1.0,0.21333333333333335,0.9315789473684211,0.2834008097165992
pswiki,True,26.0,0.16666666666666666,1.0,0.2222222222222222,0.9210526315789473,0.2857142857142857
pswiki,True,27.0,0.17073170731707318,1.0,0.24444444444444444,0.8947368421052632,0.2916666666666667
pswiki,True,28.0,0.1715686274509804,1.0,0.24888888888888888,0.8894736842105263,0.2928870292887029
pswiki,True,29.0,0.1724137931034483,1.0,0.25333333333333335,0.8842105263157894,0.29411764705882354
pswiki,True,30.0,0.17412935323383086,1.0,0.26222222222222225,0.8736842105263158,0.29661016949152547
pswiki,True,31.0,0.17412935323383086,1.0,0.26222222222222225,0.8736842105263158,0.29661016949152547
pswiki,True,32.0,0.17412935323383086,1.0,0.26222222222222225,0.8736842105263158,0.29661016949152547
pswiki,True,33.0,0.17412935323383086,1.0,0.26222222222222225,0.8736842105263158,0.29661016949152547
pswiki,True,34.0,0.17766497461928935,1.0,0.28,0.8526315789473684,0.3017241379310345
pswiki,True,35.0,0.17857142857142858,1.0,0.28444444444444444,0.8473684210526315,0.30303030303030304
pswiki,True,36.0,0.17857142857142858,1.0,0.28444444444444444,0.8473684210526315,0.30303030303030304
pswiki,True,37.0,0.18041237113402062,1.0,0.29333333333333333,0.8368421052631579,0.3056768558951965
pswiki,True,38.0,0.18229166666666666,1.0,0.3022222222222222,0.8263157894736842,0.3083700440528634
pswiki,True,39.0,0.18229166666666666,1.0,0.3022222222222222,0.8263157894736842,0.3083700440528634
pswiki,True,40.0,0.18421052631578946,1.0,0.3111111111111111,0.8157894736842105,0.3111111111111111
pswiki,True,41.0,0.18421052631578946,1.0,0.3111111111111111,0.8157894736842105,0.3111111111111111
pswiki,True,42.0,0.18518518518518517,1.0,0.31555555555555553,0.8105263157894737,0.3125
pswiki,True,43.0,0.18617021276595744,1.0,0.32,0.8052631578947368,0.3139013452914798
pswiki,True,44.0,0.18617021276595744,1.0,0.32,0.8052631578947368,0.3139013452914798
pswiki,True,45.0,0.1881720430107527,1.0,0.3288888888888889,0.7947368421052632,0.3167420814479638
pswiki,True,46.0,0.19230769230769232,1.0,0.3466666666666667,0.7736842105263158,0.32258064516129037
pswiki,True,47.0,0.19337016574585636,1.0,0.3511111111111111,0.7684210526315789,0.32407407407407407
pswiki,True,48.0,0.19553072625698323,1.0,0.36,0.7578947368421053,0.32710280373831774
pswiki,True,49.0,0.19662921348314608,1.0,0.36444444444444446,0.7526315789473684,0.3286384976525822
pswiki,True,50.0,0.1977401129943503,1.0,0.3688888888888889,0.7473684210526316,0.330188679245283
pswiki,True,51.0,0.2023121387283237,1.0,0.38666666666666666,0.7263157894736842,0.33653846153846156
pswiki,True,52.0,0.20588235294117646,1.0,0.4,0.7105263157894737,0.34146341463414637
pswiki,True,53.0,0.20710059171597633,1.0,0.40444444444444444,0.7052631578947368,0.3431372549019608
pswiki,True,54.0,0.21341463414634146,1.0,0.4266666666666667,0.6789473684210526,0.35175879396984927
pswiki,True,55.0,0.21604938271604937,1.0,0.43555555555555553,0.6684210526315789,0.35532994923857864
pswiki,True,56.0,0.22580645161290322,1.0,0.4666666666666667,0.631578947368421,0.3684210526315789
pswiki,True,57.0,0.22580645161290322,1.0,0.4666666666666667,0.631578947368421,0.3684210526315789
pswiki,True,58.0,0.23026315789473684,1.0,0.48,0.6157894736842106,0.3743315508021391
pswiki,True,59.0,0.23178807947019867,1.0,0.48444444444444446,0.6105263157894737,0.3763440860215053
pswiki,True,60.0,0.23648648648648649,1.0,0.49777777777777776,0.5947368421052631,0.38251366120218583
pswiki,True,61.0,0.23129251700680273,0.9714285714285714,0.49333333333333335,0.5947368421052631,0.37362637362637363
pswiki,True,62.0,0.2361111111111111,0.9714285714285714,0.5066666666666667,0.5789473684210527,0.37988826815642457
pswiki,True,63.0,0.23776223776223776,0.9714285714285714,0.5111111111111111,0.5736842105263158,0.38202247191011235
pswiki,True,64.0,0.23776223776223776,0.9714285714285714,0.5111111111111111,0.5736842105263158,0.38202247191011235
pswiki,True,65.0,0.23943661971830985,0.9714285714285714,0.5155555555555555,0.5684210526315789,0.38418079096045193
pswiki,True,66.0,0.24113475177304963,0.9714285714285714,0.52,0.5631578947368421,0.3863636363636363
pswiki,True,67.0,0.2446043165467626,0.9714285714285714,0.5288888888888889,0.5526315789473685,0.39080459770114945
pswiki,True,68.0,0.24817518248175183,0.9714285714285714,0.5377777777777778,0.5421052631578948,0.3953488372093023
pswiki,True,69.0,0.24444444444444444,0.9428571428571428,0.5377777777777778,0.5368421052631579,0.38823529411764707
pswiki,True,70.0,0.24427480916030533,0.9142857142857143,0.5466666666666666,0.5210526315789473,0.38554216867469876
pswiki,True,71.0,0.24615384615384617,0.9142857142857143,0.5511111111111111,0.5157894736842106,0.38787878787878793
pswiki,True,72.0,0.2421875,0.8857142857142857,0.5511111111111111,0.5105263157894737,0.38036809815950917
pswiki,True,73.0,0.24603174603174602,0.8857142857142857,0.56,0.5,0.3850931677018633
pswiki,True,74.0,0.23577235772357724,0.8285714285714286,0.5555555555555556,0.49473684210526314,0.3670886075949367
pswiki,True,75.0,0.2396694214876033,0.8285714285714286,0.5644444444444444,0.4842105263157895,0.3717948717948718
pswiki,True,76.0,0.2457627118644068,0.8285714285714286,0.5777777777777777,0.46842105263157896,0.3790849673202615
pswiki,True,77.0,0.24347826086956523,0.8,0.5822222222222222,0.45789473684210524,0.3733333333333334
pswiki,True,78.0,0.24545454545454545,0.7714285714285715,0.5955555555555555,0.4368421052631579,0.37241379310344824
pswiki,True,79.0,0.24299065420560748,0.7428571428571429,0.6,0.4263157894736842,0.3661971830985915
pswiki,True,80.0,0.2403846153846154,0.7142857142857143,0.6044444444444445,0.41578947368421054,0.3597122302158273
pswiki,True,81.0,0.24,0.6857142857142857,0.6133333333333333,0.4,0.3555555555555555
pswiki,True,82.0,0.24468085106382978,0.6571428571428571,0.6311111111111111,0.3736842105263158,0.3565891472868217
pswiki,True,83.0,0.25274725274725274,0.6571428571428571,0.6444444444444445,0.35789473684210527,0.36507936507936506
pswiki,True,84.0,0.25287356321839083,0.6285714285714286,0.6533333333333333,0.34210526315789475,0.36065573770491804
pswiki,True,85.0,0.25316455696202533,0.5714285714285714,0.6711111111111111,0.3105263157894737,0.3508771929824562
pswiki,True,86.0,0.2465753424657534,0.5142857142857142,0.68,0.2894736842105263,0.33333333333333326
pswiki,True,87.0,0.24615384615384617,0.45714285714285713,0.6977777777777778,0.2578947368421053,0.32
pswiki,True,88.0,0.25806451612903225,0.45714285714285713,0.7111111111111111,0.24210526315789474,0.3298969072164949
pswiki,True,89.0,0.2641509433962264,0.4,0.7333333333333333,0.20526315789473684,0.3181818181818182
pswiki,True,90.0,0.3111111111111111,0.4,0.7688888888888888,0.1631578947368421,0.35000000000000003
pswiki,True,91.0,0.3170731707317073,0.37142857142857144,0.7777777777777778,0.14736842105263157,0.34210526315789475
pswiki,True,92.0,0.2777777777777778,0.2857142857142857,0.7733333333333333,0.1368421052631579,0.28169014084507044
pswiki,True,93.0,0.3125,0.2857142857142857,0.7911111111111111,0.11578947368421053,0.29850746268656714
pswiki,True,94.0,0.37037037037037035,0.2857142857142857,0.8133333333333334,0.08947368421052632,0.3225806451612903
pswiki,True,95.0,0.43478260869565216,0.2857142857142857,0.8311111111111111,0.06842105263157895,0.3448275862068965
pswiki,True,96.0,0.42857142857142855,0.17142857142857143,0.8355555555555556,0.042105263157894736,0.24489795918367346
pswiki,True,97.0,0.5,0.14285714285714285,0.8444444444444444,0.02631578947368421,0.22222222222222224
pswiki,True,98.0,0.5555555555555556,0.14285714285714285,0.8488888888888889,0.021052631578947368,0.22727272727272727
pswiki,True,99.0,0.5,0.05714285714285714,0.8444444444444444,0.010526315789473684,0.10256410256410256
pswiki,False,0.0,0.02308606348667459,1.0,0.02308606348667459,1.0,0.04513024722083956
pswiki,False,1.0,0.02308606348667459,1.0,0.02308606348667459,1.0,0.04513024722083956
pswiki,False,2.0,0.02311745707972123,1.0,0.02444406722118486,0.9986099044309297,0.04519023093537133
pswiki,False,3.0,0.023124357656731757,0.9926470588235294,0.03174333729417756,0.9909643788010426,0.04519584867760295
pswiki,False,4.0,0.0234090514999133,0.9926470588235294,0.043795620437956206,0.978627280625543,0.04573945451465357
pswiki,False,5.0,0.02378016558041219,0.9926470588235294,0.05907316245119674,0.9629887054735013,0.04644761740925511
pswiki,False,6.0,0.024157202091220478,0.9852941176470589,0.08080122220336106,0.9405734144222415,0.04715819109625198
pswiki,False,7.0,0.02471200297287254,0.9779411764705882,0.1084705482940078,0.9120764552562989,0.04820587169264226
pswiki,False,8.0,0.025139128766071772,0.9632352941176471,0.1368188762519097,0.8827106863596872,0.048999438937722094
pswiki,False,9.0,0.02523345916948142,0.9338235294117647,0.16567645561025293,0.8524761077324066,0.04913909847165796
pswiki,False,10.0,0.025847808105872623,0.9191176470588235,0.19843829570531318,0.8185925282363162,0.0502815768302494
pswiki,False,11.0,0.026361279170267933,0.8970588235294118,0.2327278900016975,0.7829713292788879,0.05121746431570109
pswiki,False,12.0,0.02695356738391846,0.875,0.26786623663215076,0.7464813205907906,0.05229619863766206
pswiki,False,13.0,0.026962538773562396,0.8308823529411765,0.3038533355966729,0.7086012163336229,0.052230182574532005
pswiki,False,14.0,0.028193612774451097,0.8308823529411765,0.3349176710235953,0.6768027801911382,0.05453667953667954
pswiki,False,15.0,0.02927987338433131,0.8161764705882353,0.3710745204549313,0.6394439617723718,0.05653170359052712
pswiki,False,16.0,0.03045404208194906,0.8088235294117647,0.401120353080971,0.608514335360556,0.05869797225186767
pswiki,False,17.0,0.031150850879723104,0.7941176470588235,0.42505516890171446,0.5836663770634231,0.05995004163197335
pswiki,False,18.0,0.03207434052757794,0.7867647058823529,0.4469529791206926,0.5610773240660295,0.06163594470046083
pswiki,False,19.0,0.03274087932647334,0.7720588235294118,0.46817178747241556,0.5390095569070373,0.062817828297936
pswiki,False,20.0,0.034013605442176874,0.7720588235294118,0.48854184349006957,0.5181581233709818,0.06515668631709588
pswiki,False,21.0,0.03473861720067454,0.7573529411764706,0.5085723985740961,0.49730668983492615,0.06643018381167366
pswiki,False,22.0,0.03526536312849162,0.7426470588235294,0.5250381938550331,0.4801042571676803,0.06733333333333334
pswiki,False,23.0,0.03546869344914948,0.7205882352941176,0.5411644882023425,0.4630755864465682,0.06760952052431873
pswiki,False,24.0,0.036452461480646375,0.7132352941176471,0.5581395348837209,0.44552562988705474,0.06936002860207366
pswiki,False,25.0,0.037905431809300505,0.7132352941176471,0.5754540824987269,0.4278019113814075,0.07198515769944341
pswiki,False,26.0,0.039640375970576215,0.7132352941176471,0.5944661347818706,0.40834057341442226,0.07510646535036779
pswiki,False,27.0,0.04076433121019108,0.7058823529411765,0.6097436767951112,0.3925282363162467,0.07707747892412685
pswiki,False,28.0,0.04162976085031001,0.6911764705882353,0.625530470208793,0.37602085143353603,0.07852965747702591
pswiki,False,29.0,0.043115438108484005,0.6838235294117647,0.6423357664233577,0.3586446568201564,0.0811164413432185
pswiki,False,30.0,0.044681884409907724,0.6764705882352942,0.6586318112374809,0.3417897480451781,0.08382687927107062
pswiki,False,31.0,0.046488125315816066,0.6764705882352942,0.6722118485825836,0.3278887923544744,0.08699763593380613
pswiki,False,32.0,0.047139830508474576,0.6544117647058824,0.6866406382617553,0.3125977410947003,0.08794466403162056
pswiki,False,33.0,0.04933481152993348,0.6544117647058824,0.7008996774741131,0.29800173761946136,0.09175257731958762
pswiki,False,34.0,0.051925320886814466,0.6544117647058824,0.7161772194873536,0.28236316246741966,0.0962162162162162
pswiki,False,35.0,0.05436774587660354,0.6544117647058824,0.729248005432015,0.2689834926151173,0.10039481105470953
pswiki,False,36.0,0.05747877204441541,0.6470588235294118,0.7469020539806485,0.25073848827106865,0.10557888422315537
pswiki,False,37.0,0.05987611837577426,0.6397058823529411,0.7598030894584961,0.2373588184187663,0.10950283196979232
pswiki,False,38.0,0.0628158844765343,0.6397058823529411,0.7713461212018333,0.2255430060816681,0.11439842209072978
pswiki,False,39.0,0.06585919757759273,0.6397058823529411,0.7822101510779155,0.21442224152910513,0.11942347288949896
pswiki,False,40.0,0.06869009584664537,0.6323529411764706,0.793583432354439,0.20260642919200694,0.1239193083573487
pswiki,False,41.0,0.07154742096505824,0.6323529411764706,0.8020709556951282,0.19391833188531712,0.12855007473841554
pswiki,False,42.0,0.0731070496083551,0.6176470588235294,0.8103887285690036,0.18505647263249347,0.13073929961089495
pswiki,False,43.0,0.07581227436823104,0.6176470588235294,0.8173484977083687,0.17793223284100781,0.13504823151125403
pswiki,False,44.0,0.07850467289719626,0.6176470588235294,0.8237990154472925,0.17132927888792354,0.13930348258706465
pswiki,False,45.0,0.08179162609542356,0.6176470588235294,0.8310982855202852,0.16385751520417027,0.14445399828030953
pswiki,False,46.0,0.08408408408408409,0.6176470588235294,0.8358512985910711,0.158992180712424,0.14801762114537445
pswiki,False,47.0,0.08609958506224066,0.6102941176470589,0.841453063995926,0.15308427454387488,0.1509090909090909
pswiki,False,48.0,0.08867521367521368,0.6102941176470589,0.8462060770667119,0.14821894005212857,0.15485074626865672
pswiki,False,49.0,0.09050772626931568,0.6029411764705882,0.8509590901374979,0.1431798436142485,0.15738963531669867
pswiki,False,50.0,0.09328782707622298,0.6029411764705882,0.8555423527414701,0.13848827106863598,0.16157635467980294
pswiki,False,51.0,0.09579439252336448,0.6029411764705882,0.8594466134781871,0.13449174630755864,0.16532258064516128
pswiki,False,52.0,0.09866017052375152,0.5955882352941176,0.865048378883042,0.12858384013900956,0.16927899686520376
pswiki,False,53.0,0.1008827238335435,0.5882352941176471,0.8694618910202003,0.12389226759339704,0.1722282023681378
pswiki,False,54.0,0.10276679841897234,0.5735294117647058,0.8745544050246138,0.11833188531711555,0.17430167597765364
pswiki,False,55.0,0.10597826086956522,0.5735294117647058,0.8784586657613308,0.11433536055603823,0.17889908256880735
pswiki,False,56.0,0.11,0.5661764705882353,0.8842301816329995,0.10825369244135534,0.1842105263157895
pswiki,False,57.0,0.11225997045790251,0.5588235294117647,0.887794941436089,0.10443092962641182,0.18696186961869618
pswiki,False,58.0,0.11585365853658537,0.5588235294117647,0.8913597012391784,0.10078192875760209,0.19191919191919193
pswiki,False,59.0,0.11737089201877934,0.5514705882352942,0.8939059582413852,0.09800173761946133,0.1935483870967742
pswiki,False,60.0,0.12077294685990338,0.5514705882352942,0.8969614666440333,0.094874022589053,0.19815059445178335
pswiki,False,61.0,0.12060301507537688,0.5294117647058824,0.9000169750466814,0.09122502172024327,0.19645293315143245
pswiki,False,62.0,0.12369337979094076,0.5220588235294118,0.9035817348497709,0.08740225890529973,0.19999999999999998
pswiki,False,63.0,0.12387791741472172,0.5073529411764706,0.90578849091835,0.08479582971329279,0.1991341991341991
pswiki,False,64.0,0.12730627306273062,0.5073529411764706,0.9083347479205568,0.08218940052128584,0.20353982300884957
pswiki,False,65.0,0.1297709923664122,0.5,0.9110507553895774,0.07923544743701129,0.20606060606060606
pswiki,False,66.0,0.1341222879684418,0.5,0.9139365133254116,0.07628149435273675,0.21150855365474336
pswiki,False,67.0,0.13535353535353536,0.49264705882352944,0.9156340179935495,0.074370112945265,0.21236133122028528
pswiki,False,68.0,0.14046121593291405,0.49264705882352944,0.9186895263961976,0.07124239791485665,0.21859706362153347
pswiki,False,69.0,0.14347826086956522,0.4852941176470588,0.9212357833984044,0.0684622067767159,0.22147651006711408
pswiki,False,70.0,0.14446952595936793,0.47058823529411764,0.9234425394669835,0.06585577758470895,0.22107081174438686
pswiki,False,71.0,0.14617169373549885,0.4632352941176471,0.9251400441351214,0.06394439617723718,0.22222222222222224
pswiki,False,72.0,0.1435523114355231,0.4338235294117647,0.9271770497368867,0.06116420503909644,0.21572212065813529
pswiki,False,73.0,0.14786967418546365,0.4338235294117647,0.9292140553386522,0.059079061685490875,0.22056074766355135
pswiki,False,74.0,0.14285714285714285,0.40441176470588236,0.9302325581395349,0.05734144222415291,0.2111324376199616
pswiki,False,75.0,0.1478494623655914,0.40441176470588236,0.9324393142081141,0.055082536924413554,0.21653543307086617
pswiki,False,76.0,0.14958448753462603,0.39705882352941174,0.9339670684094381,0.05334491746307558,0.21730382293762573
pswiki,False,77.0,0.15088757396449703,0.375,0.9368528263452724,0.04986967854039965,0.2151898734177215
pswiki,False,78.0,0.15335463258785942,0.35294117647058826,0.9400780852147343,0.046046915725456126,0.21380846325167036
pswiki,False,79.0,0.15824915824915825,0.34558823529411764,0.9424545917501274,0.043440486533449174,0.21709006928406469
pswiki,False,80.0,0.1601423487544484,0.33088235294117646,0.9444915973518927,0.04100781928757602,0.21582733812949642
pswiki,False,81.0,0.16226415094339622,0.3161764705882353,0.9465286029536581,0.038575152041702865,0.21446384039900251
pswiki,False,82.0,0.1694915254237288,0.29411764705882354,0.9504328636903752,0.03405734144222415,0.21505376344086022
pswiki,False,83.0,0.1735159817351598,0.27941176470588236,0.9526396197589544,0.031450912250217206,0.21408450704225354
pswiki,False,84.0,0.17587939698492464,0.25735294117647056,0.9550161262943473,0.028496959165942658,0.20895522388059704
pswiki,False,85.0,0.17486338797814208,0.23529411764705882,0.9567136309624852,0.0262380538662033,0.20062695924764887
pswiki,False,86.0,0.18633540372670807,0.22058823529411764,0.9597691393651333,0.022762814943527367,0.202020202020202
pswiki,False,87.0,0.19285714285714287,0.19852941176470587,0.96231539636734,0.019635099913119028,0.1956521739130435
pswiki,False,88.0,0.20634920634920634,0.19117647058823528,0.9643524019691054,0.01737619461337967,0.19847328244274806
pswiki,False,89.0,0.22018348623853212,0.17647058823529413,0.9665591580376846,0.014769765421372719,0.19591836734693877
pswiki,False,90.0,0.25274725274725274,0.16911764705882354,0.9692751655067051,0.011815812337098176,0.2026431718061674
pswiki,False,91.0,0.2625,0.15441176470588236,0.9704634187744017,0.010251954821894005,0.19444444444444445
pswiki,False,92.0,0.2463768115942029,0.125,0.970972670174843,0.009035621198957428,0.16585365853658537
pswiki,False,93.0,0.2711864406779661,0.11764705882352941,0.9723306739093532,0.007471763683753258,0.1641025641025641
pswiki,False,94.0,0.30612244897959184,0.11029411764705882,0.9736886776438636,0.005907906168549088,0.16216216216216217
pswiki,False,95.0,0.35714285714285715,0.11029411764705882,0.97487693091156,0.004691572545612511,0.16853932584269662
pswiki,False,96.0,0.37037037037037035,0.07352941176470588,0.9757256832456289,0.002953953084274544,0.12269938650306748
pswiki,False,97.0,0.42105263157894735,0.058823529411764705,0.976404685112884,0.0019113814074717638,0.1032258064516129
pswiki,False,98.0,0.5,0.058823529411764705,0.9769139365133254,0.0013900955690703736,0.10526315789473684
pswiki,False,99.0,0.4444444444444444,0.029411764705882353,0.9767441860465116,0.0008688097306689834,0.05517241379310345
