wiki_db,user_is_anonymous_or_bot,threshold,precision,recall,accuracy,fpr,F1
shnwiki,True,0.0,0.13293051359516617,1.0,0.13293051359516617,1.0,0.23466666666666666
shnwiki,True,1.0,0.13293051359516617,1.0,0.13293051359516617,1.0,0.23466666666666666
shnwiki,True,2.0,0.13293051359516617,1.0,0.13293051359516617,1.0,0.23466666666666666
shnwiki,True,3.0,0.13293051359516617,1.0,0.13293051359516617,1.0,0.23466666666666666
shnwiki,True,4.0,0.13293051359516617,1.0,0.13293051359516617,1.0,0.23466666666666666
shnwiki,True,5.0,0.13293051359516617,1.0,0.13293051359516617,1.0,0.23466666666666666
shnwiki,True,6.0,0.13293051359516617,1.0,0.13293051359516617,1.0,0.23466666666666666
shnwiki,True,7.0,0.13293051359516617,1.0,0.13293051359516617,1.0,0.23466666666666666
shnwiki,True,8.0,0.13293051359516617,1.0,0.13293051359516617,1.0,0.23466666666666666
shnwiki,True,9.0,0.13293051359516617,1.0,0.13293051359516617,1.0,0.23466666666666666
shnwiki,True,10.0,0.13293051359516617,1.0,0.13293051359516617,1.0,0.23466666666666666
shnwiki,True,11.0,0.13293051359516617,1.0,0.13293051359516617,1.0,0.23466666666666666
shnwiki,True,12.0,0.13333333333333333,1.0,0.13595166163141995,0.9965156794425087,0.23529411764705882
shnwiki,True,13.0,0.1337386018237082,1.0,0.13897280966767372,0.9930313588850174,0.2359249329758713
shnwiki,True,14.0,0.1337386018237082,1.0,0.13897280966767372,0.9930313588850174,0.2359249329758713
shnwiki,True,15.0,0.1345565749235474,1.0,0.14501510574018128,0.9860627177700348,0.2371967654986523
shnwiki,True,16.0,0.1345565749235474,1.0,0.14501510574018128,0.9860627177700348,0.2371967654986523
shnwiki,True,17.0,0.1345565749235474,1.0,0.14501510574018128,0.9860627177700348,0.2371967654986523
shnwiki,True,18.0,0.1345565749235474,1.0,0.14501510574018128,0.9860627177700348,0.2371967654986523
shnwiki,True,19.0,0.13496932515337423,1.0,0.14803625377643503,0.9825783972125436,0.23783783783783782
shnwiki,True,20.0,0.13496932515337423,1.0,0.14803625377643503,0.9825783972125436,0.23783783783783782
shnwiki,True,21.0,0.13538461538461538,1.0,0.1510574018126888,0.9790940766550522,0.23848238482384823
shnwiki,True,22.0,0.13580246913580246,1.0,0.1540785498489426,0.975609756097561,0.2391304347826087
shnwiki,True,23.0,0.13707165109034267,1.0,0.16314199395770393,0.9651567944250871,0.24109589041095889
shnwiki,True,24.0,0.13793103448275862,1.0,0.1691842900302115,0.9581881533101045,0.2424242424242424
shnwiki,True,25.0,0.13924050632911392,1.0,0.1782477341389728,0.9477351916376306,0.2444444444444444
shnwiki,True,26.0,0.13968253968253969,1.0,0.18126888217522658,0.9442508710801394,0.24512534818941506
shnwiki,True,27.0,0.14057507987220447,1.0,0.18731117824773413,0.9372822299651568,0.2464985994397759
shnwiki,True,28.0,0.14426229508196722,1.0,0.21148036253776434,0.9094076655052264,0.2521489971346705
shnwiki,True,29.0,0.14521452145214522,1.0,0.2175226586102719,0.9024390243902439,0.25360230547550433
shnwiki,True,30.0,0.15017064846416384,1.0,0.24773413897280966,0.867595818815331,0.26112759643916916
shnwiki,True,31.0,0.16058394160583941,1.0,0.30513595166163143,0.8013937282229965,0.27672955974842767
shnwiki,True,32.0,0.16666666666666666,1.0,0.33534743202416917,0.7665505226480837,0.2857142857142857
shnwiki,True,33.0,0.1774193548387097,1.0,0.38368580060422963,0.710801393728223,0.3013698630136986
shnwiki,True,34.0,0.1896551724137931,1.0,0.43202416918429004,0.6550522648083623,0.3188405797101449
shnwiki,True,35.0,0.19730941704035873,1.0,0.459214501510574,0.6236933797909407,0.32958801498127344
shnwiki,True,36.0,0.20276497695852536,1.0,0.4773413897280967,0.6027874564459931,0.3371647509578544
shnwiki,True,37.0,0.22,1.0,0.5287009063444109,0.5435540069686411,0.36065573770491804
shnwiki,True,38.0,0.22916666666666666,1.0,0.552870090634441,0.5156794425087108,0.37288135593220334
shnwiki,True,39.0,0.2391304347826087,1.0,0.5770392749244713,0.4878048780487805,0.3859649122807018
shnwiki,True,40.0,0.25287356321839083,1.0,0.6072507552870091,0.4529616724738676,0.4036697247706423
shnwiki,True,41.0,0.2634730538922156,1.0,0.6283987915407855,0.42857142857142855,0.4170616113744076
shnwiki,True,42.0,0.27672955974842767,1.0,0.6525679758308157,0.40069686411149824,0.43349753694581283
shnwiki,True,43.0,0.2838709677419355,1.0,0.6646525679758308,0.3867595818815331,0.4422110552763819
shnwiki,True,44.0,0.2972972972972973,1.0,0.6858006042296072,0.3623693379790941,0.4583333333333333
shnwiki,True,45.0,0.3142857142857143,1.0,0.7099697885196374,0.3344947735191638,0.4782608695652174
shnwiki,True,46.0,0.3308270676691729,1.0,0.7311178247734139,0.31010452961672474,0.4971751412429378
shnwiki,True,47.0,0.3492063492063492,1.0,0.7522658610271903,0.2857142857142857,0.5176470588235293
shnwiki,True,48.0,0.3548387096774194,1.0,0.7583081570996979,0.2787456445993031,0.5238095238095238
shnwiki,True,49.0,0.36363636363636365,1.0,0.7673716012084593,0.2682926829268293,0.5333333333333333
shnwiki,True,50.0,0.3728813559322034,1.0,0.7764350453172205,0.2578397212543554,0.54320987654321
shnwiki,True,51.0,0.38596491228070173,1.0,0.7885196374622356,0.24390243902439024,0.5569620253164557
shnwiki,True,52.0,0.4036697247706422,1.0,0.8036253776435045,0.2264808362369338,0.5751633986928105
shnwiki,True,53.0,0.41904761904761906,1.0,0.8157099697885196,0.21254355400696864,0.5906040268456376
shnwiki,True,54.0,0.41904761904761906,1.0,0.8157099697885196,0.21254355400696864,0.5906040268456376
shnwiki,True,55.0,0.41904761904761906,1.0,0.8157099697885196,0.21254355400696864,0.5906040268456376
shnwiki,True,56.0,0.41904761904761906,1.0,0.8157099697885196,0.21254355400696864,0.5906040268456376
shnwiki,True,57.0,0.42718446601941745,1.0,0.8217522658610272,0.20557491289198607,0.5986394557823129
shnwiki,True,58.0,0.42718446601941745,1.0,0.8217522658610272,0.20557491289198607,0.5986394557823129
shnwiki,True,59.0,0.43137254901960786,1.0,0.824773413897281,0.20209059233449478,0.6027397260273972
shnwiki,True,60.0,0.4583333333333333,1.0,0.8429003021148036,0.18118466898954705,0.6285714285714286
shnwiki,True,61.0,0.46808510638297873,1.0,0.8489425981873112,0.17421602787456447,0.6376811594202899
shnwiki,True,62.0,0.46808510638297873,1.0,0.8489425981873112,0.17421602787456447,0.6376811594202899
shnwiki,True,63.0,0.46808510638297873,1.0,0.8489425981873112,0.17421602787456447,0.6376811594202899
shnwiki,True,64.0,0.46808510638297873,1.0,0.8489425981873112,0.17421602787456447,0.6376811594202899
shnwiki,True,65.0,0.4888888888888889,1.0,0.8610271903323263,0.1602787456445993,0.6567164179104478
shnwiki,True,66.0,0.4943820224719101,1.0,0.8640483383685801,0.156794425087108,0.6616541353383459
shnwiki,True,67.0,0.4943820224719101,1.0,0.8640483383685801,0.156794425087108,0.6616541353383459
shnwiki,True,68.0,0.5176470588235295,1.0,0.8761329305135952,0.14285714285714285,0.682170542635659
shnwiki,True,69.0,0.5121951219512195,0.9545454545454546,0.8731117824773413,0.13937282229965156,0.6666666666666667
shnwiki,True,70.0,0.5256410256410257,0.9318181818181818,0.879154078549849,0.1289198606271777,0.6721311475409836
shnwiki,True,71.0,0.5205479452054794,0.8636363636363636,0.8761329305135952,0.12195121951219512,0.6495726495726495
shnwiki,True,72.0,0.4,0.5,0.8338368580060423,0.11498257839721254,0.4444444444444445
shnwiki,True,73.0,0.3469387755102041,0.38636363636363635,0.8217522658610272,0.11149825783972125,0.3655913978494624
shnwiki,True,74.0,0.3469387755102041,0.38636363636363635,0.8217522658610272,0.11149825783972125,0.3655913978494624
shnwiki,True,75.0,0.3404255319148936,0.36363636363636365,0.8217522658610272,0.10801393728222997,0.3516483516483517
shnwiki,True,76.0,0.3333333333333333,0.3409090909090909,0.8217522658610272,0.10452961672473868,0.33707865168539325
shnwiki,True,77.0,0.32558139534883723,0.3181818181818182,0.8217522658610272,0.10104529616724739,0.3218390804597701
shnwiki,True,78.0,0.2972972972972973,0.25,0.8217522658610272,0.09059233449477352,0.2716049382716049
shnwiki,True,79.0,0.3055555555555556,0.25,0.824773413897281,0.08710801393728224,0.275
shnwiki,True,80.0,0.29411764705882354,0.22727272727272727,0.824773413897281,0.08362369337979095,0.25641025641025644
shnwiki,True,81.0,0.2903225806451613,0.20454545454545456,0.8277945619335347,0.07665505226480836,0.24000000000000005
shnwiki,True,82.0,0.17391304347826086,0.09090909090909091,0.8217522658610272,0.06620209059233449,0.11940298507462685
shnwiki,True,83.0,0.19047619047619047,0.09090909090909091,0.8277945619335347,0.059233449477351915,0.12307692307692307
shnwiki,True,84.0,0.13333333333333333,0.045454545454545456,0.8338368580060423,0.04529616724738676,0.06779661016949153
shnwiki,True,85.0,0.0,0.0,0.8338368580060423,0.03832752613240418,0.06779661016949153
shnwiki,True,86.0,0.0,0.0,0.8398791540785498,0.0313588850174216,0.06779661016949153
shnwiki,True,87.0,0.0,0.0,0.8398791540785498,0.0313588850174216,0.06779661016949153
shnwiki,True,88.0,0.0,0.0,0.8459214501510574,0.024390243902439025,0.06779661016949153
shnwiki,True,89.0,0.0,0.0,0.8489425981873112,0.020905923344947737,0.06779661016949153
shnwiki,True,90.0,0.0,0.0,0.8549848942598187,0.013937282229965157,0.06779661016949153
shnwiki,True,91.0,0.0,0.0,0.8580060422960725,0.010452961672473868,0.06779661016949153
shnwiki,True,92.0,0.0,0.0,0.8610271903323263,0.006968641114982578,0.06779661016949153
shnwiki,True,93.0,0.0,0.0,0.8640483383685801,0.003484320557491289,0.06779661016949153
shnwiki,True,94.0,0.0,0.0,0.8640483383685801,0.003484320557491289,0.06779661016949153
shnwiki,True,95.0,0.0,0.0,0.8670694864048338,0.0,0.06779661016949153
shnwiki,True,96.0,0.0,0.0,0.8670694864048338,0.0,0.06779661016949153
shnwiki,True,97.0,0.0,0.0,0.8670694864048338,0.0,0.06779661016949153
shnwiki,True,98.0,0.0,0.0,0.8670694864048338,0.0,0.06779661016949153
shnwiki,True,99.0,0.0,0.0,0.8670694864048338,0.0,0.06779661016949153
shnwiki,False,0.0,0.027230046948356807,1.0,0.027230046948356807,1.0,0.05301645338208409
shnwiki,False,1.0,0.027230046948356807,1.0,0.027230046948356807,1.0,0.05301645338208409
shnwiki,False,2.0,0.02724283701268201,1.0,0.027699530516431925,0.9995173745173745,0.053040695016003656
shnwiki,False,3.0,0.027358490566037737,1.0,0.03192488262910798,0.9951737451737451,0.05325987144168962
shnwiki,False,4.0,0.027804410354745925,1.0,0.04788732394366197,0.9787644787644788,0.0541044776119403
shnwiki,False,5.0,0.02837573385518591,1.0,0.0676056338028169,0.9584942084942085,0.055185537583254035
shnwiki,False,6.0,0.028372324539571926,0.9827586206896551,0.08309859154929577,0.9420849420849421,0.05515239477503629
shnwiki,False,7.0,0.028860759493670885,0.9827586206896551,0.09906103286384976,0.9256756756756757,0.056074766355140186
shnwiki,False,8.0,0.029245767060030785,0.9827586206896551,0.11126760563380282,0.9131274131274131,0.056801195814648736
shnwiki,False,9.0,0.029889879391714735,0.9827586206896551,0.13098591549295774,0.8928571428571429,0.058015267175572524
shnwiki,False,10.0,0.029994643813604713,0.9655172413793104,0.1488262910798122,0.874034749034749,0.05818181818181818
shnwiki,False,11.0,0.03102493074792244,0.9655172413793104,0.1779342723004695,0.8441119691119691,0.06011808910359635
shnwiki,False,12.0,0.03175519630484989,0.9482758620689655,0.2112676056338028,0.8093629343629344,0.06145251396648045
shnwiki,False,13.0,0.033013205282112844,0.9482758620689655,0.24225352112676057,0.7775096525096525,0.06380510440835267
shnwiki,False,14.0,0.03492063492063492,0.9482758620689655,0.28497652582159627,0.7335907335907336,0.06736068585425597
shnwiki,False,15.0,0.03840782122905028,0.9482758620689655,0.352112676056338,0.6645752895752896,0.0738255033557047
shnwiki,False,16.0,0.04023408924652524,0.9482758620689655,0.3826291079812207,0.6332046332046332,0.07719298245614034
shnwiki,False,17.0,0.044153720359771054,0.9310344827586207,0.44929577464788734,0.5641891891891891,0.08430913348946137
shnwiki,False,18.0,0.04608695652173913,0.9137931034482759,0.48262910798122066,0.5294401544401545,0.08774834437086092
shnwiki,False,19.0,0.04719501335707925,0.9137931034482759,0.4953051643192488,0.5164092664092664,0.08975444538526672
shnwiki,False,20.0,0.04796380090497738,0.9137931034482759,0.503755868544601,0.5077220077220077,0.09114359415305245
shnwiki,False,21.0,0.05023696682464455,0.9137931034482759,0.5272300469483568,0.48359073359073357,0.09523809523809525
shnwiki,False,22.0,0.05110896817743491,0.9137931034482759,0.535680751173709,0.4749034749034749,0.09680365296803654
shnwiki,False,23.0,0.0517578125,0.9137931034482759,0.5417840375586854,0.4686293436293436,0.09796672828096119
shnwiki,False,24.0,0.05128205128205128,0.896551724137931,0.5455399061032864,0.4642857142857143,0.09701492537313432
shnwiki,False,25.0,0.05194805194805195,0.896551724137931,0.5516431924882629,0.458011583011583,0.09820585457979225
shnwiki,False,26.0,0.051515151515151514,0.8793103448275862,0.5558685446009389,0.4531853281853282,0.09732824427480916
shnwiki,False,27.0,0.05107252298263534,0.8620689655172413,0.560093896713615,0.4483590733590734,0.09643201542912247
shnwiki,False,28.0,0.05192107995846314,0.8620689655172413,0.5676056338028169,0.4406370656370656,0.0979431929480901
shnwiki,False,29.0,0.052576235541535225,0.8620689655172413,0.5732394366197183,0.43484555984555984,0.09910802775024777
shnwiki,False,30.0,0.053475935828877004,0.8620689655172413,0.5807511737089202,0.42712355212355213,0.10070493454179255
shnwiki,False,31.0,0.05482456140350877,0.8620689655172413,0.5915492957746479,0.416023166023166,0.10309278350515463
shnwiki,False,32.0,0.055741360089186176,0.8620689655172413,0.5985915492957746,0.40878378378378377,0.10471204188481675
shnwiki,False,33.0,0.05701254275940707,0.8620689655172413,0.607981220657277,0.39913127413127414,0.10695187165775402
shnwiki,False,34.0,0.05841121495327103,0.8620689655172413,0.6178403755868545,0.388996138996139,0.10940919037199123
shnwiki,False,35.0,0.05931198102016608,0.8620689655172413,0.6239436619718309,0.3827220077220077,0.11098779134295228
shnwiki,False,36.0,0.06016847172081829,0.8620689655172413,0.6295774647887324,0.3769305019305019,0.11248593925759279
shnwiki,False,37.0,0.06172839506172839,0.8620689655172413,0.6394366197183099,0.3667953667953668,0.11520737327188939
shnwiki,False,38.0,0.06265664160401002,0.8620689655172413,0.6450704225352113,0.361003861003861,0.11682242990654206
shnwiki,False,39.0,0.06418485237483953,0.8620689655172413,0.6539906103286385,0.3518339768339768,0.11947431302270012
shnwiki,False,40.0,0.0655307994757536,0.8620689655172413,0.6615023474178404,0.3441119691119691,0.1218026796589525
shnwiki,False,41.0,0.06684491978609626,0.8620689655172413,0.6685446009389672,0.33687258687258687,0.12406947890818859
shnwiki,False,42.0,0.06821282401091405,0.8620689655172413,0.6755868544600939,0.3296332046332046,0.1264222503160556
shnwiki,False,43.0,0.06934812760055478,0.8620689655172413,0.6812206572769953,0.32384169884169883,0.12836970474967907
shnwiki,False,44.0,0.07142857142857142,0.8620689655172413,0.6910798122065728,0.3137065637065637,0.13192612137203166
shnwiki,False,45.0,0.07256894049346879,0.8620689655172413,0.6962441314553991,0.3083976833976834,0.13386880856760375
shnwiki,False,46.0,0.07530120481927711,0.8620689655172413,0.707981220657277,0.29633204633204635,0.13850415512465375
shnwiki,False,47.0,0.08818342151675485,0.8620689655172413,0.7535211267605634,0.24951737451737452,0.15999999999999998
shnwiki,False,48.0,0.08880994671403197,0.8620689655172413,0.7553990610328638,0.2475868725868726,0.1610305958132045
shnwiki,False,49.0,0.10141987829614604,0.8620689655172413,0.788262910798122,0.2138030888030888,0.18148820326678763
shnwiki,False,50.0,0.14367816091954022,0.8620689655172413,0.856338028169014,0.1438223938223938,0.24630541871921183
shnwiki,False,51.0,0.153125,0.8448275862068966,0.8685446009389671,0.13079150579150578,0.2592592592592593
shnwiki,False,52.0,0.15654952076677317,0.8448275862068966,0.8718309859154929,0.1274131274131274,0.2641509433962264
shnwiki,False,53.0,0.1611842105263158,0.8448275862068966,0.8760563380281691,0.12306949806949807,0.2707182320441989
shnwiki,False,54.0,0.18490566037735848,0.8448275862068966,0.8943661971830986,0.10424710424710425,0.30340557275541796
shnwiki,False,55.0,0.21777777777777776,0.8448275862068966,0.9131455399061033,0.08494208494208494,0.34628975265017664
shnwiki,False,56.0,0.21875,0.8448275862068966,0.9136150234741784,0.08445945945945946,0.3475177304964539
shnwiki,False,57.0,0.22272727272727272,0.8448275862068966,0.9154929577464789,0.08252895752895753,0.3525179856115108
shnwiki,False,58.0,0.22897196261682243,0.8448275862068966,0.9183098591549296,0.07963320463320463,0.3602941176470588
shnwiki,False,59.0,0.245,0.8448275862068966,0.9248826291079812,0.07287644787644787,0.3798449612403101
shnwiki,False,60.0,0.25654450261780104,0.8448275862068966,0.9291079812206573,0.06853281853281853,0.39357429718875503
shnwiki,False,61.0,0.266304347826087,0.8448275862068966,0.9323943661971831,0.06515444015444015,0.40495867768595045
shnwiki,False,62.0,0.28823529411764703,0.8448275862068966,0.9389671361502347,0.0583976833976834,0.42982456140350866
shnwiki,False,63.0,0.2934131736526946,0.8448275862068966,0.9403755868544601,0.05694980694980695,0.4355555555555556
shnwiki,False,64.0,0.3006134969325153,0.8448275862068966,0.9422535211267605,0.05501930501930502,0.44343891402714924
shnwiki,False,65.0,0.3161290322580645,0.8448275862068966,0.9460093896713615,0.05115830115830116,0.46009389671361495
shnwiki,False,66.0,0.32432432432432434,0.8275862068965517,0.9483568075117371,0.04826254826254826,0.46601941747572806
shnwiki,False,67.0,0.3263888888888889,0.8103448275862069,0.9492957746478873,0.04681467181467181,0.4653465346534653
shnwiki,False,68.0,0.34057971014492755,0.8103448275862069,0.952112676056338,0.04391891891891892,0.4795918367346939
shnwiki,False,69.0,0.3435114503816794,0.7758620689655172,0.9535211267605633,0.041505791505791506,0.4761904761904761
shnwiki,False,70.0,0.36065573770491804,0.7586206896551724,0.9568075117370892,0.037644787644787646,0.48888888888888893
shnwiki,False,71.0,0.35964912280701755,0.7068965517241379,0.9577464788732394,0.03523166023166023,0.47674418604651164
shnwiki,False,72.0,0.2717391304347826,0.43103448275862066,0.9530516431924883,0.032335907335907334,0.3333333333333333
shnwiki,False,73.0,0.2289156626506024,0.3275862068965517,0.9516431924882629,0.03088803088803089,0.2695035460992908
shnwiki,False,74.0,0.24050632911392406,0.3275862068965517,0.9535211267605633,0.02895752895752896,0.2773722627737226
shnwiki,False,75.0,0.23376623376623376,0.3103448275862069,0.9535211267605633,0.028474903474903474,0.26666666666666666
shnwiki,False,76.0,0.2328767123287671,0.29310344827586204,0.9544600938967136,0.02702702702702703,0.2595419847328244
shnwiki,False,77.0,0.23529411764705882,0.27586206896551724,0.955868544600939,0.025096525096525095,0.253968253968254
shnwiki,False,78.0,0.21666666666666667,0.22413793103448276,0.9568075117370892,0.022683397683397683,0.22033898305084748
shnwiki,False,79.0,0.21818181818181817,0.20689655172413793,0.9582159624413146,0.020752895752895753,0.21238938053097345
shnwiki,False,80.0,0.21153846153846154,0.1896551724137931,0.9586854460093897,0.019787644787644786,0.2
shnwiki,False,81.0,0.20408163265306123,0.1724137931034483,0.9591549295774648,0.018822393822393823,0.1869158878504673
shnwiki,False,82.0,0.125,0.08620689655172414,0.9586854460093897,0.016891891891891893,0.10204081632653061
shnwiki,False,83.0,0.13157894736842105,0.08620689655172414,0.9596244131455399,0.015926640926640926,0.10416666666666667
shnwiki,False,84.0,0.10344827586206896,0.05172413793103448,0.9619718309859155,0.012548262548262547,0.06896551724137931
shnwiki,False,85.0,0.041666666666666664,0.017241379310344827,0.9624413145539906,0.0111003861003861,0.024390243902439025
shnwiki,False,86.0,0.047619047619047616,0.017241379310344827,0.963849765258216,0.009652509652509652,0.025316455696202528
shnwiki,False,87.0,0.05263157894736842,0.017241379310344827,0.9647887323943662,0.008687258687258687,0.025974025974025972
shnwiki,False,88.0,0.0625,0.017241379310344827,0.9661971830985916,0.00723938223938224,0.027027027027027025
shnwiki,False,89.0,0.08333333333333333,0.017241379310344827,0.968075117370892,0.005308880308880309,0.028571428571428574
shnwiki,False,90.0,0.1,0.017241379310344827,0.9690140845070423,0.004343629343629344,0.02941176470588235
shnwiki,False,91.0,0.125,0.017241379310344827,0.9699530516431925,0.0033783783783783786,0.0303030303030303
shnwiki,False,92.0,0.16666666666666666,0.017241379310344827,0.9708920187793427,0.002413127413127413,0.03125
shnwiki,False,93.0,0.2,0.017241379310344827,0.9713615023474178,0.0019305019305019305,0.031746031746031744
shnwiki,False,94.0,0.3333333333333333,0.017241379310344827,0.9723004694835681,0.0009652509652509653,0.03278688524590164
shnwiki,False,95.0,0.5,0.017241379310344827,0.9727699530516432,0.00048262548262548264,0.03333333333333333
shnwiki,False,96.0,0.0,0.0,0.9723004694835681,0.00048262548262548264,0.03333333333333333
shnwiki,False,97.0,0.0,0.0,0.9723004694835681,0.00048262548262548264,0.03333333333333333
shnwiki,False,98.0,0.0,0.0,0.9727699530516432,0.0,0.03333333333333333
shnwiki,False,99.0,0.0,0.0,0.9727699530516432,0.0,0.03333333333333333
