wiki_db,user_is_anonymous_or_bot,threshold,precision,recall,accuracy,fpr,F1
snwiki,True,0.0,0.23756906077348067,1.0,0.23756906077348067,1.0,0.38392857142857145
snwiki,True,1.0,0.23756906077348067,1.0,0.23756906077348067,1.0,0.38392857142857145
snwiki,True,2.0,0.23756906077348067,1.0,0.23756906077348067,1.0,0.38392857142857145
snwiki,True,3.0,0.23756906077348067,1.0,0.23756906077348067,1.0,0.38392857142857145
snwiki,True,4.0,0.23756906077348067,1.0,0.23756906077348067,1.0,0.38392857142857145
snwiki,True,5.0,0.23756906077348067,1.0,0.23756906077348067,1.0,0.38392857142857145
snwiki,True,6.0,0.23756906077348067,1.0,0.23756906077348067,1.0,0.38392857142857145
snwiki,True,7.0,0.23756906077348067,1.0,0.23756906077348067,1.0,0.38392857142857145
snwiki,True,8.0,0.23756906077348067,1.0,0.23756906077348067,1.0,0.38392857142857145
snwiki,True,9.0,0.23756906077348067,1.0,0.23756906077348067,1.0,0.38392857142857145
snwiki,True,10.0,0.23756906077348067,1.0,0.23756906077348067,1.0,0.38392857142857145
snwiki,True,11.0,0.23756906077348067,1.0,0.23756906077348067,1.0,0.38392857142857145
snwiki,True,12.0,0.23756906077348067,1.0,0.23756906077348067,1.0,0.38392857142857145
snwiki,True,13.0,0.23756906077348067,1.0,0.23756906077348067,1.0,0.38392857142857145
snwiki,True,14.0,0.23756906077348067,1.0,0.23756906077348067,1.0,0.38392857142857145
snwiki,True,15.0,0.23756906077348067,1.0,0.23756906077348067,1.0,0.38392857142857145
snwiki,True,16.0,0.23756906077348067,1.0,0.23756906077348067,1.0,0.38392857142857145
snwiki,True,17.0,0.23756906077348067,1.0,0.23756906077348067,1.0,0.38392857142857145
snwiki,True,18.0,0.23756906077348067,1.0,0.23756906077348067,1.0,0.38392857142857145
snwiki,True,19.0,0.23756906077348067,1.0,0.23756906077348067,1.0,0.38392857142857145
snwiki,True,20.0,0.23756906077348067,1.0,0.23756906077348067,1.0,0.38392857142857145
snwiki,True,21.0,0.23756906077348067,1.0,0.23756906077348067,1.0,0.38392857142857145
snwiki,True,22.0,0.23756906077348067,1.0,0.23756906077348067,1.0,0.38392857142857145
snwiki,True,23.0,0.23756906077348067,1.0,0.23756906077348067,1.0,0.38392857142857145
snwiki,True,24.0,0.23756906077348067,1.0,0.23756906077348067,1.0,0.38392857142857145
snwiki,True,25.0,0.23756906077348067,1.0,0.23756906077348067,1.0,0.38392857142857145
snwiki,True,26.0,0.23756906077348067,1.0,0.23756906077348067,1.0,0.38392857142857145
snwiki,True,27.0,0.23756906077348067,1.0,0.23756906077348067,1.0,0.38392857142857145
snwiki,True,28.0,0.23756906077348067,1.0,0.23756906077348067,1.0,0.38392857142857145
snwiki,True,29.0,0.23756906077348067,1.0,0.23756906077348067,1.0,0.38392857142857145
snwiki,True,30.0,0.23756906077348067,1.0,0.23756906077348067,1.0,0.38392857142857145
snwiki,True,31.0,0.23756906077348067,1.0,0.23756906077348067,1.0,0.38392857142857145
snwiki,True,32.0,0.23756906077348067,1.0,0.23756906077348067,1.0,0.38392857142857145
snwiki,True,33.0,0.23756906077348067,1.0,0.23756906077348067,1.0,0.38392857142857145
snwiki,True,34.0,0.23756906077348067,1.0,0.23756906077348067,1.0,0.38392857142857145
snwiki,True,35.0,0.23756906077348067,1.0,0.23756906077348067,1.0,0.38392857142857145
snwiki,True,36.0,0.23756906077348067,1.0,0.23756906077348067,1.0,0.38392857142857145
snwiki,True,37.0,0.23756906077348067,1.0,0.23756906077348067,1.0,0.38392857142857145
snwiki,True,38.0,0.23756906077348067,1.0,0.23756906077348067,1.0,0.38392857142857145
snwiki,True,39.0,0.23756906077348067,1.0,0.23756906077348067,1.0,0.38392857142857145
snwiki,True,40.0,0.23756906077348067,1.0,0.23756906077348067,1.0,0.38392857142857145
snwiki,True,41.0,0.23756906077348067,1.0,0.23756906077348067,1.0,0.38392857142857145
snwiki,True,42.0,0.23756906077348067,1.0,0.23756906077348067,1.0,0.38392857142857145
snwiki,True,43.0,0.2388888888888889,1.0,0.2430939226519337,0.9927536231884058,0.38565022421524664
snwiki,True,44.0,0.2388888888888889,1.0,0.2430939226519337,0.9927536231884058,0.38565022421524664
snwiki,True,45.0,0.2388888888888889,1.0,0.2430939226519337,0.9927536231884058,0.38565022421524664
snwiki,True,46.0,0.24022346368715083,1.0,0.24861878453038674,0.9855072463768116,0.3873873873873874
snwiki,True,47.0,0.24157303370786518,1.0,0.2541436464088398,0.9782608695652174,0.3891402714932127
snwiki,True,48.0,0.24157303370786518,1.0,0.2541436464088398,0.9782608695652174,0.3891402714932127
snwiki,True,49.0,0.24293785310734464,1.0,0.2596685082872928,0.9710144927536232,0.3909090909090909
snwiki,True,50.0,0.24431818181818182,1.0,0.26519337016574585,0.9637681159420289,0.3926940639269406
snwiki,True,51.0,0.24431818181818182,1.0,0.26519337016574585,0.9637681159420289,0.3926940639269406
snwiki,True,52.0,0.24431818181818182,1.0,0.26519337016574585,0.9637681159420289,0.3926940639269406
snwiki,True,53.0,0.24431818181818182,1.0,0.26519337016574585,0.9637681159420289,0.3926940639269406
snwiki,True,54.0,0.24431818181818182,1.0,0.26519337016574585,0.9637681159420289,0.3926940639269406
snwiki,True,55.0,0.2471264367816092,1.0,0.27624309392265195,0.9492753623188406,0.39631336405529954
snwiki,True,56.0,0.2471264367816092,1.0,0.27624309392265195,0.9492753623188406,0.39631336405529954
snwiki,True,57.0,0.2471264367816092,1.0,0.27624309392265195,0.9492753623188406,0.39631336405529954
snwiki,True,58.0,0.24855491329479767,1.0,0.281767955801105,0.9420289855072463,0.39814814814814814
snwiki,True,59.0,0.25,1.0,0.287292817679558,0.9347826086956522,0.4
snwiki,True,60.0,0.2485207100591716,0.9767441860465116,0.292817679558011,0.9202898550724637,0.39622641509433965
snwiki,True,61.0,0.2485207100591716,0.9767441860465116,0.292817679558011,0.9202898550724637,0.39622641509433965
snwiki,True,62.0,0.2485207100591716,0.9767441860465116,0.292817679558011,0.9202898550724637,0.39622641509433965
snwiki,True,63.0,0.25153374233128833,0.9534883720930233,0.3149171270718232,0.8840579710144928,0.39805825242718446
snwiki,True,64.0,0.25153374233128833,0.9534883720930233,0.3149171270718232,0.8840579710144928,0.39805825242718446
snwiki,True,65.0,0.25625,0.9534883720930233,0.3314917127071823,0.8623188405797102,0.40394088669950734
snwiki,True,66.0,0.2578616352201258,0.9534883720930233,0.3370165745856354,0.855072463768116,0.4059405940594059
snwiki,True,67.0,0.2564102564102564,0.9302325581395349,0.3425414364640884,0.8405797101449275,0.4020100502512563
snwiki,True,68.0,0.26490066225165565,0.9302325581395349,0.3701657458563536,0.8043478260869565,0.4123711340206186
snwiki,True,69.0,0.26490066225165565,0.9302325581395349,0.3701657458563536,0.8043478260869565,0.4123711340206186
snwiki,True,70.0,0.26666666666666666,0.9302325581395349,0.3756906077348066,0.7971014492753623,0.41450777202072536
snwiki,True,71.0,0.26666666666666666,0.9302325581395349,0.3756906077348066,0.7971014492753623,0.41450777202072536
snwiki,True,72.0,0.2653061224489796,0.9069767441860465,0.3812154696132597,0.782608695652174,0.4105263157894737
snwiki,True,73.0,0.2695035460992908,0.8837209302325582,0.40331491712707185,0.7463768115942029,0.41304347826086957
snwiki,True,74.0,0.2695035460992908,0.8837209302325582,0.40331491712707185,0.7463768115942029,0.41304347826086957
snwiki,True,75.0,0.2733812949640288,0.8837209302325582,0.4143646408839779,0.7318840579710145,0.4175824175824176
snwiki,True,76.0,0.2835820895522388,0.8837209302325582,0.4419889502762431,0.6956521739130435,0.4293785310734463
snwiki,True,77.0,0.29457364341085274,0.8837209302325582,0.4696132596685083,0.6594202898550725,0.441860465116279
snwiki,True,78.0,0.3008130081300813,0.8604651162790697,0.49171270718232046,0.6231884057971014,0.4457831325301206
snwiki,True,79.0,0.3025210084033613,0.8372093023255814,0.5027624309392266,0.6014492753623188,0.4444444444444444
snwiki,True,80.0,0.3181818181818182,0.813953488372093,0.5414364640883977,0.5434782608695652,0.45751633986928103
snwiki,True,81.0,0.3300970873786408,0.7906976744186046,0.569060773480663,0.5,0.4657534246575343
snwiki,True,82.0,0.34375,0.7674418604651163,0.5966850828729282,0.45652173913043476,0.47482014388489213
snwiki,True,83.0,0.3793103448275862,0.7674418604651163,0.6464088397790055,0.391304347826087,0.5076923076923077
snwiki,True,84.0,0.37662337662337664,0.6744186046511628,0.6574585635359116,0.34782608695652173,0.48333333333333334
snwiki,True,85.0,0.4027777777777778,0.6744186046511628,0.6850828729281768,0.3115942028985507,0.5043478260869566
snwiki,True,86.0,0.417910447761194,0.6511627906976745,0.7016574585635359,0.2826086956521739,0.509090909090909
snwiki,True,87.0,0.43548387096774194,0.627906976744186,0.7182320441988951,0.2536231884057971,0.5142857142857142
snwiki,True,88.0,0.45614035087719296,0.6046511627906976,0.7348066298342542,0.2246376811594203,0.52
snwiki,True,89.0,0.5,0.6046511627906976,0.7624309392265194,0.18840579710144928,0.5473684210526316
snwiki,True,90.0,0.5333333333333333,0.5581395348837209,0.7790055248618785,0.15217391304347827,0.5454545454545454
snwiki,True,91.0,0.5641025641025641,0.5116279069767442,0.7900552486187845,0.12318840579710146,0.5365853658536586
snwiki,True,92.0,0.6666666666666666,0.5116279069767442,0.8232044198895028,0.07971014492753623,0.5789473684210527
snwiki,True,93.0,0.6428571428571429,0.4186046511627907,0.8066298342541437,0.07246376811594203,0.5070422535211269
snwiki,True,94.0,0.7272727272727273,0.37209302325581395,0.8176795580110497,0.043478260869565216,0.49230769230769234
snwiki,True,95.0,0.7894736842105263,0.3488372093023256,0.8232044198895028,0.028985507246376812,0.48387096774193555
snwiki,True,96.0,0.8235294117647058,0.32558139534883723,0.8232044198895028,0.021739130434782608,0.46666666666666673
snwiki,True,97.0,1.0,0.20930232558139536,0.8121546961325967,0.0,0.3461538461538462
snwiki,True,98.0,1.0,0.09302325581395349,0.7845303867403315,0.0,0.1702127659574468
snwiki,True,99.0,1.0,0.046511627906976744,0.7734806629834254,0.0,0.08888888888888888
snwiki,False,0.0,0.0156761815629387,1.0,0.0156761815629387,1.0,0.030868463487675652
snwiki,False,1.0,0.0156761815629387,1.0,0.0156761815629387,1.0,0.030868463487675652
snwiki,False,2.0,0.015705578996718237,1.0,0.01754796443612541,0.998098407416211,0.030925455804292637
snwiki,False,3.0,0.015929624346172136,1.0,0.031586335985025735,0.9838364630377942,0.03135970044465247
snwiki,False,4.0,0.016160154365653642,1.0,0.045624707533926064,0.9695745186593773,0.031806313790648
snwiki,False,5.0,0.016470009832841692,1.0,0.06387459054749649,0.9510339909674352,0.03240628778718259
snwiki,False,6.0,0.01687232435154873,1.0,0.08656995788488535,0.9279771808889945,0.03318474492322932
snwiki,False,7.0,0.017402597402597402,1.0,0.11488067384183434,0.8992155930591871,0.03420985448046975
snwiki,False,8.0,0.01816702819956616,1.0,0.15278427702386524,0.8607083432374614,0.03568575233022637
snwiki,False,9.0,0.019131924614505996,1.0,0.19630322882545626,0.8164963156643689,0.037545530961053515
snwiki,False,10.0,0.020192887281494876,1.0,0.23935423490875057,0.7727596862372237,0.03958641063515509
snwiki,False,11.0,0.021453730387447967,1.0,0.28497894244267663,0.7264083670073687,0.04200626959247649
snwiki,False,12.0,0.022812393598910453,1.0,0.3284978942442677,0.6821963394342762,0.04460719041278296
snwiki,False,13.0,0.024240231548480463,1.0,0.36897519887693025,0.6410743998098407,0.047333097845284354
snwiki,False,14.0,0.02532617037605526,0.9850746268656716,0.40547496490407114,0.6037556453529831,0.04938271604938272
snwiki,False,15.0,0.026645135244247074,0.9850746268656716,0.43565746373420683,0.5730924649393867,0.051886792452830184
snwiki,False,16.0,0.028132992327365727,0.9850746268656716,0.46630790828263924,0.5419538863798431,0.05470368835474513
snwiki,False,17.0,0.029756537421100092,0.9850746268656716,0.4962564342536266,0.5115284050392204,0.05776805251641138
snwiki,False,18.0,0.03110273327049953,0.9850746268656716,0.5187178287318671,0.4887092940337533,0.06030150753768844
snwiki,False,19.0,0.0323846908734053,0.9850746268656716,0.5383715489003276,0.46874257190396956,0.06270783847980997
snwiki,False,20.0,0.03289473684210526,0.9701492537313433,0.5524099204492279,0.454242928452579,0.06363191385217817
snwiki,False,21.0,0.03315789473684211,0.9402985074626866,0.5692559663079083,0.43665319705253147,0.06405693950177938
snwiki,False,22.0,0.03436988543371522,0.9402985074626866,0.584932147870847,0.4207273591632993,0.06631578947368422
snwiki,False,23.0,0.03494926719278467,0.9253731343283582,0.5982686008423023,0.40694081293082957,0.06735469853340575
snwiki,False,24.0,0.035527082119976704,0.9104477611940298,0.611137108095461,0.3936296648443071,0.06838565022421524
snwiki,False,25.0,0.036813518406759206,0.9104477611940298,0.6251754796443613,0.3793677204658902,0.07076566125290024
snwiki,False,26.0,0.03814884302689181,0.9104477611940298,0.6387459054749649,0.3655811742334205,0.07322929171668668
snwiki,False,27.0,0.03922829581993569,0.9104477611940298,0.6490407112774919,0.3551224150225814,0.0752157829839704
snwiki,False,28.0,0.04037061548643282,0.9104477611940298,0.6593355170800187,0.34466365581174235,0.07731305449936628
snwiki,False,29.0,0.041723666210670314,0.9104477611940298,0.6708001871782873,0.33301640123603515,0.07979071288423806
snwiki,False,30.0,0.042432814710042434,0.8955223880597015,0.6815629386991109,0.3218445448062753,0.0810263335584065
snwiki,False,31.0,0.043923865300146414,0.8955223880597015,0.6927936359382312,0.31043498930354174,0.0837404047452896
snwiki,False,32.0,0.04555808656036447,0.8955223880597015,0.7042583060364997,0.29878773472783454,0.08670520231213874
snwiki,False,33.0,0.046347211311861744,0.8805970149253731,0.71408516612073,0.2885666745899691,0.0880597014925373
snwiki,False,34.0,0.04750402576489533,0.8805970149253731,0.7213383247543285,0.281198003327787,0.09014514896867838
snwiki,False,35.0,0.04869857262804366,0.8656716417910447,0.7328029948525971,0.26931304967910624,0.09220985691573927
snwiki,False,36.0,0.050434782608695654,0.8656716417910447,0.742395882077679,0.259567387687188,0.09531635168447002
snwiki,False,37.0,0.05201793721973094,0.8656716417910447,0.7505849321478708,0.2512479201331115,0.09813874788494077
snwiki,False,38.0,0.05405405405405406,0.8656716417910447,0.7604117922321011,0.24126455906821964,0.10175438596491228
snwiki,False,39.0,0.05642023346303502,0.8656716417910447,0.7709405708937763,0.23056810078440695,0.10593607305936073
snwiki,False,40.0,0.0581039755351682,0.8507462686567164,0.7814693495554516,0.21963394342762063,0.10877862595419847
snwiki,False,41.0,0.06025369978858351,0.8507462686567164,0.7896583996256434,0.2113144758735441,0.1125370187561698
snwiki,False,42.0,0.06060606060606061,0.835820895522388,0.7943378568086102,0.20632279534109818,0.11301715438950556
snwiki,False,43.0,0.0625,0.835820895522388,0.8008890968647637,0.19966722129783693,0.11630321910695743
snwiki,False,44.0,0.06534422403733955,0.835820895522388,0.810014038371549,0.19039695745186594,0.12121212121212122
snwiki,False,45.0,0.06763285024154589,0.835820895522388,0.8167992512868507,0.18350368433563108,0.12513966480446925
snwiki,False,46.0,0.07088607594936709,0.835820895522388,0.8256902199344875,0.1744711195626337,0.1306884480746791
snwiki,False,47.0,0.07368421052631578,0.835820895522388,0.8327094057089378,0.16734014737342523,0.13542926239419587
snwiki,False,48.0,0.07629427792915532,0.835820895522388,0.8387927000467946,0.16115997147611125,0.13982521847690388
snwiki,False,49.0,0.07724719101123595,0.8208955223880597,0.8434721572297613,0.15616829094366533,0.141206675224647
snwiki,False,50.0,0.07994186046511628,0.8208955223880597,0.8490875058493215,0.15046351319229856,0.1456953642384106
snwiki,False,51.0,0.0832072617246596,0.8208955223880597,0.8554047730463267,0.14404563822201094,0.15109890109890106
snwiki,False,52.0,0.08634222919937205,0.8208955223880597,0.8610201216658867,0.13834086047064417,0.15624999999999997
snwiki,False,53.0,0.08957654723127036,0.8208955223880597,0.8664014974262986,0.132873781792251,0.16152716593245225
snwiki,False,54.0,0.09274873524451939,0.8208955223880597,0.8713149274684137,0.1278821012598051,0.16666666666666666
snwiki,False,55.0,0.09632224168126094,0.8208955223880597,0.8764623303696771,0.12265272165438555,0.17241379310344826
snwiki,False,56.0,0.0998185117967332,0.8208955223880597,0.8811417875526439,0.11789874019491324,0.1779935275080906
snwiki,False,57.0,0.10261194029850747,0.8208955223880597,0.884651380439869,0.114333254100309,0.1824212271973466
snwiki,False,58.0,0.10597302504816955,0.8208955223880597,0.8886289190453908,0.11029236985975754,0.18771331058020477
snwiki,False,59.0,0.10869565217391304,0.8208955223880597,0.8916705662143192,0.10720228191110055,0.1919720767888307
snwiki,False,60.0,0.11065573770491803,0.8059701492537313,0.8954141319606925,0.10316139767054909,0.1945945945945946
snwiki,False,61.0,0.11688311688311688,0.8059701492537313,0.9014974262985493,0.09698122177323508,0.2041587901701323
snwiki,False,62.0,0.1197339246119734,0.8059701492537313,0.9040711277491811,0.09436653197052532,0.20849420849420852
snwiki,False,63.0,0.12211981566820276,0.7910447761194029,0.9075807206364062,0.09056334680294748,0.21157684630738524
snwiki,False,64.0,0.12649164677804295,0.7910447761194029,0.9110903135236312,0.08699786070834324,0.21810699588477367
snwiki,False,65.0,0.13216957605985039,0.7910447761194029,0.9153018249883014,0.08271927739481816,0.22649572649572652
snwiki,False,66.0,0.13385826771653545,0.7611940298507462,0.9190453907346747,0.07844069408129309,0.22767857142857145
snwiki,False,67.0,0.136986301369863,0.746268656716418,0.9223210107627515,0.07487520798668885,0.23148148148148145
snwiki,False,68.0,0.14619883040935672,0.746268656716418,0.9277023865231633,0.0694081293082957,0.24449877750611246
snwiki,False,69.0,0.14925373134328357,0.746268656716418,0.9293401965372017,0.06774423579748039,0.24875621890547261
snwiki,False,70.0,0.1519756838905775,0.746268656716418,0.9307440336920917,0.0663180413596387,0.25252525252525254
snwiki,False,71.0,0.1550632911392405,0.7313432835820896,0.9333177351427234,0.06346565248395532,0.2558746736292428
snwiki,False,72.0,0.15841584158415842,0.7164179104477612,0.9358914365933552,0.060613263608271926,0.2594594594594595
snwiki,False,73.0,0.16549295774647887,0.7014925373134329,0.9398689751988769,0.05633468029474685,0.2678062678062678
snwiki,False,74.0,0.16967509025270758,0.7014925373134329,0.9415067852129153,0.054670786783931544,0.27325581395348836
snwiki,False,75.0,0.17669172932330826,0.7014925373134329,0.944080486663547,0.052056096981221774,0.28228228228228225
snwiki,False,76.0,0.17898832684824903,0.6865671641791045,0.9457182966775854,0.05015450439743285,0.2839506172839506
snwiki,False,77.0,0.18828451882845187,0.6716417910447762,0.9494618624239588,0.04611362015688139,0.29411764705882354
snwiki,False,78.0,0.19282511210762332,0.6417910447761194,0.9522695367337389,0.04278583313525077,0.296551724137931
snwiki,False,79.0,0.19626168224299065,0.6268656716417911,0.9539073467477772,0.04088424055146185,0.298932384341637
snwiki,False,80.0,0.20812182741116753,0.6119402985074627,0.9574169396350023,0.037081055383884,0.31060606060606055
snwiki,False,81.0,0.2185792349726776,0.5970149253731343,0.9602246139447824,0.033990967435227004,0.32
snwiki,False,82.0,0.23636363636363636,0.582089552238806,0.9639681796911558,0.029950083194675542,0.33620689655172414
snwiki,False,83.0,0.2549019607843137,0.582089552238806,0.9667758540009359,0.027097694318992158,0.35454545454545455
snwiki,False,84.0,0.25,0.5074626865671642,0.9684136640149743,0.02424530544330877,0.33497536945812806
snwiki,False,85.0,0.2786885245901639,0.5074626865671642,0.971689284043051,0.020917518421678154,0.35978835978835977
snwiki,False,86.0,0.2972972972972973,0.4925373134328358,0.9737950397753861,0.018540527691942,0.37078651685393266
snwiki,False,87.0,0.31683168316831684,0.47761194029850745,0.9756668226485727,0.016401236035179463,0.38095238095238093
snwiki,False,88.0,0.3522727272727273,0.4626865671641791,0.9782405240992045,0.013548847159496079,0.4
snwiki,False,89.0,0.38271604938271603,0.4626865671641791,0.9798783341132429,0.01188495364868077,0.41891891891891897
snwiki,False,90.0,0.4142857142857143,0.43283582089552236,0.9815161441272813,0.00974566199191823,0.4233576642335767
snwiki,False,91.0,0.46551724137931033,0.40298507462686567,0.983387927000468,0.0073686712621820775,0.432
snwiki,False,92.0,0.5294117647058824,0.40298507462686567,0.9850257370145064,0.0057047777513667694,0.45762711864406785
snwiki,False,93.0,0.5348837209302325,0.34328358208955223,0.9850257370145064,0.004753981459472308,0.41818181818181815
snwiki,False,94.0,0.5882352941176471,0.29850746268656714,0.9857276555919513,0.0033277870216306157,0.396039603960396
snwiki,False,95.0,0.6551724137931034,0.2835820895522388,0.9864295741693964,0.002376990729736154,0.39583333333333337
snwiki,False,96.0,0.6956521739130435,0.23880597014925373,0.9864295741693964,0.0016638935108153079,0.3555555555555555
snwiki,False,97.0,0.9090909090909091,0.14925373134328357,0.9864295741693964,0.0002376990729736154,0.2564102564102564
snwiki,False,98.0,0.8,0.05970149253731343,0.9850257370145064,0.0002376990729736154,0.11111111111111112
snwiki,False,99.0,0.6666666666666666,0.029850746268656716,0.9845577912962097,0.0002376990729736154,0.05714285714285715
