wiki_db,user_is_anonymous_or_bot,threshold,precision,recall,accuracy,fpr,F1
tawiki,True,0.0,0.11043164661873082,1.0,0.11043164661873082,1.0,0.19889859399269766
tawiki,True,1.0,0.11043164661873082,1.0,0.11043164661873082,1.0,0.19889859399269766
tawiki,True,2.0,0.11043164661873082,1.0,0.11043164661873082,1.0,0.19889859399269766
tawiki,True,3.0,0.11044896496101801,1.0,0.11058844611697242,0.9998237353007832,0.1989266836137675
tawiki,True,4.0,0.11062244760579815,1.0,0.11215644109938848,0.9980610883086143,0.19920801680943914
tawiki,True,5.0,0.11166225000566239,1.0,0.12145241135228367,0.9876111097121849,0.20089240235529027
tawiki,True,6.0,0.11466716285993395,1.0,0.14736912841878905,0.9584770729987662,0.20574242550705285
tawiki,True,7.0,0.11931515474403061,0.9993914807302231,0.1853146069932576,0.9157454737743308,0.21317930079612324
tawiki,True,8.0,0.13091944237522612,0.9981744421906694,0.2680599422081849,0.8225769899025508,0.23147843266381296
tawiki,True,9.0,0.14447908700511794,0.9963488843813387,0.34807248616804426,0.7324050059174577,0.2523633374434854
tawiki,True,10.0,0.1567123637874285,0.9947261663286004,0.40830589342114104,0.6644927353763251,0.2707671921155067
tawiki,True,11.0,0.16795360170218607,0.9926977687626775,0.4561073404565105,0.6105053760733261,0.28729930435293083
tawiki,True,12.0,0.1809840917499075,0.9922920892494929,0.5032591895705933,0.557449701609045,0.3061326658322904
tawiki,True,13.0,0.2038017424652966,0.9916835699797161,0.5712429720224895,0.4809508221489185,0.3381168090182925
tawiki,True,14.0,0.2212858502106837,0.9906693711967546,0.6139820352574872,0.43278019792007655,0.3617643790970705
tawiki,True,15.0,0.23963088401315466,0.99026369168357,0.6519275138319557,0.3900737793669579,0.38588309686598427
tawiki,True,16.0,0.2559932854220217,0.9898580121703854,0.6811818202181753,0.35713746128471785,0.4067853123827783
tawiki,True,17.0,0.2716083760302963,0.9892494929006085,0.7058441412987478,0.32933800015108405,0.4261994232281745
tawiki,True,18.0,0.28527104554501814,0.9884381338742394,0.7252424792240665,0.3074308161055574,0.4427584953661639
tawiki,True,19.0,0.2987427169579884,0.9880324543610548,0.7425576238156038,0.28791579583511695,0.45877089710383806
tawiki,True,20.0,0.3117556665386093,0.9876267748478702,0.7578567748583205,0.2706670359831793,0.4739147362273701
tawiki,True,21.0,0.32306671091934946,0.9872210953346856,0.7701543355061263,0.2567924860876791,0.48682170542635655
tawiki,True,22.0,0.3325582985707447,0.9864097363083164,0.779875904397106,0.24576335205096567,0.4974172761213113
tawiki,True,23.0,0.3410493827160494,0.9862068965517241,0.7880518782339897,0.23654722634905448,0.5068278953403523
tawiki,True,24.0,0.34913112164297,0.9862068965517241,0.7954438545796654,0.22823760481454436,0.5156979210861264
tawiki,True,25.0,0.35887781469176816,0.9860040567951318,0.8039334274130323,0.21866894971419937,0.5262246278755074
tawiki,True,26.0,0.3647482554213251,0.9860040567951318,0.8088166117868423,0.21317956336715937,0.5325080790929506
tawiki,True,27.0,0.3684250416856147,0.9860040567951318,0.8117958022534328,0.20983053408203864,0.5364158022511586
tawiki,True,28.0,0.3716164551154611,0.9858012170385395,0.814349394081939,0.20693475688061844,0.5397601066192803
tawiki,True,29.0,0.3743645046988137,0.9858012170385395,0.816499787200681,0.2045174124342155,0.5426529700759267
tawiki,True,30.0,0.376948731870007,0.9858012170385395,0.8184933808211814,0.20227633268702944,0.5453627335465411
tawiki,True,31.0,0.3793238072928867,0.9853955375253549,0.8203301749434402,0.20016115629642686,0.5477814737554266
tawiki,True,32.0,0.3819782984746029,0.9853955375253549,0.8223237685639406,0.1979200765492408,0.550543970988214
tawiki,True,33.0,0.3841834717279557,0.9853955375253549,0.8239589633313174,0.1960818875431219,0.5528307254623044
tawiki,True,34.0,0.3857392409083691,0.9853955375253549,0.825101359675649,0.19479767330597034,0.5544396256562429
tawiki,True,35.0,0.38744416081684746,0.9851926977687627,0.8263557556615819,0.19336237504091858,0.556166265888011
tawiki,True,36.0,0.388871096877502,0.9851926977687627,0.8273861523643125,0.19220406416035052,0.5576349024110218
tawiki,True,37.0,0.3901831619537275,0.9851926977687627,0.828326949353762,0.19114647596504922,0.5589826217056049
tawiki,True,38.0,0.3914550584441757,0.9849898580121704,0.8292453464148914,0.19008888776974794,0.5602538217479088
tawiki,True,39.0,0.39282823377043874,0.9843813387423935,0.8302533431893018,0.18888021554654646,0.5615598241147882
tawiki,True,40.0,0.39384840123356596,0.9843813387423935,0.8309701408955491,0.18807443406441215,0.562601437514491
tawiki,True,41.0,0.39479251423921885,0.9841784989858012,0.831642138745156,0.18729383325359453,0.5635307781649245
tawiki,True,42.0,0.39593535749265424,0.9839756592292089,0.8324485361646843,0.18636214841487675,0.5646606914212547
tawiki,True,43.0,0.3966800228963938,0.9839756592292089,0.8329637345160495,0.1857829929745927,0.5654175651261729
tawiki,True,44.0,0.39757357160422985,0.9837728194726166,0.833590932509016,0.18505275350640848,0.5662910852939459
tawiki,True,45.0,0.3984227388482708,0.9837728194726166,0.8341733306453419,0.18439805605217435,0.567151961644156
tawiki,True,46.0,0.3993576017130621,0.9835699797160243,0.8348229285666285,0.18364263591267344,0.5680646672914714
tawiki,True,47.0,0.39978554932365556,0.9831643002028397,0.8351365275631119,0.18323974517160627,0.5684296939134514
tawiki,True,48.0,0.40004954173891505,0.9827586206896551,0.8353381269179939,0.1829627577871226,0.5686286016078869
tawiki,True,49.0,0.40069484655471915,0.9825557809330628,0.8357861254843985,0.18243396368947196,0.5692461366707796
tawiki,True,50.0,0.40169238427078147,0.9821501014198782,0.8364805232623256,0.18160300153602096,0.5701837023080546
tawiki,True,51.0,0.4021441037147843,0.9815415821501015,0.836816522187129,0.1811497494523204,0.5705358721924187
tawiki,True,52.0,0.4026968536707175,0.9813387423935092,0.8371973209685729,0.18069649736861984,0.5710576015108593
tawiki,True,53.0,0.4034868201534868,0.9811359026369169,0.8377349192482584,0.18006698058570242,0.5718169996453482
tawiki,True,54.0,0.4041628354091783,0.9807302231237323,0.8382053177429832,0.1794878251454184,0.5724264488249572
tawiki,True,55.0,0.404688154039347,0.98052738336714,0.8385637165961068,0.1790597537330345,0.5729185185185185
tawiki,True,56.0,0.40518108651911466,0.9803245436105477,0.8388997155209104,0.17865686299196737,0.5733776248665321
tawiki,True,57.0,0.40555508936812956,0.9803245436105477,0.8391461147324328,0.1783798756074837,0.573752003324034
tawiki,True,58.0,0.4061003277035543,0.9803245436105477,0.8395045135855566,0.17797698486641653,0.5742974273661695
tawiki,True,59.0,0.40699241786015167,0.9799188640973631,0.8401093116502028,0.17724674539823232,0.5751190476190476
tawiki,True,60.0,0.4074793179132197,0.9791075050709939,0.8404677105033264,0.17674313197189837,0.5754649499284692
tawiki,True,61.0,0.4080683355886333,0.9787018255578094,0.8408709092130905,0.1762395185455644,0.575981855079384
tawiki,True,62.0,0.40904079382579933,0.9782961460446248,0.8415205071343772,0.1754589177347468,0.576879373243227
tawiki,True,63.0,0.40951976200594986,0.9772819472616633,0.8418789059875008,0.17493012363709617,0.5771787960467205
tawiki,True,64.0,0.4099352419904567,0.9758620689655172,0.8422149049123043,0.17437614886812883,0.5773430937237489
tawiki,True,65.0,0.4108288426995124,0.9742393509127789,0.8428645028335909,0.17344446402941102,0.5779435653691114
tawiki,True,66.0,0.4119415807560137,0.9726166328600405,0.843648500324799,0.17236169516279304,0.5787567893783947
tawiki,True,67.0,0.41260670863154264,0.9705882352941176,0.8441636986761643,0.17153073300934202,0.5790524596115447
tawiki,True,68.0,0.4134407205334719,0.9683569979716025,0.8447908966691307,0.17054868682799085,0.5794744188869334
tawiki,True,69.0,0.4146787393348424,0.9661257606490872,0.8456644938736196,0.16928965326215598,0.5802875243664718
tawiki,True,70.0,0.4157618213660245,0.9630831643002028,0.8464708912931479,0.1680054390250044,0.5807951070336391
tawiki,True,71.0,0.4164240980859134,0.957606490872211,0.8471204892144345,0.16659532143126934,0.5804389254318559
tawiki,True,72.0,0.41785206258890467,0.9533468559837728,0.8481732858454853,0.16488303578173394,0.5810359747805662
tawiki,True,73.0,0.4191031390134529,0.9478701825557809,0.8491588826915754,0.16309520811824843,0.5812189054726368
tawiki,True,74.0,0.420355587808418,0.9399594320486815,0.8502340792509464,0.16090448971369578,0.5809201454180769
tawiki,True,75.0,0.42170001835872956,0.9318458417849899,0.8513540756669579,0.158638229295193,0.5806370070778565
tawiki,True,76.0,0.42245240761478164,0.9182555780933063,0.852339672513048,0.1558431747790396,0.578678256423367
tawiki,True,77.0,0.42254725045113495,0.9024340770791075,0.8530340702909751,0.15309848160551962,0.5755870366776634
tawiki,True,78.0,0.4242336049670159,0.8870182555780933,0.8545796653450709,0.1494472842645985,0.5739598372489828
tawiki,True,79.0,0.424691603660963,0.8659229208924949,0.855654861904442,0.14561982222446052,0.5698838606327593
tawiki,True,80.0,0.4261073688507859,0.8468559837728195,0.857133257173577,0.14159091481378894,0.5669473112438892
tawiki,True,81.0,0.42777250184657595,0.8223123732251522,0.8589028515108752,0.13655478055044948,0.5627819809814674
tawiki,True,82.0,0.42998135760500056,0.7953346855983773,0.8609636449163363,0.13088912950419257,0.5581891949604955
tawiki,True,83.0,0.4305111821086262,0.765314401622718,0.8622852406872298,0.12567673054163625,0.5510442529574996
tawiki,True,84.0,0.42913527090061,0.727789046653144,0.8630244383217973,0.12018734419459623,0.5399142276728613
tawiki,True,85.0,0.427307206068268,0.6855983772819473,0.8638084358130054,0.11406844106463879,0.5264797507788161
tawiki,True,86.0,0.4277076054823972,0.6456389452332657,0.8654660305087024,0.10724447913781382,0.51454898157129
tawiki,True,87.0,0.42633992548008026,0.603448275862069,0.8665412270680733,0.10079822728073931,0.4996640913671482
tawiki,True,88.0,0.42679748581940824,0.5647058823529412,0.8681764218354501,0.09415053005313122,0.48616083122326026
tawiki,True,89.0,0.4248051732714309,0.5196754563894523,0.8692516183948211,0.08735174879762295,0.46747559529240035
tawiki,True,90.0,0.42580409356725146,0.4726166328600406,0.8713796115852429,0.07911766927706293,0.4479907710055758
tawiki,True,91.0,0.42128874388254484,0.41906693711967546,0.8722756087180521,0.07146274519678694,0.42017490339637986
tawiki,True,92.0,0.4224824355971897,0.36592292089249495,0.8747396008332773,0.06209553546697555,0.39217391304347826
tawiki,True,93.0,0.42953586497890295,0.30973630831643,0.8783459892928343,0.05106640143026213,0.35992928697701826
tawiki,True,94.0,0.45008944543828266,0.25517241379310346,0.8833187733799251,0.038702691813763755,0.3256957928802589
tawiki,True,95.0,0.46465645081562035,0.19066937119675456,0.8863651636314763,0.02727066703598318,0.27038688335970085
tawiki,True,96.0,0.4920152091254753,0.13123732251521297,0.8890979548865444,0.0168206884395538,0.20720576461168932
tawiki,True,97.0,0.5564516129032258,0.06997971602434078,0.8911363483636853,0.006924684612091759,0.12432432432432435
tawiki,True,98.0,0.7238493723849372,0.03509127789046653,0.8919651457115337,0.001661924306902022,0.0669375120913136
tawiki,True,99.0,0.8769230769230769,0.011561866125760649,0.8906659498689604,0.00020144537053357842,0.022822822822822823
tawiki,False,0.0,0.06360976887698667,1.0,0.06360976887698667,1.0,0.11961110312882722
tawiki,False,1.0,0.06361254639400335,1.0,0.06365343191476976,0.9999533708956674,0.11961601357500119
tawiki,False,2.0,0.06412975670617592,0.9996567898409793,0.07201490365022996,0.9910005828638041,0.12052746282656074
tawiki,False,3.0,0.06512315050401797,0.9985127559775769,0.08811201024625953,0.9737322712259568,0.12227172116219774
tawiki,False,4.0,0.06677651747394237,0.9967967051824734,0.11367671886825406,0.9463143578783757,0.12516789852105642
tawiki,False,5.0,0.06937583298085441,0.9945086374556686,0.15105955638353613,0.906236642704488,0.12970367938885738
tawiki,False,6.0,0.07278853263426766,0.9910765358654616,0.19637451242941142,0.8576102584029531,0.13561683508535735
tawiki,False,7.0,0.07676209982635024,0.9861571902528314,0.2446585550445363,0.805712065280746,0.14243696090419378
tawiki,False,8.0,0.08205074278722062,0.9819242649582428,0.30007422716423127,0.7462444142218768,0.15144644322302311
tawiki,False,9.0,0.08751177747736676,0.9775769362773138,0.3501848401932817,0.6924344278220322,0.1606429477839921
tawiki,False,10.0,0.09242447277544903,0.9736872211417458,0.3901365197648018,0.6495045657664659,0.16882382695111425
tawiki,False,11.0,0.09681138903793682,0.9701407161651985,0.42238167316760783,0.6148280551777735,0.17605414495401417
tawiki,False,12.0,0.10138116247841934,0.9673950348930328,0.4524873377190429,0.5824907713231008,0.18352885001465016
tawiki,False,13.0,0.10752099073731955,0.9654501773252488,0.4880508819933632,0.544379250048572,0.19349291511899847
tawiki,False,14.0,0.11252338946805666,0.9631621095984441,0.5144451883332363,0.5160365261317272,0.20150548700949003
tawiki,False,15.0,0.11753830639513711,0.9600732181672578,0.538954706875473,0.48965222459685254,0.20943610476796565
tawiki,False,16.0,0.12233148735333225,0.9577851504404531,0.5602113291028701,0.4667961919564795,0.21695301769934436
tawiki,False,17.0,0.1271100016743025,0.9553826793273081,0.5798305874134017,0.445680979211191,0.22436861902203115
tawiki,False,18.0,0.13160017078609043,0.9520649811234413,0.5973249112184899,0.4267728774043132,0.23123732251521298
tawiki,False,19.0,0.13616972401798313,0.9494337032376158,0.6136621645223264,0.40914707596658245,0.23817928738502162
tawiki,False,20.0,0.1407933023635714,0.9465736185791099,0.6291552657623566,0.3924072275111716,0.2451265035255081
tawiki,False,21.0,0.14527550732807215,0.9434847271479235,0.643309367177039,0.3770817952205168,0.2517821978659421
tawiki,False,22.0,0.14943552638755067,0.9403958357167372,0.6557315014263259,0.36360598406838934,0.25789044362176067
tawiki,False,23.0,0.15347434288176556,0.9371925408992107,0.6671857716714211,0.3511560132115796,0.263756077143501
tawiki,False,24.0,0.1573276277491856,0.9337604393090035,0.6776503463934331,0.339747425684865,0.26928406466512705
tawiki,False,25.0,0.16146796286356135,0.9291843038553941,0.6885515514932758,0.32779483194093645,0.27512618136242
tawiki,False,26.0,0.16545688756210766,0.9257522022651871,0.6982593002270477,0.31719448222265395,0.28073827366083814
tawiki,False,27.0,0.16914795188830012,0.9202608397208557,0.7073921522966757,0.3070681950650865,0.2857701120841253
tawiki,False,28.0,0.17254995037327925,0.9148838805628646,0.715513477324329,0.29802992034194675,0.29034073374843433
tawiki,False,29.0,0.17635084303226092,0.9117949891316783,0.7235038132386331,0.2892869632795803,0.29554092889589323
tawiki,False,30.0,0.17995552731893266,0.9073332570644091,0.7311011818128893,0.28087040994754225,0.3003427186488175
tawiki,False,31.0,0.18364782800902765,0.9029859283834801,0.7385020667171217,0.27267145910238977,0.3052204176334107
tawiki,False,32.0,0.18758350830311127,0.8994394234069328,0.745815625545788,0.26462016708762387,0.3104258385485558
tawiki,False,33.0,0.19111274329783326,0.8930328337718797,0.7527653257262619,0.25676316300757723,0.3148469326019441
tawiki,False,34.0,0.19507661391610148,0.8884566983182702,0.7597150259067358,0.24903050320575093,0.31991102140017713
tawiki,False,35.0,0.1991589918220984,0.8831941425466194,0.7666647260872096,0.24125121429959198,0.32502526103065005
tawiki,False,36.0,0.2031618250668644,0.8777027800022881,0.7732432904465273,0.2338527297454828,0.3299501118183382
tawiki,False,37.0,0.20757386147233256,0.8728978377759982,0.7799455667462304,0.22636875850009713,0.33539198663706893
tawiki,False,38.0,0.2120136404293381,0.8677496853906875,0.7864368050299819,0.2190868467068195,0.34076869510524066
tawiki,False,39.0,0.21670117322291235,0.862143919460016,0.7930008150433719,0.2116961336700991,0.34634740446262385
tawiki,False,40.0,0.22138420585625554,0.856309346756664,0.7992882924841358,0.20458519525937438,0.3518131183755963
tawiki,False,41.0,0.22622522193846528,0.8512755977576937,0.8053283460441287,0.1977928890615893,0.3574568251146926
tawiki,False,42.0,0.23104783314599725,0.8465850589177439,0.8110190953018571,0.19139693025063143,0.36302092275994013
tawiki,False,43.0,0.23567287055130218,0.8416657133051139,0.8162950457006463,0.18542840489605594,0.3682366484809049
tawiki,False,44.0,0.240327405410736,0.836403157533463,0.8214181754671945,0.17959976685447834,0.37337214646851535
tawiki,False,45.0,0.24522260793367262,0.8323990390115548,0.8263666530826105,0.17404313192150767,0.37883994585025516
tawiki,False,46.0,0.24960259865920242,0.8263356595355222,0.8309294405309425,0.16875850009714397,0.3833965869582526
tawiki,False,47.0,0.25397556224544005,0.82038668344583,0.8352884671362869,0.1636992422770546,0.38787321505841627
tawiki,False,48.0,0.2586213148638358,0.8159249513785608,0.8395092274553182,0.15888867301340587,0.3927529048956441
tawiki,False,49.0,0.2628178949322443,0.8098615719025283,0.8434097921639402,0.15431124927142023,0.3968494225810068
tawiki,False,50.0,0.2676991990282048,0.806772680471342,0.8473249112184899,0.1499203419467651,0.4020066127009463
tawiki,False,51.0,0.27222998137802606,0.8027685619494337,0.8509416661815218,0.1457858946959394,0.4065822638120346
tawiki,False,52.0,0.2768749009037577,0.7991076535865461,0.8544638178960238,0.141775791723334,0.4112573228531896
tawiki,False,53.0,0.2814814814814815,0.7955611486099988,0.8578185946323572,0.13795220516805906,0.41583447945942714
tawiki,False,54.0,0.2866846137916753,0.7919002402471114,0.8614280724224254,0.13384884398678842,0.4209694094751567
tawiki,False,55.0,0.2915749364944962,0.7878961217252031,0.8647391861209758,0.13004080046629105,0.4256357961744075
tawiki,False,56.0,0.2964228556598469,0.784006406589635,0.8678902020143214,0.12641150184573538,0.43019460138104204
tawiki,False,57.0,0.3012090724560939,0.7809175151584486,0.8708229027187518,0.12306974936856421,0.4347355348215139
tawiki,False,58.0,0.3063630636306363,0.7788582542043244,0.873762880596146,0.1197901690305032,0.43975067015470076
tawiki,False,59.0,0.3112305854241338,0.7748541356824162,0.8766009780520463,0.11648727414027589,0.4440874668065436
tawiki,False,60.0,0.3155012636899747,0.7711932273195287,0.8790169994760435,0.11365844181076355,0.44780283654963965
tawiki,False,61.0,0.3199314024390244,0.7683331426610228,0.88137480351633,0.11094618224208276,0.4517539434298591
tawiki,False,62.0,0.32497692270320166,0.7652442512298364,0.8839581999184957,0.10797746259957257,0.4562133406083754
tawiki,False,63.0,0.3290613093176308,0.7607825191625672,0.8861122431157944,0.10537400427433456,0.45941278065630403
tawiki,False,64.0,0.33343411438649534,0.7570072074133395,0.8882808406590208,0.10280163201865164,0.4629538935143077
tawiki,False,65.0,0.3379789148881461,0.7518590550280289,0.8905367642778134,0.10004274334563823,0.46633080252607684
tawiki,False,66.0,0.34161165252017184,0.7459100789383366,0.8923924433835944,0.0976568875072858,0.4686096237467208
tawiki,False,67.0,0.34587631621144904,0.740304313007665,0.8944227746405077,0.09510782980376918,0.4714754098360656
tawiki,False,68.0,0.35033271517399367,0.7348129504633337,0.896453105897421,0.09256654361764134,0.4744598337950139
tawiki,False,69.0,0.35409945488930916,0.7282919574419403,0.8982141817546719,0.09024285991839907,0.47651483962723157
tawiki,False,70.0,0.3582064105478518,0.7210845441025054,0.9000771380334168,0.08776374587138139,0.47864221437521354
tawiki,False,71.0,0.3623911781775972,0.7143347443084316,0.9018818769284508,0.08537789003302895,0.4808440183281352
tawiki,False,72.0,0.3671526331448974,0.7058688937192541,0.9038976538394364,0.08265008742957063,0.4830501839818367
tawiki,False,73.0,0.37214403216962166,0.6987758837661595,0.9058479361937475,0.08008548669127648,0.4856484058201479
tawiki,False,74.0,0.3759525296689569,0.6885939823818785,0.907485300110613,0.07764523023120264,0.48636418730556336
tawiki,False,75.0,0.3803249328386849,0.6802425351790413,0.9091590498922978,0.07529046046240528,0.48787692307692304
tawiki,False,76.0,0.3847675568743818,0.6675437592952751,0.9109565116143681,0.07250825723722557,0.48816196770685183
tawiki,False,77.0,0.38892667664263364,0.6541585630934675,0.912622984223089,0.0698193122207111,0.48782152454890576
tawiki,False,78.0,0.39276939276939277,0.6400869465736185,0.9141584677184608,0.06722362541286186,0.48681806316888543
tawiki,False,79.0,0.39702991919633107,0.6239560690996453,0.9158031088082902,0.06437147853118322,0.4852744906130438
tawiki,False,80.0,0.40237178034594756,0.6094268390344354,0.9175787390114688,0.06148824557994949,0.4847133757961783
tawiki,False,81.0,0.4053137811415957,0.5881478091751516,0.9189104616638528,0.0586205556634933,0.4799066511085181
tawiki,False,82.0,0.41021825396825395,0.5676696030202494,0.9205842114455376,0.055442005051486304,0.476268176800883
tawiki,False,83.0,0.4139280125195618,0.544674522365862,0.9219814286545963,0.05238779871769963,0.4703848243837376
tawiki,False,84.0,0.4150908587768656,0.5148152385310605,0.922992955696571,0.04927919176219157,0.45960576039219686
tawiki,False,85.0,0.41663374160410904,0.48255348358311406,0.9241063631600396,0.04589858169807655,0.44717731248343495
tawiki,False,86.0,0.41942324003392706,0.4525797963619723,0.9253289282179659,0.04255682922090538,0.4353711550101799
tawiki,False,87.0,0.41980538065254724,0.41951721770964423,0.9261949118006637,0.03938605012628716,0.4196612497138934
tawiki,False,88.0,0.422962962962963,0.3919460016016474,0.9273083192641323,0.03632407227511172,0.4068642004631554
tawiki,False,89.0,0.4235420585864015,0.36059947374442286,0.9281088082901554,0.033339809597823976,0.3895445838225298
tawiki,False,90.0,0.42752758723531165,0.32799450863745566,0.929316819002154,0.029834855255488634,0.3712047646792257
tawiki,False,91.0,0.42602854743912677,0.2902413911451779,0.9299790417418641,0.026563046434816398,0.345264017419706
tawiki,False,92.0,0.4298160696999032,0.25397551767532317,0.9311142807242243,0.022887118709928114,0.31928663886092334
tawiki,False,93.0,0.4388539482879106,0.215535979865004,0.9325697153169936,0.01872158538954731,0.28909007211907317
tawiki,False,94.0,0.4582964927792514,0.17789726575906648,0.9343307911742447,0.01428404896055955,0.2563045986484259
tawiki,False,95.0,0.4760162601626016,0.13396636540441598,0.9355315247132794,0.010017485914124732,0.20908847424337115
tawiki,False,96.0,0.5099750623441397,0.09358197002631279,0.9366231006578565,0.0061084126675733435,0.15814403093281781
tawiki,False,97.0,0.5745501285347043,0.05113831369408534,0.9372343831868196,0.002572372255682922,0.09391742830129214
tawiki,False,98.0,0.7241379310344828,0.02642718224459444,0.9374308668568434,0.0006838935302117739,0.05099337748344371
tawiki,False,99.0,0.8888888888888888,0.010982725088662625,0.9370015136519765,9.325820866524189e-05,0.02169736693411685
