wiki_db,user_is_anonymous_or_bot,threshold,precision,recall,accuracy,fpr,F1
tywiki,True,0.0,0.18181818181818182,1.0,0.18181818181818182,1.0,0.3076923076923077
tywiki,True,1.0,0.18181818181818182,1.0,0.18181818181818182,1.0,0.3076923076923077
tywiki,True,2.0,0.18181818181818182,1.0,0.18181818181818182,1.0,0.3076923076923077
tywiki,True,3.0,0.18181818181818182,1.0,0.18181818181818182,1.0,0.3076923076923077
tywiki,True,4.0,0.18181818181818182,1.0,0.18181818181818182,1.0,0.3076923076923077
tywiki,True,5.0,0.18181818181818182,1.0,0.18181818181818182,1.0,0.3076923076923077
tywiki,True,6.0,0.18181818181818182,1.0,0.18181818181818182,1.0,0.3076923076923077
tywiki,True,7.0,0.18181818181818182,1.0,0.18181818181818182,1.0,0.3076923076923077
tywiki,True,8.0,0.18181818181818182,1.0,0.18181818181818182,1.0,0.3076923076923077
tywiki,True,9.0,0.18181818181818182,1.0,0.18181818181818182,1.0,0.3076923076923077
tywiki,True,10.0,0.18181818181818182,1.0,0.18181818181818182,1.0,0.3076923076923077
tywiki,True,11.0,0.18181818181818182,1.0,0.18181818181818182,1.0,0.3076923076923077
tywiki,True,12.0,0.18181818181818182,1.0,0.18181818181818182,1.0,0.3076923076923077
tywiki,True,13.0,0.18181818181818182,1.0,0.18181818181818182,1.0,0.3076923076923077
tywiki,True,14.0,0.18181818181818182,1.0,0.18181818181818182,1.0,0.3076923076923077
tywiki,True,15.0,0.18181818181818182,1.0,0.18181818181818182,1.0,0.3076923076923077
tywiki,True,16.0,0.18181818181818182,1.0,0.18181818181818182,1.0,0.3076923076923077
tywiki,True,17.0,0.18181818181818182,1.0,0.18181818181818182,1.0,0.3076923076923077
tywiki,True,18.0,0.18181818181818182,1.0,0.18181818181818182,1.0,0.3076923076923077
tywiki,True,19.0,0.18181818181818182,1.0,0.18181818181818182,1.0,0.3076923076923077
tywiki,True,20.0,0.18181818181818182,1.0,0.18181818181818182,1.0,0.3076923076923077
tywiki,True,21.0,0.18181818181818182,1.0,0.18181818181818182,1.0,0.3076923076923077
tywiki,True,22.0,0.18181818181818182,1.0,0.18181818181818182,1.0,0.3076923076923077
tywiki,True,23.0,0.18181818181818182,1.0,0.18181818181818182,1.0,0.3076923076923077
tywiki,True,24.0,0.18181818181818182,1.0,0.18181818181818182,1.0,0.3076923076923077
tywiki,True,25.0,0.18181818181818182,1.0,0.18181818181818182,1.0,0.3076923076923077
tywiki,True,26.0,0.18181818181818182,1.0,0.18181818181818182,1.0,0.3076923076923077
tywiki,True,27.0,0.18181818181818182,1.0,0.18181818181818182,1.0,0.3076923076923077
tywiki,True,28.0,0.18181818181818182,1.0,0.18181818181818182,1.0,0.3076923076923077
tywiki,True,29.0,0.18181818181818182,1.0,0.18181818181818182,1.0,0.3076923076923077
tywiki,True,30.0,0.18181818181818182,1.0,0.18181818181818182,1.0,0.3076923076923077
tywiki,True,31.0,0.18181818181818182,1.0,0.18181818181818182,1.0,0.3076923076923077
tywiki,True,32.0,0.18181818181818182,1.0,0.18181818181818182,1.0,0.3076923076923077
tywiki,True,33.0,0.18181818181818182,1.0,0.18181818181818182,1.0,0.3076923076923077
tywiki,True,34.0,0.18181818181818182,1.0,0.18181818181818182,1.0,0.3076923076923077
tywiki,True,35.0,0.18181818181818182,1.0,0.18181818181818182,1.0,0.3076923076923077
tywiki,True,36.0,0.18181818181818182,1.0,0.18181818181818182,1.0,0.3076923076923077
tywiki,True,37.0,0.18181818181818182,1.0,0.18181818181818182,1.0,0.3076923076923077
tywiki,True,38.0,0.18181818181818182,1.0,0.18181818181818182,1.0,0.3076923076923077
tywiki,True,39.0,0.18181818181818182,1.0,0.18181818181818182,1.0,0.3076923076923077
tywiki,True,40.0,0.18181818181818182,1.0,0.18181818181818182,1.0,0.3076923076923077
tywiki,True,41.0,0.18181818181818182,1.0,0.18181818181818182,1.0,0.3076923076923077
tywiki,True,42.0,0.18181818181818182,1.0,0.18181818181818182,1.0,0.3076923076923077
tywiki,True,43.0,0.18181818181818182,1.0,0.18181818181818182,1.0,0.3076923076923077
tywiki,True,44.0,0.18181818181818182,1.0,0.18181818181818182,1.0,0.3076923076923077
tywiki,True,45.0,0.18181818181818182,1.0,0.18181818181818182,1.0,0.3076923076923077
tywiki,True,46.0,0.18181818181818182,1.0,0.18181818181818182,1.0,0.3076923076923077
tywiki,True,47.0,0.18181818181818182,1.0,0.18181818181818182,1.0,0.3076923076923077
tywiki,True,48.0,0.18181818181818182,1.0,0.18181818181818182,1.0,0.3076923076923077
tywiki,True,49.0,0.18181818181818182,1.0,0.18181818181818182,1.0,0.3076923076923077
tywiki,True,50.0,0.18181818181818182,1.0,0.18181818181818182,1.0,0.3076923076923077
tywiki,True,51.0,0.18181818181818182,1.0,0.18181818181818182,1.0,0.3076923076923077
tywiki,True,52.0,0.2,1.0,0.2727272727272727,0.8888888888888888,0.33333333333333337
tywiki,True,53.0,0.2222222222222222,1.0,0.36363636363636365,0.7777777777777778,0.3636363636363636
tywiki,True,54.0,0.2222222222222222,1.0,0.36363636363636365,0.7777777777777778,0.3636363636363636
tywiki,True,55.0,0.2222222222222222,1.0,0.36363636363636365,0.7777777777777778,0.3636363636363636
tywiki,True,56.0,0.2222222222222222,1.0,0.36363636363636365,0.7777777777777778,0.3636363636363636
tywiki,True,57.0,0.2222222222222222,1.0,0.36363636363636365,0.7777777777777778,0.3636363636363636
tywiki,True,58.0,0.2222222222222222,1.0,0.36363636363636365,0.7777777777777778,0.3636363636363636
tywiki,True,59.0,0.2222222222222222,1.0,0.36363636363636365,0.7777777777777778,0.3636363636363636
tywiki,True,60.0,0.2222222222222222,1.0,0.36363636363636365,0.7777777777777778,0.3636363636363636
tywiki,True,61.0,0.2222222222222222,1.0,0.36363636363636365,0.7777777777777778,0.3636363636363636
tywiki,True,62.0,0.2222222222222222,1.0,0.36363636363636365,0.7777777777777778,0.3636363636363636
tywiki,True,63.0,0.2222222222222222,1.0,0.36363636363636365,0.7777777777777778,0.3636363636363636
tywiki,True,64.0,0.2222222222222222,1.0,0.36363636363636365,0.7777777777777778,0.3636363636363636
tywiki,True,65.0,0.2222222222222222,1.0,0.36363636363636365,0.7777777777777778,0.3636363636363636
tywiki,True,66.0,0.2222222222222222,1.0,0.36363636363636365,0.7777777777777778,0.3636363636363636
tywiki,True,67.0,0.2222222222222222,1.0,0.36363636363636365,0.7777777777777778,0.3636363636363636
tywiki,True,68.0,0.2222222222222222,1.0,0.36363636363636365,0.7777777777777778,0.3636363636363636
tywiki,True,69.0,0.25,1.0,0.45454545454545453,0.6666666666666666,0.4
tywiki,True,70.0,0.25,1.0,0.45454545454545453,0.6666666666666666,0.4
tywiki,True,71.0,0.25,1.0,0.45454545454545453,0.6666666666666666,0.4
tywiki,True,72.0,0.14285714285714285,0.5,0.36363636363636365,0.6666666666666666,0.22222222222222224
tywiki,True,73.0,0.14285714285714285,0.5,0.36363636363636365,0.6666666666666666,0.22222222222222224
tywiki,True,74.0,0.0,0.0,0.2727272727272727,0.6666666666666666,0.22222222222222224
tywiki,True,75.0,0.0,0.0,0.2727272727272727,0.6666666666666666,0.22222222222222224
tywiki,True,76.0,0.0,0.0,0.2727272727272727,0.6666666666666666,0.22222222222222224
tywiki,True,77.0,0.0,0.0,0.36363636363636365,0.5555555555555556,0.22222222222222224
tywiki,True,78.0,0.0,0.0,0.36363636363636365,0.5555555555555556,0.22222222222222224
tywiki,True,79.0,0.0,0.0,0.36363636363636365,0.5555555555555556,0.22222222222222224
tywiki,True,80.0,0.0,0.0,0.36363636363636365,0.5555555555555556,0.22222222222222224
tywiki,True,81.0,0.0,0.0,0.36363636363636365,0.5555555555555556,0.22222222222222224
tywiki,True,82.0,0.0,0.0,0.5454545454545454,0.3333333333333333,0.22222222222222224
tywiki,True,83.0,0.0,0.0,0.5454545454545454,0.3333333333333333,0.22222222222222224
tywiki,True,84.0,0.0,0.0,0.5454545454545454,0.3333333333333333,0.22222222222222224
tywiki,True,85.0,0.0,0.0,0.6363636363636364,0.2222222222222222,0.22222222222222224
tywiki,True,86.0,0.0,0.0,0.6363636363636364,0.2222222222222222,0.22222222222222224
tywiki,True,87.0,0.0,0.0,0.6363636363636364,0.2222222222222222,0.22222222222222224
tywiki,True,88.0,0.0,0.0,0.7272727272727273,0.1111111111111111,0.22222222222222224
tywiki,True,89.0,0.0,0.0,0.7272727272727273,0.1111111111111111,0.22222222222222224
tywiki,True,90.0,0.0,0.0,0.8181818181818182,0.0,0.22222222222222224
tywiki,True,91.0,0.0,0.0,0.8181818181818182,0.0,0.22222222222222224
tywiki,True,92.0,0.0,0.0,0.8181818181818182,0.0,0.22222222222222224
tywiki,True,93.0,0.0,0.0,0.8181818181818182,0.0,0.22222222222222224
tywiki,True,94.0,0.0,0.0,0.8181818181818182,0.0,0.22222222222222224
tywiki,True,95.0,0.0,0.0,0.8181818181818182,0.0,0.22222222222222224
tywiki,True,96.0,0.0,0.0,0.8181818181818182,0.0,0.22222222222222224
tywiki,True,97.0,0.0,0.0,0.8181818181818182,0.0,0.22222222222222224
tywiki,True,98.0,0.0,0.0,0.8181818181818182,0.0,0.22222222222222224
tywiki,True,99.0,0.0,0.0,0.8181818181818182,0.0,0.22222222222222224
tywiki,False,0.0,0.015384615384615385,1.0,0.015384615384615385,1.0,0.030303030303030307
tywiki,False,1.0,0.015384615384615385,1.0,0.015384615384615385,1.0,0.030303030303030307
tywiki,False,2.0,0.015384615384615385,1.0,0.015384615384615385,1.0,0.030303030303030307
tywiki,False,3.0,0.015384615384615385,1.0,0.015384615384615385,1.0,0.030303030303030307
tywiki,False,4.0,0.015384615384615385,1.0,0.015384615384615385,1.0,0.030303030303030307
tywiki,False,5.0,0.015384615384615385,1.0,0.015384615384615385,1.0,0.030303030303030307
tywiki,False,6.0,0.015384615384615385,1.0,0.015384615384615385,1.0,0.030303030303030307
tywiki,False,7.0,0.015384615384615385,1.0,0.015384615384615385,1.0,0.030303030303030307
tywiki,False,8.0,0.015384615384615385,1.0,0.015384615384615385,1.0,0.030303030303030307
tywiki,False,9.0,0.015384615384615385,1.0,0.015384615384615385,1.0,0.030303030303030307
tywiki,False,10.0,0.015463917525773196,1.0,0.020512820512820513,0.9947916666666666,0.030456852791878174
tywiki,False,11.0,0.015463917525773196,1.0,0.020512820512820513,0.9947916666666666,0.030456852791878174
tywiki,False,12.0,0.015706806282722512,1.0,0.035897435897435895,0.9791666666666666,0.03092783505154639
tywiki,False,13.0,0.015873015873015872,1.0,0.046153846153846156,0.96875,0.03125
tywiki,False,14.0,0.016129032258064516,1.0,0.06153846153846154,0.953125,0.031746031746031744
tywiki,False,15.0,0.010869565217391304,0.6666666666666666,0.06153846153846154,0.9479166666666666,0.0213903743315508
tywiki,False,16.0,0.01092896174863388,0.6666666666666666,0.06666666666666667,0.9427083333333334,0.021505376344086023
tywiki,False,17.0,0.01098901098901099,0.6666666666666666,0.07179487179487179,0.9375,0.021621621621621623
tywiki,False,18.0,0.011049723756906077,0.6666666666666666,0.07692307692307693,0.9322916666666666,0.021739130434782608
tywiki,False,19.0,0.011049723756906077,0.6666666666666666,0.07692307692307693,0.9322916666666666,0.021739130434782608
tywiki,False,20.0,0.011049723756906077,0.6666666666666666,0.07692307692307693,0.9322916666666666,0.021739130434782608
tywiki,False,21.0,0.011111111111111112,0.6666666666666666,0.08205128205128205,0.9270833333333334,0.021857923497267763
tywiki,False,22.0,0.0111731843575419,0.6666666666666666,0.08717948717948718,0.921875,0.02197802197802198
tywiki,False,23.0,0.011299435028248588,0.6666666666666666,0.09743589743589744,0.9114583333333334,0.022222222222222223
tywiki,False,24.0,0.011299435028248588,0.6666666666666666,0.09743589743589744,0.9114583333333334,0.022222222222222223
tywiki,False,25.0,0.011299435028248588,0.6666666666666666,0.09743589743589744,0.9114583333333334,0.022222222222222223
tywiki,False,26.0,0.011428571428571429,0.6666666666666666,0.1076923076923077,0.9010416666666666,0.02247191011235955
tywiki,False,27.0,0.011428571428571429,0.6666666666666666,0.1076923076923077,0.9010416666666666,0.02247191011235955
tywiki,False,28.0,0.011494252873563218,0.6666666666666666,0.11282051282051282,0.8958333333333334,0.022598870056497175
tywiki,False,29.0,0.011560693641618497,0.6666666666666666,0.11794871794871795,0.890625,0.022727272727272724
tywiki,False,30.0,0.011560693641618497,0.6666666666666666,0.11794871794871795,0.890625,0.022727272727272724
tywiki,False,31.0,0.011627906976744186,0.6666666666666666,0.12307692307692308,0.8854166666666666,0.022857142857142857
tywiki,False,32.0,0.011627906976744186,0.6666666666666666,0.12307692307692308,0.8854166666666666,0.022857142857142857
tywiki,False,33.0,0.011627906976744186,0.6666666666666666,0.12307692307692308,0.8854166666666666,0.022857142857142857
tywiki,False,34.0,0.011627906976744186,0.6666666666666666,0.12307692307692308,0.8854166666666666,0.022857142857142857
tywiki,False,35.0,0.011695906432748537,0.6666666666666666,0.1282051282051282,0.8802083333333334,0.022988505747126436
tywiki,False,36.0,0.011695906432748537,0.6666666666666666,0.1282051282051282,0.8802083333333334,0.022988505747126436
tywiki,False,37.0,0.011695906432748537,0.6666666666666666,0.1282051282051282,0.8802083333333334,0.022988505747126436
tywiki,False,38.0,0.011764705882352941,0.6666666666666666,0.13333333333333333,0.875,0.023121387283236997
tywiki,False,39.0,0.011834319526627219,0.6666666666666666,0.13846153846153847,0.8697916666666666,0.023255813953488372
tywiki,False,40.0,0.011904761904761904,0.6666666666666666,0.14358974358974358,0.8645833333333334,0.023391812865497078
tywiki,False,41.0,0.012195121951219513,0.6666666666666666,0.1641025641025641,0.84375,0.02395209580838323
tywiki,False,42.0,0.012345679012345678,0.6666666666666666,0.17435897435897435,0.8333333333333334,0.024242424242424242
tywiki,False,43.0,0.012422360248447204,0.6666666666666666,0.1794871794871795,0.828125,0.024390243902439022
tywiki,False,44.0,0.0125,0.6666666666666666,0.18461538461538463,0.8229166666666666,0.0245398773006135
tywiki,False,45.0,0.0125,0.6666666666666666,0.18461538461538463,0.8229166666666666,0.0245398773006135
tywiki,False,46.0,0.012738853503184714,0.6666666666666666,0.2,0.8072916666666666,0.025
tywiki,False,47.0,0.012738853503184714,0.6666666666666666,0.2,0.8072916666666666,0.025
tywiki,False,48.0,0.012738853503184714,0.6666666666666666,0.2,0.8072916666666666,0.025
tywiki,False,49.0,0.012738853503184714,0.6666666666666666,0.2,0.8072916666666666,0.025
tywiki,False,50.0,0.013605442176870748,0.6666666666666666,0.2512820512820513,0.7552083333333334,0.02666666666666666
tywiki,False,51.0,0.0136986301369863,0.6666666666666666,0.2564102564102564,0.75,0.02684563758389262
tywiki,False,52.0,0.013986013986013986,0.6666666666666666,0.2717948717948718,0.734375,0.027397260273972605
tywiki,False,53.0,0.014285714285714285,0.6666666666666666,0.28717948717948716,0.71875,0.027972027972027972
tywiki,False,54.0,0.014388489208633094,0.6666666666666666,0.2923076923076923,0.7135416666666666,0.02816901408450704
tywiki,False,55.0,0.014492753623188406,0.6666666666666666,0.29743589743589743,0.7083333333333334,0.028368794326241138
tywiki,False,56.0,0.015384615384615385,0.6666666666666666,0.3384615384615385,0.6666666666666666,0.03007518796992481
tywiki,False,57.0,0.015873015873015872,0.6666666666666666,0.358974358974359,0.6458333333333334,0.031007751937984492
tywiki,False,58.0,0.016260162601626018,0.6666666666666666,0.37435897435897436,0.6302083333333334,0.03174603174603175
tywiki,False,59.0,0.016666666666666666,0.6666666666666666,0.38974358974358975,0.6145833333333334,0.03252032520325203
tywiki,False,60.0,0.017241379310344827,0.6666666666666666,0.41025641025641024,0.59375,0.03361344537815126
tywiki,False,61.0,0.017543859649122806,0.6666666666666666,0.4205128205128205,0.5833333333333334,0.03418803418803419
tywiki,False,62.0,0.017699115044247787,0.6666666666666666,0.4256410256410256,0.578125,0.034482758620689655
tywiki,False,63.0,0.018018018018018018,0.6666666666666666,0.4358974358974359,0.5677083333333334,0.03508771929824561
tywiki,False,64.0,0.01904761904761905,0.6666666666666666,0.4666666666666667,0.5364583333333334,0.037037037037037035
tywiki,False,65.0,0.0196078431372549,0.6666666666666666,0.48205128205128206,0.5208333333333334,0.03809523809523809
tywiki,False,66.0,0.02040816326530612,0.6666666666666666,0.5025641025641026,0.5,0.0396039603960396
tywiki,False,67.0,0.021052631578947368,0.6666666666666666,0.517948717948718,0.484375,0.04081632653061225
tywiki,False,68.0,0.021052631578947368,0.6666666666666666,0.517948717948718,0.484375,0.04081632653061225
tywiki,False,69.0,0.023255813953488372,0.6666666666666666,0.5641025641025641,0.4375,0.0449438202247191
tywiki,False,70.0,0.023809523809523808,0.6666666666666666,0.5743589743589743,0.4270833333333333,0.04597701149425287
tywiki,False,71.0,0.024691358024691357,0.6666666666666666,0.5897435897435898,0.4114583333333333,0.047619047619047616
tywiki,False,72.0,0.0125,0.3333333333333333,0.5846153846153846,0.4114583333333333,0.024096385542168676
tywiki,False,73.0,0.012987012987012988,0.3333333333333333,0.6,0.3958333333333333,0.025
tywiki,False,74.0,0.0,0.0,0.6358974358974359,0.3541666666666667,0.025
tywiki,False,75.0,0.0,0.0,0.6512820512820513,0.3385416666666667,0.025
tywiki,False,76.0,0.0,0.0,0.676923076923077,0.3125,0.025
tywiki,False,77.0,0.0,0.0,0.6974358974358974,0.2916666666666667,0.025
tywiki,False,78.0,0.0,0.0,0.7282051282051282,0.2604166666666667,0.025
tywiki,False,79.0,0.0,0.0,0.7589743589743589,0.22916666666666666,0.025
tywiki,False,80.0,0.0,0.0,0.7743589743589744,0.21354166666666666,0.025
tywiki,False,81.0,0.0,0.0,0.8102564102564103,0.17708333333333334,0.025
tywiki,False,82.0,0.0,0.0,0.8717948717948718,0.11458333333333333,0.025
tywiki,False,83.0,0.0,0.0,0.8923076923076924,0.09375,0.025
tywiki,False,84.0,0.0,0.0,0.8923076923076924,0.09375,0.025
tywiki,False,85.0,0.0,0.0,0.9025641025641026,0.08333333333333333,0.025
tywiki,False,86.0,0.0,0.0,0.9128205128205128,0.07291666666666667,0.025
tywiki,False,87.0,0.0,0.0,0.9333333333333333,0.052083333333333336,0.025
tywiki,False,88.0,0.0,0.0,0.9435897435897436,0.041666666666666664,0.025
tywiki,False,89.0,0.0,0.0,0.9692307692307692,0.015625,0.025
tywiki,False,90.0,0.0,0.0,0.9743589743589743,0.010416666666666666,0.025
tywiki,False,91.0,0.0,0.0,0.9743589743589743,0.010416666666666666,0.025
tywiki,False,92.0,0.0,0.0,0.9846153846153847,0.0,0.025
tywiki,False,93.0,0.0,0.0,0.9846153846153847,0.0,0.025
tywiki,False,94.0,0.0,0.0,0.9846153846153847,0.0,0.025
tywiki,False,95.0,0.0,0.0,0.9846153846153847,0.0,0.025
tywiki,False,96.0,0.0,0.0,0.9846153846153847,0.0,0.025
tywiki,False,97.0,0.0,0.0,0.9846153846153847,0.0,0.025
tywiki,False,98.0,0.0,0.0,0.9846153846153847,0.0,0.025
tywiki,False,99.0,0.0,0.0,0.9846153846153847,0.0,0.025
