wiki_db,user_is_anonymous_or_bot,threshold,precision,recall,accuracy,fpr,F1
uzwiki,True,0.0,0.01376162709981952,1.0,0.01376162709981952,1.0,0.027149631100535802
uzwiki,True,1.0,0.01376162709981952,1.0,0.01376162709981952,1.0,0.027149631100535802
uzwiki,True,2.0,0.013766285620047045,1.0,0.014100027766208525,0.9996568774084567,0.0271586968620232
uzwiki,True,3.0,0.01397754398373265,0.9968474148802018,0.03222615576842982,0.9812338336471292,0.02756852898095836
uzwiki,True,4.0,0.015159088724406421,0.9943253467843631,0.11094335693461058,0.9013830479843747,0.029862899560672625
uzwiki,True,5.0,0.017534939949609644,0.978562421185372,0.24518429820907955,0.7650490049444846,0.0344525223375326
uzwiki,True,6.0,0.01976601383233146,0.9640605296343001,0.3415677495487991,0.6671182981119459,0.038737791515182224
uzwiki,True,7.0,0.02056797811114256,0.9621689785624212,0.36895217270581704,0.6393253681969348,0.04027501022710778
uzwiki,True,8.0,0.021367101402479258,0.9596469104665826,0.39458385394974316,0.613300839330647,0.04180342502437618
uzwiki,True,9.0,0.021674734484502564,0.9457755359394704,0.41178154935443567,0.5956696169344196,0.0423782684239522
uzwiki,True,10.0,0.022247965306243688,0.9445145018915511,0.4279987505206164,0.5792085305555067,0.04347195217504861
uzwiki,True,11.0,0.023268879629196125,0.9401008827238335,0.4561207135915591,0.5506325772905633,0.045413703303230135
uzwiki,True,12.0,0.02536460554371002,0.937578814627995,0.5033579758433986,0.5027009906565079,0.04939296806231419
uzwiki,True,13.0,0.033781109584895115,0.9148802017654477,0.6387182423990004,0.36513522549312877,0.0651563798019713
uzwiki,True,14.0,0.039641069132492546,0.9136191677175284,0.6942159516867972,0.30884552444968416,0.07598521198772909
uzwiki,True,15.0,0.04416966661449366,0.8896595208070618,0.7335398445092323,0.26863859513293803,0.08416092571053652
uzwiki,True,16.0,0.04876850747315978,0.8764186633039092,0.7630501180063862,0.2385317872288012,0.09239563945759106
uzwiki,True,17.0,0.060502028623656876,0.8556116015132409,0.8151724975704567,0.18539177561542117,0.1130127003955861
uzwiki,True,18.0,0.06717269434935755,0.8537200504413619,0.8348344439816743,0.16542907919973254,0.12454583084211011
uzwiki,True,19.0,0.0716897154665395,0.8530895334174022,0.8459582812716924,0.15414122573947317,0.13226452905811623
uzwiki,True,20.0,0.07673112913287586,0.8530895334174022,0.85671768707483,0.14323168693142826,0.14079816847910923
uzwiki,True,21.0,0.08902214022140222,0.851828499369483,0.8780022212966819,0.12163255969453292,0.1611979477389333
uzwiki,True,22.0,0.09439841371007719,0.8404791929382094,0.8868440233236151,0.11250901796554698,0.16973323995670722
uzwiki,True,23.0,0.09799882283696291,0.8398486759142497,0.8914167707899486,0.1078636659569601,0.17551719594149426
uzwiki,True,24.0,0.10219932328514303,0.8379571248423707,0.8964667499652922,0.10271682708380989,0.18217957505140506
uzwiki,True,25.0,0.10796100731112916,0.8379571248423707,0.9024885464389838,0.09661100455737186,0.19127806563039726
uzwiki,True,26.0,0.11782987036050435,0.8366960907944514,0.9115472719700125,0.08740828069187591,0.20656911581569115
uzwiki,True,27.0,0.14077927593162756,0.8360655737704918,0.9275215188116063,0.07120233675282857,0.2409813721035893
uzwiki,True,28.0,0.15363225582203685,0.8360655737704918,0.9343589476606969,0.06426950080061938,0.25956738768718807
uzwiki,True,29.0,0.1610982869639169,0.8360655737704918,0.9378297237262252,0.06075029473350812,0.2701436283997148
uzwiki,True,30.0,0.16637390213299874,0.8360655737704918,0.9400944051089823,0.058454012774718025,0.27752197572205944
uzwiki,True,31.0,0.17167270844122218,0.8360655737704918,0.9422289323892823,0.0562897010434446,0.28485499462943076
uzwiki,True,32.0,0.1919118712856936,0.8348045397225725,0.9493527002637789,0.04904893456036318,0.31208014142604595
uzwiki,True,33.0,0.2063269440548543,0.8348045397225725,0.9535349854227405,0.04480829124949411,0.33087592152942646
uzwiki,True,34.0,0.20995876942594355,0.8348045397225725,0.9544981257809246,0.04383171156587074,0.3355296502787633
uzwiki,True,35.0,0.2123496391339214,0.8348045397225725,0.9551141885325559,0.04320705248895849,0.3385756297148702
uzwiki,True,36.0,0.21487737534513562,0.8341740226986128,0.9557736359850062,0.042529605321039575,0.34172801239829526
uzwiki,True,37.0,0.2172912557527942,0.8335435056746532,0.9563896987366375,0.04189614822895955,0.34471968709256845
uzwiki,True,38.0,0.2189104156317271,0.8335435056746532,0.9567801610440094,0.04150023754640953,0.34675409836065574
uzwiki,True,39.0,0.22289664474793458,0.8335435056746532,0.9577172705817021,0.04055005190828949,0.35173606491951576
uzwiki,True,40.0,0.22374661246612465,0.8329129886506935,0.9579341940857976,0.04032130351392726,0.35273698264352465
uzwiki,True,41.0,0.2257733720731499,0.8329129886506935,0.9583940719144801,0.039855008710035014,0.3552507731612209
uzwiki,True,42.0,0.22838865836791147,0.8329129886506935,0.958975426905456,0.03926554169379388,0.35848032564450477
uzwiki,True,43.0,0.22922089189658165,0.8329129886506935,0.9591576426488962,0.03908078337527054,0.3595046945162607
uzwiki,True,44.0,0.22964509394572025,0.832282471626734,0.9592704428710259,0.038957611162921645,0.3599672757022089
uzwiki,True,45.0,0.23032629558541268,0.832282471626734,0.9594179508538109,0.038808044905069415,0.36080360803608036
uzwiki,True,46.0,0.2322308233638283,0.832282471626734,0.9598257670415105,0.038394538192183844,0.3631361760660248
uzwiki,True,47.0,0.23458325928558735,0.832282471626734,0.9603203526308483,0.03789305132762049,0.3660058228199085
uzwiki,True,48.0,0.2355357142857143,0.8316519546027743,0.9605372761349438,0.03766430293325826,0.3671026996938491
uzwiki,True,49.0,0.2366768347389198,0.8316519546027743,0.9607715535193669,0.03742675652372825,0.36848721888531916
uzwiki,True,50.0,0.23727289080769923,0.8316519546027743,0.9608930306816604,0.037303584311379354,0.36920923722883137
uzwiki,True,51.0,0.23761484417222123,0.8316519546027743,0.960962446202971,0.037233200190037126,0.36962309093456636
uzwiki,True,52.0,0.2387762490948588,0.8316519546027743,0.9611967235873942,0.03699565378050712,0.37102672292545713
uzwiki,True,53.0,0.2392448720275912,0.8310214375788146,0.9613095238095238,0.03687248156815822,0.3715292459478506
uzwiki,True,54.0,0.2399417440378664,0.8310214375788146,0.961448354852145,0.03673171332547377,0.3723689786693035
uzwiki,True,55.0,0.24032140248356465,0.8297604035308953,0.9615611550742746,0.0365997430979571,0.37269895213820453
uzwiki,True,56.0,0.24093738557305017,0.8297604035308953,0.9616826322365681,0.036476570885608205,0.37343927355278095
uzwiki,True,57.0,0.24154411764705883,0.8284993694829761,0.9618388171595169,0.036300610582252646,0.37403928266438946
uzwiki,True,58.0,0.24184932768465647,0.8278688524590164,0.9619169096209913,0.03621263043057486,0.37434069850320745
uzwiki,True,59.0,0.24224519940915806,0.8272383354350568,0.9620123559627933,0.036107054248561525,0.37475007140816907
uzwiki,True,60.0,0.242862439747868,0.8259773013871374,0.9621685408857421,0.03593109394520596,0.3753581661891117
uzwiki,True,61.0,0.24329858525688758,0.8240857503152585,0.9623073719283631,0.035763931657018175,0.3756826674331704
uzwiki,True,62.0,0.24368332397529477,0.8209331651954602,0.9624722337914757,0.0355527792929915,0.37581180545533266
uzwiki,True,63.0,0.24436936936936937,0.8209331651954602,0.962602387893933,0.03542080906547483,0.3766271333526178
uzwiki,True,64.0,0.2451442579671884,0.819672131147541,0.9627846036373733,0.03521845471661593,0.37741326752794313
uzwiki,True,65.0,0.2456439393939394,0.817780580075662,0.9629321116201582,0.03504249441326037,0.3778036702592484
uzwiki,True,66.0,0.24609821088694328,0.8152585119798235,0.963088296543107,0.03484893807956925,0.37807017543859645
uzwiki,True,67.0,0.2468427095292767,0.8133669609079445,0.9632791892267111,0.03462898770037479,0.37874339401056956
uzwiki,True,68.0,0.24716509705938883,0.8108448928121059,0.9634093433291684,0.03446182541218701,0.37884813669170714
uzwiki,True,69.0,0.24772771224134596,0.8076923076923077,0.9636002360127724,0.034224279002657,0.3791623501553944
uzwiki,True,70.0,0.24732229795520935,0.8007566204287516,0.9637217131750659,0.034004328623462546,0.37791995238803755
uzwiki,True,71.0,0.24852767962308597,0.798234552332913,0.964008052200472,0.03367880206225476,0.37904191616766464
uzwiki,True,72.0,0.24940570522979397,0.7938209331651954,0.9642857142857143,0.03333567947071141,0.379559843231836
uzwiki,True,73.0,0.2510995601759296,0.7919293820933165,0.9646327918922671,0.03295736481849695,0.3812993321190042
uzwiki,True,74.0,0.253819515176207,0.78562421185372,0.9652662085242261,0.03222712955957136,0.38367975365665896
uzwiki,True,75.0,0.25424782428512227,0.7736443883984867,0.9656566708315979,0.03166405658883356,0.3827199001871491
uzwiki,True,76.0,0.25640482744018633,0.7635561160151324,0.9662727335832292,0.03089862926923686,0.3838960215565066
uzwiki,True,77.0,0.2584342560553633,0.7534678436317781,0.9668540885742052,0.030168394010311274,0.38486312399355876
uzwiki,True,78.0,0.25866666666666666,0.733921815889029,0.9673920588643621,0.029350178599707906,0.38251725271114034
uzwiki,True,79.0,0.2598857142857143,0.7168978562421185,0.9680081216159934,0.028487973113265647,0.38147961751383996
uzwiki,True,80.0,0.26264775413711583,0.7005044136191677,0.9688150770512286,0.027441009308300048,0.38204951856946356
uzwiki,True,81.0,0.2639094042343673,0.6759142496847415,0.9695960016659725,0.026306065351656666,0.3796033994334278
uzwiki,True,82.0,0.26292770774376123,0.6443883984867591,0.970246772178259,0.025206313455684397,0.3734697606431573
uzwiki,True,83.0,0.26412543930792104,0.6160151324085751,0.9710971123143135,0.023948197286692122,0.36972563859981084
uzwiki,True,84.0,0.2670111972437554,0.5863808322824716,0.9721556990142995,0.022461332723337616,0.36693627934503853
uzwiki,True,85.0,0.2673780487804878,0.5529634300126104,0.9729973622101902,0.021141630448170894,0.3604603370324702
uzwiki,True,86.0,0.26938239159001315,0.5170239596469105,0.9740559489101763,0.019566785733138605,0.3542116630669546
uzwiki,True,87.0,0.27084066127330286,0.4854981084489281,0.9749323198667222,0.018238285442804102,0.34770828629487466
uzwiki,True,88.0,0.2759022118742724,0.44829760403530894,0.9762165070109676,0.016417096303074027,0.34158059092000964
uzwiki,True,89.0,0.27210004312203534,0.3978562421185372,0.9770668471470221,0.014851049603209515,0.32317541613316264
uzwiki,True,90.0,0.275,0.3537200504413619,0.9782729418297932,0.013012264433143883,0.3094318808604523
uzwiki,True,91.0,0.276399307559146,0.3020176544766709,0.9795137442732195,0.011032711020393798,0.2886411569749925
uzwiki,True,92.0,0.2753824756606398,0.24968474148802017,0.9806330695543524,0.009167531804824831,0.2619047619047619
uzwiki,True,93.0,0.2753108348134991,0.19546027742749053,0.9818478411772873,0.0071791803769069695,0.2286135693215339
uzwiki,True,94.0,0.30200501253132833,0.15195460277427492,0.9834964598084132,0.004900494448452429,0.20218120805369127
uzwiki,True,95.0,0.3389830508474576,0.11349306431273644,0.9847546161321672,0.0030881033238901305,0.17005196032120928
uzwiki,True,96.0,0.42153846153846153,0.08638083228247162,0.9857958489518256,0.001654026851542292,0.14338042909471482
uzwiki,True,97.0,0.5853658536585366,0.0605296343001261,0.9864813272247674,0.0005982650314089142,0.10971428571428571
uzwiki,True,98.0,0.6702127659574468,0.03972257250945776,0.9865160349854227,0.00027273847020112263,0.07500000000000001
uzwiki,True,99.0,0.8108108108108109,0.018915510718789406,0.9864379425239483,6.158610617444704e-05,0.03696857670979667
uzwiki,False,0.0,0.0190751195345354,1.0,0.0190751195345354,1.0,0.03743614021947273
uzwiki,False,1.0,0.0190751195345354,1.0,0.0190751195345354,1.0,0.03743614021947273
uzwiki,False,2.0,0.01909307875894988,0.9996224990562477,0.02037847802292759,0.9986639554260294,0.03747046088100865
uzwiki,False,3.0,0.019379275919781544,0.9966024915062288,0.037984618929661845,0.9806567172944364,0.038019254448180766
uzwiki,False,4.0,0.020794995932615683,0.9939599848999623,0.10709142231695375,0.910154672852602,0.040737703649838315
uzwiki,False,5.0,0.023603654175230197,0.984144960362401,0.22314073391324385,0.7916577964073614,0.04610161099223682
uzwiki,False,6.0,0.026183109307633783,0.9743299358248395,0.3082694855694452,0.7046827628227245,0.050995811270054536
uzwiki,False,7.0,0.027181491654341854,0.9713099282748207,0.3363456996370759,0.6760018499078716,0.05288308378464479
uzwiki,False,8.0,0.028162821118818085,0.9671574178935447,0.362751310559364,0.6490020040668609,0.05473189489425336
uzwiki,False,9.0,0.028760660497187444,0.9573423933559834,0.3825033124027882,0.6286750401914508,0.055843655381227646
uzwiki,False,10.0,0.029499661460157364,0.9539448848622122,0.40047669796647273,0.6102860750387232,0.0572295637010112
uzwiki,False,11.0,0.03073990812237318,0.9497923744809362,0.42778241834207037,0.5823686161661393,0.05955241014473887
uzwiki,False,12.0,0.03302657947473895,0.9456398640996603,0.470829252837145,0.5384039405974028,0.06382409518835114
uzwiki,False,13.0,0.04128186648341518,0.9297848244620611,0.586770551299038,0.4198997232479097,0.07905379381178586
uzwiki,False,14.0,0.04657679491063314,0.928652321630804,0.6360317414597615,0.3696585745432122,0.08870458847922114
uzwiki,False,15.0,0.05059629854750477,0.9112872782181956,0.6721297309752866,0.3325209399293805,0.09586973788721208
uzwiki,False,16.0,0.05452637342580763,0.9022272555681389,0.6997162855003168,0.3042217540356621,0.10283771863772294
uzwiki,False,17.0,0.06309106009055107,0.8890147225368064,0.746053920156691,0.25672610352143177,0.11782069241544926
uzwiki,False,18.0,0.06772321815190092,0.8856172140430351,0.7652658563281295,0.2370745028372595,0.12582461786001609
uzwiki,False,19.0,0.0710555083201749,0.883352208380521,0.7774857422662595,0.22457294289510582,0.13153087321885273
uzwiki,False,20.0,0.0746641074856046,0.8810872027180068,0.78943919580621,0.21234299641029783,0.13766256745996638
uzwiki,False,21.0,0.0827145141232901,0.8788221970554927,0.8117835128751656,0.18952012508900845,0.1511982853802689
uzwiki,False,22.0,0.08660382318699066,0.8705171762929408,0.8223976035485915,0.17853813232714005,0.1575351824019675
uzwiki,False,23.0,0.08979814937726936,0.8682521706304266,0.8296128809263207,0.17113850084053353,0.16276272026042038
uzwiki,False,24.0,0.093209650514667,0.8648546621366553,0.8369289705628205,0.16361407398163305,0.16828265021301603
uzwiki,False,25.0,0.09751932026813544,0.8622121555303889,0.8451667722795092,0.15516469318690676,0.17522056003068662
uzwiki,False,26.0,0.10359109735560512,0.8591921479803699,0.8554928279278761,0.14457910925467798,0.1848903330625508
uzwiki,False,27.0,0.11474248709905899,0.8561721404303511,0.8712555446742324,0.12845114261174692,0.2023644880660272
uzwiki,False,28.0,0.12157010148740804,0.8546621366553416,0.8794285385102828,0.12008985266805165,0.21286197818728844
uzwiki,False,29.0,0.12595654359604536,0.8512646281615704,0.8844835532000691,0.11487046974446312,0.21944336317633323
uzwiki,False,30.0,0.1299369687156653,0.8482446206115515,0.888760873322196,0.11045124538440645,0.2253535252231471
uzwiki,False,31.0,0.13343337334933975,0.8391845979614949,0.8929733855636846,0.10598063469458167,0.23025532135273707
uzwiki,False,32.0,0.14248888316040473,0.8346545866364666,0.9010311653897114,0.0976780719849071,0.24342177694594297
uzwiki,False,33.0,0.1502350616611024,0.8323895809739524,0.9069934904084337,0.09155575783825051,0.25453076301512173
uzwiki,False,34.0,0.1535284234108093,0.8278595696489242,0.9096506135146034,0.08875887331801531,0.25902084686706434
uzwiki,False,35.0,0.1573179524152848,0.8237070592676482,0.912473356760182,0.08580048890422322,0.264180640474605
uzwiki,False,36.0,0.1611873840445269,0.8199320498301246,0.9151736851201107,0.08297424076697768,0.26941205656164724
uzwiki,False,37.0,0.16451072896058438,0.816157040392601,0.9174275591911977,0.08060312869339245,0.27382686340320433
uzwiki,False,38.0,0.168319925017574,0.8135145337863344,0.9197678437698024,0.07816594848153395,0.27892829407196484
uzwiki,False,39.0,0.17219285599871856,0.8116270290675727,0.9219785125871306,0.07587558635472717,0.28410967955071026
uzwiki,False,40.0,0.17554499262415998,0.8086070215175538,0.9239083472550262,0.07384949678101349,0.2884654232038247
uzwiki,False,41.0,0.1791607337297931,0.8074745186862967,0.9257589722910305,0.07194086167534117,0.2932547299149986
uzwiki,False,42.0,0.18298018358068113,0.8052095130237825,0.9277032087101792,0.06991477210162748,0.29819656088354535
uzwiki,False,43.0,0.18529875591379008,0.79841449603624,0.9291937899648597,0.06826306864479567,0.300789305269146
uzwiki,False,44.0,0.1878344630752765,0.7950169875424689,0.9305187510801314,0.0668462741240466,0.30387417935213906
uzwiki,False,45.0,0.19118181818181817,0.7938844847112118,0.9320021314591854,0.06531202513525616,0.3081544435489779
uzwiki,False,46.0,0.1946171693735499,0.7916194790486977,0.9335359179676249,0.06370436710393987,0.31242550655542317
uzwiki,False,47.0,0.19774172122592276,0.786711966779917,0.9350481018491849,0.062067345455613224,0.316044889293297
uzwiki,False,48.0,0.20052183996907616,0.7833144582861458,0.9362938533325652,0.0607313008816426,0.3193044548742018
uzwiki,False,49.0,0.20357809888921655,0.7818044545111362,0.9374963995621868,0.059476006254450424,0.3230385275308064
uzwiki,False,50.0,0.20645548116318577,0.7799169497923745,0.938619736159917,0.0582941206697841,0.32648546144121365
uzwiki,False,51.0,0.20953155167157808,0.778406946017365,0.9397574745089002,0.0571048941808652,0.3301841473178543
uzwiki,False,52.0,0.21193351914937544,0.7750094375235939,0.940736793594101,0.05604046306424025,0.3328469520103762
uzwiki,False,53.0,0.2142482425768545,0.7708569271423179,0.9417017109280489,0.05497603194761531,0.33530377668308703
uzwiki,False,54.0,0.21663298947144527,0.768969422423556,0.9425514142519731,0.05407310072454725,0.338035180882841
uzwiki,False,55.0,0.21874325199740877,0.7648169120422801,0.9434083184515237,0.05311878317171109,0.3401897405759382
uzwiki,False,56.0,0.22100416575312432,0.7610419026047565,0.9442724235267008,0.05216446561887493,0.3425367428425792
uzwiki,False,57.0,0.22313590398933214,0.7580218950547376,0.9450429172187338,0.051320261629827564,0.3447802197802198
uzwiki,False,58.0,0.22507314877335133,0.7550018875047187,0.945741402154502,0.05054946668330605,0.34677069787602943
uzwiki,False,59.0,0.22710163111668757,0.7516043790109476,0.946468690592776,0.049741967215521606,0.34880868955851435
uzwiki,False,60.0,0.22758860319666435,0.7417893544733862,0.9470519615185207,0.048956490460494925,0.34831161925019943
uzwiki,False,61.0,0.22937932652821777,0.7380143450358626,0.94770724120053,0.048215059130983756,0.3499820981023989
uzwiki,False,62.0,0.2314836865920457,0.7338618346545867,0.948448931390057,0.04737819604618897,0.3519507558613198
uzwiki,False,63.0,0.23416344294003869,0.7312193280483201,0.9492554294602223,0.04650462844013126,0.3547294203827488
uzwiki,False,64.0,0.23616916646176542,0.7251793129482824,0.9500187222766289,0.04560903812131578,0.3563015858295465
uzwiki,False,65.0,0.23696031944097828,0.7168742921857305,0.950565988824241,0.04488962950456237,0.3561849385726344
uzwiki,False,66.0,0.23901203293223558,0.7123442808607021,0.9512500720087562,0.04410415274953569,0.3579286798179059
uzwiki,False,67.0,0.24094528641150784,0.7081917704794262,0.9518765481882597,0.043384744132782274,0.3595591758505032
uzwiki,False,68.0,0.24314800313234142,0.7032842582106456,0.9525822339996544,0.04256990376074525,0.36136165260401515
uzwiki,False,69.0,0.24516043489790507,0.6979992449981125,0.9532447145572902,0.04179176790997115,0.3628691983122363
uzwiki,False,70.0,0.24689357104267964,0.6900717251793129,0.9539359986174318,0.040932882112418606,0.36367253556152396
uzwiki,False,71.0,0.24876169510181617,0.6825217063042658,0.9546272826775736,0.04008133721911865,0.36462639911263484
uzwiki,False,72.0,0.2515785042795005,0.6768591921479804,0.9554265798721124,0.03915638328329284,0.36681669394435357
uzwiki,False,73.0,0.2541381278538813,0.672329180822952,0.9561106630566277,0.03837090652826615,0.36885161023092056
uzwiki,False,74.0,0.2579324462640737,0.665911664779162,0.9570827812662019,0.037255089081873104,0.37183811129848227
uzwiki,False,75.0,0.25967596759675965,0.6534541336353341,0.9578532749582349,0.03622736248651109,0.371658615136876
uzwiki,False,76.0,0.2613671512527065,0.6379765949414874,0.9587029782821591,0.03506015871034994,0.3708173340647285
uzwiki,False,77.0,0.2645233168868375,0.6274065685164213,0.9596174894867215,0.033922318551199135,0.37214509628302733
uzwiki,False,78.0,0.2662155471199868,0.6089090222725557,0.9605247998156576,0.032637660306996615,0.3704639412034911
uzwiki,False,79.0,0.26852644189628616,0.5922989807474519,0.9614465118958465,0.03137502477555185,0.36952425812529444
uzwiki,False,80.0,0.27256574271499645,0.5790864477161193,0.9624906388616856,0.030053662010086402,0.3706657001328984
uzwiki,False,81.0,0.2755671253253998,0.5594563986409966,0.9635419667031511,0.028600162968074407,0.3692537685312072
uzwiki,False,82.0,0.2765832681782643,0.5341638354095886,0.96446367878334,0.02716868663882017,0.36445589182227944
uzwiki,False,83.0,0.28024026512013256,0.5107587768969423,0.9656446223860822,0.02550964227773577,0.36190985689447636
uzwiki,False,84.0,0.2843507214206437,0.48357870894677235,0.9669335791232214,0.023667075310336728,0.35812133072407043
uzwiki,False,85.0,0.28588346755092375,0.4556436391090978,0.9679056973327956,0.022132826321546287,0.3513316838888081
uzwiki,False,86.0,0.2884318766066838,0.42355605889014725,0.9690722391842848,0.020319622971157587,0.34317173879798135
uzwiki,False,87.0,0.2913298020630053,0.3944884862212156,0.9701451696526298,0.01866057861007319,0.3351507376523412
uzwiki,False,88.0,0.29913473423980225,0.3654209135522839,0.9715637421510456,0.01664917084486467,0.32897196261682243
uzwiki,False,89.0,0.296831955922865,0.3254058135145338,0.9724278472262227,0.014990126483780272,0.3104628128939312
uzwiki,False,90.0,0.3015686274509804,0.29029822574556435,0.9736375943314707,0.01307415047385537,0.2958261204077707
uzwiki,False,91.0,0.30510814542107684,0.25028312570781425,0.9748257388098392,0.011084765421404609,0.27498963085856487
uzwiki,False,92.0,0.3028443948689347,0.20498301245753114,0.9758338613975459,0.009176130315732292,0.24448446645655106
uzwiki,False,93.0,0.30851825340014316,0.1627029067572669,0.9770724120052998,0.0070913135079979156,0.21304992585269403
uzwiki,False,94.0,0.3383383383383383,0.12759531898829746,0.9785989976381128,0.004852337710959236,0.18530701754385964
uzwiki,False,95.0,0.3796711509715994,0.09588523971309929,0.979765539489602,0.0030464752648231208,0.15310427968655818
uzwiki,False,96.0,0.4628297362110312,0.07285768214420536,0.9807016533210439,0.0016443625525792266,0.1258969341161122
uzwiki,False,97.0,0.6212765957446809,0.05511513778784447,0.9813353303761737,0.0006533404784801392,0.10124826629681
uzwiki,False,98.0,0.7121212121212122,0.03548508871272178,0.9813281295005473,0.0002789543615982617,0.06760158216468895
uzwiki,False,99.0,0.8113207547169812,0.016232540581351453,0.9811625093611384,7.340904252585834e-05,0.03182827535159141
