wiki_db,user_is_anonymous_or_bot,threshold,precision,recall,accuracy,fpr,F1
vlswiki,True,0.0,0.19927536231884058,1.0,0.19927536231884058,1.0,0.3323262839879154
vlswiki,True,1.0,0.19927536231884058,1.0,0.19927536231884058,1.0,0.3323262839879154
vlswiki,True,2.0,0.19927536231884058,1.0,0.19927536231884058,1.0,0.3323262839879154
vlswiki,True,3.0,0.19927536231884058,1.0,0.19927536231884058,1.0,0.3323262839879154
vlswiki,True,4.0,0.19927536231884058,1.0,0.19927536231884058,1.0,0.3323262839879154
vlswiki,True,5.0,0.19927536231884058,1.0,0.19927536231884058,1.0,0.3323262839879154
vlswiki,True,6.0,0.19927536231884058,1.0,0.19927536231884058,1.0,0.3323262839879154
vlswiki,True,7.0,0.19927536231884058,1.0,0.19927536231884058,1.0,0.3323262839879154
vlswiki,True,8.0,0.19927536231884058,1.0,0.19927536231884058,1.0,0.3323262839879154
vlswiki,True,9.0,0.19927536231884058,1.0,0.19927536231884058,1.0,0.3323262839879154
vlswiki,True,10.0,0.19927536231884058,1.0,0.19927536231884058,1.0,0.3323262839879154
vlswiki,True,11.0,0.19927536231884058,1.0,0.19927536231884058,1.0,0.3323262839879154
vlswiki,True,12.0,0.19927536231884058,1.0,0.19927536231884058,1.0,0.3323262839879154
vlswiki,True,13.0,0.19927536231884058,1.0,0.19927536231884058,1.0,0.3323262839879154
vlswiki,True,14.0,0.19927536231884058,1.0,0.19927536231884058,1.0,0.3323262839879154
vlswiki,True,15.0,0.2,1.0,0.2028985507246377,0.995475113122172,0.33333333333333337
vlswiki,True,16.0,0.2,1.0,0.2028985507246377,0.995475113122172,0.33333333333333337
vlswiki,True,17.0,0.2,1.0,0.2028985507246377,0.995475113122172,0.33333333333333337
vlswiki,True,18.0,0.2,1.0,0.2028985507246377,0.995475113122172,0.33333333333333337
vlswiki,True,19.0,0.20072992700729927,1.0,0.20652173913043478,0.9909502262443439,0.3343465045592705
vlswiki,True,20.0,0.20146520146520147,1.0,0.21014492753623187,0.9864253393665159,0.3353658536585366
vlswiki,True,21.0,0.20146520146520147,1.0,0.21014492753623187,0.9864253393665159,0.3353658536585366
vlswiki,True,22.0,0.20220588235294118,1.0,0.213768115942029,0.9819004524886877,0.3363914373088685
vlswiki,True,23.0,0.20220588235294118,1.0,0.213768115942029,0.9819004524886877,0.3363914373088685
vlswiki,True,24.0,0.20220588235294118,1.0,0.213768115942029,0.9819004524886877,0.3363914373088685
vlswiki,True,25.0,0.20220588235294118,1.0,0.213768115942029,0.9819004524886877,0.3363914373088685
vlswiki,True,26.0,0.2029520295202952,1.0,0.21739130434782608,0.9773755656108597,0.3374233128834356
vlswiki,True,27.0,0.2029520295202952,1.0,0.21739130434782608,0.9773755656108597,0.3374233128834356
vlswiki,True,28.0,0.2037037037037037,1.0,0.2210144927536232,0.9728506787330317,0.3384615384615384
vlswiki,True,29.0,0.20446096654275092,1.0,0.2246376811594203,0.9683257918552036,0.3395061728395062
vlswiki,True,30.0,0.20599250936329588,1.0,0.2318840579710145,0.9592760180995475,0.3416149068322981
vlswiki,True,31.0,0.20676691729323307,1.0,0.23550724637681159,0.9547511312217195,0.3426791277258567
vlswiki,True,32.0,0.20676691729323307,1.0,0.23550724637681159,0.9547511312217195,0.3426791277258567
vlswiki,True,33.0,0.20676691729323307,1.0,0.23550724637681159,0.9547511312217195,0.3426791277258567
vlswiki,True,34.0,0.20833333333333334,1.0,0.2427536231884058,0.9457013574660633,0.3448275862068966
vlswiki,True,35.0,0.20912547528517111,1.0,0.2463768115942029,0.9411764705882353,0.3459119496855346
vlswiki,True,36.0,0.2099236641221374,1.0,0.25,0.9366515837104072,0.3470031545741325
vlswiki,True,37.0,0.21153846153846154,1.0,0.2572463768115942,0.9276018099547512,0.34920634920634924
vlswiki,True,38.0,0.2131782945736434,1.0,0.2644927536231884,0.918552036199095,0.3514376996805112
vlswiki,True,39.0,0.2140077821011673,1.0,0.26811594202898553,0.9140271493212669,0.3525641025641026
vlswiki,True,40.0,0.21568627450980393,1.0,0.2753623188405797,0.9049773755656109,0.3548387096774193
vlswiki,True,41.0,0.21568627450980393,1.0,0.2753623188405797,0.9049773755656109,0.3548387096774193
vlswiki,True,42.0,0.21739130434782608,1.0,0.2826086956521739,0.8959276018099548,0.3571428571428571
vlswiki,True,43.0,0.21739130434782608,1.0,0.2826086956521739,0.8959276018099548,0.3571428571428571
vlswiki,True,44.0,0.22357723577235772,1.0,0.3079710144927536,0.8642533936651584,0.36544850498338866
vlswiki,True,45.0,0.22448979591836735,1.0,0.3115942028985507,0.8597285067873304,0.36666666666666664
vlswiki,True,46.0,0.2301255230125523,1.0,0.3333333333333333,0.832579185520362,0.37414965986394555
vlswiki,True,47.0,0.2301255230125523,1.0,0.3333333333333333,0.832579185520362,0.37414965986394555
vlswiki,True,48.0,0.2301255230125523,1.0,0.3333333333333333,0.832579185520362,0.37414965986394555
vlswiki,True,49.0,0.23109243697478993,1.0,0.33695652173913043,0.8280542986425339,0.37542662116040953
vlswiki,True,50.0,0.2320675105485232,1.0,0.34057971014492755,0.8235294117647058,0.37671232876712324
vlswiki,True,51.0,0.2330508474576271,1.0,0.3442028985507246,0.8190045248868778,0.37800687285223367
vlswiki,True,52.0,0.23404255319148937,1.0,0.34782608695652173,0.8144796380090498,0.3793103448275862
vlswiki,True,53.0,0.23605150214592274,1.0,0.35507246376811596,0.8054298642533937,0.3819444444444444
vlswiki,True,54.0,0.23809523809523808,1.0,0.36231884057971014,0.7963800904977375,0.3846153846153846
vlswiki,True,55.0,0.23809523809523808,1.0,0.36231884057971014,0.7963800904977375,0.3846153846153846
vlswiki,True,56.0,0.23809523809523808,1.0,0.36231884057971014,0.7963800904977375,0.3846153846153846
vlswiki,True,57.0,0.2412280701754386,1.0,0.37318840579710144,0.7828054298642534,0.38869257950530034
vlswiki,True,58.0,0.2511415525114155,1.0,0.4057971014492754,0.7420814479638009,0.4014598540145985
vlswiki,True,59.0,0.2534562211981567,1.0,0.41304347826086957,0.7330316742081447,0.4044117647058824
vlswiki,True,60.0,0.2696078431372549,1.0,0.4601449275362319,0.6742081447963801,0.4247104247104247
vlswiki,True,61.0,0.27918781725888325,1.0,0.4855072463768116,0.6425339366515838,0.4365079365079365
vlswiki,True,62.0,0.2849740932642487,1.0,0.5,0.6244343891402715,0.4435483870967742
vlswiki,True,63.0,0.2972972972972973,1.0,0.5289855072463768,0.5882352941176471,0.4583333333333333
vlswiki,True,64.0,0.3005464480874317,1.0,0.5362318840579711,0.579185520361991,0.4621848739495798
vlswiki,True,65.0,0.30337078651685395,0.9818181818181818,0.5471014492753623,0.5610859728506787,0.46351931330472107
vlswiki,True,66.0,0.30337078651685395,0.9818181818181818,0.5471014492753623,0.5610859728506787,0.46351931330472107
vlswiki,True,67.0,0.3050847457627119,0.9818181818181818,0.5507246376811594,0.5565610859728507,0.4655172413793104
vlswiki,True,68.0,0.31213872832369943,0.9818181818181818,0.5652173913043478,0.5384615384615384,0.47368421052631576
vlswiki,True,69.0,0.31213872832369943,0.9818181818181818,0.5652173913043478,0.5384615384615384,0.47368421052631576
vlswiki,True,70.0,0.3157894736842105,0.9818181818181818,0.572463768115942,0.5294117647058824,0.47787610619469023
vlswiki,True,71.0,0.3253012048192771,0.9818181818181818,0.5905797101449275,0.5067873303167421,0.48868778280542985
vlswiki,True,72.0,0.3253012048192771,0.9818181818181818,0.5905797101449275,0.5067873303167421,0.48868778280542985
vlswiki,True,73.0,0.32727272727272727,0.9818181818181818,0.5942028985507246,0.502262443438914,0.4909090909090909
vlswiki,True,74.0,0.3312883435582822,0.9818181818181818,0.6014492753623188,0.49321266968325794,0.49541284403669716
vlswiki,True,75.0,0.32298136645962733,0.9454545454545454,0.5942028985507246,0.49321266968325794,0.4814814814814814
vlswiki,True,76.0,0.3248407643312102,0.9272727272727272,0.6014492753623188,0.4796380090497738,0.4811320754716981
vlswiki,True,77.0,0.31333333333333335,0.8545454545454545,0.5978260869565217,0.4660633484162896,0.4585365853658536
vlswiki,True,78.0,0.31724137931034485,0.8363636363636363,0.6086956521739131,0.4479638009049774,0.46
vlswiki,True,79.0,0.30935251798561153,0.7818181818181819,0.6086956521739131,0.4343891402714932,0.443298969072165
vlswiki,True,80.0,0.3037037037037037,0.7454545454545455,0.6086956521739131,0.4253393665158371,0.43157894736842106
vlswiki,True,81.0,0.31496062992125984,0.7272727272727273,0.6304347826086957,0.3936651583710407,0.4395604395604395
vlswiki,True,82.0,0.31451612903225806,0.7090909090909091,0.6340579710144928,0.38461538461538464,0.43575418994413406
vlswiki,True,83.0,0.3274336283185841,0.6727272727272727,0.6594202898550725,0.3438914027149321,0.44047619047619047
vlswiki,True,84.0,0.32989690721649484,0.5818181818181818,0.6811594202898551,0.29411764705882354,0.42105263157894735
vlswiki,True,85.0,0.36904761904761907,0.5636363636363636,0.7210144927536232,0.2398190045248869,0.4460431654676259
vlswiki,True,86.0,0.3561643835616438,0.4727272727272727,0.7246376811594203,0.21266968325791855,0.40624999999999994
vlswiki,True,87.0,0.38461538461538464,0.45454545454545453,0.7463768115942029,0.18099547511312217,0.41666666666666663
vlswiki,True,88.0,0.3888888888888889,0.38181818181818183,0.7572463768115942,0.1493212669683258,0.3853211009174312
vlswiki,True,89.0,0.4186046511627907,0.32727272727272727,0.7753623188405797,0.11312217194570136,0.3673469387755102
vlswiki,True,90.0,0.3333333333333333,0.2,0.7608695652173914,0.09954751131221719,0.25
vlswiki,True,91.0,0.36,0.16363636363636364,0.7753623188405797,0.07239819004524888,0.22499999999999995
vlswiki,True,92.0,0.3888888888888889,0.12727272727272726,0.7862318840579711,0.049773755656108594,0.19178082191780818
vlswiki,True,93.0,0.35714285714285715,0.09090909090909091,0.7862318840579711,0.04072398190045249,0.1449275362318841
vlswiki,True,94.0,0.5,0.09090909090909091,0.8007246376811594,0.02262443438914027,0.15384615384615385
vlswiki,True,95.0,0.6,0.05454545454545454,0.8043478260869565,0.00904977375565611,0.09999999999999999
vlswiki,True,96.0,0.6666666666666666,0.03636363636363636,0.8043478260869565,0.004524886877828055,0.06896551724137931
vlswiki,True,97.0,0.5,0.01818181818181818,0.8007246376811594,0.004524886877828055,0.03508771929824561
vlswiki,True,98.0,0.5,0.01818181818181818,0.8007246376811594,0.004524886877828055,0.03508771929824561
vlswiki,True,99.0,0.5,0.0,0.8007246376811594,0.0,0.0
vlswiki,False,0.0,0.09985528219971057,1.0,0.09985528219971057,1.0,0.18157894736842106
vlswiki,False,1.0,0.09985528219971057,1.0,0.09985528219971057,1.0,0.18157894736842106
vlswiki,False,2.0,0.10043668122270742,1.0,0.10564399421128799,0.9935691318327974,0.18253968253968256
vlswiki,False,3.0,0.10176991150442478,1.0,0.11866859623733719,0.9790996784565916,0.18473895582329317
vlswiki,False,4.0,0.1043872919818457,1.0,0.14327062228654125,0.9517684887459807,0.189041095890411
vlswiki,False,5.0,0.10615384615384615,1.0,0.15918958031837915,0.9340836012861736,0.19193324061196107
vlswiki,False,6.0,0.10697674418604651,1.0,0.16642547033285093,0.9260450160771704,0.19327731092436976
vlswiki,False,7.0,0.107981220657277,1.0,0.17510853835021709,0.9163987138263665,0.19491525423728814
vlswiki,False,8.0,0.11057692307692307,1.0,0.19681620839363242,0.8922829581993569,0.1991341991341991
vlswiki,False,9.0,0.11311475409836065,1.0,0.2170767004341534,0.8697749196141479,0.203240058910162
vlswiki,False,10.0,0.11616161616161616,1.0,0.2402315484804631,0.8440514469453376,0.2081447963800905
vlswiki,False,11.0,0.11754684838160136,1.0,0.2503617945007236,0.8327974276527331,0.21036585365853658
vlswiki,False,12.0,0.12020905923344948,1.0,0.2691751085383502,0.8118971061093248,0.21461897356143078
vlswiki,False,13.0,0.12343470483005367,1.0,0.29088277858176553,0.7877813504823151,0.2197452229299363
vlswiki,False,14.0,0.12614259597806216,1.0,0.30824891461649784,0.7684887459807074,0.22402597402597402
vlswiki,False,15.0,0.13018867924528302,1.0,0.33285094066570187,0.7411575562700965,0.23038397328881466
vlswiki,False,16.0,0.13398058252427184,1.0,0.3545586107091172,0.7170418006430869,0.23630136986301367
vlswiki,False,17.0,0.13717693836978131,1.0,0.3719247467438495,0.6977491961414791,0.24125874125874125
vlswiki,False,18.0,0.1419753086419753,1.0,0.39652677279305354,0.6704180064308681,0.24864864864864863
vlswiki,False,19.0,0.14556962025316456,1.0,0.41389290882778584,0.6511254019292605,0.2541436464088398
vlswiki,False,20.0,0.148068669527897,1.0,0.42547033285094066,0.6382636655948553,0.25794392523364484
vlswiki,False,21.0,0.14967462039045554,1.0,0.43270622286541244,0.6302250803858521,0.26037735849056604
vlswiki,False,22.0,0.152317880794702,1.0,0.4442836468885673,0.617363344051447,0.264367816091954
vlswiki,False,23.0,0.1550561797752809,1.0,0.4558610709117221,0.6045016077170418,0.26848249027237353
vlswiki,False,24.0,0.15789473684210525,1.0,0.467438494934877,0.5916398713826366,0.2727272727272727
vlswiki,False,25.0,0.15935334872979215,1.0,0.4732272069464544,0.5852090032154341,0.2749003984063745
vlswiki,False,26.0,0.16159250585480095,1.0,0.48191027496382055,0.5755627009646302,0.27822580645161293
vlswiki,False,27.0,0.16428571428571428,1.0,0.492040520984081,0.5643086816720257,0.2822085889570552
vlswiki,False,28.0,0.16829268292682928,1.0,0.5065123010130246,0.5482315112540193,0.28810020876826725
vlswiki,False,29.0,0.16953316953316952,1.0,0.5108538350217077,0.5434083601286174,0.28991596638655465
vlswiki,False,30.0,0.17042606516290726,0.9855072463768116,0.5195369030390738,0.5321543408360129,0.29059829059829057
vlswiki,False,31.0,0.17391304347826086,0.9855072463768116,0.5311143270622286,0.5192926045016077,0.2956521739130435
vlswiki,False,32.0,0.17525773195876287,0.9855072463768116,0.5354558610709117,0.5144694533762058,0.2975929978118162
vlswiki,False,33.0,0.17708333333333334,0.9855072463768116,0.5412445730824892,0.5080385852090032,0.3002207505518764
vlswiki,False,34.0,0.17894736842105263,0.9855072463768116,0.5470332850940666,0.5016077170418006,0.3028953229398664
vlswiki,False,35.0,0.18085106382978725,0.9855072463768116,0.552821997105644,0.49517684887459806,0.30561797752808995
vlswiki,False,36.0,0.18133333333333335,0.9855072463768116,0.5542691751085383,0.49356913183279744,0.30630630630630634
vlswiki,False,37.0,0.1842818428184282,0.9855072463768116,0.5629522431259045,0.48392282958199356,0.31050228310502287
vlswiki,False,38.0,0.18579234972677597,0.9855072463768116,0.5672937771345875,0.4790996784565916,0.31264367816091954
vlswiki,False,39.0,0.1883656509695291,0.9855072463768116,0.5745296671490593,0.47106109324758844,0.31627906976744186
vlswiki,False,40.0,0.1894150417827298,0.9855072463768116,0.5774240231548481,0.4678456591639871,0.31775700934579443
vlswiki,False,41.0,0.19047619047619047,0.9855072463768116,0.5803183791606368,0.4646302250803859,0.3192488262910798
vlswiki,False,42.0,0.19373219373219372,0.9855072463768116,0.5890014471780028,0.454983922829582,0.32380952380952377
vlswiki,False,43.0,0.19373219373219372,0.9855072463768116,0.5890014471780028,0.454983922829582,0.32380952380952377
vlswiki,False,44.0,0.19883040935672514,0.9855072463768116,0.6020260492040521,0.4405144694533762,0.3309002433090024
vlswiki,False,45.0,0.19822485207100593,0.9710144927536232,0.6049204052098408,0.43569131832797425,0.3292383292383293
vlswiki,False,46.0,0.20303030303030303,0.9710144927536232,0.6164978292329957,0.4228295819935691,0.33583959899749377
vlswiki,False,47.0,0.20489296636085627,0.9710144927536232,0.6208393632416788,0.4180064308681672,0.3383838383838384
vlswiki,False,48.0,0.20679012345679013,0.9710144927536232,0.6251808972503617,0.41318327974276525,0.34096692111959287
vlswiki,False,49.0,0.2080745341614907,0.9710144927536232,0.6280752532561505,0.409967845659164,0.3427109974424552
vlswiki,False,50.0,0.2113564668769716,0.9710144927536232,0.6353111432706223,0.40192926045016075,0.3471502590673575
vlswiki,False,51.0,0.2120253164556962,0.9710144927536232,0.6367583212735166,0.4003215434083601,0.34805194805194806
vlswiki,False,52.0,0.21474358974358973,0.9710144927536232,0.6425470332850941,0.39389067524115756,0.3517060367454068
vlswiki,False,53.0,0.21753246753246752,0.9710144927536232,0.6483357452966715,0.387459807073955,0.3554376657824933
vlswiki,False,54.0,0.21967213114754097,0.9710144927536232,0.6526772793053546,0.38263665594855306,0.3582887700534759
vlswiki,False,55.0,0.21967213114754097,0.9710144927536232,0.6526772793053546,0.38263665594855306,0.3582887700534759
vlswiki,False,56.0,0.22039473684210525,0.9710144927536232,0.6541244573082489,0.38102893890675243,0.35924932975871315
vlswiki,False,57.0,0.22408026755852842,0.9710144927536232,0.6613603473227206,0.3729903536977492,0.3641304347826087
vlswiki,False,58.0,0.2326388888888889,0.9710144927536232,0.6772793053545586,0.3553054662379421,0.3753501400560224
vlswiki,False,59.0,0.23591549295774647,0.9710144927536232,0.683068017366136,0.34887459807073956,0.3796033994334278
vlswiki,False,60.0,0.250936329588015,0.9710144927536232,0.7076700434153401,0.3215434083601286,0.39880952380952384
vlswiki,False,61.0,0.2607003891050584,0.9710144927536232,0.7221418234442837,0.3054662379421222,0.41104294478527603
vlswiki,False,62.0,0.26587301587301587,0.9710144927536232,0.7293777134587555,0.297427652733119,0.4174454828660436
vlswiki,False,63.0,0.27385892116182575,0.9565217391304348,0.7424023154848046,0.28135048231511256,0.4258064516129032
vlswiki,False,64.0,0.27615062761506276,0.9565217391304348,0.7452966714905933,0.27813504823151125,0.42857142857142855
vlswiki,False,65.0,0.2801724137931034,0.9420289855072463,0.7525325615050651,0.2684887459807074,0.4318936877076412
vlswiki,False,66.0,0.2813852813852814,0.9420289855072463,0.7539797395079595,0.26688102893890675,0.43333333333333335
vlswiki,False,67.0,0.2831858407079646,0.927536231884058,0.7583212735166426,0.2604501607717042,0.4338983050847457
vlswiki,False,68.0,0.2922374429223744,0.927536231884058,0.768451519536903,0.2491961414790997,0.44444444444444436
vlswiki,False,69.0,0.2922374429223744,0.927536231884058,0.768451519536903,0.2491961414790997,0.44444444444444436
vlswiki,False,70.0,0.29767441860465116,0.927536231884058,0.7742402315484804,0.2427652733118971,0.4507042253521127
vlswiki,False,71.0,0.30917874396135264,0.927536231884058,0.7858176555716353,0.22990353697749197,0.463768115942029
vlswiki,False,72.0,0.3121951219512195,0.927536231884058,0.788712011577424,0.2266881028938907,0.4671532846715329
vlswiki,False,73.0,0.31527093596059114,0.927536231884058,0.7916063675832128,0.22347266881028938,0.47058823529411764
vlswiki,False,74.0,0.32160804020100503,0.927536231884058,0.7973950795947902,0.2170418006430868,0.4776119402985075
vlswiki,False,75.0,0.3163265306122449,0.8985507246376812,0.7959479015918958,0.21543408360128619,0.4679245283018868
vlswiki,False,76.0,0.3279569892473118,0.8840579710144928,0.8075253256150506,0.20096463022508038,0.4784313725490195
vlswiki,False,77.0,0.31843575418994413,0.8260869565217391,0.8060781476121563,0.19614147909967847,0.45967741935483875
vlswiki,False,78.0,0.32941176470588235,0.8115942028985508,0.8162083936324168,0.1832797427652733,0.46861924686192474
vlswiki,False,79.0,0.32515337423312884,0.7681159420289855,0.8176555716353111,0.17684887459807075,0.45689655172413796
vlswiki,False,80.0,0.32075471698113206,0.7391304347826086,0.8176555716353111,0.17363344051446947,0.4473684210526316
vlswiki,False,81.0,0.3401360544217687,0.7246376811594203,0.8321273516642547,0.15594855305466238,0.4629629629629629
vlswiki,False,82.0,0.3402777777777778,0.7101449275362319,0.8335745296671491,0.1527331189710611,0.46009389671361506
vlswiki,False,83.0,0.3511450381679389,0.6666666666666666,0.8437047756874095,0.13665594855305466,0.45999999999999996
vlswiki,False,84.0,0.35135135135135137,0.5652173913043478,0.8523878437047757,0.1157556270096463,0.43333333333333335
vlswiki,False,85.0,0.38144329896907214,0.5362318840579711,0.8668596237337193,0.09646302250803858,0.4457831325301205
vlswiki,False,86.0,0.37209302325581395,0.463768115942029,0.8683068017366136,0.08681672025723473,0.4129032258064516
vlswiki,False,87.0,0.4025974025974026,0.4492753623188406,0.8784370477568741,0.07395498392282958,0.4246575342465754
vlswiki,False,88.0,0.421875,0.391304347826087,0.8856729377713459,0.0594855305466238,0.406015037593985
vlswiki,False,89.0,0.4528301886792453,0.34782608695652173,0.8929088277858177,0.04662379421221865,0.39344262295081966
vlswiki,False,90.0,0.38095238095238093,0.2318840579710145,0.8856729377713459,0.04180064308681672,0.2882882882882883
vlswiki,False,91.0,0.3870967741935484,0.17391304347826086,0.8900144717800289,0.03054662379421222,0.24
vlswiki,False,92.0,0.42857142857142855,0.13043478260869565,0.8958031837916064,0.01929260450160772,0.2
vlswiki,False,93.0,0.375,0.08695652173913043,0.894356005788712,0.01607717041800643,0.1411764705882353
vlswiki,False,94.0,0.5,0.07246376811594203,0.9001447178002895,0.008038585209003215,0.12658227848101267
vlswiki,False,95.0,0.6,0.043478260869565216,0.9015918958031838,0.003215434083601286,0.08108108108108109
vlswiki,False,96.0,0.6666666666666666,0.028985507246376812,0.9015918958031838,0.001607717041800643,0.05555555555555555
vlswiki,False,97.0,0.5,0.014492753623188406,0.9001447178002895,0.001607717041800643,0.028169014084507046
vlswiki,False,98.0,0.5,0.014492753623188406,0.9001447178002895,0.001607717041800643,0.028169014084507046
vlswiki,False,99.0,0.5,0.0,0.9001447178002895,0.0,0.0
