wiki_db,user_is_anonymous_or_bot,threshold,precision,recall,accuracy,fpr,F1
xalwiki,True,0.0,0.3669064748201439,1.0,0.3669064748201439,1.0,0.5368421052631579
xalwiki,True,1.0,0.3669064748201439,1.0,0.3669064748201439,1.0,0.5368421052631579
xalwiki,True,2.0,0.3669064748201439,1.0,0.3669064748201439,1.0,0.5368421052631579
xalwiki,True,3.0,0.3669064748201439,1.0,0.3669064748201439,1.0,0.5368421052631579
xalwiki,True,4.0,0.3669064748201439,1.0,0.3669064748201439,1.0,0.5368421052631579
xalwiki,True,5.0,0.3669064748201439,1.0,0.3669064748201439,1.0,0.5368421052631579
xalwiki,True,6.0,0.3669064748201439,1.0,0.3669064748201439,1.0,0.5368421052631579
xalwiki,True,7.0,0.3669064748201439,1.0,0.3669064748201439,1.0,0.5368421052631579
xalwiki,True,8.0,0.3669064748201439,1.0,0.3669064748201439,1.0,0.5368421052631579
xalwiki,True,9.0,0.3669064748201439,1.0,0.3669064748201439,1.0,0.5368421052631579
xalwiki,True,10.0,0.3669064748201439,1.0,0.3669064748201439,1.0,0.5368421052631579
xalwiki,True,11.0,0.3669064748201439,1.0,0.3669064748201439,1.0,0.5368421052631579
xalwiki,True,12.0,0.3669064748201439,1.0,0.3669064748201439,1.0,0.5368421052631579
xalwiki,True,13.0,0.3669064748201439,1.0,0.3669064748201439,1.0,0.5368421052631579
xalwiki,True,14.0,0.3669064748201439,1.0,0.3669064748201439,1.0,0.5368421052631579
xalwiki,True,15.0,0.3669064748201439,1.0,0.3669064748201439,1.0,0.5368421052631579
xalwiki,True,16.0,0.3669064748201439,1.0,0.3669064748201439,1.0,0.5368421052631579
xalwiki,True,17.0,0.3669064748201439,1.0,0.3669064748201439,1.0,0.5368421052631579
xalwiki,True,18.0,0.3669064748201439,1.0,0.3669064748201439,1.0,0.5368421052631579
xalwiki,True,19.0,0.3669064748201439,1.0,0.3669064748201439,1.0,0.5368421052631579
xalwiki,True,20.0,0.3669064748201439,1.0,0.3669064748201439,1.0,0.5368421052631579
xalwiki,True,21.0,0.3669064748201439,1.0,0.3669064748201439,1.0,0.5368421052631579
xalwiki,True,22.0,0.3669064748201439,1.0,0.3669064748201439,1.0,0.5368421052631579
xalwiki,True,23.0,0.3669064748201439,1.0,0.3669064748201439,1.0,0.5368421052631579
xalwiki,True,24.0,0.3669064748201439,1.0,0.3669064748201439,1.0,0.5368421052631579
xalwiki,True,25.0,0.3669064748201439,1.0,0.3669064748201439,1.0,0.5368421052631579
xalwiki,True,26.0,0.3669064748201439,1.0,0.3669064748201439,1.0,0.5368421052631579
xalwiki,True,27.0,0.3669064748201439,1.0,0.3669064748201439,1.0,0.5368421052631579
xalwiki,True,28.0,0.3669064748201439,1.0,0.3669064748201439,1.0,0.5368421052631579
xalwiki,True,29.0,0.3669064748201439,1.0,0.3669064748201439,1.0,0.5368421052631579
xalwiki,True,30.0,0.3669064748201439,1.0,0.3669064748201439,1.0,0.5368421052631579
xalwiki,True,31.0,0.3669064748201439,1.0,0.3669064748201439,1.0,0.5368421052631579
xalwiki,True,32.0,0.3669064748201439,1.0,0.3669064748201439,1.0,0.5368421052631579
xalwiki,True,33.0,0.3669064748201439,1.0,0.3669064748201439,1.0,0.5368421052631579
xalwiki,True,34.0,0.3669064748201439,1.0,0.3669064748201439,1.0,0.5368421052631579
xalwiki,True,35.0,0.3669064748201439,1.0,0.3669064748201439,1.0,0.5368421052631579
xalwiki,True,36.0,0.3669064748201439,1.0,0.3669064748201439,1.0,0.5368421052631579
xalwiki,True,37.0,0.3669064748201439,1.0,0.3669064748201439,1.0,0.5368421052631579
xalwiki,True,38.0,0.3669064748201439,1.0,0.3669064748201439,1.0,0.5368421052631579
xalwiki,True,39.0,0.3669064748201439,1.0,0.3669064748201439,1.0,0.5368421052631579
xalwiki,True,40.0,0.3669064748201439,1.0,0.3669064748201439,1.0,0.5368421052631579
xalwiki,True,41.0,0.3669064748201439,1.0,0.3669064748201439,1.0,0.5368421052631579
xalwiki,True,42.0,0.3695652173913043,1.0,0.37410071942446044,0.9886363636363636,0.5396825396825397
xalwiki,True,43.0,0.3695652173913043,1.0,0.37410071942446044,0.9886363636363636,0.5396825396825397
xalwiki,True,44.0,0.3695652173913043,1.0,0.37410071942446044,0.9886363636363636,0.5396825396825397
xalwiki,True,45.0,0.3722627737226277,1.0,0.381294964028777,0.9772727272727273,0.5425531914893617
xalwiki,True,46.0,0.3722627737226277,1.0,0.381294964028777,0.9772727272727273,0.5425531914893617
xalwiki,True,47.0,0.3722627737226277,1.0,0.381294964028777,0.9772727272727273,0.5425531914893617
xalwiki,True,48.0,0.375,1.0,0.38848920863309355,0.9659090909090909,0.5454545454545454
xalwiki,True,49.0,0.375,1.0,0.38848920863309355,0.9659090909090909,0.5454545454545454
xalwiki,True,50.0,0.375,1.0,0.38848920863309355,0.9659090909090909,0.5454545454545454
xalwiki,True,51.0,0.37777777777777777,1.0,0.39568345323741005,0.9545454545454546,0.5483870967741935
xalwiki,True,52.0,0.38345864661654133,1.0,0.41007194244604317,0.9318181818181818,0.5543478260869565
xalwiki,True,53.0,0.38636363636363635,1.0,0.4172661870503597,0.9204545454545454,0.5573770491803279
xalwiki,True,54.0,0.38636363636363635,1.0,0.4172661870503597,0.9204545454545454,0.5573770491803279
xalwiki,True,55.0,0.3893129770992366,1.0,0.4244604316546763,0.9090909090909091,0.5604395604395604
xalwiki,True,56.0,0.3984375,1.0,0.4460431654676259,0.875,0.5698324022346368
xalwiki,True,57.0,0.40476190476190477,1.0,0.460431654676259,0.8522727272727273,0.576271186440678
xalwiki,True,58.0,0.40476190476190477,1.0,0.460431654676259,0.8522727272727273,0.576271186440678
xalwiki,True,59.0,0.4032258064516129,0.9803921568627451,0.460431654676259,0.8409090909090909,0.5714285714285714
xalwiki,True,60.0,0.4032258064516129,0.9803921568627451,0.460431654676259,0.8409090909090909,0.5714285714285714
xalwiki,True,61.0,0.4032258064516129,0.9803921568627451,0.460431654676259,0.8409090909090909,0.5714285714285714
xalwiki,True,62.0,0.4098360655737705,0.9803921568627451,0.4748201438848921,0.8181818181818182,0.5780346820809249
xalwiki,True,63.0,0.4166666666666667,0.9803921568627451,0.4892086330935252,0.7954545454545454,0.5847953216374269
xalwiki,True,64.0,0.42016806722689076,0.9803921568627451,0.49640287769784175,0.7840909090909091,0.5882352941176471
xalwiki,True,65.0,0.42735042735042733,0.9803921568627451,0.5107913669064749,0.7613636363636364,0.5952380952380952
xalwiki,True,66.0,0.43103448275862066,0.9803921568627451,0.5179856115107914,0.75,0.5988023952095808
xalwiki,True,67.0,0.43636363636363634,0.9411764705882353,0.5323741007194245,0.7045454545454546,0.5962732919254659
xalwiki,True,68.0,0.44036697247706424,0.9411764705882353,0.539568345323741,0.6931818181818182,0.6
xalwiki,True,69.0,0.4485981308411215,0.9411764705882353,0.5539568345323741,0.6704545454545454,0.6075949367088607
xalwiki,True,70.0,0.44761904761904764,0.9215686274509803,0.5539568345323741,0.6590909090909091,0.6025641025641025
xalwiki,True,71.0,0.44761904761904764,0.9215686274509803,0.5539568345323741,0.6590909090909091,0.6025641025641025
xalwiki,True,72.0,0.4423076923076923,0.9019607843137255,0.5467625899280576,0.6590909090909091,0.5935483870967742
xalwiki,True,73.0,0.4368932038834951,0.8823529411764706,0.539568345323741,0.6590909090909091,0.5844155844155844
xalwiki,True,74.0,0.4368932038834951,0.8823529411764706,0.539568345323741,0.6590909090909091,0.5844155844155844
xalwiki,True,75.0,0.43137254901960786,0.8627450980392157,0.5323741007194245,0.6590909090909091,0.5751633986928105
xalwiki,True,76.0,0.42,0.8235294117647058,0.5179856115107914,0.6590909090909091,0.5562913907284768
xalwiki,True,77.0,0.42,0.8235294117647058,0.5179856115107914,0.6590909090909091,0.5562913907284768
xalwiki,True,78.0,0.4329896907216495,0.8235294117647058,0.539568345323741,0.625,0.5675675675675675
xalwiki,True,79.0,0.42105263157894735,0.7843137254901961,0.5251798561151079,0.625,0.5479452054794521
xalwiki,True,80.0,0.425531914893617,0.7843137254901961,0.5323741007194245,0.6136363636363636,0.5517241379310345
xalwiki,True,81.0,0.42857142857142855,0.7647058823529411,0.539568345323741,0.5909090909090909,0.5492957746478873
xalwiki,True,82.0,0.43529411764705883,0.7254901960784313,0.5539568345323741,0.5454545454545454,0.5441176470588236
xalwiki,True,83.0,0.4444444444444444,0.7058823529411765,0.5683453237410072,0.5113636363636364,0.5454545454545455
xalwiki,True,84.0,0.42857142857142855,0.6470588235294118,0.5539568345323741,0.5,0.515625
xalwiki,True,85.0,0.4189189189189189,0.6078431372549019,0.5467625899280576,0.48863636363636365,0.49599999999999994
xalwiki,True,86.0,0.4084507042253521,0.5686274509803921,0.539568345323741,0.4772727272727273,0.47540983606557374
xalwiki,True,87.0,0.4057971014492754,0.5490196078431373,0.539568345323741,0.4659090909090909,0.46666666666666673
xalwiki,True,88.0,0.43103448275862066,0.49019607843137253,0.5755395683453237,0.375,0.45871559633027525
xalwiki,True,89.0,0.4339622641509434,0.45098039215686275,0.5827338129496403,0.3409090909090909,0.4423076923076923
xalwiki,True,90.0,0.4166666666666667,0.39215686274509803,0.5755395683453237,0.3181818181818182,0.40404040404040403
xalwiki,True,91.0,0.425,0.3333333333333333,0.5899280575539568,0.26136363636363635,0.37362637362637363
xalwiki,True,92.0,0.5,0.27450980392156865,0.6330935251798561,0.1590909090909091,0.35443037974683544
xalwiki,True,93.0,0.5652173913043478,0.2549019607843137,0.6546762589928058,0.11363636363636363,0.3513513513513513
xalwiki,True,94.0,0.42857142857142855,0.11764705882352941,0.6187050359712231,0.09090909090909091,0.18461538461538463
xalwiki,True,95.0,0.4,0.0784313725490196,0.6187050359712231,0.06818181818181818,0.13114754098360654
xalwiki,True,96.0,0.5,0.0392156862745098,0.6330935251798561,0.022727272727272728,0.07272727272727272
xalwiki,True,97.0,0.5,0.0,0.6330935251798561,0.0,0.0
xalwiki,True,98.0,0.5,0.0,0.6330935251798561,0.0,0.0
xalwiki,True,99.0,0.5,0.0,0.6330935251798561,0.0,0.0
xalwiki,False,0.0,0.35545023696682465,1.0,0.35545023696682465,1.0,0.5244755244755245
xalwiki,False,1.0,0.35545023696682465,1.0,0.35545023696682465,1.0,0.5244755244755245
xalwiki,False,2.0,0.35545023696682465,1.0,0.35545023696682465,1.0,0.5244755244755245
xalwiki,False,3.0,0.35545023696682465,1.0,0.35545023696682465,1.0,0.5244755244755245
xalwiki,False,4.0,0.35545023696682465,1.0,0.35545023696682465,1.0,0.5244755244755245
xalwiki,False,5.0,0.35545023696682465,1.0,0.35545023696682465,1.0,0.5244755244755245
xalwiki,False,6.0,0.35545023696682465,1.0,0.35545023696682465,1.0,0.5244755244755245
xalwiki,False,7.0,0.35545023696682465,1.0,0.35545023696682465,1.0,0.5244755244755245
xalwiki,False,8.0,0.35714285714285715,1.0,0.36018957345971564,0.9926470588235294,0.5263157894736842
xalwiki,False,9.0,0.35714285714285715,1.0,0.36018957345971564,0.9926470588235294,0.5263157894736842
xalwiki,False,10.0,0.35714285714285715,1.0,0.36018957345971564,0.9926470588235294,0.5263157894736842
xalwiki,False,11.0,0.35714285714285715,1.0,0.36018957345971564,0.9926470588235294,0.5263157894736842
xalwiki,False,12.0,0.35714285714285715,1.0,0.36018957345971564,0.9926470588235294,0.5263157894736842
xalwiki,False,13.0,0.35714285714285715,1.0,0.36018957345971564,0.9926470588235294,0.5263157894736842
xalwiki,False,14.0,0.35714285714285715,1.0,0.36018957345971564,0.9926470588235294,0.5263157894736842
xalwiki,False,15.0,0.35714285714285715,1.0,0.36018957345971564,0.9926470588235294,0.5263157894736842
xalwiki,False,16.0,0.35714285714285715,1.0,0.36018957345971564,0.9926470588235294,0.5263157894736842
xalwiki,False,17.0,0.35714285714285715,1.0,0.36018957345971564,0.9926470588235294,0.5263157894736842
xalwiki,False,18.0,0.3588516746411483,1.0,0.36492890995260663,0.9852941176470589,0.528169014084507
xalwiki,False,19.0,0.3605769230769231,1.0,0.3696682464454976,0.9779411764705882,0.5300353356890459
xalwiki,False,20.0,0.3605769230769231,1.0,0.3696682464454976,0.9779411764705882,0.5300353356890459
xalwiki,False,21.0,0.3605769230769231,1.0,0.3696682464454976,0.9779411764705882,0.5300353356890459
xalwiki,False,22.0,0.36231884057971014,1.0,0.3744075829383886,0.9705882352941176,0.5319148936170213
xalwiki,False,23.0,0.36231884057971014,1.0,0.3744075829383886,0.9705882352941176,0.5319148936170213
xalwiki,False,24.0,0.36231884057971014,1.0,0.3744075829383886,0.9705882352941176,0.5319148936170213
xalwiki,False,25.0,0.3640776699029126,1.0,0.3791469194312796,0.9632352941176471,0.5338078291814946
xalwiki,False,26.0,0.3640776699029126,1.0,0.3791469194312796,0.9632352941176471,0.5338078291814946
xalwiki,False,27.0,0.3640776699029126,1.0,0.3791469194312796,0.9632352941176471,0.5338078291814946
xalwiki,False,28.0,0.36585365853658536,1.0,0.38388625592417064,0.9558823529411765,0.5357142857142857
xalwiki,False,29.0,0.36585365853658536,1.0,0.38388625592417064,0.9558823529411765,0.5357142857142857
xalwiki,False,30.0,0.36585365853658536,1.0,0.38388625592417064,0.9558823529411765,0.5357142857142857
xalwiki,False,31.0,0.36585365853658536,1.0,0.38388625592417064,0.9558823529411765,0.5357142857142857
xalwiki,False,32.0,0.36585365853658536,1.0,0.38388625592417064,0.9558823529411765,0.5357142857142857
xalwiki,False,33.0,0.36764705882352944,1.0,0.3886255924170616,0.9485294117647058,0.5376344086021506
xalwiki,False,34.0,0.36764705882352944,1.0,0.3886255924170616,0.9485294117647058,0.5376344086021506
xalwiki,False,35.0,0.3694581280788177,1.0,0.3933649289099526,0.9411764705882353,0.5395683453237411
xalwiki,False,36.0,0.3694581280788177,1.0,0.3933649289099526,0.9411764705882353,0.5395683453237411
xalwiki,False,37.0,0.3694581280788177,1.0,0.3933649289099526,0.9411764705882353,0.5395683453237411
xalwiki,False,38.0,0.3694581280788177,1.0,0.3933649289099526,0.9411764705882353,0.5395683453237411
xalwiki,False,39.0,0.3694581280788177,1.0,0.3933649289099526,0.9411764705882353,0.5395683453237411
xalwiki,False,40.0,0.373134328358209,1.0,0.4028436018957346,0.9264705882352942,0.5434782608695653
xalwiki,False,41.0,0.36683417085427134,0.9733333333333334,0.3933649289099526,0.9264705882352942,0.5328467153284672
xalwiki,False,42.0,0.3686868686868687,0.9733333333333334,0.3981042654028436,0.9191176470588235,0.5347985347985348
xalwiki,False,43.0,0.37244897959183676,0.9733333333333334,0.4075829383886256,0.9044117647058824,0.5387453874538747
xalwiki,False,44.0,0.37566137566137564,0.9466666666666667,0.4218009478672986,0.8676470588235294,0.5378787878787878
xalwiki,False,45.0,0.3770491803278688,0.92,0.4312796208530806,0.8382352941176471,0.5348837209302325
xalwiki,False,46.0,0.3770491803278688,0.92,0.4312796208530806,0.8382352941176471,0.5348837209302325
xalwiki,False,47.0,0.37777777777777777,0.9066666666666666,0.43601895734597157,0.8235294117647058,0.5333333333333333
xalwiki,False,48.0,0.38202247191011235,0.9066666666666666,0.44549763033175355,0.8088235294117647,0.5375494071146245
xalwiki,False,49.0,0.38202247191011235,0.9066666666666666,0.44549763033175355,0.8088235294117647,0.5375494071146245
xalwiki,False,50.0,0.38202247191011235,0.9066666666666666,0.44549763033175355,0.8088235294117647,0.5375494071146245
xalwiki,False,51.0,0.38857142857142857,0.9066666666666666,0.4597156398104265,0.7867647058823529,0.544
xalwiki,False,52.0,0.3953488372093023,0.9066666666666666,0.47393364928909953,0.7647058823529411,0.5506072874493927
xalwiki,False,53.0,0.4,0.9066666666666666,0.4834123222748815,0.75,0.5551020408163265
xalwiki,False,54.0,0.40606060606060607,0.8933333333333333,0.4976303317535545,0.7205882352941176,0.5583333333333333
xalwiki,False,55.0,0.41358024691358025,0.8933333333333333,0.5118483412322274,0.6985294117647058,0.5654008438818565
xalwiki,False,56.0,0.4267515923566879,0.8933333333333333,0.5355450236966824,0.6617647058823529,0.5775862068965517
xalwiki,False,57.0,0.432258064516129,0.8933333333333333,0.5450236966824644,0.6470588235294118,0.5826086956521739
xalwiki,False,58.0,0.42857142857142855,0.88,0.5402843601895735,0.6470588235294118,0.5764192139737991
xalwiki,False,59.0,0.4304635761589404,0.8666666666666667,0.5450236966824644,0.6323529411764706,0.5752212389380531
xalwiki,False,60.0,0.43243243243243246,0.8533333333333334,0.5497630331753555,0.6176470588235294,0.5739910313901345
xalwiki,False,61.0,0.43537414965986393,0.8533333333333334,0.5545023696682464,0.6102941176470589,0.5765765765765766
xalwiki,False,62.0,0.4413793103448276,0.8533333333333334,0.5639810426540285,0.5955882352941176,0.5818181818181818
xalwiki,False,63.0,0.44366197183098594,0.84,0.5687203791469194,0.5808823529411765,0.5806451612903226
xalwiki,False,64.0,0.44680851063829785,0.84,0.5734597156398105,0.5735294117647058,0.5833333333333334
xalwiki,False,65.0,0.4492753623188406,0.8266666666666667,0.5781990521327014,0.5588235294117647,0.5821596244131455
xalwiki,False,66.0,0.4485294117647059,0.8133333333333334,0.5781990521327014,0.5514705882352942,0.5781990521327014
xalwiki,False,67.0,0.4573643410852713,0.7866666666666666,0.5924170616113744,0.5147058823529411,0.5784313725490197
xalwiki,False,68.0,0.4645669291338583,0.7866666666666666,0.6018957345971564,0.5,0.5841584158415841
xalwiki,False,69.0,0.46774193548387094,0.7733333333333333,0.6066350710900474,0.4852941176470588,0.5829145728643216
xalwiki,False,70.0,0.47107438016528924,0.76,0.6113744075829384,0.47058823529411764,0.5816326530612245
xalwiki,False,71.0,0.47107438016528924,0.76,0.6113744075829384,0.47058823529411764,0.5816326530612245
xalwiki,False,72.0,0.47058823529411764,0.7466666666666667,0.6113744075829384,0.4632352941176471,0.5773195876288659
xalwiki,False,73.0,0.46153846153846156,0.72,0.6018957345971564,0.4632352941176471,0.5625
xalwiki,False,74.0,0.46153846153846156,0.72,0.6018957345971564,0.4632352941176471,0.5625
xalwiki,False,75.0,0.4608695652173913,0.7066666666666667,0.6018957345971564,0.45588235294117646,0.5578947368421053
xalwiki,False,76.0,0.4594594594594595,0.68,0.6018957345971564,0.4411764705882353,0.5483870967741935
xalwiki,False,77.0,0.45454545454545453,0.6666666666666666,0.5971563981042654,0.4411764705882353,0.5405405405405405
xalwiki,False,78.0,0.4672897196261682,0.6666666666666666,0.6113744075829384,0.41911764705882354,0.5494505494505495
xalwiki,False,79.0,0.4519230769230769,0.6266666666666667,0.5971563981042654,0.41911764705882354,0.5251396648044693
xalwiki,False,80.0,0.4563106796116505,0.6266666666666667,0.6018957345971564,0.4117647058823529,0.5280898876404495
xalwiki,False,81.0,0.46,0.6133333333333333,0.6066350710900474,0.39705882352941174,0.5257142857142858
xalwiki,False,82.0,0.46808510638297873,0.5866666666666667,0.6161137440758294,0.36764705882352944,0.5207100591715976
xalwiki,False,83.0,0.4777777777777778,0.5733333333333334,0.6255924170616114,0.34558823529411764,0.5212121212121212
xalwiki,False,84.0,0.46511627906976744,0.5333333333333333,0.6161137440758294,0.3382352941176471,0.4968944099378882
xalwiki,False,85.0,0.45121951219512196,0.49333333333333335,0.6066350710900474,0.33088235294117646,0.4713375796178344
xalwiki,False,86.0,0.4342105263157895,0.44,0.5971563981042654,0.3161764705882353,0.4370860927152318
xalwiki,False,87.0,0.43243243243243246,0.4266666666666667,0.5971563981042654,0.3088235294117647,0.42953020134228187
xalwiki,False,88.0,0.45161290322580644,0.37333333333333335,0.6161137440758294,0.25,0.40875912408759124
xalwiki,False,89.0,0.45454545454545453,0.3333333333333333,0.6208530805687204,0.22058823529411764,0.3846153846153846
xalwiki,False,90.0,0.44,0.29333333333333333,0.6161137440758294,0.20588235294117646,0.352
xalwiki,False,91.0,0.425,0.22666666666666666,0.6161137440758294,0.16911764705882354,0.2956521739130435
xalwiki,False,92.0,0.5,0.18666666666666668,0.6445497630331753,0.10294117647058823,0.2718446601941748
xalwiki,False,93.0,0.5652173913043478,0.17333333333333334,0.6587677725118484,0.07352941176470588,0.2653061224489796
xalwiki,False,94.0,0.42857142857142855,0.08,0.6350710900473934,0.058823529411764705,0.1348314606741573
xalwiki,False,95.0,0.4,0.05333333333333334,0.6350710900473934,0.04411764705882353,0.09411764705882353
xalwiki,False,96.0,0.5,0.02666666666666667,0.6445497630331753,0.014705882352941176,0.05063291139240507
xalwiki,False,97.0,0.5,0.0,0.6445497630331753,0.0,0.0
xalwiki,False,98.0,0.5,0.0,0.6445497630331753,0.0,0.0
xalwiki,False,99.0,0.5,0.0,0.6445497630331753,0.0,0.0
