wiki_db,user_is_anonymous_or_bot,threshold,precision,recall,accuracy,fpr,F1
zuwiki,True,0.0,0.020903573836817263,1.0,0.020903573836817263,1.0,0.04095112285336856
zuwiki,True,1.0,0.020903573836817263,1.0,0.020903573836817263,1.0,0.04095112285336856
zuwiki,True,2.0,0.020903573836817263,1.0,0.020903573836817263,1.0,0.04095112285336856
zuwiki,True,3.0,0.020917678812415654,1.0,0.02157788267026298,0.9993112947658402,0.040978189028420355
zuwiki,True,4.0,0.020917678812415654,1.0,0.02157788267026298,0.9993112947658402,0.040978189028420355
zuwiki,True,5.0,0.020917678812415654,1.0,0.02157788267026298,0.9993112947658402,0.040978189028420355
zuwiki,True,6.0,0.020931802835921675,1.0,0.022252191503708697,0.9986225895316805,0.041005291005291
zuwiki,True,7.0,0.020945945945945947,1.0,0.022926500337154418,0.9979338842975206,0.04103242885506287
zuwiki,True,8.0,0.020960108181203516,1.0,0.023600809170600135,0.9972451790633609,0.04105960264900663
zuwiki,True,9.0,0.02098849018280298,1.0,0.024949426837491573,0.9958677685950413,0.04111405835543767
zuwiki,True,10.0,0.02103120759837178,1.0,0.026972353337828724,0.993801652892562,0.04119601328903654
zuwiki,True,11.0,0.021045485403937542,1.0,0.027646662171274445,0.9931129476584022,0.04122340425531915
zuwiki,True,12.0,0.021045485403937542,1.0,0.027646662171274445,0.9931129476584022,0.04122340425531915
zuwiki,True,13.0,0.021059782608695652,1.0,0.028320971004720162,0.9924242424242424,0.04125083166999335
zuwiki,True,14.0,0.02111716621253406,1.0,0.031018206338503034,0.9896694214876033,0.04136090727151434
zuwiki,True,15.0,0.021145975443383355,1.0,0.03236682400539447,0.9882920110192838,0.041416165664662656
zuwiki,True,16.0,0.021203830369357045,1.0,0.03506405933917734,0.9855371900826446,0.041527126590756865
zuwiki,True,17.0,0.021247429746401644,1.0,0.037086985839514496,0.9834710743801653,0.04161073825503356
zuwiki,True,18.0,0.021262002743484224,1.0,0.037761294672960216,0.9827823691460055,0.041638683680322364
zuwiki,True,19.0,0.021305841924398626,1.0,0.03978422117329737,0.9807162534435262,0.04172274562584119
zuwiki,True,20.0,0.021423635107118175,1.0,0.045178691840863115,0.9752066115702479,0.04194857916102841
zuwiki,True,21.0,0.021483021483021482,1.0,0.04787592717464599,0.9724517906336089,0.04206241519674355
zuwiki,True,22.0,0.021572720946416143,1.0,0.051921780175320294,0.9683195592286501,0.04223433242506812
zuwiki,True,23.0,0.02166317260656883,1.0,0.055967633175994604,0.9641873278236914,0.04240766073871409
zuwiki,True,24.0,0.022048364153627313,1.0,0.07282535401213756,0.946969696969697,0.043145441892832294
zuwiki,True,25.0,0.02252906976744186,1.0,0.0930546190155091,0.9263085399449036,0.044065387348969434
zuwiki,True,26.0,0.02276064610866373,1.0,0.10249494268374916,0.9166666666666666,0.04450825556353194
zuwiki,True,27.0,0.023238380809595203,1.0,0.12137559002022927,0.8973829201101928,0.04542124542124542
zuwiki,True,28.0,0.026816608996539794,1.0,0.24140256237356708,0.7747933884297521,0.052232518955349624
zuwiki,True,29.0,0.02775290957923008,1.0,0.2677006068779501,0.7479338842975206,0.054006968641114976
zuwiki,True,30.0,0.0283363802559415,1.0,0.28320971004720163,0.7320936639118457,0.05511111111111111
zuwiki,True,31.0,0.02883720930232558,1.0,0.29602157788267025,0.71900826446281,0.05605786618444847
zuwiki,True,32.0,0.03057199211045365,1.0,0.33715441672285906,0.6769972451790633,0.05933014354066985
zuwiki,True,33.0,0.03534777651083238,1.0,0.42953472690492245,0.5826446280991735,0.06828193832599119
zuwiki,True,34.0,0.035838150289017344,1.0,0.43762643290627107,0.5743801652892562,0.06919642857142858
zuwiki,True,35.0,0.03694874851013111,1.0,0.45515846257585973,0.5564738292011019,0.07126436781609195
zuwiki,True,36.0,0.039190897597977246,1.0,0.4875252865812542,0.5234159779614325,0.0754257907542579
zuwiki,True,37.0,0.04353932584269663,1.0,0.5407956844234659,0.4690082644628099,0.08344549125168238
zuwiki,True,38.0,0.05272407732864675,0.967741935483871,0.6358732299393122,0.3712121212121212,0.09999999999999999
zuwiki,True,39.0,0.055350553505535055,0.967741935483871,0.6540795684423466,0.3526170798898072,0.10471204188481675
zuwiki,True,40.0,0.06622516556291391,0.967741935483871,0.7140930546190155,0.29132231404958675,0.12396694214876036
zuwiki,True,41.0,0.08241758241758242,0.967741935483871,0.7741065407956844,0.23002754820936638,0.1518987341772152
zuwiki,True,42.0,0.09230769230769231,0.967741935483871,0.8004045853000674,0.20316804407713498,0.16853932584269662
zuwiki,True,43.0,0.09287925696594428,0.967741935483871,0.8017532029669588,0.20179063360881544,0.16949152542372883
zuwiki,True,44.0,0.09404388714733543,0.967741935483871,0.8044504383007417,0.19903581267217632,0.17142857142857143
zuwiki,True,45.0,0.0949367088607595,0.967741935483871,0.8064733648010789,0.19696969696969696,0.1729106628242075
zuwiki,True,46.0,0.10526315789473684,0.967741935483871,0.8273769386378962,0.1756198347107438,0.189873417721519
zuwiki,True,47.0,0.14084507042253522,0.967741935483871,0.8759271746459879,0.12603305785123967,0.2459016393442623
zuwiki,True,48.0,0.22900763358778625,0.967741935483871,0.9312204989885368,0.06955922865013774,0.37037037037037035
zuwiki,True,49.0,0.23076923076923078,0.967741935483871,0.9318948078219824,0.06887052341597796,0.3726708074534162
zuwiki,True,50.0,0.25862068965517243,0.967741935483871,0.9413351314902225,0.05922865013774105,0.4081632653061225
zuwiki,True,51.0,0.26785714285714285,0.967741935483871,0.9440323668240054,0.05647382920110193,0.41958041958041964
zuwiki,True,52.0,0.2803738317757009,0.967741935483871,0.947403910991234,0.05303030303030303,0.43478260869565216
zuwiki,True,53.0,0.2912621359223301,0.967741935483871,0.9501011463250169,0.05027548209366391,0.44776119402985076
zuwiki,True,54.0,0.32608695652173914,0.967741935483871,0.9575185434929198,0.04269972451790634,0.4878048780487805
zuwiki,True,55.0,0.32608695652173914,0.967741935483871,0.9575185434929198,0.04269972451790634,0.4878048780487805
zuwiki,True,56.0,0.3333333333333333,0.967741935483871,0.9588671611598112,0.04132231404958678,0.49586776859504134
zuwiki,True,57.0,0.3333333333333333,0.967741935483871,0.9588671611598112,0.04132231404958678,0.49586776859504134
zuwiki,True,58.0,0.3333333333333333,0.967741935483871,0.9588671611598112,0.04132231404958678,0.49586776859504134
zuwiki,True,59.0,0.3333333333333333,0.967741935483871,0.9588671611598112,0.04132231404958678,0.49586776859504134
zuwiki,True,60.0,0.33707865168539325,0.967741935483871,0.959541469993257,0.040633608815427,0.5
zuwiki,True,61.0,0.3409090909090909,0.967741935483871,0.9602157788267026,0.03994490358126722,0.5042016806722689
zuwiki,True,62.0,0.3409090909090909,0.967741935483871,0.9602157788267026,0.03994490358126722,0.5042016806722689
zuwiki,True,63.0,0.3448275862068966,0.967741935483871,0.9608900876601484,0.03925619834710744,0.5084745762711865
zuwiki,True,64.0,0.34523809523809523,0.9354838709677419,0.961564396493594,0.03787878787878788,0.5043478260869565
zuwiki,True,65.0,0.3493975903614458,0.9354838709677419,0.9622387053270398,0.0371900826446281,0.5087719298245614
zuwiki,True,66.0,0.35802469135802467,0.9354838709677419,0.9635873229939312,0.03581267217630854,0.5178571428571428
zuwiki,True,67.0,0.35,0.9032258064516129,0.9629130141604855,0.03581267217630854,0.5045045045045045
zuwiki,True,68.0,0.35,0.9032258064516129,0.9629130141604855,0.03581267217630854,0.5045045045045045
zuwiki,True,69.0,0.36363636363636365,0.9032258064516129,0.9649359406608227,0.0337465564738292,0.5185185185185185
zuwiki,True,70.0,0.36486486486486486,0.8709677419354839,0.9656102494942683,0.03236914600550964,0.5142857142857142
zuwiki,True,71.0,0.38028169014084506,0.8709677419354839,0.9676331759946055,0.030303030303030304,0.5294117647058824
zuwiki,True,72.0,0.38235294117647056,0.8387096774193549,0.9683074848280513,0.028925619834710745,0.5252525252525252
zuwiki,True,73.0,0.3709677419354839,0.7419354838709677,0.9683074848280513,0.026859504132231406,0.49462365591397855
zuwiki,True,74.0,0.36666666666666664,0.7096774193548387,0.9683074848280513,0.026170798898071626,0.48351648351648346
zuwiki,True,75.0,0.36666666666666664,0.7096774193548387,0.9683074848280513,0.026170798898071626,0.48351648351648346
zuwiki,True,76.0,0.3793103448275862,0.7096774193548387,0.9696561024949427,0.024793388429752067,0.4943820224719101
zuwiki,True,77.0,0.38596491228070173,0.7096774193548387,0.9703304113283884,0.024104683195592287,0.4999999999999999
zuwiki,True,78.0,0.38596491228070173,0.7096774193548387,0.9703304113283884,0.024104683195592287,0.4999999999999999
zuwiki,True,79.0,0.38596491228070173,0.7096774193548387,0.9703304113283884,0.024104683195592287,0.4999999999999999
zuwiki,True,80.0,0.4074074074074074,0.7096774193548387,0.9723533378287256,0.02203856749311295,0.5176470588235293
zuwiki,True,81.0,0.42,0.6774193548387096,0.973701955495617,0.01997245179063361,0.5185185185185185
zuwiki,True,82.0,0.42,0.6774193548387096,0.973701955495617,0.01997245179063361,0.5185185185185185
zuwiki,True,83.0,0.40425531914893614,0.6129032258064516,0.9730276466621712,0.01928374655647383,0.48717948717948717
zuwiki,True,84.0,0.4222222222222222,0.6129032258064516,0.9743762643290627,0.01790633608815427,0.5
zuwiki,True,85.0,0.3902439024390244,0.5161290322580645,0.9730276466621712,0.01721763085399449,0.4444444444444444
zuwiki,True,86.0,0.41025641025641024,0.5161290322580645,0.9743762643290627,0.01584022038567493,0.4571428571428572
zuwiki,True,87.0,0.42857142857142855,0.4838709677419355,0.9757248819959542,0.013774104683195593,0.4545454545454545
zuwiki,True,88.0,0.4411764705882353,0.4838709677419355,0.9763991908293999,0.013085399449035813,0.4615384615384615
zuwiki,True,89.0,0.41935483870967744,0.41935483870967744,0.9757248819959542,0.012396694214876033,0.41935483870967744
zuwiki,True,90.0,0.4444444444444444,0.3870967741935484,0.9770734996628456,0.010330578512396695,0.41379310344827586
zuwiki,True,91.0,0.5,0.3225806451612903,0.9790964261631827,0.006887052341597796,0.39215686274509803
zuwiki,True,92.0,0.5625,0.2903225806451613,0.9804450438300741,0.0048209366391184574,0.3829787234042554
zuwiki,True,93.0,0.6,0.2903225806451613,0.9811193526635199,0.004132231404958678,0.3913043478260869
zuwiki,True,94.0,0.5,0.16129032258064516,0.9790964261631827,0.003443526170798898,0.24390243902439024
zuwiki,True,95.0,0.375,0.0967741935483871,0.9777478084962913,0.003443526170798898,0.15384615384615383
zuwiki,True,96.0,0.375,0.0967741935483871,0.9777478084962913,0.003443526170798898,0.15384615384615383
zuwiki,True,97.0,0.5,0.0967741935483871,0.9790964261631827,0.002066115702479339,0.16216216216216214
zuwiki,True,98.0,0.5,0.06451612903225806,0.9790964261631827,0.0013774104683195593,0.1142857142857143
zuwiki,True,99.0,1.0,0.06451612903225806,0.9804450438300741,0.0,0.12121212121212122
zuwiki,False,0.0,0.009190371991247264,1.0,0.009190371991247264,1.0,0.018213356461405032
zuwiki,False,1.0,0.009190371991247264,1.0,0.009190371991247264,1.0,0.018213356461405032
zuwiki,False,2.0,0.009202453987730062,1.0,0.01050328227571116,0.9986749116607774,0.018237082066869303
zuwiki,False,3.0,0.009240924092409241,1.0,0.014660831509846827,0.9944787985865724,0.018312622629169394
zuwiki,False,4.0,0.009453072248480757,1.0,0.036980306345733044,0.971952296819788,0.018729096989966557
zuwiki,False,5.0,0.009806210600046696,1.0,0.07199124726477024,0.9366166077738516,0.019421965317919072
zuwiki,False,6.0,0.010445162894802289,1.0,0.12932166301969367,0.8787544169611308,0.02067437853802609
zuwiki,False,7.0,0.011090573012939002,1.0,0.18052516411378555,0.8270759717314488,0.02193784277879342
zuwiki,False,8.0,0.01167964404894327,1.0,0.2223194748358862,0.7848939929328622,0.02308960967564596
zuwiki,False,9.0,0.013265950726468731,1.0,0.3164113785557987,0.6899293286219081,0.026184538653366583
zuwiki,False,10.0,0.015195369030390739,1.0,0.40437636761487966,0.601148409893993,0.02993585174625802
zuwiki,False,11.0,0.015897047691143074,1.0,0.4310722100656455,0.5742049469964664,0.03129657228017884
zuwiki,False,12.0,0.016594231529039907,1.0,0.45536105032822755,0.5496908127208481,0.03264671589584143
zuwiki,False,13.0,0.0170316301703163,1.0,0.4695842450765864,0.5353356890459364,0.03349282296650717
zuwiki,False,14.0,0.017551190973673213,1.0,0.48555798687089713,0.5192137809187279,0.03449691991786447
zuwiki,False,15.0,0.017994858611825194,1.0,0.4984682713347921,0.5061837455830389,0.03535353535353535
zuwiki,False,16.0,0.01838879159369527,1.0,0.5094091903719913,0.49514134275618377,0.03611349957007738
zuwiki,False,17.0,0.018336314847942754,0.9761904761904762,0.5194748358862145,0.48476148409893993,0.035996488147497806
zuwiki,False,18.0,0.018807339449541285,0.9761904761904762,0.5317286652078774,0.4723939929328622,0.03690369036903691
zuwiki,False,19.0,0.019114219114219115,0.9761904761904762,0.5393873085339168,0.46466431095406363,0.037494284407864654
zuwiki,False,20.0,0.019523809523809523,0.9761904761904762,0.5492341356673961,0.454726148409894,0.03828197945845004
zuwiki,False,21.0,0.01984511132623427,0.9761904761904762,0.5566739606126915,0.4472173144876325,0.03889943074003795
zuwiki,False,22.0,0.020236920039486673,0.9761904761904762,0.5654266958424508,0.4383833922261484,0.03965183752417795
zuwiki,False,23.0,0.020090406830738324,0.9523809523809523,0.5726477024070021,0.43087455830388693,0.039350713231677326
zuwiki,False,24.0,0.02052334530528476,0.9523809523809523,0.5818380743982494,0.4215989399293286,0.04018081366147665
zuwiki,False,25.0,0.02098635886673662,0.9523809523809523,0.5912472647702407,0.4121024734982332,0.04106776180698152
zuwiki,False,26.0,0.021356113187399894,0.9523809523809523,0.5984682713347921,0.4048144876325088,0.04177545691906005
zuwiki,False,27.0,0.021834061135371178,0.9523809523809523,0.6074398249452954,0.3957597173144876,0.04268943436499466
zuwiki,False,28.0,0.02447980416156671,0.9523809523809523,0.650765864332604,0.35203180212014135,0.04773269689737471
zuwiki,False,29.0,0.024840764331210193,0.9285714285714286,0.6643326039387308,0.3381183745583039,0.048387096774193554
zuwiki,False,30.0,0.025308241401687217,0.9285714285714286,0.6706783369803063,0.33171378091872794,0.049273531269740996
zuwiki,False,31.0,0.025930851063829786,0.9285714285714286,0.6787746170678337,0.32354240282685515,0.050452781371280724
zuwiki,False,32.0,0.02661064425770308,0.9047619047619048,0.6949671772428884,0.30697879858657245,0.05170068027210884
zuwiki,False,33.0,0.02975724353954581,0.9047619047619048,0.7280087527352298,0.27363074204946997,0.0576194086429113
zuwiki,False,34.0,0.030448717948717948,0.9047619047619048,0.7343544857768053,0.267226148409894,0.05891472868217054
zuwiki,False,35.0,0.030603804797353185,0.8809523809523809,0.7424507658643326,0.2588339222614841,0.05915267785771383
zuwiki,False,36.0,0.03237095363079615,0.8809523809523809,0.7568927789934354,0.24425795053003532,0.062447257383966254
zuwiki,False,37.0,0.03517110266159696,0.8809523809523809,0.7768052516411379,0.22416077738515902,0.06764168190127971
zuwiki,False,38.0,0.04035874439461883,0.8571428571428571,0.8113785557986871,0.18904593639575973,0.07708779443254817
zuwiki,False,39.0,0.04195804195804196,0.8571428571428571,0.8188183807439825,0.18153710247349825,0.07999999999999999
zuwiki,False,40.0,0.04768211920529802,0.8571428571428571,0.8413566739606126,0.15878975265017667,0.0903387703889586
zuwiki,False,41.0,0.055130168453292494,0.8571428571428571,0.8636761487964989,0.13626325088339222,0.10359712230215827
zuwiki,False,42.0,0.05930807248764415,0.8571428571428571,0.8737417943107221,0.12610424028268552,0.11093990755007703
zuwiki,False,43.0,0.06050420168067227,0.8571428571428571,0.8763676148796499,0.12345406360424029,0.1130298273155416
zuwiki,False,44.0,0.06217616580310881,0.8571428571428571,0.8798687089715536,0.11992049469964665,0.11594202898550723
zuwiki,False,45.0,0.06349206349206349,0.8571428571428571,0.8824945295404814,0.11727031802120141,0.11822660098522166
zuwiki,False,46.0,0.06844106463878327,0.8571428571428571,0.8914660831509846,0.10821554770318022,0.1267605633802817
zuwiki,False,47.0,0.08071748878923767,0.8571428571428571,0.9089715536105033,0.09054770318021202,0.14754098360655737
zuwiki,False,48.0,0.10028653295128939,0.8333333333333334,0.9297592997811817,0.06934628975265017,0.17902813299232737
zuwiki,False,49.0,0.1023391812865497,0.8333333333333334,0.9312910284463894,0.06780035335689046,0.18229166666666666
zuwiki,False,50.0,0.10903426791277258,0.8333333333333334,0.9358862144420131,0.06316254416961131,0.1928374655647383
zuwiki,False,51.0,0.11217948717948718,0.8333333333333334,0.9378555798687089,0.06117491166077738,0.19774011299435026
zuwiki,False,52.0,0.11666666666666667,0.8333333333333334,0.9404814004376367,0.058524734982332155,0.2046783625730994
zuwiki,False,53.0,0.1206896551724138,0.8333333333333334,0.9426695842450766,0.05631625441696113,0.2108433734939759
zuwiki,False,54.0,0.12727272727272726,0.8333333333333334,0.9459518599562363,0.053003533568904596,0.2208201892744479
zuwiki,False,55.0,0.13157894736842105,0.8333333333333334,0.9479212253829322,0.05101590106007067,0.22727272727272727
zuwiki,False,56.0,0.13618677042801555,0.8333333333333334,0.949890590809628,0.04902826855123675,0.23411371237458195
zuwiki,False,57.0,0.1394422310756972,0.8333333333333334,0.9512035010940919,0.04770318021201413,0.2389078498293515
zuwiki,False,58.0,0.14583333333333334,0.8333333333333334,0.9536105032822757,0.04527385159010601,0.24822695035460993
zuwiki,False,59.0,0.15555555555555556,0.8333333333333334,0.9568927789934355,0.04196113074204947,0.2621722846441948
zuwiki,False,60.0,0.16055045871559634,0.8333333333333334,0.9584245076586433,0.040415194346289755,0.2692307692307692
zuwiki,False,61.0,0.16666666666666666,0.8333333333333334,0.9601750547045952,0.03864840989399293,0.2777777777777778
zuwiki,False,62.0,0.16826923076923078,0.8333333333333334,0.9606126914660832,0.03820671378091873,0.2800000000000001
zuwiki,False,63.0,0.17412935323383086,0.8333333333333334,0.962144420131291,0.03666077738515901,0.28806584362139914
zuwiki,False,64.0,0.17708333333333334,0.8095238095238095,0.9636761487964989,0.03489399293286219,0.2905982905982906
zuwiki,False,65.0,0.1774193548387097,0.7857142857142857,0.9645514223194749,0.033789752650176676,0.2894736842105263
zuwiki,False,66.0,0.18232044198895028,0.7857142857142857,0.9656455142231948,0.03268551236749117,0.29596412556053814
zuwiki,False,67.0,0.1781609195402299,0.7380952380952381,0.9663019693654267,0.031581272084805656,0.2870370370370371
zuwiki,False,68.0,0.18452380952380953,0.7380952380952381,0.9676148796498906,0.03025618374558304,0.29523809523809524
zuwiki,False,69.0,0.1910828025477707,0.7142857142857143,0.9695842450765865,0.028047703180212016,0.30150753768844224
zuwiki,False,70.0,0.18666666666666668,0.6666666666666666,0.9702407002188184,0.026943462897526502,0.2916666666666667
zuwiki,False,71.0,0.1958041958041958,0.6666666666666666,0.9717724288840263,0.025397526501766785,0.30270270270270266
zuwiki,False,72.0,0.19852941176470587,0.6428571428571429,0.9728665207877462,0.02407243816254417,0.3033707865168539
zuwiki,False,73.0,0.192,0.5714285714285714,0.973960612691466,0.02230565371024735,0.2874251497005988
zuwiki,False,74.0,0.19166666666666668,0.5476190476190477,0.9746170678336981,0.02142226148409894,0.28395061728395066
zuwiki,False,75.0,0.19827586206896552,0.5476190476190477,0.975492341356674,0.02053886925795053,0.29113924050632917
zuwiki,False,76.0,0.21296296296296297,0.5476190476190477,0.9772428884026259,0.018772084805653712,0.30666666666666664
zuwiki,False,77.0,0.2169811320754717,0.5476190476190477,0.9776805251641137,0.018330388692579504,0.3108108108108108
zuwiki,False,78.0,0.22330097087378642,0.5476190476190477,0.9783369803063457,0.0176678445229682,0.31724137931034485
zuwiki,False,79.0,0.2268041237113402,0.5238095238095238,0.9792122538293216,0.016563604240282685,0.3165467625899281
zuwiki,False,80.0,0.24719101123595505,0.5238095238095238,0.9809628008752735,0.014796819787985865,0.3358778625954198
zuwiki,False,81.0,0.25609756097560976,0.5,0.9820568927789934,0.013471731448763251,0.33870967741935487
zuwiki,False,82.0,0.2727272727272727,0.5,0.9831509846827133,0.012367491166077738,0.3529411764705882
zuwiki,False,83.0,0.2638888888888889,0.4523809523809524,0.9833698030634573,0.011704946996466431,0.3333333333333333
zuwiki,False,84.0,0.2835820895522388,0.4523809523809524,0.9844638949671772,0.01060070671378092,0.3486238532110092
zuwiki,False,85.0,0.26666666666666666,0.38095238095238093,0.9846827133479212,0.009717314487632508,0.3137254901960784
zuwiki,False,86.0,0.2909090909090909,0.38095238095238093,0.9857768052516411,0.008613074204946997,0.32989690721649484
zuwiki,False,87.0,0.3191489361702128,0.35714285714285715,0.987089715536105,0.007067137809187279,0.3370786516853933
zuwiki,False,88.0,0.3333333333333333,0.35714285714285715,0.987527352297593,0.0066254416961130744,0.3448275862068965
zuwiki,False,89.0,0.3170731707317073,0.30952380952380953,0.987527352297593,0.006183745583038869,0.3132530120481927
zuwiki,False,90.0,0.3333333333333333,0.2857142857142857,0.9881838074398249,0.00530035335689046,0.30769230769230765
zuwiki,False,91.0,0.38461538461538464,0.23809523809523808,0.9894967177242888,0.0035335689045936395,0.2941176470588235
zuwiki,False,92.0,0.42857142857142855,0.21428571428571427,0.9901531728665208,0.00265017667844523,0.2857142857142857
zuwiki,False,93.0,0.5294117647058824,0.21428571428571427,0.9910284463894967,0.0017667844522968198,0.30508474576271183
zuwiki,False,94.0,0.45454545454545453,0.11904761904761904,0.9905908096280087,0.001325088339222615,0.18867924528301885
zuwiki,False,95.0,0.3333333333333333,0.07142857142857142,0.9901531728665208,0.001325088339222615,0.11764705882352941
zuwiki,False,96.0,0.3333333333333333,0.07142857142857142,0.9901531728665208,0.001325088339222615,0.11764705882352941
zuwiki,False,97.0,0.5,0.07142857142857142,0.9908096280087527,0.0006625441696113075,0.125
zuwiki,False,98.0,0.5,0.047619047619047616,0.9908096280087527,0.00044169611307420494,0.08695652173913042
zuwiki,False,99.0,1.0,0.047619047619047616,0.9912472647702407,0.0,0.0909090909090909
