wiki_db,threshold,precision,recall,accuracy,fpr,F1
abwiki,0.0,0.020350877192982456,1.0,0.020350877192982456,1.0,0.039889958734525444
abwiki,1.0,0.020350877192982456,1.0,0.020350877192982456,1.0,0.039889958734525444
abwiki,2.0,0.020640569395017794,1.0,0.0343859649122807,0.9856733524355301,0.040446304044630406
abwiki,3.0,0.021060275962236745,1.0,0.05403508771929825,0.9656160458452722,0.041251778093883355
abwiki,4.0,0.021497405485544848,1.0,0.07368421052631578,0.9455587392550143,0.0420899854862119
abwiki,5.0,0.0222052067381317,1.0,0.10385964912280701,0.914756446991404,0.04344569288389513
abwiki,6.0,0.023237179487179488,1.0,0.14456140350877192,0.8732091690544412,0.04541895066562255
abwiki,7.0,0.026079136690647483,1.0,0.24,0.7757879656160458,0.05083260297984225
abwiki,8.0,0.028265107212475632,1.0,0.3003508771929825,0.7141833810888252,0.054976303317535544
abwiki,9.0,0.029774127310061602,1.0,0.3368421052631579,0.6769340974212035,0.05782652043868395
abwiki,10.0,0.029978586723768737,0.9655172413793104,0.36350877192982456,0.6489971346704871,0.05815160955347871
abwiki,11.0,0.03233256351039261,0.9655172413793104,0.4112280701754386,0.6002865329512894,0.06256983240223464
abwiki,12.0,0.03626943005181347,0.9655172413793104,0.47719298245614034,0.5329512893982808,0.06991260923845193
abwiki,13.0,0.03776223776223776,0.9310344827586207,0.5157894736842106,0.49283667621776506,0.07258064516129033
abwiki,14.0,0.03994082840236687,0.9310344827586207,0.5431578947368421,0.4648997134670487,0.07659574468085106
abwiki,15.0,0.041474654377880185,0.9310344827586207,0.5607017543859649,0.4469914040114613,0.07941176470588235
abwiki,16.0,0.04292527821939587,0.9310344827586207,0.576140350877193,0.43123209169054444,0.08206686930091185
abwiki,17.0,0.04297520661157025,0.896551724137931,0.5915789473684211,0.414756446991404,0.08201892744479496
abwiki,18.0,0.043029259896729774,0.8620689655172413,0.6070175438596491,0.3982808022922636,0.08196721311475409
abwiki,19.0,0.044563279857397504,0.8620689655172413,0.6210526315789474,0.3839541547277937,0.08474576271186442
abwiki,20.0,0.04681647940074907,0.8620689655172413,0.64,0.3646131805157593,0.08880994671403197
abwiki,21.0,0.050100200400801605,0.8620689655172413,0.6645614035087719,0.33954154727793695,0.09469696969696968
abwiki,22.0,0.05186721991701245,0.8620689655172413,0.6764912280701755,0.32736389684813755,0.09784735812133073
abwiki,23.0,0.05387931034482758,0.8620689655172413,0.6891228070175439,0.3144699140401146,0.10141987829614603
abwiki,24.0,0.05543237250554324,0.8620689655172413,0.6982456140350877,0.30515759312320917,0.10416666666666667
abwiki,25.0,0.058823529411764705,0.8620689655172413,0.7164912280701754,0.28653295128939826,0.11013215859030838
abwiki,26.0,0.06038647342995169,0.8620689655172413,0.7242105263157895,0.2786532951289398,0.1128668171557562
abwiki,27.0,0.06493506493506493,0.8620689655172413,0.744561403508772,0.25787965616045844,0.12077294685990336
abwiki,28.0,0.06684491978609626,0.8620689655172413,0.752280701754386,0.25,0.12406947890818859
abwiki,29.0,0.06944444444444445,0.8620689655172413,0.7621052631578947,0.23997134670487105,0.12853470437017997
abwiki,30.0,0.07267441860465117,0.8620689655172413,0.7733333333333333,0.22851002865329512,0.13404825737265416
abwiki,31.0,0.07374631268436578,0.8620689655172413,0.7768421052631579,0.22492836676217765,0.1358695652173913
abwiki,32.0,0.07507507507507508,0.8620689655172413,0.7810526315789473,0.22063037249283668,0.13812154696132597
abwiki,33.0,0.07621951219512195,0.8620689655172413,0.7845614035087719,0.2170487106017192,0.1400560224089636
abwiki,34.0,0.078125,0.8620689655172413,0.7901754385964912,0.21131805157593123,0.14326647564469913
abwiki,35.0,0.08116883116883117,0.8620689655172413,0.7985964912280702,0.2027220630372493,0.14836795252225518
abwiki,36.0,0.08333333333333333,0.8620689655172413,0.8042105263157895,0.1969914040114613,0.1519756838905775
abwiki,37.0,0.08503401360544217,0.8620689655172413,0.8084210526315789,0.19269340974212035,0.15479876160990713
abwiki,38.0,0.08741258741258741,0.8620689655172413,0.8140350877192982,0.18696275071633237,0.15873015873015872
abwiki,39.0,0.08695652173913043,0.8275862068965517,0.8196491228070175,0.18051575931232092,0.15737704918032785
abwiki,40.0,0.08888888888888889,0.8275862068965517,0.8238596491228071,0.17621776504297995,0.1605351170568562
abwiki,41.0,0.09022556390977443,0.8275862068965517,0.8266666666666667,0.17335243553008595,0.16271186440677965
abwiki,42.0,0.09448818897637795,0.8275862068965517,0.8350877192982457,0.16475644699140402,0.1696113074204947
abwiki,43.0,0.09716599190283401,0.8275862068965517,0.84,0.15974212034383956,0.17391304347826086
abwiki,44.0,0.0995850622406639,0.8275862068965517,0.8442105263157895,0.15544412607449856,0.17777777777777778
abwiki,45.0,0.10256410256410256,0.8275862068965517,0.8491228070175438,0.1504297994269341,0.18250950570342206
abwiki,46.0,0.10434782608695652,0.8275862068965517,0.8519298245614035,0.14756446991404013,0.18532818532818532
abwiki,47.0,0.1111111111111111,0.8275862068965517,0.8617543859649123,0.13753581661891118,0.1959183673469388
abwiki,48.0,0.11374407582938388,0.8275862068965517,0.8652631578947368,0.1339541547277937,0.19999999999999998
abwiki,49.0,0.11707317073170732,0.8275862068965517,0.8694736842105263,0.1296561604584527,0.20512820512820515
abwiki,50.0,0.12060301507537688,0.8275862068965517,0.8736842105263158,0.12535816618911175,0.21052631578947367
abwiki,51.0,0.1218274111675127,0.8275862068965517,0.8750877192982456,0.12392550143266476,0.21238938053097345
abwiki,52.0,0.12307692307692308,0.8275862068965517,0.8764912280701754,0.12249283667621777,0.21428571428571427
abwiki,53.0,0.125,0.8275862068965517,0.8785964912280702,0.12034383954154727,0.2171945701357466
abwiki,54.0,0.12299465240641712,0.7931034482758621,0.8807017543859649,0.1174785100286533,0.21296296296296297
abwiki,55.0,0.12021857923497267,0.7586206896551724,0.8821052631578947,0.11532951289398281,0.20754716981132074
abwiki,56.0,0.12290502793296089,0.7586206896551724,0.8849122807017544,0.11246418338108882,0.21153846153846154
abwiki,57.0,0.12643678160919541,0.7586206896551724,0.888421052631579,0.10888252148997135,0.21674876847290642
abwiki,58.0,0.12941176470588237,0.7586206896551724,0.8912280701754386,0.10601719197707736,0.22110552763819097
abwiki,59.0,0.13253012048192772,0.7586206896551724,0.8940350877192983,0.10315186246418338,0.22564102564102564
abwiki,60.0,0.14012738853503184,0.7586206896551724,0.9003508771929825,0.09670487106017192,0.23655913978494622
abwiki,61.0,0.14285714285714285,0.7586206896551724,0.9024561403508772,0.09455587392550144,0.24043715846994537
abwiki,62.0,0.1506849315068493,0.7586206896551724,0.9080701754385965,0.08882521489971347,0.25142857142857145
abwiki,63.0,0.15492957746478872,0.7586206896551724,0.9108771929824562,0.08595988538681948,0.2573099415204678
abwiki,64.0,0.15827338129496402,0.7586206896551724,0.9129824561403509,0.083810888252149,0.26190476190476186
abwiki,65.0,0.16296296296296298,0.7586206896551724,0.9157894736842105,0.08094555873925502,0.2682926829268293
abwiki,66.0,0.17054263565891473,0.7586206896551724,0.92,0.07664756446991404,0.2784810126582279
abwiki,67.0,0.176,0.7586206896551724,0.9228070175438596,0.07378223495702006,0.28571428571428575
abwiki,68.0,0.17886178861788618,0.7586206896551724,0.9242105263157895,0.07234957020057306,0.2894736842105263
abwiki,69.0,0.18333333333333332,0.7586206896551724,0.9263157894736842,0.07020057306590258,0.29530201342281875
abwiki,70.0,0.19469026548672566,0.7586206896551724,0.9312280701754386,0.0651862464183381,0.3098591549295775
abwiki,71.0,0.20952380952380953,0.7586206896551724,0.9368421052631579,0.05945558739255014,0.3283582089552239
abwiki,72.0,0.21359223300970873,0.7586206896551724,0.9382456140350878,0.058022922636103154,0.3333333333333333
abwiki,73.0,0.21212121212121213,0.7241379310344828,0.9396491228070175,0.055873925501432664,0.328125
abwiki,74.0,0.21052631578947367,0.6896551724137931,0.9410526315789474,0.053724928366762174,0.3225806451612903
abwiki,75.0,0.2111111111111111,0.6551724137931034,0.9431578947368421,0.0508595988538682,0.31932773109243695
abwiki,76.0,0.21839080459770116,0.6551724137931034,0.9452631578947368,0.04871060171919771,0.3275862068965517
abwiki,77.0,0.22093023255813954,0.6551724137931034,0.9459649122807018,0.04799426934097421,0.3304347826086957
abwiki,78.0,0.21794871794871795,0.5862068965517241,0.9487719298245614,0.04369627507163324,0.3177570093457944
abwiki,79.0,0.21333333333333335,0.5517241379310345,0.9494736842105264,0.042263610315186245,0.3076923076923077
abwiki,80.0,0.2318840579710145,0.5517241379310345,0.9536842105263158,0.03796561604584527,0.32653061224489793
abwiki,81.0,0.24615384615384617,0.5517241379310345,0.9564912280701754,0.03510028653295129,0.34042553191489366
abwiki,82.0,0.25,0.5172413793103449,0.9585964912280702,0.032234957020057305,0.33707865168539325
abwiki,83.0,0.2641509433962264,0.4827586206896552,0.9621052631578947,0.027936962750716332,0.3414634146341463
abwiki,84.0,0.28,0.4827586206896552,0.9642105263157895,0.025787965616045846,0.35443037974683544
abwiki,85.0,0.2682926829268293,0.3793103448275862,0.9663157894736842,0.02148997134670487,0.3142857142857143
abwiki,86.0,0.24324324324324326,0.3103448275862069,0.9663157894736842,0.02005730659025788,0.27272727272727276
abwiki,87.0,0.21212121212121213,0.2413793103448276,0.9663157894736842,0.01862464183381089,0.22580645161290322
abwiki,88.0,0.25,0.2413793103448276,0.9698245614035088,0.01504297994269341,0.24561403508771928
abwiki,89.0,0.23809523809523808,0.1724137931034483,0.9719298245614035,0.011461318051575931,0.19999999999999998
abwiki,90.0,0.21428571428571427,0.10344827586206896,0.9740350877192983,0.007879656160458453,0.1395348837209302
abwiki,91.0,0.16666666666666666,0.06896551724137931,0.9740350877192983,0.0071633237822349575,0.0975609756097561
abwiki,92.0,0.125,0.034482758620689655,0.9754385964912281,0.00501432664756447,0.05405405405405405
abwiki,93.0,0.0,0.0,0.9768421052631578,0.0028653295128939827,0.05405405405405405
abwiki,94.0,0.0,0.0,0.9782456140350877,0.0014326647564469914,0.05405405405405405
abwiki,95.0,0.0,0.0,0.9789473684210527,0.0007163323782234957,0.05405405405405405
abwiki,96.0,0.0,0.0,0.9796491228070175,0.0,0.05405405405405405
abwiki,97.0,0.0,0.0,0.9796491228070175,0.0,0.05405405405405405
abwiki,98.0,0.0,0.0,0.9796491228070175,0.0,0.05405405405405405
abwiki,99.0,0.0,0.0,0.9796491228070175,0.0,0.05405405405405405
