wiki_db,threshold,precision,recall,accuracy,fpr,F1
avwiki,0.0,0.05643044619422572,1.0,0.05643044619422572,1.0,0.10683229813664595
avwiki,1.0,0.05643044619422572,1.0,0.05643044619422572,1.0,0.10683229813664595
avwiki,2.0,0.056504599211563734,1.0,0.05774278215223097,0.9986091794158554,0.10696517412935323
avwiki,3.0,0.05695364238410596,1.0,0.06561679790026247,0.9902642559109874,0.10776942355889725
avwiki,4.0,0.05767940979208585,1.0,0.07808398950131233,0.9770514603616134,0.10906785034876347
avwiki,5.0,0.05854322668481961,1.0,0.09251968503937008,0.9617524339360223,0.11061093247588424
avwiki,6.0,0.06022408963585434,1.0,0.1194225721784777,0.933240611961057,0.11360634081902246
avwiki,7.0,0.06195965417867435,1.0,0.14566929133858267,0.9054242002781642,0.11668928086838533
avwiki,8.0,0.06329113924050633,0.9883720930232558,0.17388451443569553,0.874826147426982,0.11896431070678799
avwiki,9.0,0.06503442999234889,0.9883720930232558,0.19750656167979003,0.8497913769123783,0.12203876525484565
avwiki,10.0,0.06698187549251379,0.9883720930232558,0.22244094488188976,0.8233657858136301,0.12546125461254612
avwiki,11.0,0.06910569105691057,0.9883720930232558,0.24803149606299213,0.7962447844228094,0.12917933130699089
avwiki,12.0,0.07197290431837426,0.9883720930232558,0.28018372703412076,0.7621696801112656,0.13417521704814522
avwiki,13.0,0.07469244288224956,0.9883720930232558,0.3083989501312336,0.7322670375521557,0.1388888888888889
avwiki,14.0,0.07713248638838476,0.9883720930232558,0.3320209973753281,0.7072322670375522,0.1430976430976431
avwiki,15.0,0.07973733583489681,0.9883720930232558,0.3556430446194226,0.6821974965229486,0.14756944444444445
avwiki,16.0,0.08220502901353965,0.9883720930232558,0.3766404199475066,0.6599443671766342,0.1517857142857143
avwiki,17.0,0.08366533864541832,0.9767441860465116,0.39501312335958005,0.6397774687065368,0.15412844036697249
avwiki,18.0,0.0865979381443299,0.9767441860465116,0.41732283464566927,0.6161335187760779,0.1590909090909091
avwiki,19.0,0.08945686900958466,0.9767441860465116,0.4376640419947507,0.5945757997218358,0.16390243902439022
avwiki,20.0,0.0912087912087912,0.9651162790697675,0.4553805774278215,0.5751043115438108,0.16666666666666666
avwiki,21.0,0.094211123723042,0.9651162790697675,0.4744094488188976,0.5549374130737135,0.17166494312306102
avwiki,22.0,0.09707602339181287,0.9651162790697675,0.4914698162729659,0.5368567454798331,0.17640807651434648
avwiki,23.0,0.09879518072289156,0.9534883720930233,0.5065616797900262,0.5201668984700973,0.17903930131004364
avwiki,24.0,0.10314465408805032,0.9534883720930233,0.5295275590551181,0.4958275382475661,0.18615209988649262
avwiki,25.0,0.10991957104557641,0.9534883720930233,0.5616797900262467,0.4617524339360223,0.19711538461538464
avwiki,26.0,0.11392405063291139,0.9418604651162791,0.5833333333333334,0.4381084840055633,0.20326223337515684
avwiki,27.0,0.11773255813953488,0.9418604651162791,0.5984251968503937,0.42211404728789986,0.20930232558139536
avwiki,28.0,0.1199400299850075,0.9302325581395349,0.6108923884514436,0.4082058414464534,0.21248339973439578
avwiki,29.0,0.12403100775193798,0.9302325581395349,0.6253280839895013,0.39290681502086233,0.21887824897400818
avwiki,30.0,0.12738853503184713,0.9302325581395349,0.636482939632546,0.3810848400556328,0.22408963585434172
avwiki,31.0,0.1310116086235489,0.9186046511627907,0.6515748031496063,0.36439499304589706,0.22931785195936133
avwiki,32.0,0.13435374149659865,0.9186046511627907,0.6614173228346457,0.35396383866481224,0.23442136498516322
avwiki,33.0,0.13660245183887915,0.9069767441860465,0.6712598425196851,0.3428372739916551,0.2374429223744292
avwiki,34.0,0.13768115942028986,0.8837209302325582,0.6811023622047244,0.33101529902642557,0.2382445141065831
avwiki,35.0,0.13568773234200743,0.8488372093023255,0.6863517060367454,0.32336578581363007,0.23397435897435898
avwiki,36.0,0.13851992409867173,0.8488372093023255,0.6935695538057742,0.3157162726008345,0.23817292006525284
avwiki,37.0,0.141747572815534,0.8488372093023255,0.7014435695538058,0.30737134909596664,0.24292845257903498
avwiki,38.0,0.1437125748502994,0.8372093023255814,0.7093175853018373,0.29833101529902645,0.2453151618398637
avwiki,39.0,0.14545454545454545,0.8372093023255814,0.713254593175853,0.2941585535465925,0.24784853700516352
avwiki,40.0,0.14699792960662525,0.8255813953488372,0.7198162729658792,0.2865090403337969,0.24956063268892792
avwiki,41.0,0.1517094017094017,0.8255813953488372,0.7296587926509186,0.2760778859527121,0.2563176895306859
avwiki,42.0,0.1570796460176991,0.8255813953488372,0.7401574803149606,0.26495132127955495,0.26394052044609667
avwiki,43.0,0.16063348416289594,0.8255813953488372,0.7467191601049868,0.2579972183588317,0.268939393939394
avwiki,44.0,0.1658878504672897,0.8255813953488372,0.7559055118110236,0.2482614742698192,0.2762645914396887
avwiki,45.0,0.16985645933014354,0.8255813953488372,0.7624671916010499,0.24130737134909597,0.28174603174603174
avwiki,46.0,0.171990171990172,0.813953488372093,0.7683727034120735,0.23435326842837273,0.2839756592292089
avwiki,47.0,0.17215189873417722,0.7906976744186046,0.7736220472440944,0.22739916550764952,0.28274428274428276
avwiki,48.0,0.17010309278350516,0.7674418604651163,0.7755905511811023,0.2239221140472879,0.27848101265822783
avwiki,49.0,0.1741424802110818,0.7674418604651163,0.781496062992126,0.21766342141863698,0.28387096774193554
avwiki,50.0,0.18082191780821918,0.7674418604651163,0.7906824146981627,0.20792767732962447,0.2926829268292683
avwiki,51.0,0.18857142857142858,0.7674418604651163,0.800524934383202,0.19749652294853964,0.30275229357798167
avwiki,52.0,0.19469026548672566,0.7674418604651163,0.8077427821522309,0.1898470097357441,0.31058823529411766
avwiki,53.0,0.20121951219512196,0.7674418604651163,0.8149606299212598,0.18219749652294853,0.31884057971014496
avwiki,54.0,0.2088607594936709,0.7674418604651163,0.8228346456692913,0.17385257301808066,0.3283582089552239
avwiki,55.0,0.21428571428571427,0.7674418604651163,0.8280839895013123,0.16828929068150209,0.33502538071065985
avwiki,56.0,0.22033898305084745,0.7558139534883721,0.8353018372703412,0.1599443671766342,0.34120734908136485
avwiki,57.0,0.2222222222222222,0.7441860465116279,0.8385826771653543,0.15577190542420027,0.3422459893048128
avwiki,58.0,0.22661870503597123,0.7325581395348837,0.8438320209973753,0.14951321279554938,0.34615384615384615
avwiki,59.0,0.23684210526315788,0.7325581395348837,0.8517060367454068,0.1411682892906815,0.35795454545454547
avwiki,60.0,0.2441860465116279,0.7325581395348837,0.8569553805774278,0.1356050069541029,0.36627906976744184
avwiki,61.0,0.252,0.7325581395348837,0.8622047244094488,0.13004172461752433,0.37499999999999994
avwiki,62.0,0.252,0.7325581395348837,0.8622047244094488,0.13004172461752433,0.37499999999999994
avwiki,63.0,0.2571428571428571,0.7325581395348837,0.865485564304462,0.12656467315716272,0.38066465256797577
avwiki,64.0,0.2625,0.7325581395348837,0.868766404199475,0.12308762169680111,0.3865030674846626
avwiki,65.0,0.27510917030567683,0.7325581395348837,0.8759842519685039,0.11543810848400557,0.4
avwiki,66.0,0.28125,0.7325581395348837,0.8792650918635171,0.11196105702364395,0.40645161290322585
avwiki,67.0,0.29523809523809524,0.7209302325581395,0.8871391076115486,0.10292072322670376,0.4189189189189189
avwiki,68.0,0.31,0.7209302325581395,0.8937007874015748,0.09596662030598054,0.43356643356643354
avwiki,69.0,0.3263157894736842,0.7209302325581395,0.9002624671916011,0.0890125173852573,0.4492753623188405
avwiki,70.0,0.34269662921348315,0.7093023255813954,0.9068241469816273,0.08136300417246176,0.46212121212121215
avwiki,71.0,0.3488372093023256,0.6976744186046512,0.9094488188976378,0.07788595271210014,0.46511627906976744
avwiki,72.0,0.35714285714285715,0.6976744186046512,0.9120734908136483,0.07510431154381085,0.4724409448818898
avwiki,73.0,0.36585365853658536,0.6976744186046512,0.9146981627296588,0.07232267037552156,0.48000000000000004
avwiki,74.0,0.3717948717948718,0.6744186046511628,0.9173228346456693,0.06815020862308763,0.4793388429752067
avwiki,75.0,0.3841059602649007,0.6744186046511628,0.9206036745406824,0.06467315716272601,0.4894514767932489
avwiki,76.0,0.3931034482758621,0.6627906976744186,0.9232283464566929,0.061196105702364396,0.49350649350649345
avwiki,77.0,0.41304347826086957,0.6627906976744186,0.9278215223097113,0.056328233657858134,0.5089285714285714
avwiki,78.0,0.4166666666666667,0.6395348837209303,0.9291338582677166,0.05354659248956885,0.5045871559633027
avwiki,79.0,0.44,0.6395348837209303,0.9337270341207349,0.048678720445062586,0.5213270142180094
avwiki,80.0,0.4583333333333333,0.6395348837209303,0.937007874015748,0.045201668984700974,0.5339805825242719
avwiki,81.0,0.4608695652173913,0.6162790697674418,0.9376640419947506,0.043115438108484005,0.527363184079602
avwiki,82.0,0.49056603773584906,0.6046511627906976,0.9422572178477691,0.037552155771905425,0.5416666666666665
avwiki,83.0,0.504950495049505,0.5930232558139535,0.9442257217847769,0.03477051460361613,0.5454545454545454
avwiki,84.0,0.5102040816326531,0.5813953488372093,0.9448818897637795,0.03337969401947149,0.5434782608695652
avwiki,85.0,0.5217391304347826,0.5581395348837209,0.9461942257217848,0.030598052851182198,0.5393258426966292
avwiki,86.0,0.5238095238095238,0.5116279069767442,0.9461942257217848,0.027816411682892908,0.5176470588235295
avwiki,87.0,0.547945205479452,0.46511627906976744,0.9481627296587927,0.02294853963838665,0.5031446540880503
avwiki,88.0,0.5606060606060606,0.43023255813953487,0.9488188976377953,0.020166898470097356,0.48684210526315785
avwiki,89.0,0.5573770491803278,0.3953488372093023,0.9481627296587927,0.018776077885952713,0.4625850340136054
avwiki,90.0,0.5689655172413793,0.38372093023255816,0.9488188976377953,0.017385257301808066,0.45833333333333337
avwiki,91.0,0.5625,0.313953488372093,0.94750656167979,0.014603616133518776,0.40298507462686567
avwiki,92.0,0.5555555555555556,0.29069767441860467,0.9468503937007874,0.013908205841446454,0.3816793893129771
avwiki,93.0,0.6052631578947368,0.26744186046511625,0.9488188976377953,0.01043115438108484,0.3709677419354839
avwiki,94.0,0.5769230769230769,0.1744186046511628,0.9461942257217848,0.0076495132127955496,0.26785714285714285
avwiki,95.0,0.5882352941176471,0.11627906976744186,0.9455380577427821,0.004867872044506259,0.1941747572815534
avwiki,96.0,0.5,0.046511627906976744,0.9435695538057742,0.0027816411682892906,0.0851063829787234
avwiki,97.0,0.2,0.011627906976744186,0.9416010498687664,0.0027816411682892906,0.021978021978021976
avwiki,98.0,0.5,0.011627906976744186,0.9435695538057742,0.0006954102920723226,0.022727272727272724
avwiki,99.0,0.5,0.0,0.9435695538057742,0.0,0.0
