wiki_db,threshold,precision,recall,accuracy,fpr,F1
crwiki,0.0,0.5866666666666667,1.0,0.5866666666666667,1.0,0.7394957983193278
crwiki,1.0,0.5866666666666667,1.0,0.5866666666666667,1.0,0.7394957983193278
crwiki,2.0,0.5866666666666667,1.0,0.5866666666666667,1.0,0.7394957983193278
crwiki,3.0,0.5866666666666667,1.0,0.5866666666666667,1.0,0.7394957983193278
crwiki,4.0,0.5866666666666667,1.0,0.5866666666666667,1.0,0.7394957983193278
crwiki,5.0,0.5866666666666667,1.0,0.5866666666666667,1.0,0.7394957983193278
crwiki,6.0,0.5866666666666667,1.0,0.5866666666666667,1.0,0.7394957983193278
crwiki,7.0,0.5866666666666667,1.0,0.5866666666666667,1.0,0.7394957983193278
crwiki,8.0,0.5866666666666667,1.0,0.5866666666666667,1.0,0.7394957983193278
crwiki,9.0,0.5866666666666667,1.0,0.5866666666666667,1.0,0.7394957983193278
crwiki,10.0,0.5866666666666667,1.0,0.5866666666666667,1.0,0.7394957983193278
crwiki,11.0,0.5866666666666667,1.0,0.5866666666666667,1.0,0.7394957983193278
crwiki,12.0,0.5866666666666667,1.0,0.5866666666666667,1.0,0.7394957983193278
crwiki,13.0,0.5866666666666667,1.0,0.5866666666666667,1.0,0.7394957983193278
crwiki,14.0,0.5866666666666667,1.0,0.5866666666666667,1.0,0.7394957983193278
crwiki,15.0,0.5866666666666667,1.0,0.5866666666666667,1.0,0.7394957983193278
crwiki,16.0,0.5866666666666667,1.0,0.5866666666666667,1.0,0.7394957983193278
crwiki,17.0,0.5866666666666667,1.0,0.5866666666666667,1.0,0.7394957983193278
crwiki,18.0,0.5866666666666667,1.0,0.5866666666666667,1.0,0.7394957983193278
crwiki,19.0,0.5866666666666667,1.0,0.5866666666666667,1.0,0.7394957983193278
crwiki,20.0,0.5866666666666667,1.0,0.5866666666666667,1.0,0.7394957983193278
crwiki,21.0,0.5866666666666667,1.0,0.5866666666666667,1.0,0.7394957983193278
crwiki,22.0,0.5866666666666667,1.0,0.5866666666666667,1.0,0.7394957983193278
crwiki,23.0,0.5866666666666667,1.0,0.5866666666666667,1.0,0.7394957983193278
crwiki,24.0,0.5877862595419847,1.0,0.5885714285714285,0.9953917050691244,0.7403846153846154
crwiki,25.0,0.5877862595419847,1.0,0.5885714285714285,0.9953917050691244,0.7403846153846154
crwiki,26.0,0.5877862595419847,1.0,0.5885714285714285,0.9953917050691244,0.7403846153846154
crwiki,27.0,0.5877862595419847,1.0,0.5885714285714285,0.9953917050691244,0.7403846153846154
crwiki,28.0,0.5889101338432122,1.0,0.5904761904761905,0.9907834101382489,0.7412755716004813
crwiki,29.0,0.5889101338432122,1.0,0.5904761904761905,0.9907834101382489,0.7412755716004813
crwiki,30.0,0.5889101338432122,1.0,0.5904761904761905,0.9907834101382489,0.7412755716004813
crwiki,31.0,0.5889101338432122,1.0,0.5904761904761905,0.9907834101382489,0.7412755716004813
crwiki,32.0,0.5873320537428023,0.9935064935064936,0.5866666666666667,0.9907834101382489,0.738238841978287
crwiki,33.0,0.5873320537428023,0.9935064935064936,0.5866666666666667,0.9907834101382489,0.738238841978287
crwiki,34.0,0.5884615384615385,0.9935064935064936,0.5885714285714285,0.9861751152073732,0.7391304347826086
crwiki,35.0,0.5884615384615385,0.9935064935064936,0.5885714285714285,0.9861751152073732,0.7391304347826086
crwiki,36.0,0.5884615384615385,0.9935064935064936,0.5885714285714285,0.9861751152073732,0.7391304347826086
crwiki,37.0,0.5884615384615385,0.9935064935064936,0.5885714285714285,0.9861751152073732,0.7391304347826086
crwiki,38.0,0.5895953757225434,0.9935064935064936,0.5904761904761905,0.9815668202764977,0.7400241837968562
crwiki,39.0,0.5888030888030888,0.9902597402597403,0.5885714285714285,0.9815668202764977,0.7384987893462471
crwiki,40.0,0.5880077369439072,0.987012987012987,0.5866666666666667,0.9815668202764977,0.7369696969696969
crwiki,41.0,0.5891472868217055,0.987012987012987,0.5885714285714285,0.9769585253456221,0.7378640776699029
crwiki,42.0,0.5906432748538012,0.9837662337662337,0.5904761904761905,0.967741935483871,0.7381242387332521
crwiki,43.0,0.5909980430528375,0.9805194805194806,0.5904761904761905,0.9631336405529954,0.7374847374847375
crwiki,44.0,0.5909980430528375,0.9805194805194806,0.5904761904761905,0.9631336405529954,0.7374847374847375
crwiki,45.0,0.5936883629191322,0.9772727272727273,0.5942857142857143,0.9493087557603687,0.7386503067484663
crwiki,46.0,0.5976095617529881,0.974025974025974,0.6,0.9308755760368663,0.7407407407407407
crwiki,47.0,0.5976095617529881,0.974025974025974,0.6,0.9308755760368663,0.7407407407407407
crwiki,48.0,0.5968063872255489,0.9707792207792207,0.5980952380952381,0.9308755760368663,0.7391841779975279
crwiki,49.0,0.5991983967935872,0.9707792207792207,0.6019047619047619,0.9216589861751152,0.7410161090458489
crwiki,50.0,0.5991983967935872,0.9707792207792207,0.6019047619047619,0.9216589861751152,0.7410161090458489
crwiki,51.0,0.6044624746450304,0.9675324675324676,0.6095238095238096,0.8986175115207373,0.7440699126092385
crwiki,52.0,0.6069246435845214,0.9675324675324676,0.6133333333333333,0.8894009216589862,0.7459324155193993
crwiki,53.0,0.6061224489795919,0.9642857142857143,0.6114285714285714,0.8894009216589862,0.7443609022556391
crwiki,54.0,0.6086065573770492,0.9642857142857143,0.6152380952380953,0.880184331797235,0.7462311557788945
crwiki,55.0,0.6136363636363636,0.9642857142857143,0.6228571428571429,0.8617511520737328,0.75
crwiki,56.0,0.6161825726141079,0.9642857142857143,0.6266666666666667,0.8525345622119815,0.7518987341772151
crwiki,57.0,0.6174636174636174,0.9642857142857143,0.6285714285714286,0.847926267281106,0.752851711026616
crwiki,58.0,0.6200417536534447,0.9642857142857143,0.6323809523809524,0.8387096774193549,0.7547649301143584
crwiki,59.0,0.6205450733752621,0.961038961038961,0.6323809523809524,0.8341013824884793,0.7541401273885351
crwiki,60.0,0.6244725738396625,0.961038961038961,0.638095238095238,0.8202764976958525,0.7570332480818415
crwiki,61.0,0.6236786469344608,0.9577922077922078,0.6361904761904762,0.8202764976958525,0.7554417413572343
crwiki,62.0,0.6260683760683761,0.9512987012987013,0.638095238095238,0.8064516129032258,0.7551546391752577
crwiki,63.0,0.628755364806867,0.9512987012987013,0.6419047619047619,0.7972350230414746,0.7571059431524548
crwiki,64.0,0.6298701298701299,0.9448051948051948,0.6419047619047619,0.7880184331797235,0.7558441558441559
crwiki,65.0,0.6298701298701299,0.9448051948051948,0.6419047619047619,0.7880184331797235,0.7558441558441559
crwiki,66.0,0.6351648351648351,0.9383116883116883,0.6476190476190476,0.7649769585253456,0.7575360419397117
crwiki,67.0,0.6441441441441441,0.9285714285714286,0.6571428571428571,0.728110599078341,0.7606382978723404
crwiki,68.0,0.6527777777777778,0.9155844155844156,0.6647619047619048,0.6912442396313364,0.7621621621621621
crwiki,69.0,0.6525821596244131,0.9025974025974026,0.660952380952381,0.6820276497695853,0.7574931880108993
crwiki,70.0,0.6563981042654028,0.8993506493506493,0.6647619047619048,0.6682027649769585,0.7589041095890411
crwiki,71.0,0.6618357487922706,0.8896103896103896,0.6685714285714286,0.6451612903225806,0.7590027700831025
crwiki,72.0,0.6624365482233503,0.8474025974025974,0.6571428571428571,0.6129032258064516,0.7435897435897436
crwiki,73.0,0.6553524804177546,0.814935064935065,0.64,0.6082949308755761,0.7264833574529667
crwiki,74.0,0.6525198938992043,0.7987012987012987,0.6323809523809524,0.6036866359447005,0.7182481751824819
crwiki,75.0,0.6438356164383562,0.762987012987013,0.6133333333333333,0.5990783410138248,0.6983655274888558
crwiki,76.0,0.6366279069767442,0.711038961038961,0.5923809523809523,0.576036866359447,0.6717791411042945
crwiki,77.0,0.6330275229357798,0.672077922077922,0.579047619047619,0.5529953917050692,0.6519685039370078
crwiki,78.0,0.6483870967741936,0.6525974025974026,0.5885714285714285,0.5023041474654378,0.6504854368932039
crwiki,79.0,0.6421052631578947,0.5941558441558441,0.5676190476190476,0.4700460829493088,0.6172006745362563
crwiki,80.0,0.6286764705882353,0.5551948051948052,0.5466666666666666,0.46543778801843316,0.5896551724137931
crwiki,81.0,0.6135458167330677,0.5,0.5219047619047619,0.4470046082949309,0.5509838998211092
crwiki,82.0,0.6157024793388429,0.4837662337662338,0.52,0.42857142857142855,0.5418181818181819
crwiki,83.0,0.6211453744493393,0.4577922077922078,0.518095238095238,0.39631336405529954,0.5271028037383177
crwiki,84.0,0.6244131455399061,0.4318181818181818,0.5142857142857142,0.3686635944700461,0.5105566218809982
crwiki,85.0,0.6176470588235294,0.4090909090909091,0.5047619047619047,0.35944700460829493,0.49218749999999994
crwiki,86.0,0.609375,0.37987012987012986,0.49333333333333335,0.3456221198156682,0.4679999999999999
crwiki,87.0,0.6111111111111112,0.35714285714285715,0.4895238095238095,0.3225806451612903,0.45081967213114754
crwiki,88.0,0.5949367088607594,0.3051948051948052,0.4704761904761905,0.29493087557603687,0.4034334763948498
crwiki,89.0,0.5894039735099338,0.288961038961039,0.46476190476190476,0.2857142857142857,0.3877995642701525
crwiki,90.0,0.5673758865248227,0.2597402597402597,0.44952380952380955,0.28110599078341014,0.35634743875278396
crwiki,91.0,0.5447154471544715,0.21753246753246752,0.4342857142857143,0.25806451612903225,0.3109048723897912
crwiki,92.0,0.5288461538461539,0.17857142857142858,0.4247619047619048,0.22580645161290322,0.2669902912621359
crwiki,93.0,0.5212765957446809,0.1590909090909091,0.42095238095238097,0.2073732718894009,0.24378109452736318
crwiki,94.0,0.5119047619047619,0.1396103896103896,0.41714285714285715,0.1889400921658986,0.21938775510204078
crwiki,95.0,0.5555555555555556,0.12987012987012986,0.42857142857142855,0.14746543778801843,0.21052631578947364
crwiki,96.0,0.5909090909090909,0.08441558441558442,0.42857142857142855,0.08294930875576037,0.14772727272727273
crwiki,97.0,0.7,0.06818181818181818,0.4361904761904762,0.041474654377880185,0.12426035502958581
crwiki,98.0,0.6666666666666666,0.03896103896103896,0.4247619047619048,0.027649769585253458,0.07361963190184048
crwiki,99.0,0.8,0.012987012987012988,0.41904761904761906,0.004608294930875576,0.025559105431309907
