wiki_db,threshold,precision,recall,accuracy,fpr,F1
dvwiki,0.0,0.12763819095477386,1.0,0.12763819095477386,1.0,0.2263814616755793
dvwiki,1.0,0.12763819095477386,1.0,0.12763819095477386,1.0,0.2263814616755793
dvwiki,2.0,0.12763819095477386,1.0,0.12763819095477386,1.0,0.2263814616755793
dvwiki,3.0,0.12763819095477386,1.0,0.12763819095477386,1.0,0.2263814616755793
dvwiki,4.0,0.12763819095477386,1.0,0.12763819095477386,1.0,0.2263814616755793
dvwiki,5.0,0.12763819095477386,1.0,0.12763819095477386,1.0,0.2263814616755793
dvwiki,6.0,0.12776659959758552,1.0,0.12864321608040202,0.9988479262672811,0.22658340767172166
dvwiki,7.0,0.12776659959758552,1.0,0.12864321608040202,0.9988479262672811,0.22658340767172166
dvwiki,8.0,0.12776659959758552,1.0,0.12864321608040202,0.9988479262672811,0.22658340767172166
dvwiki,9.0,0.12776659959758552,1.0,0.12864321608040202,0.9988479262672811,0.22658340767172166
dvwiki,10.0,0.12815338042381433,1.0,0.13165829145728644,0.9953917050691244,0.22719141323792486
dvwiki,11.0,0.12854251012145748,1.0,0.13467336683417086,0.9919354838709677,0.22780269058295963
dvwiki,12.0,0.1286727456940223,1.0,0.135678391959799,0.9907834101382489,0.2280071813285458
dvwiki,13.0,0.1290650406504065,1.0,0.13869346733668342,0.9873271889400922,0.2286228622862286
dvwiki,14.0,0.12972420837589377,1.0,0.14371859296482412,0.9815668202764977,0.22965641952983723
dvwiki,15.0,0.13052415210688592,1.0,0.14974874371859295,0.9746543778801844,0.23090909090909092
dvwiki,16.0,0.13146997929606624,1.0,0.15678391959798996,0.966589861751152,0.23238792314730097
dvwiki,17.0,0.132429614181439,1.0,0.16381909547738693,0.9585253456221198,0.23388581952117865
dvwiki,18.0,0.1339662447257384,1.0,0.1748743718592965,0.945852534562212,0.23627906976744187
dvwiki,19.0,0.1343915343915344,1.0,0.17788944723618091,0.9423963133640553,0.23694029850746268
dvwiki,20.0,0.13568376068376067,1.0,0.18693467336683417,0.9320276497695853,0.23894637817497646
dvwiki,21.0,0.13597430406852248,1.0,0.18894472361809045,0.9297235023041475,0.2393967954759661
dvwiki,22.0,0.13655913978494624,1.0,0.192964824120603,0.9251152073732719,0.24030274361400192
dvwiki,23.0,0.13700107874865156,1.0,0.19597989949748743,0.9216589861751152,0.24098671726755216
dvwiki,24.0,0.13789359391965256,1.0,0.2020100502512563,0.9147465437788018,0.24236641221374045
dvwiki,25.0,0.13864628820960698,1.0,0.207035175879397,0.9089861751152074,0.24352828379674019
dvwiki,26.0,0.13879781420765028,1.0,0.20804020100502513,0.9078341013824884,0.24376199616122843
dvwiki,27.0,0.1394072447859495,1.0,0.21206030150753769,0.9032258064516129,0.24470134874759153
dvwiki,28.0,0.14095449500554938,1.0,0.2221105527638191,0.8917050691244239,0.24708171206225676
dvwiki,29.0,0.14317925591882752,1.0,0.23618090452261306,0.8755760368663594,0.25049309664694286
dvwiki,30.0,0.1438278595696489,1.0,0.24020100502512562,0.8709677419354839,0.2514851485148515
dvwiki,31.0,0.14367160775370583,0.9921259842519685,0.2442211055276382,0.8652073732718893,0.250996015936255
dvwiki,32.0,0.1453287197231834,0.9921259842519685,0.2542713567839196,0.8536866359447005,0.2535211267605634
dvwiki,33.0,0.14617169373549885,0.9921259842519685,0.2592964824120603,0.847926267281106,0.25480283114256824
dvwiki,34.0,0.14719626168224298,0.9921259842519685,0.26532663316582916,0.8410138248847926,0.2563580874872838
dvwiki,35.0,0.14823529411764705,0.9921259842519685,0.271356783919598,0.8341013824884793,0.2579324462640737
dvwiki,36.0,0.1494661921708185,0.9921259842519685,0.27839195979899495,0.826036866359447,0.2597938144329897
dvwiki,37.0,0.15035799522673032,0.9921259842519685,0.2834170854271357,0.8202764976958525,0.261139896373057
dvwiki,38.0,0.1510791366906475,0.9921259842519685,0.28743718592964823,0.815668202764977,0.26222684703433924
dvwiki,39.0,0.15180722891566265,0.9921259842519685,0.2914572864321608,0.8110599078341014,0.26332288401253917
dvwiki,40.0,0.15254237288135594,0.9921259842519685,0.29547738693467335,0.8064516129032258,0.2644281217208814
dvwiki,41.0,0.1529126213592233,0.9921259842519685,0.2974874371859296,0.804147465437788,0.2649842271293375
dvwiki,42.0,0.15422276621787026,0.9921259842519685,0.30452261306532663,0.7960829493087558,0.2669491525423729
dvwiki,43.0,0.15536374845869297,0.9921259842519685,0.31055276381909547,0.7891705069124424,0.26865671641791045
dvwiki,44.0,0.15613382899628253,0.9921259842519685,0.314572864321608,0.7845622119815668,0.2698072805139186
dvwiki,45.0,0.15632754342431762,0.9921259842519685,0.3155778894472362,0.783410138248848,0.270096463022508
dvwiki,46.0,0.1571072319201995,0.9921259842519685,0.31959798994974875,0.7788018433179723,0.271259418729817
dvwiki,47.0,0.1575,0.9921259842519685,0.32160804020100503,0.7764976958525346,0.2718446601941748
dvwiki,48.0,0.15789473684210525,0.9921259842519685,0.3236180904522613,0.7741935483870968,0.27243243243243237
dvwiki,49.0,0.15809284818067754,0.9921259842519685,0.3246231155778894,0.7730414746543779,0.2727272727272727
dvwiki,50.0,0.15869017632241814,0.9921259842519685,0.32763819095477387,0.7695852534562212,0.27361563517915305
dvwiki,51.0,0.16010165184243966,0.9921259842519685,0.33467336683417087,0.761520737327189,0.275711159737418
dvwiki,52.0,0.16050955414012738,0.9921259842519685,0.33668341708542715,0.7592165898617511,0.2763157894736842
dvwiki,53.0,0.16091954022988506,0.9921259842519685,0.33869346733668343,0.7569124423963134,0.2769230769230769
dvwiki,54.0,0.1625806451612903,0.9921259842519685,0.34673366834170855,0.7476958525345622,0.2793791574279379
dvwiki,55.0,0.1630012936610608,0.9921259842519685,0.3487437185929648,0.7453917050691244,0.28
dvwiki,56.0,0.16321243523316062,0.9921259842519685,0.349748743718593,0.7442396313364056,0.2803114571746385
dvwiki,57.0,0.16342412451361868,0.9921259842519685,0.3507537688442211,0.7430875576036866,0.2806236080178174
dvwiki,58.0,0.1640625,0.9921259842519685,0.35376884422110555,0.7396313364055299,0.2815642458100559
dvwiki,59.0,0.16339869281045752,0.984251968503937,0.35477386934673366,0.7373271889400922,0.2802690582959641
dvwiki,60.0,0.16382699868938402,0.984251968503937,0.35678391959798994,0.7350230414746544,0.2808988764044944
dvwiki,61.0,0.1618421052631579,0.968503937007874,0.35577889447236183,0.7338709677419355,0.2773393461104848
dvwiki,62.0,0.16094986807387862,0.9606299212598425,0.35577889447236183,0.7327188940092166,0.27570621468926554
dvwiki,63.0,0.16158940397350993,0.9606299212598425,0.3587939698492462,0.7292626728110599,0.27664399092970526
dvwiki,64.0,0.16069057104913678,0.952755905511811,0.3587939698492462,0.728110599078341,0.275
dvwiki,65.0,0.15733333333333333,0.9291338582677166,0.35577889447236183,0.728110599078341,0.26909920182440134
dvwiki,66.0,0.15796519410977242,0.9291338582677166,0.3587939698492462,0.7246543778801844,0.27002288329519447
dvwiki,67.0,0.15838926174496645,0.9291338582677166,0.3608040201005025,0.7223502304147466,0.27064220183486243
dvwiki,68.0,0.15426251691474965,0.8976377952755905,0.3587939698492462,0.7200460829493087,0.2632794457274827
dvwiki,69.0,0.15353260869565216,0.889763779527559,0.3597989949748744,0.717741935483871,0.26187717265353416
dvwiki,70.0,0.14931506849315068,0.8582677165354331,0.3577889447236181,0.7154377880184332,0.2543757292882147
dvwiki,71.0,0.14502762430939226,0.8267716535433071,0.35577889447236183,0.7131336405529954,0.24676850763807281
dvwiki,72.0,0.13966480446927373,0.7874015748031497,0.35376884422110555,0.7096774193548387,0.23724792408066428
dvwiki,73.0,0.13352272727272727,0.7401574803149606,0.35376884422110555,0.7027649769585254,0.22623345367027675
dvwiki,74.0,0.13196480938416422,0.7086614173228346,0.3678391959798995,0.6820276497695853,0.22249690976514214
dvwiki,75.0,0.13141993957703926,0.6850393700787402,0.38190954773869346,0.6624423963133641,0.22053231939163498
dvwiki,76.0,0.12755905511811025,0.6377952755905512,0.3969849246231156,0.6382488479262672,0.2125984251968504
dvwiki,77.0,0.11677631578947369,0.5590551181102362,0.4040201005025126,0.618663594470046,0.19319727891156463
dvwiki,78.0,0.11267605633802817,0.5039370078740157,0.4301507537688442,0.5806451612903226,0.18417266187050363
dvwiki,79.0,0.10800744878957169,0.4566929133858268,0.4492462311557789,0.5518433179723502,0.17469879518072287
dvwiki,80.0,0.10196078431372549,0.4094488188976378,0.464321608040201,0.5276497695852534,0.16326530612244897
dvwiki,81.0,0.09812108559498957,0.3700787401574803,0.48542713567839196,0.4976958525345622,0.15511551155115513
dvwiki,82.0,0.10067114093959731,0.3543307086614173,0.5135678391959799,0.4631336405529954,0.156794425087108
dvwiki,83.0,0.09615384615384616,0.31496062992125984,0.5346733668341709,0.43317972350230416,0.14732965009208104
dvwiki,84.0,0.09585492227979274,0.29133858267716534,0.5587939698492462,0.402073732718894,0.14424951267056527
dvwiki,85.0,0.10526315789473684,0.28346456692913385,0.6010050251256281,0.35253456221198154,0.15351812366737738
dvwiki,86.0,0.10784313725490197,0.25984251968503935,0.6311557788944724,0.31451612903225806,0.15242494226327946
dvwiki,87.0,0.1048951048951049,0.23622047244094488,0.6452261306532663,0.29493087557603687,0.14527845036319612
dvwiki,88.0,0.10943396226415095,0.2283464566929134,0.664321608040201,0.271889400921659,0.1479591836734694
dvwiki,89.0,0.1206896551724138,0.2204724409448819,0.6954773869346733,0.2350230414746544,0.15598885793871867
dvwiki,90.0,0.1,0.15748031496062992,0.7115577889447237,0.2073732718894009,0.12232415902140671
dvwiki,91.0,0.10714285714285714,0.14173228346456693,0.7396984924623116,0.1728110599078341,0.12203389830508475
dvwiki,92.0,0.07258064516129033,0.07086614173228346,0.7658291457286432,0.13248847926267282,0.07171314741035857
dvwiki,93.0,0.053763440860215055,0.03937007874015748,0.7889447236180904,0.10138248847926268,0.04545454545454546
dvwiki,94.0,0.05,0.015748031496062992,0.8361809045226131,0.04377880184331797,0.02395209580838323
dvwiki,95.0,0.1,0.015748031496062992,0.8562814070351759,0.020737327188940093,0.027210884353741496
dvwiki,96.0,0.2,0.015748031496062992,0.8663316582914573,0.009216589861751152,0.029197080291970802
dvwiki,97.0,0.16666666666666666,0.007874015748031496,0.8683417085427135,0.00576036866359447,0.015037593984962405
dvwiki,98.0,0.25,0.007874015748031496,0.8703517587939699,0.0034562211981566822,0.015267175572519085
dvwiki,99.0,0.0,0.0,0.871356783919598,0.001152073732718894,0.015267175572519085
