wiki_db,threshold,precision,recall,accuracy,fpr,F1
ffwiki,0.0,0.010873640794900637,1.0,0.010873640794900637,1.0,0.021513353115727003
ffwiki,1.0,0.010873640794900637,1.0,0.010873640794900637,1.0,0.021513353115727003
ffwiki,2.0,0.010873640794900637,1.0,0.010873640794900637,1.0,0.021513353115727003
ffwiki,3.0,0.010877719429857465,1.0,0.01124859392575928,0.9996209249431387,0.021521335807050092
ffwiki,4.0,0.010898158586997369,1.0,0.013123359580052493,0.9977255496588324,0.021561338289962824
ffwiki,5.0,0.01092690278824416,1.0,0.015748031496062992,0.9950720242608037,0.02161759224748416
ffwiki,6.0,0.01058601134215501,0.9655172413793104,0.01837270341207349,0.9920394238059136,0.020942408376963352
ffwiki,7.0,0.010309278350515464,0.9310344827586207,0.027371578552680915,0.9825625473843821,0.02039274924471299
ffwiki,8.0,0.01041264944080216,0.9310344827586207,0.03712035995500562,0.9727065959059894,0.020594965675057208
ffwiki,9.0,0.010530421216848674,0.9310344827586207,0.047994000749906264,0.9617134192570129,0.02082529888160432
ffwiki,10.0,0.01066350710900474,0.9310344827586207,0.05999250093738283,0.9495830174374527,0.021085513471300273
ffwiki,11.0,0.010830324909747292,0.9310344827586207,0.0746156730408699,0.9347990902198635,0.021411578112609037
ffwiki,12.0,0.011051985264019648,0.9310344827586207,0.09336332958380203,0.9158453373768006,0.021844660194174758
ffwiki,13.0,0.01086048454469507,0.896551724137931,0.11098612673415822,0.8976497346474602,0.021460998761865455
ffwiki,14.0,0.0105977108944468,0.8620689655172413,0.12335958005249344,0.8847611827141774,0.020938023450586266
ffwiki,15.0,0.01079913606911447,0.8620689655172413,0.13985751781027372,0.868081880212282,0.021331058020477817
ffwiki,16.0,0.010633584404076208,0.8275862068965517,0.1608548931383577,0.8464746019711903,0.020997375328083993
ffwiki,17.0,0.0109639104613979,0.8275862068965517,0.18635170603674542,0.8206974981046247,0.02164111812443643
ffwiki,18.0,0.010828625235404897,0.7931034482758621,0.2099737532808399,0.7964366944655041,0.021365536460752437
ffwiki,19.0,0.01118133203694701,0.7931034482758621,0.23509561304836896,0.7710386656557998,0.022051773729626075
ffwiki,20.0,0.011071967790639155,0.7586206896551724,0.26059242594675663,0.744882486732373,0.021825396825396828
ffwiki,21.0,0.010943199583116207,0.7241379310344828,0.2853393325834271,0.7194844579226687,0.0215605749486653
ffwiki,22.0,0.01020408163265306,0.6551724137931034,0.3052118485189351,0.6986353297952995,0.020095187731359068
ffwiki,23.0,0.010526315789473684,0.6551724137931034,0.3265841769778778,0.6770280515542078,0.020719738276990186
ffwiki,24.0,0.010332950631458095,0.6206896551724138,0.34945631796025495,0.6535253980288097,0.020327498588368156
ffwiki,25.0,0.009518143961927425,0.5517241379310345,0.3708286464191976,0.6311599696739955,0.01871345029239766
ffwiki,26.0,0.009846153846153846,0.5517241379310345,0.3918260217472816,0.609931766489765,0.01934703748488513
ffwiki,27.0,0.009671179883945842,0.5172413793103449,0.41882264716910383,0.5822592873388931,0.0189873417721519
ffwiki,28.0,0.010087424344317418,0.5172413793103449,0.442819647544057,0.5579984836997726,0.01978891820580475
ffwiki,29.0,0.00980392156862745,0.4827586206896552,0.4641919760029996,0.5360121304018196,0.019217570350034314
ffwiki,30.0,0.00944767441860465,0.4482758620689655,0.48293963254593175,0.5166793025018954,0.01850533807829181
ffwiki,31.0,0.00906344410876133,0.41379310344827586,0.5016872890888638,0.4973464746019712,0.01773835920177384
ffwiki,32.0,0.00865460267505901,0.3793103448275862,0.5208098987626547,0.47763457164518575,0.016923076923076923
ffwiki,33.0,0.008994276369582993,0.3793103448275862,0.5388076490438695,0.45943896891584535,0.017571884984025562
ffwiki,34.0,0.009401709401709401,0.3793103448275862,0.5586801649793776,0.4393479909021986,0.018348623853211007
ffwiki,35.0,0.009717314487632508,0.3793103448275862,0.572928383952006,0.4249431387414708,0.018949181739879414
ffwiki,36.0,0.01008249312557287,0.3793103448275862,0.5883014623172104,0.4094010614101592,0.019642857142857146
ffwiki,37.0,0.010638297872340425,0.3793103448275862,0.609673790776153,0.3877937831690675,0.020696142991533394
ffwiki,38.0,0.011,0.3793103448275862,0.6224221972253469,0.3749052312357847,0.021379980563654033
ffwiki,39.0,0.011446409989594173,0.3793103448275862,0.6370453693288339,0.3601213040181956,0.022222222222222227
ffwiki,40.0,0.012008733624454149,0.3793103448275862,0.6539182602174728,0.343062926459439,0.02328042328042328
ffwiki,41.0,0.012557077625570776,0.3793103448275862,0.6689163854518185,0.32789992418498864,0.024309392265193366
ffwiki,42.0,0.013221153846153846,0.3793103448275862,0.6854143232095988,0.3112206216830933,0.025551684088269452
ffwiki,43.0,0.0125,0.3448275862068966,0.6966629171353581,0.29946929492039426,0.024125452352231607
ffwiki,44.0,0.013227513227513227,0.3448275862068966,0.7131608548931384,0.28278999241849884,0.025477707006369425
ffwiki,45.0,0.013908205841446454,0.3448275862068966,0.7270341207349081,0.2687642153146323,0.026737967914438502
ffwiki,46.0,0.014598540145985401,0.3448275862068966,0.739782527184102,0.2558756633813495,0.028011204481792715
ffwiki,47.0,0.015384615384615385,0.3448275862068966,0.7529058867641545,0.24260803639120546,0.029455081001472757
ffwiki,48.0,0.013136288998357963,0.27586206896551724,0.7667791526059242,0.22782410917361637,0.025078369905956115
ffwiki,49.0,0.013769363166953529,0.27586206896551724,0.7772778402699663,0.21721000758150114,0.02622950819672131
ffwiki,50.0,0.01289134438305709,0.2413793103448276,0.7907761529808774,0.20318423047763456,0.024475524475524476
ffwiki,51.0,0.013513513513513514,0.2413793103448276,0.8001499812523435,0.19370735405610312,0.025594149908592323
ffwiki,52.0,0.014462809917355372,0.2413793103448276,0.8128983877015373,0.1808188021228203,0.027290448343079927
ffwiki,53.0,0.015184381778741865,0.2413793103448276,0.821522309711286,0.17210007581501138,0.02857142857142857
ffwiki,54.0,0.015765765765765764,0.2413793103448276,0.8278965129358831,0.16565579984836998,0.02959830866807611
ffwiki,55.0,0.01694915254237288,0.2413793103448276,0.8395200599925009,0.15390447308567096,0.03167420814479638
ffwiki,56.0,0.0175,0.2413793103448276,0.8443944506936633,0.1489764973464746,0.03263403263403264
ffwiki,57.0,0.018421052631578946,0.2413793103448276,0.8518935133108362,0.14139499620924942,0.034229828850855744
ffwiki,58.0,0.019337016574585635,0.2413793103448276,0.8586426696662918,0.13457164518574677,0.03580562659846547
ffwiki,59.0,0.020710059171597635,0.2413793103448276,0.8676415448068991,0.12547384382107657,0.03814713896457766
ffwiki,60.0,0.022222222222222223,0.2413793103448276,0.876265466816648,0.11675511751326763,0.040697674418604654
ffwiki,61.0,0.02364864864864865,0.2413793103448276,0.8833895763029621,0.10955269143290372,0.043076923076923075
ffwiki,62.0,0.02527075812274368,0.2413793103448276,0.8905136857892764,0.1023502653525398,0.0457516339869281
ffwiki,63.0,0.027131782945736434,0.2413793103448276,0.8976377952755905,0.09514783927217589,0.048780487804878044
ffwiki,64.0,0.029045643153526972,0.2413793103448276,0.9040119985001874,0.0887035633055345,0.05185185185185186
ffwiki,65.0,0.030837004405286344,0.2413793103448276,0.9092613423322085,0.08339651250947688,0.05468750000000001
ffwiki,66.0,0.03271028037383177,0.2413793103448276,0.9141357330333708,0.07846853677028051,0.05761316872427983
ffwiki,67.0,0.03414634146341464,0.2413793103448276,0.9175103112110986,0.07505686125852919,0.05982905982905984
ffwiki,68.0,0.03763440860215054,0.2413793103448276,0.9246344206974129,0.06785443517816528,0.06511627906976744
ffwiki,69.0,0.04046242774566474,0.2413793103448276,0.9295088113985752,0.06292645943896892,0.0693069306930693
ffwiki,70.0,0.04430379746835443,0.2413793103448276,0.9351331083614548,0.05724033358605004,0.07486631016042782
ffwiki,71.0,0.0472972972972973,0.2413793103448276,0.9388826396700413,0.05344958301743745,0.07909604519774012
ffwiki,72.0,0.05511811023622047,0.2413793103448276,0.9467566554180727,0.045489006823351025,0.08974358974358974
ffwiki,73.0,0.06086956521739131,0.2413793103448276,0.9512560929883764,0.04094010614101592,0.09722222222222222
ffwiki,74.0,0.06542056074766354,0.2413793103448276,0.9542557180352456,0.03790750568612585,0.10294117647058822
ffwiki,75.0,0.07608695652173914,0.2413793103448276,0.9598800149981253,0.03222137983320698,0.11570247933884296
ffwiki,76.0,0.0875,0.2413793103448276,0.9643794525684289,0.027672479150871874,0.12844036697247707
ffwiki,77.0,0.1,0.2413793103448276,0.9681289838770154,0.023881728582259287,0.14141414141414144
ffwiki,78.0,0.11666666666666667,0.2413793103448276,0.9718785151856018,0.0200909780136467,0.15730337078651688
ffwiki,79.0,0.1320754716981132,0.2413793103448276,0.9745031871016123,0.017437452615617893,0.17073170731707316
ffwiki,80.0,0.14285714285714285,0.2413793103448276,0.9760029996250469,0.01592115238817286,0.1794871794871795
ffwiki,81.0,0.15555555555555556,0.2413793103448276,0.9775028121484814,0.014404852160727824,0.18918918918918917
ffwiki,82.0,0.17073170731707318,0.2413793103448276,0.979002624671916,0.01288855193328279,0.20000000000000004
ffwiki,83.0,0.18421052631578946,0.2413793103448276,0.9801274840644919,0.011751326762699014,0.208955223880597
ffwiki,84.0,0.1875,0.20689655172413793,0.9816272965879265,0.009855951478392721,0.19672131147540986
ffwiki,85.0,0.24,0.20689655172413793,0.984251968503937,0.007202426080363912,0.22222222222222224
ffwiki,86.0,0.20833333333333334,0.1724137931034483,0.9838770153730784,0.007202426080363912,0.18867924528301888
ffwiki,87.0,0.23809523809523808,0.1724137931034483,0.9850018747656543,0.006065200909780136,0.19999999999999998
ffwiki,88.0,0.2222222222222222,0.13793103448275862,0.9853768278965129,0.00530705079605762,0.1702127659574468
ffwiki,89.0,0.3076923076923077,0.13793103448275862,0.9872515935508062,0.003411675511751327,0.1904761904761905
ffwiki,90.0,0.3333333333333333,0.13793103448275862,0.9876265466816648,0.003032600454890068,0.1951219512195122
ffwiki,91.0,0.3333333333333333,0.10344827586206896,0.9880014998125234,0.002274450341167551,0.15789473684210528
ffwiki,92.0,0.4,0.06896551724137931,0.9887514060742407,0.0011372251705837756,0.1176470588235294
ffwiki,93.0,0.6666666666666666,0.06896551724137931,0.989501312335958,0.0003790750568612585,0.125
ffwiki,94.0,1.0,0.06896551724137931,0.9898762654668166,0.0,0.12903225806451613
ffwiki,95.0,1.0,0.06896551724137931,0.9898762654668166,0.0,0.12903225806451613
ffwiki,96.0,1.0,0.06896551724137931,0.9898762654668166,0.0,0.12903225806451613
ffwiki,97.0,1.0,0.06896551724137931,0.9898762654668166,0.0,0.12903225806451613
ffwiki,98.0,1.0,0.06896551724137931,0.9898762654668166,0.0,0.12903225806451613
ffwiki,99.0,1.0,0.034482758620689655,0.989501312335958,0.0,0.06666666666666667
