wiki_db,threshold,precision,recall,accuracy,fpr,F1
fywiki,0.0,0.008651851851851852,1.0,0.008651851851851852,1.0,0.017155278773280064
fywiki,1.0,0.008653390232337601,1.0,0.00882962962962963,0.9998206706916134,0.017158302973322364
fywiki,2.0,0.00869721689059501,0.9931506849315068,0.020562962962962963,0.9879251599019666,0.017243429658699013
fywiki,3.0,0.008992248062015503,0.9931506849315068,0.052977777777777776,0.9552274493394703,0.017823120889926863
fywiki,4.0,0.009224021157195382,0.9794520547945206,0.0896,0.918166058939566,0.01827592817432424
fywiki,5.0,0.009692832764505119,0.9726027397260274,0.14002962962962964,0.867236535357762,0.019194376858610432
fywiki,6.0,0.010144927536231883,0.958904109589041,0.19016296296296295,0.8165461175204735,0.020077441560304027
fywiki,7.0,0.010500308832612723,0.9315068493150684,0.23994074074074073,0.7660948054277004,0.02076652924110551
fywiki,8.0,0.010940199062268651,0.910958904109589,0.2866962962962963,0.718751868013629,0.021620742908233764
fywiki,9.0,0.011555633371268493,0.9041095890410958,0.3300740740740741,0.6749357403311614,0.022819604114443767
fywiki,10.0,0.012160294795025334,0.9041095890410958,0.36373333333333335,0.6409827246099588,0.023997818380147258
fywiki,11.0,0.012531328320802004,0.8904109589041096,0.392,0.6123498117042262,0.024714828897338403
fywiki,12.0,0.012606303151575788,0.863013698630137,0.4139851851851852,0.589933648155897,0.024849620353022385
fywiki,13.0,0.01303538175046555,0.863013698630137,0.43348148148148147,0.5702672006694961,0.025682837342030165
fywiki,14.0,0.013454351308061933,0.863013698630137,0.4513185185185185,0.5522744933947038,0.026495636631269057
fywiki,15.0,0.013739283358979995,0.8561643835616438,0.4670222222222222,0.5363739613844223,0.02704456945045435
fywiki,16.0,0.014124293785310734,0.8561643835616438,0.48171851851851855,0.5215494052244605,0.02779012894619831
fywiki,17.0,0.014613046527940146,0.8561643835616438,0.49925925925925924,0.5038555801303126,0.02873563218390805
fywiki,18.0,0.015105740181268883,0.8561643835616438,0.5157925925925926,0.48717795445035567,0.02968768554803468
fywiki,19.0,0.015587978550941513,0.8561643835616438,0.530962962962963,0.4718751868013629,0.03061849357011635
fywiki,20.0,0.016256990505917543,0.8561643835616438,0.5505185185185185,0.45214896287883316,0.03190810465858328
fywiki,21.0,0.01643575115457756,0.8287671232876712,0.5694222222222223,0.4328411740092056,0.032232285562067135
fywiki,22.0,0.016787594252382985,0.8082191780821918,0.5888,0.4131149500866758,0.032891986062717773
fywiki,23.0,0.01755702280912365,0.8013698630136986,0.6103111111111111,0.39135632733576425,0.03436123348017621
fywiki,24.0,0.018406854966677245,0.7945205479452054,0.6316444444444445,0.3697770338932393,0.03598014888337469
fywiki,25.0,0.019049196620838163,0.7876712328767124,0.6472296296296296,0.3539960547552155,0.037198770823224966
fywiki,26.0,0.01931778628611208,0.7602739726027398,0.664,0.3368402175862275,0.03767820773930754
fywiki,27.0,0.020176082171680116,0.7534246575342466,0.6813037037037037,0.31932572180046626,0.039299749910682386
fywiki,28.0,0.021421616358325218,0.7534246575342466,0.7000888888888889,0.3003765915476119,0.041658776746828254
fywiki,29.0,0.023055963110459023,0.7534246575342466,0.7216592592592592,0.27861796879670037,0.04474272930648769
fywiki,30.0,0.023851590106007067,0.7397260273972602,0.7358222222222223,0.26421184768964073,0.04621309370988447
fywiki,31.0,0.025168958284782102,0.7397260273972602,0.7498666666666667,0.2500448323270967,0.04868154158215011
fywiki,32.0,0.02573440155377519,0.726027397260274,0.7598222222222222,0.2398828381851874,0.049706916764361085
fywiki,33.0,0.026984950700570835,0.7123287671232876,0.7752888888888889,0.2241616354832925,0.052
fywiki,34.0,0.028508164959867147,0.7054794520547946,0.7894518518518518,0.20981529081236178,0.054801808991753125
fywiki,35.0,0.0315203955500618,0.6986301369863014,0.8116740740740741,0.18733935082790365,0.060319337670017736
fywiki,36.0,0.03353658536585366,0.678082191780822,0.8281481481481482,0.17054217227568894,0.06391220142027114
fywiki,37.0,0.03563636363636364,0.6712328767123288,0.84,0.15852710861378444,0.06767955801104972
fywiki,38.0,0.0385978731784167,0.6712328767123288,0.8525037037037037,0.1459142805905912,0.07299813780260708
fywiki,39.0,0.04060276266220176,0.6643835616438356,0.8612740740740741,0.13700759160738837,0.07652859960552269
fywiki,40.0,0.0425531914893617,0.6575342465753424,0.869037037037037,0.12911710203837648,0.07993338884263114
fywiki,41.0,0.04343764595983186,0.636986301369863,0.8754962962962963,0.12242214119194214,0.08132925229558373
fywiki,42.0,0.046153846153846156,0.636986301369863,0.882962962962963,0.1148903102397035,0.08607126330402592
fywiki,43.0,0.05115511551155116,0.636986301369863,0.894637037037037,0.10311435232231454,0.09470468431771893
fywiki,44.0,0.05599513085818624,0.6301369863013698,0.9048888888888889,0.09271325243588978,0.10285075461151483
fywiki,45.0,0.05902079141515761,0.6027397260273972,0.9134222222222222,0.08386633988881582,0.10751374465485646
fywiki,46.0,0.06062767475035663,0.5821917808219178,0.9183407407407408,0.07872556638173232,0.10981912144702843
fywiki,47.0,0.06306306306306306,0.5753424657534246,0.9223703703703704,0.07460099228883973,0.11366711772665763
fywiki,48.0,0.06619385342789598,0.5753424657534246,0.9261037037037037,0.07083507681272043,0.11872791519434628
fywiki,49.0,0.06970954356846473,0.5753424657534246,0.9298962962962963,0.06700938490047223,0.12435233160621763
fywiki,50.0,0.07211961301671065,0.5616438356164384,0.9336888888888889,0.06306414011596628,0.12782540919719407
fywiki,51.0,0.07462686567164178,0.547945205479452,0.9373037037037037,0.05929822463984697,0.13136288998357962
fywiki,52.0,0.07783251231527094,0.541095890410959,0.9405629629629629,0.0559507442166298,0.1360895779500431
fywiki,53.0,0.08008213552361396,0.5342465753424658,0.9428740740740741,0.053559686771474685,0.13928571428571426
fywiki,54.0,0.08306364617044229,0.5273972602739726,0.9455407407407408,0.0508099707095463,0.1435228331780056
fywiki,55.0,0.08680947012401354,0.5273972602739726,0.9479111111111111,0.04841891326439118,0.14908034849951599
fywiki,56.0,0.09015421115065243,0.5205479452054794,0.9504,0.045848526510849426,0.153690596562184
fywiki,57.0,0.09284818067754078,0.5068493150684932,0.9528888888888889,0.043218363321178795,0.15694591728525983
fywiki,58.0,0.09523809523809523,0.4931506849315068,0.9550814814814815,0.04088708231215255,0.15964523281596452
fywiki,59.0,0.0995850622406639,0.4931506849315068,0.957037037037037,0.03891445991989958,0.16570771001150747
fywiki,60.0,0.1037463976945245,0.4931506849315068,0.9587555555555556,0.03718094327216211,0.1714285714285714
fywiki,61.0,0.10925644916540213,0.4931506849315068,0.9608296296296296,0.035088768007651386,0.17888198757763976
fywiki,62.0,0.11392405063291139,0.4931506849315068,0.9624296296296296,0.033474804232171675,0.18508997429305912
fywiki,63.0,0.1186161449752883,0.4931506849315068,0.9639111111111112,0.03198039332894973,0.19123505976095617
fywiki,64.0,0.12013536379018612,0.4863013698630137,0.9647407407407408,0.03108374678701656,0.19267299864314788
fywiki,65.0,0.12367491166077739,0.4794520547945205,0.9661037037037037,0.029649112319923485,0.19662921348314608
fywiki,66.0,0.12431444241316271,0.4657534246575342,0.9669925925925926,0.028632912905732562,0.19624819624819625
fywiki,67.0,0.12884615384615383,0.4589041095890411,0.968474074074074,0.02707872556638173,0.20120120120120116
fywiki,68.0,0.1375770020533881,0.4589041095890411,0.9704296296296296,0.025106103174128758,0.21169036334913113
fywiki,69.0,0.14163090128755365,0.4520547945205479,0.9715555555555555,0.0239105744515512,0.21568627450980393
fywiki,70.0,0.14705882352941177,0.4452054794520548,0.9728592592592593,0.022535716420587004,0.22108843537414963
fywiki,71.0,0.15201900237529692,0.4383561643835616,0.9739851851851852,0.021340187698009445,0.2257495590828924
fywiki,72.0,0.16030534351145037,0.4315068493150685,0.9755259259259259,0.019726223922529738,0.23376623376623373
fywiki,73.0,0.17119565217391305,0.4315068493150685,0.9770074074074074,0.018231813019307787,0.24513618677042806
fywiki,74.0,0.17647058823529413,0.410958904109589,0.9783111111111111,0.016737402116085837,0.24691358024691357
fywiki,75.0,0.18691588785046728,0.410958904109589,0.979437037037037,0.015601649829637156,0.25695931477516054
fywiki,76.0,0.19865319865319866,0.4041095890410959,0.9807407407407407,0.014226791798672964,0.2663656884875847
fywiki,77.0,0.20567375886524822,0.3972602739726027,0.9815111111111111,0.013389921692868671,0.27102803738317754
fywiki,78.0,0.21839080459770116,0.3904109589041096,0.9826370370370371,0.012194392970291111,0.2800982800982801
fywiki,79.0,0.22709163346613545,0.3904109589041096,0.9832296296296297,0.01159662860900233,0.2871536523929471
fywiki,80.0,0.23651452282157676,0.3904109589041096,0.9838222222222223,0.010998864247713552,0.2945736434108527
fywiki,81.0,0.23555555555555555,0.363013698630137,0.9842962962962963,0.010281547014167015,0.28571428571428575
fywiki,82.0,0.24186046511627907,0.3561643835616438,0.9847703703703704,0.009743559089007113,0.28808864265927975
fywiki,83.0,0.25120772946859904,0.3561643835616438,0.9852444444444445,0.00926534759997609,0.29461756373937675
fywiki,84.0,0.26,0.3561643835616438,0.9856592592592592,0.008846912547073944,0.30057803468208094
fywiki,85.0,0.26344086021505375,0.3356164383561644,0.9861333333333333,0.008189371749656286,0.29518072289156627
fywiki,86.0,0.28488372093023256,0.3356164383561644,0.9869629629629629,0.007352501643851993,0.3081761006289308
fywiki,87.0,0.2987012987012987,0.3150684931506849,0.987674074074074,0.006455855101918824,0.3066666666666667
fywiki,88.0,0.33093525179856115,0.3150684931506849,0.988562962962963,0.005559208559985654,0.3228070175438596
fywiki,89.0,0.3697478991596639,0.3013698630136986,0.9895111111111111,0.00448323270966585,0.33207547169811324
fywiki,90.0,0.3888888888888889,0.2876712328767123,0.9899259259259259,0.003945244784505948,0.3307086614173228
fywiki,91.0,0.4166666666666667,0.273972602739726,0.9904,0.003347480423217168,0.33057851239669417
fywiki,92.0,0.45,0.2465753424657534,0.9908740740740741,0.0026301631896706317,0.3185840707964602
fywiki,93.0,0.576271186440678,0.2328767123287671,0.9918814814814815,0.00149441090322195,0.33170731707317075
fywiki,94.0,0.62,0.21232876712328766,0.9920592592592593,0.001135752286448682,0.3163265306122449
fywiki,95.0,0.6551724137931034,0.13013698630136986,0.9918814814814815,0.00059776436128878,0.21714285714285714
fywiki,96.0,0.6923076923076923,0.06164383561643835,0.9916444444444444,0.000239105744515512,0.11320754716981132
fywiki,97.0,0.4,0.0136986301369863,0.9912888888888889,0.00017932930838663398,0.026490066225165563
fywiki,98.0,0.6666666666666666,0.0136986301369863,0.9914074074074074,5.9776436128878e-05,0.02684563758389262
fywiki,99.0,1.0,0.00684931506849315,0.9914074074074074,0.0,0.013605442176870748
