wiki_db,threshold,precision,recall,accuracy,fpr,F1
ganwiki,0.0,0.11224489795918367,1.0,0.11224489795918367,1.0,0.20183486238532108
ganwiki,1.0,0.11224489795918367,1.0,0.11224489795918367,1.0,0.20183486238532108
ganwiki,2.0,0.11224489795918367,1.0,0.11224489795918367,1.0,0.20183486238532108
ganwiki,3.0,0.11224489795918367,1.0,0.11224489795918367,1.0,0.20183486238532108
ganwiki,4.0,0.11224489795918367,1.0,0.11224489795918367,1.0,0.20183486238532108
ganwiki,5.0,0.11224489795918367,1.0,0.11224489795918367,1.0,0.20183486238532108
ganwiki,6.0,0.11224489795918367,1.0,0.11224489795918367,1.0,0.20183486238532108
ganwiki,7.0,0.11224489795918367,1.0,0.11224489795918367,1.0,0.20183486238532108
ganwiki,8.0,0.11224489795918367,1.0,0.11224489795918367,1.0,0.20183486238532108
ganwiki,9.0,0.11224489795918367,1.0,0.11224489795918367,1.0,0.20183486238532108
ganwiki,10.0,0.11282051282051282,1.0,0.11734693877551021,0.9942528735632183,0.20276497695852533
ganwiki,11.0,0.1134020618556701,1.0,0.12244897959183673,0.9885057471264368,0.2037037037037037
ganwiki,12.0,0.1134020618556701,1.0,0.12244897959183673,0.9885057471264368,0.2037037037037037
ganwiki,13.0,0.1134020618556701,1.0,0.12244897959183673,0.9885057471264368,0.2037037037037037
ganwiki,14.0,0.11398963730569948,1.0,0.12755102040816327,0.9827586206896551,0.2046511627906977
ganwiki,15.0,0.11398963730569948,1.0,0.12755102040816327,0.9827586206896551,0.2046511627906977
ganwiki,16.0,0.11518324607329843,1.0,0.1377551020408163,0.9712643678160919,0.20657276995305163
ganwiki,17.0,0.11518324607329843,1.0,0.1377551020408163,0.9712643678160919,0.20657276995305163
ganwiki,18.0,0.1164021164021164,1.0,0.14795918367346939,0.9597701149425287,0.2085308056872038
ganwiki,19.0,0.11764705882352941,1.0,0.15816326530612246,0.9482758620689655,0.21052631578947367
ganwiki,20.0,0.11764705882352941,1.0,0.15816326530612246,0.9482758620689655,0.21052631578947367
ganwiki,21.0,0.11764705882352941,1.0,0.15816326530612246,0.9482758620689655,0.21052631578947367
ganwiki,22.0,0.11764705882352941,1.0,0.15816326530612246,0.9482758620689655,0.21052631578947367
ganwiki,23.0,0.11827956989247312,1.0,0.16326530612244897,0.9425287356321839,0.21153846153846156
ganwiki,24.0,0.11891891891891893,1.0,0.1683673469387755,0.9367816091954023,0.21256038647342995
ganwiki,25.0,0.12021857923497267,1.0,0.17857142857142858,0.9252873563218391,0.2146341463414634
ganwiki,26.0,0.12021857923497267,1.0,0.17857142857142858,0.9252873563218391,0.2146341463414634
ganwiki,27.0,0.12087912087912088,1.0,0.1836734693877551,0.9195402298850575,0.21568627450980393
ganwiki,28.0,0.12087912087912088,1.0,0.1836734693877551,0.9195402298850575,0.21568627450980393
ganwiki,29.0,0.12087912087912088,1.0,0.1836734693877551,0.9195402298850575,0.21568627450980393
ganwiki,30.0,0.12222222222222222,1.0,0.19387755102040816,0.9080459770114943,0.21782178217821782
ganwiki,31.0,0.12290502793296089,1.0,0.1989795918367347,0.9022988505747126,0.21890547263681592
ganwiki,32.0,0.12429378531073447,1.0,0.20918367346938777,0.8908045977011494,0.22110552763819097
ganwiki,33.0,0.12571428571428572,1.0,0.2193877551020408,0.8793103448275862,0.22335025380710663
ganwiki,34.0,0.12571428571428572,1.0,0.2193877551020408,0.8793103448275862,0.22335025380710663
ganwiki,35.0,0.12643678160919541,1.0,0.22448979591836735,0.8735632183908046,0.22448979591836737
ganwiki,36.0,0.12790697674418605,1.0,0.23469387755102042,0.8620689655172413,0.2268041237113402
ganwiki,37.0,0.1286549707602339,1.0,0.23979591836734693,0.8563218390804598,0.22797927461139894
ganwiki,38.0,0.1286549707602339,1.0,0.23979591836734693,0.8563218390804598,0.22797927461139894
ganwiki,39.0,0.1301775147928994,1.0,0.25,0.8448275862068966,0.23036649214659685
ganwiki,40.0,0.1301775147928994,1.0,0.25,0.8448275862068966,0.23036649214659685
ganwiki,41.0,0.1317365269461078,1.0,0.2602040816326531,0.8333333333333334,0.23280423280423285
ganwiki,42.0,0.13253012048192772,1.0,0.2653061224489796,0.8275862068965517,0.23404255319148937
ganwiki,43.0,0.13253012048192772,1.0,0.2653061224489796,0.8275862068965517,0.23404255319148937
ganwiki,44.0,0.13253012048192772,1.0,0.2653061224489796,0.8275862068965517,0.23404255319148937
ganwiki,45.0,0.13333333333333333,1.0,0.27040816326530615,0.8218390804597702,0.23529411764705882
ganwiki,46.0,0.13333333333333333,1.0,0.27040816326530615,0.8218390804597702,0.23529411764705882
ganwiki,47.0,0.13333333333333333,1.0,0.27040816326530615,0.8218390804597702,0.23529411764705882
ganwiki,48.0,0.13333333333333333,1.0,0.27040816326530615,0.8218390804597702,0.23529411764705882
ganwiki,49.0,0.13496932515337423,1.0,0.28061224489795916,0.8103448275862069,0.23783783783783782
ganwiki,50.0,0.13664596273291926,1.0,0.29081632653061223,0.7988505747126436,0.24043715846994537
ganwiki,51.0,0.13924050632911392,1.0,0.30612244897959184,0.7816091954022989,0.2444444444444444
ganwiki,52.0,0.13924050632911392,1.0,0.30612244897959184,0.7816091954022989,0.2444444444444444
ganwiki,53.0,0.14102564102564102,1.0,0.3163265306122449,0.7701149425287356,0.24719101123595508
ganwiki,54.0,0.14102564102564102,1.0,0.3163265306122449,0.7701149425287356,0.24719101123595508
ganwiki,55.0,0.14285714285714285,1.0,0.32653061224489793,0.7586206896551724,0.25
ganwiki,56.0,0.14285714285714285,1.0,0.32653061224489793,0.7586206896551724,0.25
ganwiki,57.0,0.1456953642384106,1.0,0.34183673469387754,0.7413793103448276,0.2543352601156069
ganwiki,58.0,0.14864864864864866,1.0,0.35714285714285715,0.7241379310344828,0.25882352941176473
ganwiki,59.0,0.14583333333333334,0.9545454545454546,0.3673469387755102,0.7068965517241379,0.2530120481927711
ganwiki,60.0,0.14685314685314685,0.9545454545454546,0.37244897959183676,0.7011494252873564,0.2545454545454545
ganwiki,61.0,0.14685314685314685,0.9545454545454546,0.37244897959183676,0.7011494252873564,0.2545454545454545
ganwiki,62.0,0.14893617021276595,0.9545454545454546,0.3826530612244898,0.6896551724137931,0.2576687116564417
ganwiki,63.0,0.15,0.9545454545454546,0.3877551020408163,0.6839080459770115,0.2592592592592593
ganwiki,64.0,0.1510791366906475,0.9545454545454546,0.39285714285714285,0.6781609195402298,0.26086956521739135
ganwiki,65.0,0.15217391304347827,0.9545454545454546,0.3979591836734694,0.6724137931034483,0.2625
ganwiki,66.0,0.16030534351145037,0.9545454545454546,0.4336734693877551,0.632183908045977,0.27450980392156865
ganwiki,67.0,0.16279069767441862,0.9545454545454546,0.44387755102040816,0.6206896551724138,0.2781456953642384
ganwiki,68.0,0.1693548387096774,0.9545454545454546,0.46938775510204084,0.5919540229885057,0.2876712328767123
ganwiki,69.0,0.1794871794871795,0.9545454545454546,0.5051020408163265,0.5517241379310345,0.3021582733812949
ganwiki,70.0,0.1826086956521739,0.9545454545454546,0.5153061224489796,0.5402298850574713,0.30656934306569344
ganwiki,71.0,0.18421052631578946,0.9545454545454546,0.5204081632653061,0.5344827586206896,0.3088235294117647
ganwiki,72.0,0.19090909090909092,0.9545454545454546,0.5408163265306123,0.5114942528735632,0.3181818181818182
ganwiki,73.0,0.19444444444444445,0.9545454545454546,0.5510204081632653,0.5,0.3230769230769231
ganwiki,74.0,0.19811320754716982,0.9545454545454546,0.5612244897959183,0.4885057471264368,0.328125
ganwiki,75.0,0.20192307692307693,0.9545454545454546,0.5714285714285714,0.47701149425287354,0.33333333333333337
ganwiki,76.0,0.19801980198019803,0.9090909090909091,0.576530612244898,0.46551724137931033,0.3252032520325203
ganwiki,77.0,0.21052631578947367,0.9090909090909091,0.6071428571428571,0.43103448275862066,0.3418803418803419
ganwiki,78.0,0.1956521739130435,0.8181818181818182,0.6020408163265306,0.42528735632183906,0.3157894736842105
ganwiki,79.0,0.19318181818181818,0.7727272727272727,0.6122448979591837,0.40804597701149425,0.3090909090909091
ganwiki,80.0,0.20238095238095238,0.7727272727272727,0.6326530612244898,0.3850574712643678,0.32075471698113206
ganwiki,81.0,0.20238095238095238,0.7727272727272727,0.6326530612244898,0.3850574712643678,0.32075471698113206
ganwiki,82.0,0.21621621621621623,0.7272727272727273,0.673469387755102,0.3333333333333333,0.33333333333333337
ganwiki,83.0,0.22857142857142856,0.7272727272727273,0.6938775510204082,0.3103448275862069,0.34782608695652173
ganwiki,84.0,0.24615384615384617,0.7272727272727273,0.7193877551020408,0.28160919540229884,0.36781609195402304
ganwiki,85.0,0.2459016393442623,0.6818181818181818,0.7295918367346939,0.26436781609195403,0.3614457831325301
ganwiki,86.0,0.24074074074074073,0.5909090909090909,0.7448979591836735,0.23563218390804597,0.34210526315789475
ganwiki,87.0,0.2549019607843137,0.5909090909090909,0.7602040816326531,0.21839080459770116,0.35616438356164387
ganwiki,88.0,0.2608695652173913,0.5454545454545454,0.7755102040816326,0.19540229885057472,0.3529411764705882
ganwiki,89.0,0.24390243902439024,0.45454545454545453,0.7806122448979592,0.1781609195402299,0.31746031746031744
ganwiki,90.0,0.2702702702702703,0.45454545454545453,0.8010204081632653,0.15517241379310345,0.33898305084745767
ganwiki,91.0,0.25806451612903225,0.36363636363636365,0.8112244897959183,0.13218390804597702,0.3018867924528302
ganwiki,92.0,0.25925925925925924,0.3181818181818182,0.8214285714285714,0.11494252873563218,0.2857142857142857
ganwiki,93.0,0.3157894736842105,0.2727272727272727,0.8520408163265306,0.07471264367816093,0.2926829268292683
ganwiki,94.0,0.25,0.18181818181818182,0.8469387755102041,0.06896551724137931,0.2105263157894737
ganwiki,95.0,0.3333333333333333,0.13636363636363635,0.8724489795918368,0.034482758620689655,0.1935483870967742
ganwiki,96.0,0.42857142857142855,0.13636363636363635,0.8826530612244898,0.022988505747126436,0.20689655172413793
ganwiki,97.0,0.42857142857142855,0.13636363636363635,0.8826530612244898,0.022988505747126436,0.20689655172413793
ganwiki,98.0,0.5,0.13636363636363635,0.8877551020408163,0.017241379310344827,0.21428571428571427
ganwiki,99.0,0.3333333333333333,0.045454545454545456,0.8826530612244898,0.011494252873563218,0.08
