wiki_db,threshold,precision,recall,accuracy,fpr,F1
hawiki,0.0,0.0071677749918238306,1.0,0.0071677749918238306,1.0,0.014233527262887296
hawiki,1.0,0.0071677749918238306,1.0,0.0071677749918238306,1.0,0.014233527262887296
hawiki,2.0,0.007185596021966613,1.0,0.009647879646789492,0.9975019901726646,0.014268663194444444
hawiki,3.0,0.007232065867430669,0.9885931558935361,0.027199389512700317,0.9797414148068846,0.014359087645661898
hawiki,4.0,0.007365956717866728,0.9809885931558935,0.052300228932737385,0.9544044579867688,0.014622120207430077
hawiki,5.0,0.007552067968611718,0.973384030418251,0.08293360950615938,0.9234950177056741,0.014987851643687246
hawiki,6.0,0.007629845258158419,0.9467680608365019,0.11697372724299575,0.8890169919569574,0.015137698340324638
hawiki,7.0,0.0077472422368169355,0.9239543726235742,0.15123187615829065,0.854346811606138,0.015365645451958647
hawiki,8.0,0.007951759326751044,0.9125475285171103,0.18333696718630765,0.8219275851656647,0.01576613565445886
hawiki,9.0,0.008102610074819846,0.8935361216730038,0.2151967731385588,0.7897005133272942,0.01605959133465455
hawiki,10.0,0.008173025447018095,0.870722433460076,0.24168756132126895,0.7628537703477998,0.01619404568276642
hawiki,11.0,0.008243476980826555,0.8517110266159695,0.2644718194701842,0.7397677674380302,0.016328910919959177
hawiki,12.0,0.008420254124786648,0.844106463878327,0.28638395290526547,0.717642537538774,0.016674177557458314
hawiki,13.0,0.008599460579290936,0.8365019011406845,0.3075874850103565,0.6962310247330423,0.017023910856612243
hawiki,14.0,0.00881520420541852,0.8288973384030418,0.33072604382426685,0.6728705152488402,0.017444884567678953
hawiki,15.0,0.009108462055070517,0.8250950570342205,0.3553635669900796,0.6480276702627028,0.018018018018018018
hawiki,16.0,0.009403017712661273,0.8174904942965779,0.38139103891856535,0.6217573910895166,0.01859218263576617
hawiki,17.0,0.009516004188863088,0.7946768060836502,0.40564700752207566,0.5971616020203684,0.0188068028435166
hawiki,18.0,0.009812327331618558,0.7832699619771863,0.43189251062901995,0.570644266930193,0.01938185068448041
hawiki,19.0,0.010123173589986536,0.7718631178707225,0.45737490461135943,0.5448955502484284,0.019984248867887383
hawiki,20.0,0.010464082038403181,0.7604562737642585,0.48283004469639157,0.5191742842241072,0.02064409578860446
hawiki,21.0,0.010749724366041897,0.7414448669201521,0.5090755478033359,0.49260204781904526,0.0211921969244145
hawiki,22.0,0.011017992146750278,0.714828897338403,0.5380464406410117,0.4632298443547723,0.02170148909153873
hawiki,23.0,0.011476426799007445,0.7034220532319392,0.5635833424179658,0.4374262263581213,0.02258438625404383
hawiki,24.0,0.011980407731003442,0.688212927756654,0.59094625531451,0.40975596365532957,0.023550842495608612
hawiki,25.0,0.012598536036036036,0.6806083650190115,0.6153657473018642,0.38510527327129485,0.024739133439292377
hawiki,26.0,0.01333835719668425,0.6730038022813688,0.6408208873868964,0.3594114579044168,0.026158279760585237
hawiki,27.0,0.014234016887816647,0.6730038022813688,0.6635778916385043,0.3364901589393066,0.027878406048196566
hawiki,28.0,0.014784253051401066,0.6539923954372624,0.6851357244085904,0.314639435614483,0.028914852483819455
hawiki,29.0,0.015480443345241367,0.6425855513307985,0.7045132453940913,0.2950396662000055,0.030232558139534887
hawiki,30.0,0.016310186541654458,0.6349809885931559,0.7228823721792216,0.27648302176837136,0.031803466006474955
hawiki,31.0,0.016975630077067278,0.6197718631178707,0.7400250735855227,0.2591067556067968,0.03304612265585403
hawiki,32.0,0.017984014209591476,0.6159695817490495,0.7561593807914532,0.24282851574295206,0.034947686333728835
hawiki,33.0,0.018698224852071007,0.6007604562737643,0.7711490243104764,0.2276208515193939,0.03626764604613796
hawiki,34.0,0.019026160971335585,0.5779467680608364,0.7833860242014609,0.21513080238271706,0.036839554047503636
hawiki,35.0,0.019984012789768184,0.5703422053231939,0.7964406410116647,0.20192703615251587,0.03861500836658515
hawiki,36.0,0.021176805002842525,0.5665399239543726,0.8091954649514881,0.1890526778116336,0.04082751061789286
hawiki,37.0,0.022309315646668677,0.5627376425855514,0.8200970238744141,0.17804496417689203,0.04291721038132521
hawiki,38.0,0.02330779054916986,0.5551330798479087,0.8300719502888914,0.1679431222377776,0.04473724528880037
hawiki,39.0,0.024365482233502538,0.5475285171102662,0.8396108143464516,0.15828049081775508,0.04665478697553863
hawiki,40.0,0.025434354289808347,0.5399239543726235,0.8484138231767143,0.14935902714870022,0.04858022579541567
hawiki,41.0,0.026893000190730498,0.5361216730038023,0.8576256404665867,0.1400532542754399,0.051216854340719216
hawiki,42.0,0.027979066022544283,0.5285171102661597,0.865011446636869,0.1325592247934338,0.05314471420378512
hawiki,43.0,0.029650170648464164,0.5285171102661597,0.8726425378829172,0.12487304070932499,0.05615027267218743
hawiki,44.0,0.031186440677966103,0.5247148288973384,0.8797558050801264,0.1176809684591946,0.05887372013651879
hawiki,45.0,0.03245048914340253,0.5171102661596958,0.8860242014608088,0.11131241593236157,0.06106870229007634
hawiki,46.0,0.03399150212446888,0.5171102661596958,0.8912024419491987,0.10609679101814488,0.06378986866791744
hawiki,47.0,0.03509234828496042,0.5057034220532319,0.8967894908971983,0.10038705426994976,0.06563039723661485
hawiki,48.0,0.035346507097133315,0.4828897338403042,0.9018314618990516,0.09514397869828982,0.06587136929460581
hawiki,49.0,0.03479799469183132,0.44866920152091255,0.9068461790035975,0.08984600181174339,0.06458675424192667
hawiki,50.0,0.03598014888337469,0.44106463878326996,0.9112885642646898,0.08531664333360783,0.06653283624892457
hawiki,51.0,0.037303664921465966,0.43346007604562736,0.9157582034230896,0.08075983419802904,0.06869539017776438
hawiki,52.0,0.03871188763275094,0.4296577946768061,0.919437479559577,0.07702654478574762,0.07102451288497799
hawiki,53.0,0.04031965128950236,0.4220532319391635,0.923852610923362,0.07252463696505532,0.0736074270557029
hawiki,54.0,0.0429732868757259,0.4220532319391635,0.9284857734656056,0.06785802519970353,0.07800421644413212
hawiki,55.0,0.04625735912531539,0.41825095057034223,0.9340183146189905,0.0622580910812814,0.08330177962892844
hawiki,56.0,0.049151027703306524,0.41825095057034223,0.9378338602420146,0.05841499903922699,0.08796481407437025
hawiki,57.0,0.0521487204249155,0.41064638783269963,0.942276245503107,0.053885640561091436,0.09254498714652956
hawiki,58.0,0.05521472392638037,0.41064638783269963,0.9454104436934482,0.050728814955118176,0.09734114465975664
hawiki,59.0,0.05908096280087528,0.41064638783269963,0.9488989425487845,0.04721513080238272,0.10329985652797706
hawiki,60.0,0.06304728546409807,0.41064638783269963,0.9520331407391257,0.04405830519640946,0.10931174089068826
hawiki,61.0,0.06729559748427673,0.4068441064638783,0.9553308623133108,0.04070932498833347,0.11548839719373989
hawiki,62.0,0.06928714190539641,0.39543726235741444,0.957592935789818,0.03834856844821433,0.11791383219954649
hawiki,63.0,0.07514450867052024,0.39543726235741444,0.9607816417747738,0.03513684152735458,0.12629022465088038
hawiki,64.0,0.08176100628930817,0.39543726235741444,0.9638340782731931,0.03206236789371105,0.13550488599348534
hawiki,65.0,0.08494533221194281,0.3840304182509506,0.9659326283658564,0.029866315298251393,0.13911845730027547
hawiki,66.0,0.08969804618117229,0.3840304182509506,0.9676496238962171,0.02813692387932691,0.14542836573074153
hawiki,67.0,0.09573459715639811,0.3840304182509506,0.9695846506050365,0.02618792720085646,0.15326251896813356
hawiki,68.0,0.09990108803165183,0.3840304182509506,0.9707838220865583,0.024980098273353648,0.15855572998430142
hawiki,69.0,0.10294117647058823,0.3726235741444867,0.9722282786438461,0.023442861456531884,0.16131687242798354
hawiki,70.0,0.10585585585585586,0.3574144486692015,0.9737544968930557,0.021795822009937137,0.16333622936576891
hawiki,71.0,0.10965435041716329,0.34980988593155893,0.9749809222718849,0.020505641110104587,0.16696914700544466
hawiki,72.0,0.11166875784190715,0.33840304182509506,0.9759620625749482,0.019435065469818002,0.16792452830188678
hawiki,73.0,0.11318242343541944,0.3231939163498099,0.9769977106726262,0.01828213785720168,0.16765285996055226
hawiki,74.0,0.11948790896159317,0.3193916349809886,0.9782513899487627,0.016991956957369127,0.17391304347826086
hawiki,75.0,0.125,0.30798479087452474,0.9795868309168211,0.01556452277032035,0.1778265642151482
hawiki,76.0,0.13029315960912052,0.3041825095057034,0.9804589556306552,0.01465865107469324,0.18244013683010263
hawiki,77.0,0.1356521739130435,0.2965779467680608,0.9814128420364112,0.013642976749293146,0.18615751789976132
hawiki,78.0,0.1425891181988743,0.2889733840304182,0.9824484901340892,0.012544950451563315,0.19095477386934673
hawiki,79.0,0.14717741935483872,0.27756653992395436,0.9832933609506159,0.01161162809849296,0.19235836627140976
hawiki,80.0,0.1545253863134658,0.2661596958174905,0.9843017551509866,0.010513601800763129,0.19553072625698326
hawiki,81.0,0.1623529411764706,0.2623574144486692,0.9850103564809768,0.009772434049795492,0.2005813953488372
hawiki,82.0,0.1683673469387755,0.2509505703422053,0.9857462117082743,0.008948914326498119,0.2015267175572519
hawiki,83.0,0.17796610169491525,0.23954372623574144,0.9866183364221084,0.007988141315984517,0.20421393841166935
hawiki,84.0,0.1838006230529595,0.22433460076045628,0.9872996838547913,0.00719207225013039,0.20205479452054795
hawiki,85.0,0.18466898954703834,0.20152091254752852,0.9878992695955522,0.006423453841719509,0.19272727272727277
hawiki,86.0,0.184,0.17490494296577946,0.9885261092336204,0.005599934118422136,0.1793372319688109
hawiki,87.0,0.1943127962085308,0.155893536121673,0.9893164722555325,0.00466661176535178,0.1729957805907173
hawiki,88.0,0.20634920634920634,0.1482889733840304,0.9898070424070642,0.004117598616486865,0.17256637168141592
hawiki,89.0,0.22289156626506024,0.14068441064638784,0.9903248664559032,0.0035411348101787037,0.17249417249417254
hawiki,90.0,0.24817518248175183,0.12927756653992395,0.9909517060939714,0.002827417716654314,0.16999999999999998
hawiki,91.0,0.2782608695652174,0.12167300380228137,0.9914422762455031,0.0022784045677893988,0.1693121693121693
hawiki,92.0,0.30526315789473685,0.11026615969581749,0.9918238308078056,0.0018117433912542206,0.16201117318435757
hawiki,93.0,0.325,0.09885931558935361,0.9920691158835714,0.0014823355019352713,0.15160349854227403
hawiki,94.0,0.38181818181818183,0.07984790874524715,0.992477924343181,0.000933322353070356,0.1320754716981132
hawiki,95.0,0.38636363636363635,0.06463878326996197,0.992559686035103,0.0007411677509676357,0.11074918566775245
hawiki,96.0,0.37142857142857144,0.049429657794676805,0.9925869399324103,0.0006039144637514068,0.087248322147651
hawiki,97.0,0.3870967741935484,0.045627376425855515,0.992641447727025,0.0005215624914216696,0.0816326530612245
hawiki,98.0,0.4375,0.026615969581749048,0.9927777172135616,0.00024705591698921187,0.050179211469534045
hawiki,99.0,1.0,0.0076045627376425855,0.9928867328027908,0.0,0.015094339622641508
