wiki_db,threshold,precision,recall,accuracy,fpr,F1
idwiki,0.0,0.0674767859241779,1.0,0.0674767859241779,1.0,0.12642295704024936
idwiki,1.0,0.06749650891041828,0.9999866005627763,0.06778058064574462,0.9996732533110978,0.1264574659705736
idwiki,2.0,0.06775848808521728,0.9998794050649873,0.07173804938472528,0.9954216680563904,0.12691628348792297
idwiki,3.0,0.06927831949908861,0.9996918129438563,0.09373965877342881,0.9718144621768893,0.12957699512047707
idwiki,4.0,0.07580791884983051,0.9993836258877127,0.1778401641938138,0.8816061975217669,0.14092594604552733
idwiki,5.0,0.0833594253202605,0.9988744472732145,0.25876800390593213,0.7947856270239873,0.15387727551393227
idwiki,6.0,0.08796387592267425,0.9981642771003618,0.30154067323080264,0.7488665671236595,0.16167962938244515
idwiki,7.0,0.09160253681057841,0.9974943052391799,0.33235865860164016,0.71577013321957,0.16779593014344577
idwiki,8.0,0.09295618288946146,0.9963151547635,0.3437554814151771,0.7034633209874149,0.1700469856138718
idwiki,9.0,0.0943388281589931,0.9906739916923489,0.35762877370005697,0.6881779751401036,0.17227266213620057
idwiki,10.0,0.09563160131430289,0.989012461476618,0.3681558032929178,0.6767689891213714,0.17439978451076618
idwiki,11.0,0.09731673465399096,0.9874447273214525,0.3811149989602264,0.6627586340630999,0.1771724012747046
idwiki,12.0,0.09937911703251999,0.985287417928447,0.3964973191924124,0.6461071574007641,0.18054764383507826
idwiki,13.0,0.10112946606432152,0.9829559158515342,0.4093172756123362,0.6321908510927108,0.18339110293906252
idwiki,14.0,0.1031833134899363,0.9801018357228997,0.4238533105487292,0.616396478504528,0.18671012898301756
idwiki,15.0,0.10499458033980477,0.9773415516548305,0.43631160658583557,0.6028369757024569,0.18961866472209982
idwiki,16.0,0.10733076993445922,0.9747152619589977,0.4512798256796955,0.5865956291570518,0.19336874116133423
idwiki,17.0,0.10921753478442837,0.9720755728259413,0.4631404779341959,0.5736857414338071,0.19637172740856235
idwiki,18.0,0.11120422036037893,0.969100897762294,0.47527327962676647,0.56045977234385,0.19951420756661023
idwiki,19.0,0.11323968180896912,0.9657510384563849,0.48738709414923914,0.5472270162306813,0.20271043716592393
idwiki,20.0,0.11529653599704508,0.9619991960337666,0.4993426822542292,0.5341348484554674,0.20591407101474216
idwiki,21.0,0.11742906052484298,0.9587029344767519,0.5110161752606215,0.5213781535418566,0.20923006739121855
idwiki,22.0,0.11951030642722814,0.9554066729197374,0.5220260214645437,0.5093331264907212,0.21244607060281742
idwiki,23.0,0.12151548795571301,0.9517888248693555,0.5324481695463875,0.4978950532296535,0.21551592051348564
idwiki,24.0,0.12352067261278153,0.9480637813211845,0.5425601938499652,0.486781787507999,0.2185650893286029
idwiki,25.0,0.12546218128192524,0.9438965563446335,0.5522535962604317,0.47608543892648686,0.2214847397728023
idwiki,26.0,0.12747204018507816,0.939863325740319,0.5618484462165804,0.4655044697395722,0.2244960664699368
idwiki,27.0,0.12941963532854345,0.9357630979498861,0.5709197927686006,0.4554800364560104,0.2273903154960854
idwiki,28.0,0.13134785928675655,0.9311670909821788,0.5798229672426108,0.4456000698093816,0.23022133290045158
idwiki,29.0,0.13325981847484944,0.9262226986466569,0.5885227077512861,0.4359130485369117,0.23299727309192275
idwiki,30.0,0.13527138263033153,0.921532895618384,0.5972034610898636,0.42626481025422247,0.2359131799432291
idwiki,31.0,0.1372627280458258,0.9170172852740185,0.6054827714035135,0.4170596676297776,0.23878342120045917
idwiki,32.0,0.13936196123137756,0.9123810799946402,0.6138922794549778,0.40770618006942155,0.24179141047652697
idwiki,33.0,0.14138463786876004,0.9073964893474474,0.6219184275006555,0.3987385832573833,0.24464956647398844
idwiki,34.0,0.14358298111664053,0.9031086694358836,0.6299852623394002,0.3897777734685567,0.2477731334943515
idwiki,35.0,0.14578195179932246,0.8989548438965563,0.6377492066075352,0.38115146696658847,0.2508792497069167
idwiki,36.0,0.14798374311820828,0.8943052391799544,0.6454326814404933,0.3725755783513351,0.2539461493534536
idwiki,37.0,0.15008831385000893,0.8892536513466435,0.6527400294753212,0.36437394558746533,0.2568290044755932
idwiki,38.0,0.15219226811972003,0.8839876725177542,0.6598909593945805,0.35632453605848474,0.25967707652703753
idwiki,39.0,0.15433837667120873,0.8787484925633123,0.6669243496894242,0.3484031103957804,0.2625618810642442
idwiki,40.0,0.15647288644850393,0.8736567064183304,0.673673836583756,0.34079679652504413,0.26541046401341684
idwiki,41.0,0.15855839545529055,0.8684041270266649,0.680155694794803,0.33346584188175066,0.2681553843957722
idwiki,42.0,0.16081907075221138,0.8640895082406539,0.686578783193642,0.32626577982896704,0.2711696918344648
idwiki,43.0,0.1629672541008598,0.859439903524052,0.6926555817759333,0.31941282553472045,0.27398196520335066
idwiki,44.0,0.16502470065497493,0.8544821117513064,0.6984502852596269,0.31284007834163935,0.2766252328887751
idwiki,45.0,0.16722283726079393,0.85007369690473,0.7042269057241797,0.3063264752079738,0.2794696152067135
idwiki,46.0,0.16926743643010128,0.8450489079458663,0.7096952107123805,0.30009889662394074,0.2820407323595968
idwiki,47.0,0.17138430090836548,0.8403457054803698,0.7150731006048769,0.2939915453082278,0.2847045364784071
idwiki,48.0,0.17349346630751764,0.8354281120192952,0.7203443006844423,0.2879830906164556,0.2873192964022876
idwiki,49.0,0.1755987544660439,0.8304435213721024,0.7254825905733221,0.2821123155384049,0.28989805201943064
idwiki,50.0,0.17768975070849297,0.8258609138416186,0.7303595808356164,0.276550834803855,0.2924556279700968
idwiki,51.0,0.17984705854734964,0.8212381079994641,0.7352320503431253,0.2709912932187942,0.2950743114098225
idwiki,52.0,0.18205898514023602,0.8168966903390058,0.7399987341886601,0.2655655529484768,0.2977577205038413
idwiki,53.0,0.18429129718658263,0.8125954709902184,0.7446605365231779,0.2602551920727569,0.3004438983789782
idwiki,54.0,0.1863261867590002,0.8075840814685783,0.7490483811177114,0.25518722488316625,0.30279204712443014
idwiki,55.0,0.18854619454107405,0.80324266380812,0.753459733637128,0.25014252748744403,0.30540441401234947
idwiki,56.0,0.19083681272096112,0.7992362320782527,0.7577860959665825,0.2452132094863193,0.3081059441868874
idwiki,57.0,0.1929472999349382,0.7947474206083345,0.7618412130089239,0.2405398592177471,0.31050964583933205
idwiki,58.0,0.19513042442529877,0.7902586091384162,0.7658972342022224,0.2358655393744304,0.3129799349384675
idwiki,59.0,0.1974687805042243,0.7860913841618652,0.7699948463395448,0.2311698888867343,0.315646185300764
idwiki,60.0,0.19971512800408134,0.7815757738174997,0.7739324237574705,0.22662064418546027,0.3181370690854152
idwiki,61.0,0.20194316757208525,0.7770333645986869,0.7777506532490664,0.22219744420097345,0.32057270792448656
idwiki,62.0,0.20403805017636809,0.7719817767653758,0.7814052314174375,0.2179128934049526,0.3227673294229034
idwiki,63.0,0.20624247362614384,0.7664880075036848,0.7851900073236228,0.2134567278791522,0.3250281259588395
idwiki,64.0,0.2083544192391472,0.7613158247353611,0.7887089628484372,0.20930888712210824,0.32717001992376
idwiki,65.0,0.21053986494049173,0.7561436419670374,0.7922279183732516,0.20516104636506427,0.3293702212105294
idwiki,66.0,0.21268047422664751,0.7504488811469918,0.795705282954042,0.20101999263123194,0.33143175012723247
idwiki,67.0,0.21471104546403633,0.7440573495913172,0.7991030822506126,0.19691384358820221,0.33325531429668837
idwiki,68.0,0.2167600450737965,0.737170038858368,0.8025280060758945,0.19274273303728984,0.33501199624888867
idwiki,69.0,0.2189260941685845,0.7303765241859842,0.8059755336751024,0.18855417014097617,0.3368756740387319
idwiki,70.0,0.22110379904419863,0.7234624145785877,0.8093697163678448,0.18441408598188835,0.338695765361972
idwiki,71.0,0.22346772811084956,0.7161597212917058,0.812924837930941,0.1800732998506855,0.3406426365754092
idwiki,72.0,0.22561402909053618,0.7074902854080128,0.8164049149646024,0.1757140917993368,0.342126236805785
idwiki,73.0,0.22771766454630904,0.6979364866675599,0.8199012667154908,0.1712734394694487,0.343394920310517
idwiki,74.0,0.23014180902811993,0.6884764839876725,0.8235766403558739,0.16664759836335782,0.34496857879471476
idwiki,75.0,0.23275901677004365,0.6788154897494305,0.8273433332429182,0.16190928658690298,0.3466538935267552
idwiki,76.0,0.23554417752250678,0.6682031354683103,0.8312781982079728,0.15692179410110726,0.3483083284441092
idwiki,77.0,0.23849136274524113,0.6569074098887847,0.8353152322311733,0.15177529135721074,0.34993736460225633
idwiki,78.0,0.24180222892988262,0.6451159051319845,0.8395593168235369,0.14637088173127266,0.35175842682263037
idwiki,79.0,0.2452792871567464,0.6314618786010987,0.8440249184003761,0.14059415540344006,0.35331868856883664
idwiki,80.0,0.24897343093178387,0.6166421010317567,0.8486189094131156,0.13459539645911303,0.35472445648613127
idwiki,81.0,0.25252257485941826,0.5999196033766582,0.8531794468404444,0.12849483216661173,0.35543347530455005
idwiki,82.0,0.25696261599437675,0.5829157175398634,0.8581197276697318,0.1219666854117784,0.35668868144977806
idwiki,83.0,0.2618597712580806,0.564491491357363,0.8632435511432989,0.11513894006088929,0.35775975542439814
idwiki,84.0,0.2672970252077617,0.5443253383357899,0.8685717127331579,0.10796602610095213,0.35853261373214423
idwiki,85.0,0.27307951010341636,0.5222430657912368,0.8739577399842677,0.10059241016889992,0.3586315411724652
idwiki,86.0,0.27899853609098757,0.49797668497923087,0.879289518177955,0.09311892803816246,0.3576298506026415
idwiki,87.0,0.2852887611801368,0.4722765643842959,0.884555293351778,0.08561248036611142,0.35570581556704933
idwiki,88.0,0.29185946269286933,0.4445665282058154,0.8897369824865959,0.07805076693362291,0.3523801431697007
idwiki,89.0,0.3007201366512675,0.41518156237438025,0.8953933508738618,0.06985882991719831,0.3488005583510633
idwiki,90.0,0.31009636253146977,0.3829023181026397,0.9008779305792896,0.061641683957416274,0.34267486899065847
idwiki,91.0,0.3223551286024171,0.3484657644378936,0.906607535194076,0.05300568170800287,0.33490228904413893
idwiki,92.0,0.3359275567974019,0.3076912769663674,0.9122422039583729,0.04401287595260719,0.321190038255226
idwiki,93.0,0.353966528240683,0.266112823261423,0.9177068923427455,0.035144175764509684,0.3038160581931664
idwiki,94.0,0.37572505138159396,0.2204609406404931,0.9226824350593575,0.026505264790862727,0.277875358892079
idwiki,95.0,0.40540793998124414,0.17377730135334316,0.9270512924837931,0.0184422812154589,0.24327518289251548
idwiki,96.0,0.44960478929891023,0.12880879003081872,0.9305747687633927,0.011409955593476701,0.20024788826280324
idwiki,97.0,0.501051392043065,0.07982044754120327,0.9325458178497482,0.005751517384475169,0.1377038569562755
idwiki,98.0,0.6059052696329711,0.03959533699584617,0.9334572020144484,0.0018635226589617793,0.0743330775906524
idwiki,99.0,0.7526564344746163,0.017084282460136675,0.9332971672950516,0.000406251817952646,0.03341019862690635
