wiki_db,threshold,precision,recall,accuracy,fpr,F1
mgwiki,0.0,0.08386535113174695,1.0,0.08386535113174695,1.0,0.15475234270414995
mgwiki,1.0,0.08388969521044992,1.0,0.08415554265815438,0.9996832435856826,0.15479378682378145
mgwiki,2.0,0.08430571761960327,1.0,0.08908879860708067,0.994298384542287,0.1555017487220877
mgwiki,3.0,0.08510011778563015,1.0,0.0983749274521184,0.9841621792841305,0.15685210312075984
mgwiki,4.0,0.0859863135971437,1.0,0.1085316308763784,0.9730757047830219,0.15835616438356165
mgwiki,5.0,0.08717948717948718,1.0,0.12188044109112015,0.9585049097244219,0.16037735849056603
mgwiki,6.0,0.08884106978173993,1.0,0.13987231572838074,0.9388660120367437,0.163184641445511
mgwiki,7.0,0.09048215403882279,1.0,0.15699361578641904,0.9201773835920177,0.16594889463106516
mgwiki,8.0,0.0930756843800322,1.0,0.1828206616366802,0.89198606271777,0.17030053034767237
mgwiki,9.0,0.09509707140506746,1.0,0.2019733023795705,0.8710801393728222,0.17367788461538464
mgwiki,10.0,0.09756920999324781,1.0,0.22431804991294255,0.8466898954703833,0.17779144878498926
mgwiki,11.0,0.10038207711010767,1.0,0.24840394660475915,0.8203991130820399,0.18244949494949494
mgwiki,12.0,0.10292022792022792,1.0,0.2690075449796866,0.7979094076655052,0.18663222473361318
mgwiki,13.0,0.12942230183609493,1.0,0.4358676726639582,0.6157744694330061,0.22918318794607453
mgwiki,14.0,0.13370473537604458,0.9965397923875432,0.4582124201973302,0.5910674691162496,0.23577568563241919
mgwiki,15.0,0.138395002402691,0.9965397923875432,0.4793964016250725,0.5679442508710801,0.2430379746835443
mgwiki,16.0,0.14523449319213314,0.9965397923875432,0.5078351712130006,0.536902122267976,0.2535211267605634
mgwiki,17.0,0.14953271028037382,0.9965397923875432,0.524376088218224,0.5188470066518847,0.2600451467268623
mgwiki,18.0,0.15421816227834498,0.9930795847750865,0.542658154381892,0.49857459613557176,0.2669767441860465
mgwiki,19.0,0.15915414579855314,0.9896193771626297,0.5606500290191526,0.4786189420335762,0.274209012464046
mgwiki,20.0,0.16686114352392065,0.9896193771626297,0.5847359257109692,0.4523281596452328,0.2855716425361957
mgwiki,21.0,0.17556783302639656,0.9896193771626297,0.6094022054556006,0.4254038644282547,0.29822732012513037
mgwiki,22.0,0.18141311266709104,0.986159169550173,0.6256529309344168,0.40734874881216343,0.3064516129032258
mgwiki,23.0,0.18639633747547416,0.986159169550173,0.6378409750435288,0.39404497941083305,0.3135313531353135
mgwiki,24.0,0.19215155615696888,0.9826989619377162,0.6520603598374928,0.3782071586949636,0.32144878324844367
mgwiki,25.0,0.19845722300140253,0.9792387543252595,0.6665699361578642,0.3620525815647767,0.3300291545189505
mgwiki,26.0,0.20538965768390385,0.9757785467128027,0.681369704004643,0.3455812480202724,0.3393501805054151
mgwiki,27.0,0.21320182094081944,0.972318339100346,0.6967498549042368,0.3284764016471334,0.3497199751088986
mgwiki,28.0,0.215311004784689,0.9342560553633218,0.7089378990133488,0.3116883116883117,0.34996759559300067
mgwiki,29.0,0.22406639004149378,0.9342560553633218,0.7231572838073128,0.2961672473867596,0.3614457831325302
mgwiki,30.0,0.22893617021276597,0.9307958477508651,0.7312826465467208,0.28698131137155525,0.3674863387978142
mgwiki,31.0,0.23544973544973544,0.9238754325259516,0.7420197330237958,0.2746278112131771,0.3752635277582572
mgwiki,32.0,0.24563017479300828,0.9238754325259516,0.7556587347649448,0.2597402597402597,0.38808139534883723
mgwiki,33.0,0.2535612535612536,0.9238754325259516,0.7655252466627974,0.2489705416534685,0.3979135618479881
mgwiki,34.0,0.2587548638132296,0.9204152249134948,0.7721996517701684,0.2413683877098511,0.4039483675018983
mgwiki,35.0,0.26626626626626626,0.9204152249134948,0.7806152060359838,0.23218245169464682,0.41304347826086957
mgwiki,36.0,0.27394438722966014,0.9204152249134948,0.7887405687753918,0.2233132720937599,0.4222222222222222
mgwiki,37.0,0.2792413066385669,0.916955017301038,0.7945443993035404,0.2166613873930947,0.4281098546042003
mgwiki,38.0,0.28679653679653677,0.916955017301038,0.801799187463726,0.20874247703515997,0.4369332234130256
mgwiki,39.0,0.29608938547486036,0.916955017301038,0.8102147417295414,0.19955654101995565,0.4476351351351352
mgwiki,40.0,0.3030998851894374,0.9134948096885813,0.816598955310505,0.1922711434906557,0.4551724137931034
mgwiki,41.0,0.3116883116883117,0.9134948096885813,0.8235635519442832,0.18466898954703834,0.46478873239436624
mgwiki,42.0,0.32077764277035237,0.9134948096885813,0.8305281485780616,0.17706683560342096,0.47482014388489213
mgwiki,43.0,0.3279503105590062,0.9134948096885813,0.8357515960533952,0.17136522014570796,0.48263254113345516
mgwiki,44.0,0.3371647509578544,0.9134948096885813,0.8421358096343586,0.16439657903072538,0.49253731343283585
mgwiki,45.0,0.3433029908972692,0.9134948096885813,0.8461984910040626,0.1599619892302819,0.499054820415879
mgwiki,46.0,0.3478835978835979,0.9100346020761245,0.8493905977945444,0.15616091225847323,0.5033492822966508
mgwiki,47.0,0.3516778523489933,0.9065743944636678,0.8520023215322112,0.15299334811529933,0.5067698259187621
mgwiki,48.0,0.3551020408163265,0.903114186851211,0.8543238537434706,0.1501425403864428,0.509765625
mgwiki,49.0,0.35900962861072905,0.903114186851211,0.8566453859547302,0.14760848907190371,0.5137795275590551
mgwiki,50.0,0.36605890603085556,0.903114186851211,0.8607080673244342,0.14317389927146024,0.5209580838323353
mgwiki,51.0,0.37285714285714283,0.903114186851211,0.8644805571677308,0.13905606588533417,0.5278058645096056
mgwiki,52.0,0.37681159420289856,0.8996539792387543,0.8668020893789902,0.13620525815647766,0.5311542390194076
mgwiki,53.0,0.37900874635568516,0.8996539792387543,0.8679628554846198,0.1349382324992081,0.5333333333333334
mgwiki,54.0,0.3825701624815362,0.8961937716262975,0.8699941961694718,0.13240418118466898,0.536231884057971
mgwiki,55.0,0.38714499252615847,0.8961937716262975,0.8723157283807312,0.12987012987012986,0.5407098121085595
mgwiki,56.0,0.39064856711915535,0.8961937716262975,0.8740568775391758,0.12796959138422553,0.5441176470588235
mgwiki,57.0,0.3924242424242424,0.8961937716262975,0.8749274521183982,0.12701932214127337,0.5458377239199157
mgwiki,58.0,0.3948170731707317,0.8961937716262975,0.8760882182240278,0.1257522964840038,0.5481481481481482
mgwiki,59.0,0.39907550077041604,0.8961937716262975,0.8781195589088798,0.12353500158378207,0.5522388059701493
mgwiki,60.0,0.4046875,0.8961937716262975,0.8807312826465468,0.12068419385492556,0.5575888051668462
mgwiki,61.0,0.40887480190174325,0.8927335640138409,0.8827626233313988,0.11815014254038644,0.5608695652173912
mgwiki,62.0,0.4115755627009646,0.8858131487889274,0.8842135809634358,0.11593284764016472,0.562019758507135
mgwiki,63.0,0.41830065359477125,0.8858131487889274,0.8871154962275102,0.11276528349699082,0.5682574916759157
mgwiki,64.0,0.4228855721393035,0.8823529411764706,0.8891468369123622,0.11023123218245169,0.5717488789237669
mgwiki,65.0,0.4278523489932886,0.8823529411764706,0.8911781775972142,0.10801393728222997,0.576271186440678
mgwiki,66.0,0.43074324324324326,0.8823529411764706,0.8923389437028438,0.1067469116249604,0.5788876276958003
mgwiki,67.0,0.434412265758092,0.8823529411764706,0.893789901334881,0.10516312955337345,0.5821917808219178
mgwiki,68.0,0.4396551724137931,0.8823529411764706,0.895821242019733,0.10294583465315173,0.5868814729574223
mgwiki,69.0,0.44502617801047123,0.8823529411764706,0.897852582704585,0.10072853975293,0.5916473317865429
mgwiki,70.0,0.4568345323741007,0.8788927335640139,0.9022054556006964,0.09566043712385176,0.6011834319526628
mgwiki,71.0,0.46098003629764067,0.8788927335640139,0.9036564132327336,0.09407665505226481,0.6047619047619047
mgwiki,72.0,0.46863468634686345,0.8788927335640139,0.9062681369704004,0.0912258473234083,0.6113116726835138
mgwiki,73.0,0.4747663551401869,0.8788927335640139,0.9082994776552524,0.08900855242318657,0.616504854368932
mgwiki,74.0,0.4810606060606061,0.8788927335640139,0.9103308183401044,0.08679125752296483,0.6217870257037944
mgwiki,75.0,0.48747591522157996,0.8754325259515571,0.9123621590249564,0.08425720620842572,0.6262376237623761
mgwiki,76.0,0.4950884086444008,0.8719723183391004,0.914683691236216,0.08140639847956921,0.6315789473684211
mgwiki,77.0,0.498,0.8615916955017301,0.9155542658154382,0.07950585999366487,0.6311787072243347
mgwiki,78.0,0.5020161290322581,0.8615916955017301,0.916715031921068,0.07823883433639531,0.6343949044585988
mgwiki,79.0,0.5092783505154639,0.8546712802768166,0.91874637260592,0.07538802660753881,0.6382428940568475
mgwiki,80.0,0.5126582278481012,0.8408304498269896,0.9196169471851422,0.07317073170731707,0.6369593709043251
mgwiki,81.0,0.51931330472103,0.8373702422145328,0.9213580963435868,0.07095343680709534,0.6410596026490065
mgwiki,82.0,0.5295404814004376,0.8373702422145328,0.9239698200812536,0.06810262907823883,0.6487935656836461
mgwiki,83.0,0.5403587443946188,0.8339100346020761,0.9265815438189204,0.06493506493506493,0.6557823129251701
mgwiki,84.0,0.5527522935779816,0.8339100346020761,0.9294834590829948,0.061767500791891035,0.6648275862068965
mgwiki,85.0,0.5581395348837209,0.8304498269896193,0.9306442251886244,0.060183718720304084,0.6675938803894298
mgwiki,86.0,0.568019093078759,0.8235294117647058,0.9326755658734764,0.05733291099144758,0.672316384180791
mgwiki,87.0,0.5679611650485437,0.8096885813148789,0.932385374347069,0.05638264174849541,0.6676176890156919
mgwiki,88.0,0.5941644562334217,0.7750865051903114,0.9367382472431804,0.048463731390560656,0.6726726726726727
mgwiki,89.0,0.7125984251968503,0.6262975778546713,0.9474753337202554,0.023123218245169466,0.6666666666666666
mgwiki,90.0,0.7294685990338164,0.5224913494809689,0.9437028438769588,0.017738359201773836,0.6088709677419355
mgwiki,91.0,0.7362637362637363,0.46366782006920415,0.941091120139292,0.015204307887234716,0.5690021231422505
mgwiki,92.0,0.3559322033898305,0.0726643598615917,0.9112013929193268,0.012036743744060817,0.1206896551724138
mgwiki,93.0,0.391304347826087,0.06228373702422145,0.9132327336041788,0.008869179600886918,0.10746268656716418
mgwiki,94.0,0.48484848484848486,0.05536332179930796,0.9158444573418456,0.005384859043395629,0.09937888198757765
mgwiki,95.0,0.5185185185185185,0.04844290657439446,0.9164248403946604,0.004117833386126069,0.08860759493670886
mgwiki,96.0,0.631578947368421,0.04152249134948097,0.9175856065002902,0.0022172949002217295,0.07792207792207792
mgwiki,97.0,0.5454545454545454,0.020761245674740483,0.9164248403946604,0.0015837820715869496,0.04
mgwiki,98.0,0.2857142857142857,0.006920415224913495,0.9152640742890308,0.0015837820715869496,0.013513513513513513
mgwiki,99.0,0.25,0.0034602076124567475,0.9155542658154382,0.0009502692429521698,0.006825938566552901
