wiki_db,threshold,precision,recall,accuracy,fpr,F1
nawiki,0.0,0.1390728476821192,1.0,0.1390728476821192,1.0,0.24418604651162787
nawiki,1.0,0.1390728476821192,1.0,0.1390728476821192,1.0,0.24418604651162787
nawiki,2.0,0.1390728476821192,1.0,0.1390728476821192,1.0,0.24418604651162787
nawiki,3.0,0.1390728476821192,1.0,0.1390728476821192,1.0,0.24418604651162787
nawiki,4.0,0.1390728476821192,1.0,0.1390728476821192,1.0,0.24418604651162787
nawiki,5.0,0.1390728476821192,1.0,0.1390728476821192,1.0,0.24418604651162787
nawiki,6.0,0.1390728476821192,1.0,0.1390728476821192,1.0,0.24418604651162787
nawiki,7.0,0.1390728476821192,1.0,0.1390728476821192,1.0,0.24418604651162787
nawiki,8.0,0.1390728476821192,1.0,0.1390728476821192,1.0,0.24418604651162787
nawiki,9.0,0.1390728476821192,1.0,0.1390728476821192,1.0,0.24418604651162787
nawiki,10.0,0.1390728476821192,1.0,0.1390728476821192,1.0,0.24418604651162787
nawiki,11.0,0.1390728476821192,1.0,0.1390728476821192,1.0,0.24418604651162787
nawiki,12.0,0.1390728476821192,1.0,0.1390728476821192,1.0,0.24418604651162787
nawiki,13.0,0.1390728476821192,1.0,0.1390728476821192,1.0,0.24418604651162787
nawiki,14.0,0.1390728476821192,1.0,0.1390728476821192,1.0,0.24418604651162787
nawiki,15.0,0.1390728476821192,1.0,0.1390728476821192,1.0,0.24418604651162787
nawiki,16.0,0.14,1.0,0.1456953642384106,0.9923076923076923,0.24561403508771928
nawiki,17.0,0.14,1.0,0.1456953642384106,0.9923076923076923,0.24561403508771928
nawiki,18.0,0.14,1.0,0.1456953642384106,0.9923076923076923,0.24561403508771928
nawiki,19.0,0.14,1.0,0.1456953642384106,0.9923076923076923,0.24561403508771928
nawiki,20.0,0.14093959731543623,1.0,0.152317880794702,0.9846153846153847,0.24705882352941178
nawiki,21.0,0.14093959731543623,1.0,0.152317880794702,0.9846153846153847,0.24705882352941178
nawiki,22.0,0.14189189189189189,1.0,0.15894039735099338,0.9769230769230769,0.2485207100591716
nawiki,23.0,0.14285714285714285,1.0,0.16556291390728478,0.9692307692307692,0.25
nawiki,24.0,0.14383561643835616,1.0,0.17218543046357615,0.9615384615384616,0.25149700598802394
nawiki,25.0,0.14383561643835616,1.0,0.17218543046357615,0.9615384615384616,0.25149700598802394
nawiki,26.0,0.14583333333333334,1.0,0.18543046357615894,0.9461538461538461,0.2545454545454546
nawiki,27.0,0.14583333333333334,1.0,0.18543046357615894,0.9461538461538461,0.2545454545454546
nawiki,28.0,0.14583333333333334,1.0,0.18543046357615894,0.9461538461538461,0.2545454545454546
nawiki,29.0,0.14685314685314685,1.0,0.19205298013245034,0.9384615384615385,0.25609756097560976
nawiki,30.0,0.14788732394366197,1.0,0.1986754966887417,0.9307692307692308,0.25766871165644173
nawiki,31.0,0.14893617021276595,1.0,0.2052980132450331,0.9230769230769231,0.25925925925925924
nawiki,32.0,0.15217391304347827,1.0,0.2251655629139073,0.9,0.2641509433962264
nawiki,33.0,0.15328467153284672,1.0,0.23178807947019867,0.8923076923076924,0.2658227848101266
nawiki,34.0,0.15555555555555556,1.0,0.24503311258278146,0.8769230769230769,0.2692307692307693
nawiki,35.0,0.15555555555555556,1.0,0.24503311258278146,0.8769230769230769,0.2692307692307693
nawiki,36.0,0.15671641791044777,1.0,0.25165562913907286,0.8692307692307693,0.27096774193548384
nawiki,37.0,0.1590909090909091,1.0,0.26490066225165565,0.8538461538461538,0.2745098039215686
nawiki,38.0,0.16030534351145037,1.0,0.271523178807947,0.8461538461538461,0.2763157894736842
nawiki,39.0,0.16153846153846155,1.0,0.2781456953642384,0.8384615384615385,0.2781456953642384
nawiki,40.0,0.16153846153846155,1.0,0.2781456953642384,0.8384615384615385,0.2781456953642384
nawiki,41.0,0.16153846153846155,1.0,0.2781456953642384,0.8384615384615385,0.2781456953642384
nawiki,42.0,0.16279069767441862,1.0,0.2847682119205298,0.8307692307692308,0.28
nawiki,43.0,0.16666666666666666,1.0,0.304635761589404,0.8076923076923077,0.2857142857142857
nawiki,44.0,0.168,1.0,0.31125827814569534,0.8,0.28767123287671237
nawiki,45.0,0.17355371900826447,1.0,0.33774834437086093,0.7692307692307693,0.29577464788732394
nawiki,46.0,0.17355371900826447,1.0,0.33774834437086093,0.7692307692307693,0.29577464788732394
nawiki,47.0,0.17796610169491525,1.0,0.3576158940397351,0.7461538461538462,0.302158273381295
nawiki,48.0,0.1794871794871795,1.0,0.36423841059602646,0.7384615384615385,0.30434782608695654
nawiki,49.0,0.1794871794871795,1.0,0.36423841059602646,0.7384615384615385,0.30434782608695654
nawiki,50.0,0.1810344827586207,1.0,0.3708609271523179,0.7307692307692307,0.3065693430656934
nawiki,51.0,0.18421052631578946,1.0,0.3841059602649007,0.7153846153846154,0.3111111111111111
nawiki,52.0,0.18421052631578946,1.0,0.3841059602649007,0.7153846153846154,0.3111111111111111
nawiki,53.0,0.1875,1.0,0.3973509933774834,0.7,0.3157894736842105
nawiki,54.0,0.1926605504587156,1.0,0.41721854304635764,0.676923076923077,0.3230769230769231
nawiki,55.0,0.1926605504587156,1.0,0.41721854304635764,0.676923076923077,0.3230769230769231
nawiki,56.0,0.19626168224299065,1.0,0.4304635761589404,0.6615384615384615,0.328125
nawiki,57.0,0.2,1.0,0.44370860927152317,0.6461538461538462,0.33333333333333337
nawiki,58.0,0.20192307692307693,1.0,0.4503311258278146,0.6384615384615384,0.336
nawiki,59.0,0.20588235294117646,1.0,0.46357615894039733,0.6230769230769231,0.34146341463414637
nawiki,60.0,0.21212121212121213,1.0,0.48344370860927155,0.6,0.35
nawiki,61.0,0.21649484536082475,1.0,0.4966887417218543,0.5846153846153846,0.3559322033898305
nawiki,62.0,0.22340425531914893,1.0,0.5165562913907285,0.5615384615384615,0.3652173913043478
nawiki,63.0,0.23863636363636365,1.0,0.5562913907284768,0.5153846153846153,0.38532110091743116
nawiki,64.0,0.24705882352941178,1.0,0.5761589403973509,0.49230769230769234,0.39622641509433965
nawiki,65.0,0.25,1.0,0.5827814569536424,0.4846153846153846,0.4
nawiki,66.0,0.25925925925925924,1.0,0.6026490066225165,0.46153846153846156,0.4117647058823529
nawiki,67.0,0.2625,1.0,0.609271523178808,0.45384615384615384,0.4158415841584159
nawiki,68.0,0.26582278481012656,1.0,0.6158940397350994,0.4461538461538462,0.41999999999999993
nawiki,69.0,0.26582278481012656,1.0,0.6158940397350994,0.4461538461538462,0.41999999999999993
nawiki,70.0,0.2727272727272727,1.0,0.6291390728476821,0.4307692307692308,0.42857142857142855
nawiki,71.0,0.28,1.0,0.6423841059602649,0.4153846153846154,0.43750000000000006
nawiki,72.0,0.28378378378378377,1.0,0.6490066225165563,0.4076923076923077,0.4421052631578947
nawiki,73.0,0.2876712328767123,1.0,0.6556291390728477,0.4,0.44680851063829785
nawiki,74.0,0.2876712328767123,1.0,0.6556291390728477,0.4,0.44680851063829785
nawiki,75.0,0.2916666666666667,1.0,0.6622516556291391,0.3923076923076923,0.45161290322580644
nawiki,76.0,0.30434782608695654,1.0,0.6821192052980133,0.36923076923076925,0.4666666666666667
nawiki,77.0,0.29850746268656714,0.9523809523809523,0.6821192052980133,0.36153846153846153,0.45454545454545453
nawiki,78.0,0.3389830508474576,0.9523809523809523,0.7350993377483444,0.3,0.5
nawiki,79.0,0.36363636363636365,0.9523809523809523,0.7615894039735099,0.2692307692307692,0.5263157894736843
nawiki,80.0,0.37037037037037035,0.9523809523809523,0.7682119205298014,0.26153846153846155,0.5333333333333333
nawiki,81.0,0.38461538461538464,0.9523809523809523,0.7814569536423841,0.24615384615384617,0.547945205479452
nawiki,82.0,0.40816326530612246,0.9523809523809523,0.8013245033112583,0.2230769230769231,0.5714285714285714
nawiki,83.0,0.40425531914893614,0.9047619047619048,0.8013245033112583,0.2153846153846154,0.5588235294117647
nawiki,84.0,0.3953488372093023,0.8095238095238095,0.8013245033112583,0.2,0.53125
nawiki,85.0,0.3953488372093023,0.8095238095238095,0.8013245033112583,0.2,0.53125
nawiki,86.0,0.425,0.8095238095238095,0.8211920529801324,0.17692307692307693,0.5573770491803278
nawiki,87.0,0.43243243243243246,0.7619047619047619,0.8278145695364238,0.16153846153846155,0.5517241379310345
nawiki,88.0,0.4482758620689655,0.6190476190476191,0.8410596026490066,0.12307692307692308,0.52
nawiki,89.0,0.4230769230769231,0.5238095238095238,0.8344370860927153,0.11538461538461539,0.4680851063829788
nawiki,90.0,0.4375,0.3333333333333333,0.847682119205298,0.06923076923076923,0.37837837837837834
nawiki,91.0,0.4,0.2857142857142857,0.8410596026490066,0.06923076923076923,0.3333333333333333
nawiki,92.0,0.3333333333333333,0.19047619047619047,0.8344370860927153,0.06153846153846154,0.24242424242424246
nawiki,93.0,0.1111111111111111,0.047619047619047616,0.8145695364238411,0.06153846153846154,0.06666666666666667
nawiki,94.0,0.14285714285714285,0.047619047619047616,0.8278145695364238,0.046153846153846156,0.07142857142857142
nawiki,95.0,0.0,0.0,0.8211920529801324,0.046153846153846156,0.07142857142857142
nawiki,96.0,0.0,0.0,0.8344370860927153,0.03076923076923077,0.07142857142857142
nawiki,97.0,0.0,0.0,0.8410596026490066,0.023076923076923078,0.07142857142857142
nawiki,98.0,0.0,0.0,0.8410596026490066,0.023076923076923078,0.07142857142857142
nawiki,99.0,0.0,0.0,0.8543046357615894,0.007692307692307693,0.07142857142857142
