wiki_db,threshold,precision,recall,accuracy,fpr,F1
newiki,0.0,0.01583317242710948,1.0,0.01583317242710948,1.0,0.031172780840144458
newiki,1.0,0.015834701168291977,1.0,0.015929716161421123,0.9999019030802433,0.03117574375059405
newiki,2.0,0.015930063137445362,1.0,0.021915427688743,0.9938198940553267,0.03136055072186634
newiki,3.0,0.016253716551040635,1.0,0.041706893222629854,0.9737100255051991,0.03198751706651063
newiki,4.0,0.016697210344125434,1.0,0.06758061401815023,0.9474200510103983,0.032845984378129384
newiki,5.0,0.01711568938193344,0.9878048780487805,0.10166055223016027,0.9125956444967628,0.03364835393083394
newiki,6.0,0.017874986121905186,0.9817073170731707,0.14568449507626954,0.8677653521679419,0.03511067495365827
newiki,7.0,0.01862044735917555,0.9695121951219512,0.19048078779687197,0.8220521875613106,0.03653912443984833
newiki,8.0,0.019535569480280134,0.9695121951219512,0.22909828152152925,0.7828134196586227,0.038299409851860776
newiki,9.0,0.02032728202505753,0.9695121951219512,0.25970264529832016,0.7517166960957425,0.039819684447783624
newiki,10.0,0.020778189518263632,0.9573170731707317,0.28499710368797065,0.7258191092799686,0.040673575129533686
newiki,11.0,0.021407144805017726,0.9573170731707317,0.30642981270515546,0.7040415930939768,0.041877834089090425
newiki,12.0,0.02205985668118589,0.9573170731707317,0.327379803050782,0.6827545615067687,0.04312594423842878
newiki,13.0,0.022585782539452728,0.9512195121951219,0.3474608997876038,0.6622523052776143,0.04412388629613915
newiki,14.0,0.023144691652978947,0.9451219512195121,0.36754199652442554,0.6417500490484599,0.04518291794199097
newiki,15.0,0.02379855673268847,0.9451219512195121,0.38530604363776794,0.6237002158132234,0.046428036543357795
newiki,16.0,0.02442505947660587,0.9390243902439024,0.4051940529059664,0.6033941534235825,0.047611686504869376
newiki,17.0,0.02525832376578645,0.9390243902439024,0.4252751496427882,0.5829899941141848,0.049193419581536495
newiki,18.0,0.026088429612061665,0.9390243902439024,0.44400463409924695,0.5639591916813812,0.05076644140431845
newiki,19.0,0.026923076923076925,0.9390243902439024,0.4616721374782777,0.5460074553659016,0.05234534330387492
newiki,20.0,0.027597402597402596,0.9329268292682927,0.4784707472485036,0.5288404944084756,0.05360896986685353
newiki,21.0,0.028129657228017885,0.9207317073170732,0.4950762695501062,0.5117716303708063,0.054591467823571944
newiki,22.0,0.028979907264296754,0.9146341463414634,0.5134195790693185,0.4930351186972729,0.056179775280898875
newiki,23.0,0.03001801080648389,0.9146341463414634,0.5307009075111025,0.4754757700608201,0.05812826971517148
newiki,24.0,0.03108164111065064,0.9146341463414634,0.5472098860783935,0.45870119678242105,0.06012024048096192
newiki,25.0,0.03196053196053196,0.9085365853658537,0.5628499710368797,0.4427113988620757,0.06174886033982594
newiki,26.0,0.032699955810870526,0.9024390243902439,0.5757868314346399,0.4294683146949186,0.0631130063965885
newiki,27.0,0.033386327503974564,0.8963414634146342,0.5874686232863487,0.4175004904845988,0.06437486314867528
newiki,28.0,0.03391019644527596,0.8841463414634146,0.5993435026066808,0.40523837551500885,0.06531531531531531
newiki,29.0,0.034922928709055875,0.8841463414634146,0.6113149256613246,0.3930743574651756,0.06719184430027803
newiki,30.0,0.03564356435643564,0.8780487804878049,0.6219347364356054,0.3821855993721797,0.06850618458610847
newiki,31.0,0.03651685393258427,0.8719512195121951,0.6337130720216257,0.3701196782421032,0.07009803921568626
newiki,32.0,0.03755252100840336,0.8719512195121951,0.6441397953272833,0.35952521090837747,0.07200402819738168
newiki,33.0,0.038368008646311805,0.8658536585365854,0.6542768874300058,0.3491269374141652,0.07347994825355755
newiki,34.0,0.039188438021122846,0.8597560975609756,0.6640278045954817,0.3391210515989798,0.07496012759170655
newiki,35.0,0.039635015682919876,0.8475609756097561,0.6724271094805947,0.33039042574063177,0.07572868428221192
newiki,36.0,0.040882352941176474,0.8475609756097561,0.6827572890519406,0.31989405532666276,0.07800224466891134
newiki,37.0,0.041352248717174765,0.8353658536585366,0.690770418999807,0.3115558171473416,0.07880356629278112
newiki,38.0,0.04249379652605459,0.8353658536585366,0.6993628113535432,0.30282519128899354,0.0808736717827627
newiki,39.0,0.043728056176188954,0.8353658536585366,0.7081482911759027,0.293898371591132,0.08310585380649076
newiki,40.0,0.04447351209941138,0.8292682926829268,0.7151959837806526,0.2866391995291348,0.08441961514587214
newiki,41.0,0.04536357571714476,0.8292682926829268,0.7209886078393513,0.2807533843437316,0.08602150537634408
newiki,42.0,0.04614862572107228,0.8292682926829268,0.7259123382892451,0.2757504414361389,0.08743169398907104
newiki,43.0,0.04728789986091794,0.8292682926829268,0.7327669434253717,0.2687855601334118,0.08947368421052632
newiki,44.0,0.048175699610343604,0.8292682926829268,0.7378837613438888,0.26358642338630567,0.09106126548376296
newiki,45.0,0.049364791288566245,0.8292682926829268,0.7444487352770806,0.25691583284284875,0.09318259677971907
newiki,46.0,0.04964801778436458,0.8170731707317073,0.7494690094612859,0.2516185991759859,0.0936081033880545
newiki,47.0,0.04983012457531144,0.8048780487804879,0.7539100212396216,0.24690994702766333,0.09384998222538216
newiki,48.0,0.05019305019305019,0.7926829268292683,0.759219926626762,0.2413184226015303,0.0944081336238199
newiki,49.0,0.05102040816326531,0.7926829268292683,0.763274763467851,0.2371983519717481,0.09587020648967552
newiki,50.0,0.05153815421494207,0.7865853658536586,0.7674261440432516,0.23288208750245243,0.09673790776152981
newiki,51.0,0.051794453507340944,0.774390243902439,0.7719636995558988,0.22807533843437316,0.09709480122324159
newiki,52.0,0.0525879917184265,0.774390243902439,0.7755358177254296,0.22444575240337453,0.09848778596355176
newiki,53.0,0.052409129332206254,0.7560975609756098,0.7796871983008303,0.21993329409456544,0.09802371541501978
newiki,54.0,0.05331040412725709,0.7560975609756098,0.783548947673296,0.21600941730429665,0.09959839357429719
newiki,55.0,0.0542432195975503,0.7560975609756098,0.7874106970457617,0.21208554051402786,0.10122448979591836
newiki,56.0,0.055062166962699825,0.7560975609756098,0.7906931840123576,0.2087502452422994,0.10264900662251655
newiki,57.0,0.05573033707865169,0.7560975609756098,0.793299864838772,0.20610162840886795,0.10380912515696945
newiki,58.0,0.05563155494756042,0.7439024390243902,0.7960030893994979,0.20315872081616637,0.10352142554094187
newiki,59.0,0.055940822931114194,0.7378048780487805,0.798706313960224,0.2003139101432215,0.10399656209712076
newiki,60.0,0.056179775280898875,0.7317073170731707,0.8011199073180151,0.19776339022954678,0.10434782608695652
newiki,61.0,0.05634469696969697,0.725609756097561,0.8032438694728712,0.19550716107514224,0.10456942003514937
newiki,62.0,0.05656759348034516,0.7195121951219512,0.8055609190963506,0.19305473808122425,0.10488888888888889
newiki,63.0,0.05728155339805825,0.7195121951219512,0.8080710561884533,0.19050421816754953,0.10611510791366906
newiki,64.0,0.05714285714285714,0.7073170731707317,0.8105811932805561,0.1877575044143614,0.105742935278031
newiki,65.0,0.0575,0.7012195121951219,0.8132844178412821,0.18491269374141653,0.10628465804066545
newiki,66.0,0.05736040609137056,0.6890243902439024,0.8157945549333848,0.18216597998822837,0.10590440487347702
newiki,67.0,0.058061171591498185,0.6829268292682927,0.8195597605715389,0.17824210319795958,0.10702341137123746
newiki,68.0,0.0581151832460733,0.676829268292683,0.8212010040548369,0.17647635864233863,0.10703953712632594
newiki,69.0,0.0592,0.676829268292683,0.8245800347557444,0.17304296645085343,0.10887690044139284
newiki,70.0,0.060293318848451925,0.676829268292683,0.8278625217223402,0.16970767117912497,0.11072319201995012
newiki,71.0,0.06028761061946902,0.6646341463414634,0.8306622900173779,0.16666666666666666,0.11054766734279917
newiki,72.0,0.06077658975801913,0.6585365853658537,0.8334620583124155,0.16372375907396508,0.11128284389489954
newiki,73.0,0.06067544361763022,0.6463414634146342,0.8359721954045183,0.16097704532077692,0.1109366823652538
newiki,74.0,0.06108202443280977,0.6402439024390244,0.838482332496621,0.1583284284873455,0.11152416356877323
newiki,75.0,0.06205673758865248,0.6402439024390244,0.8410890133230353,0.15567981165391406,0.11314655172413794
newiki,76.0,0.06067961165048544,0.6097560975609756,0.8443715002896311,0.151854031783402,0.11037527593818985
newiki,77.0,0.06246096189881324,0.6097560975609756,0.8489090558022784,0.1472434765548362,0.113314447592068
newiki,78.0,0.062339331619537273,0.5914634146341463,0.8526742614404326,0.14312340592505396,0.1127906976744186
newiki,79.0,0.06445182724252492,0.5914634146341463,0.8575979918903264,0.13812046301746125,0.11623726782504494
newiki,80.0,0.06698895027624309,0.5914634146341463,0.86310098474609,0.13252893859132822,0.12034739454094293
newiki,81.0,0.06871868289191124,0.5853658536585366,0.8678316277273604,0.12762409260349225,0.12299807815502885
newiki,82.0,0.06909361069836553,0.5670731707317073,0.8721760957713844,0.12291544045516971,0.12317880794701988
newiki,83.0,0.06786271450858035,0.5304878048780488,0.8771963699555899,0.11722581910927997,0.12033195020746888
newiki,84.0,0.0701468189233279,0.524390243902439,0.8824097316084186,0.11183048852266039,0.12374100719424463
newiki,85.0,0.06964746345657781,0.49390243902439024,0.8875265495269357,0.10614086717677065,0.12207987942727959
newiki,86.0,0.0711071107110711,0.4817073170731707,0.8921606487738946,0.10123602118893467,0.12392156862745098
newiki,87.0,0.07495256166982922,0.4817073170731707,0.8976636416296583,0.09564449676280165,0.1297208538587849
newiki,88.0,0.07763975155279502,0.4573170731707317,0.9053871403745897,0.0874043555032372,0.1327433628318584
newiki,89.0,0.08191126279863481,0.43902439024390244,0.9132071828538327,0.07916421424367275,0.1380632790028763
newiki,90.0,0.08439897698209718,0.4024390243902439,0.9214134002703225,0.07023739454581127,0.13953488372093023
newiki,91.0,0.09361069836552749,0.38414634146341464,0.9313574049044216,0.05983912105159898,0.15053763440860216
newiki,92.0,0.09926470588235294,0.32926829268292684,0.9420737594130141,0.04806749068079262,0.15254237288135594
newiki,93.0,0.11778290993071594,0.31097560975609756,0.9522108515157366,0.037473023347066904,0.17085427135678394
newiki,94.0,0.1607717041800643,0.3048780487804878,0.9637960996331338,0.025603296056503827,0.21052631578947367
newiki,95.0,0.21717171717171718,0.2621951219512195,0.9733539293299864,0.015205022562291544,0.23756906077348067
newiki,96.0,0.2903225806451613,0.21951219512195122,0.9791465533886851,0.008632528938591328,0.25
newiki,97.0,0.44776119402985076,0.18292682926829268,0.9834910214327091,0.0036295860309986266,0.2597402597402597
newiki,98.0,0.5909090909090909,0.15853658536585366,0.9849391774473837,0.0017657445556209534,0.25
newiki,99.0,0.88,0.13414634146341464,0.9860011585248117,0.0002942907592701589,0.23280423280423282
