wiki_db,threshold,precision,recall,accuracy,fpr,F1
plwiki,0.0,0.07607340981371255,1.0,0.07607340981371255,1.0,0.1413907436424476
plwiki,1.0,0.07611506394475281,0.9999901840490798,0.0766289790593705,0.9993978785929272,0.14146258824574948
plwiki,2.0,0.07811998396404506,0.9984588957055215,0.10353749756378405,0.9701477096756465,0.14490269945703155
plwiki,3.0,0.08032233720913465,0.9841766871165644,0.14155068038564272,0.9278286774665964,0.14852314549751763
plwiki,4.0,0.08408035016676609,0.9823803680981595,0.18456398641842278,0.8811258781273943,0.15490281813855042
plwiki,5.0,0.08846102405898228,0.980358282208589,0.2300108948323846,0.8317705117304565,0.1622790626634993
plwiki,6.0,0.09296719167206226,0.9781398773006135,0.27235288802666135,0.7857595458468979,0.1697961297973907
plwiki,7.0,0.09739886885188075,0.9757153374233128,0.3102958779599557,0.7444928117210812,0.1771173461887635
plwiki,8.0,0.1020004652244708,0.9727705521472393,0.346424307050577,0.7051472085813212,0.18464035086902128
plwiki,9.0,0.10683972258014303,0.9701791411042945,0.380736681832811,0.6677962841431125,0.19248255306138148
plwiki,10.0,0.11151075064304604,0.966841717791411,0.4114423369154108,0.6342876216770172,0.19995919490118977
plwiki,11.0,0.11614362407211029,0.9632687116564417,0.43954936165541714,0.603572155966417,0.2072933862693718
plwiki,12.0,0.12073942557715149,0.9599018404907975,0.46517424637853233,0.5755601749627413,0.21449855834770964
plwiki,13.0,0.12544521791533714,0.9562601226993865,0.4895162440532062,0.548914080103969,0.22179470687941755
plwiki,14.0,0.13022461638828445,0.9522650306748466,0.5125253235780153,0.5236815561726739,0.22911692256097413
plwiki,15.0,0.13487590493274046,0.9462085889570552,0.5342037251515308,0.4997195488211352,0.23609762310349772
plwiki,16.0,0.13947087913048037,0.9401521472392638,0.5541683748180772,0.47761239869004246,0.24290672445691663
plwiki,17.0,0.14346173201801987,0.9290208588957055,0.5726425457019176,0.4567006009899038,0.24854285305367316
plwiki,18.0,0.1480611323573208,0.9223361963190184,0.5903632631329775,0.4369704160376047,0.25516158903350716
plwiki,19.0,0.15281795217465283,0.9168687116564417,0.6070042048527181,0.4185091312317545,0.2619720403478339
plwiki,20.0,0.1577942379567049,0.912559509202454,0.6228200067653997,0.40103629539348834,0.2690636300885187
plwiki,21.0,0.16286309609705793,0.9084171779141105,0.6378173894667357,0.38446300469088945,0.27620714715279365
plwiki,22.0,0.16813104581127944,0.9042355828220859,0.6523682259195455,0.3683697946806413,0.28354122580893387
plwiki,23.0,0.17337553795768948,0.9000245398773006,0.6659512965895964,0.35332160880374236,0.29074385589962054
plwiki,24.0,0.17877373000742589,0.8956269938650306,0.6790781134839792,0.3387518871858866,0.2980537425765861
plwiki,25.0,0.1841804816223067,0.8915239263803681,0.691336480065593,0.3251463680360012,0.305290756302521
plwiki,26.0,0.18967715954090877,0.8876760736196319,0.7029653508486993,0.3122431891582585,0.31256577889994347
plwiki,27.0,0.19514427299638912,0.8832588957055215,0.7139893680175811,0.2999477892041652,0.3196632207183204
plwiki,28.0,0.20070021862232099,0.8794993865030675,0.7243741818608135,0.28839837322151923,0.32682055855569964
plwiki,29.0,0.20636106997408368,0.8753963190184049,0.7344072845283672,0.27720133969992533,0.3339893452676323
plwiki,30.0,0.2121393886095551,0.8713717791411043,0.74402819065882,0.2664569075044533,0.34120972996035215
plwiki,31.0,0.21803878395323809,0.8670527607361963,0.7533324820578763,0.25603091267057415,0.3484519449063198
plwiki,32.0,0.2239900084112864,0.8626061349693251,0.7622036683998337,0.2460631766793934,0.3556337956920711
plwiki,33.0,0.23011103509972108,0.8584638036809816,0.7707358380246825,0.23648742576530035,0.3629369105792275
plwiki,34.0,0.23615554307390493,0.8543116564417178,0.7787057178081599,0.22751945377485672,0.3700256793986599
plwiki,35.0,0.2423201508277062,0.8503361963190184,0.786350022065956,0.2189184121452333,0.37716084454980636
plwiki,36.0,0.24838895613580034,0.84599754601227,0.7935410594795123,0.21077805400826968,0.38402602176649475
plwiki,37.0,0.25449132898224247,0.8416687116564417,0.8003893465116748,0.203009475532049,0.3908140801546028
plwiki,38.0,0.2605516803283695,0.837438036809816,0.806832904335307,0.19568703264871995,0.3974461404436411
plwiki,39.0,0.266508848987947,0.8332368098159509,0.8128582917589815,0.18881961574147413,0.40384789217528644
plwiki,40.0,0.272518699701192,0.8289865030674847,0.8186432312026805,0.18220840351347944,0.4101920232749598
plwiki,41.0,0.2786286994653612,0.8251484662576687,0.8241817488035473,0.1758978478806943,0.41658778811320846
plwiki,42.0,0.2845656211097733,0.8212417177914111,0.8293319653187392,0.17000190739130294,0.42267246975732603
plwiki,43.0,0.29028299288421244,0.8172858895705521,0.8340908938168279,0.16452543134522812,0.4284053079222644
plwiki,44.0,0.29572741752315923,0.8128490797546012,0.8385003513378092,0.15938759807709094,0.4336764486387548
plwiki,45.0,0.3009057706355004,0.8087165644171779,0.842514787177402,0.15470236613507563,0.43861316297331465
plwiki,46.0,0.30600121719455325,0.8044760736196319,0.8463283518784438,0.1502256540897379,0.4433600934801896
plwiki,47.0,0.3108932328992711,0.8005496932515337,0.8498387430395163,0.1461029409387598,0.4478601219649481
plwiki,48.0,0.3156906133210962,0.7968294478527608,0.8531460228634666,0.14221703526734192,0.45221939969249286
plwiki,49.0,0.32038295880892514,0.7929521472392638,0.8562890214588621,0.13849600579329696,0.45637356398139073
plwiki,50.0,0.32497514368164515,0.7892613496932516,0.8592520574357044,0.1349851126492372,0.4603875784790594
plwiki,51.0,0.3295209864344676,0.7856588957055215,0.86208441516256,0.13162293136947462,0.4643037387243671
plwiki,52.0,0.33394393118827653,0.7820073619631902,0.8647629459208598,0.12842320163712365,0.46802510875663483
plwiki,53.0,0.3381967220106366,0.7783852760736196,0.8672667411906058,0.1254150192517207,0.47152354109434275
plwiki,54.0,0.34226953492710055,0.7744883435582822,0.8696234300875096,0.12254342548080809,0.47473811515111397
plwiki,55.0,0.3463993792489265,0.7712490797546012,0.8718942447058508,0.1198189271408851,0.4780755528647966
plwiki,56.0,0.35038062934900954,0.7675975460122699,0.8740560363270601,0.11717848333295616,0.48113875062296574
plwiki,57.0,0.3543479547741668,0.7638576687116564,0.8761558491211328,0.11459784755740762,0.48411740553184607
plwiki,58.0,0.35824892465658387,0.7603141104294479,0.8781548529795015,0.1121424853631964,0.4870207648898879
plwiki,59.0,0.36165908653552803,0.7563582822085889,0.879907434995038,0.10991988956527643,0.4893373807679117
plwiki,60.0,0.36505670326323353,0.7529717791411042,0.8815786231291541,0.10783226594853923,0.491718054896732
plwiki,61.0,0.3681855225658361,0.7494576687116564,0.8831034516232852,0.10589254597944543,0.49378811690369473
plwiki,62.0,0.371325649823553,0.7457276073619632,0.8846096117959896,0.10395525066031301,0.4957826077025735
plwiki,63.0,0.37463698446838667,0.7420368098159509,0.8861478814815479,0.1019864348916828,0.4978972985967721
plwiki,64.0,0.3777463005937133,0.738198773006135,0.8875771281699744,0.10012349550469897,0.49975910500031556
plwiki,65.0,0.3807672910479315,0.7336932515337423,0.8889712784141186,0.09824358356798557,0.501348197037991
plwiki,66.0,0.3839024011993073,0.7289717791411043,0.8903855904454038,0.0963240690152365,0.5029391846133009
plwiki,67.0,0.3868784689798445,0.7238871165644172,0.891722988992411,0.09445789676163752,0.5042582215642768
plwiki,68.0,0.3899842838496577,0.7185472392638037,0.8930857764565584,0.09254323150881118,0.5055735893362802
plwiki,69.0,0.3933364358535899,0.7134920245398773,0.8944888874949876,0.09060836083964012,0.5071109390206893
plwiki,70.0,0.3965382541621277,0.7074748466257669,0.8958419674319932,0.08864843545420159,0.5082201295335874
plwiki,71.0,0.39990593347032705,0.7010748466257669,0.8972286503475668,0.08662061986984479,0.5092986109130323
plwiki,72.0,0.4033928856640884,0.6941644171779141,0.8986332548517101,0.08453137981980001,0.5102621733656104
plwiki,73.0,0.40688700587971877,0.6867533742331289,0.9000154573701413,0.08242516722002567,0.5110108026382103
plwiki,74.0,0.41065142151537276,0.678998773006135,0.9014491844557102,0.08023490008825726,0.5117822448783302
plwiki,75.0,0.41459224862666544,0.6704490797546012,0.9029127808555617,0.07794683874138036,0.5123546620658616
plwiki,76.0,0.4182499347639698,0.6608,0.9042755683197092,0.07567736637754063,0.51226462833249
plwiki,77.0,0.4221372586503537,0.6502674846625767,0.9056779326252813,0.07329231903220905,0.5119375591661676
plwiki,78.0,0.4261192268352173,0.6379386503067485,0.9070982185194228,0.07073997083954313,0.5109457488669017
plwiki,79.0,0.4302635935483435,0.625040490797546,0.9085132772835651,0.06814640359753397,0.5096771095138233
plwiki,80.0,0.43449089588918677,0.6108760736196319,0.909913401390566,0.0654647407402618,0.5078027147327494
plwiki,81.0,0.43831844105775014,0.5937079754601227,0.911214956760434,0.06264244818523032,0.504314909157613
plwiki,82.0,0.44377347652913923,0.5763631901840491,0.9128159520059859,0.05948151285226123,0.5014518250294635
plwiki,83.0,0.44921125644074517,0.5562503067484662,0.9143579553558294,0.05615650953857295,0.49703322004166206
plwiki,84.0,0.4557845382182968,0.5333987730061349,0.9160537856742288,0.052439521147796965,0.49154673493202106
plwiki,85.0,0.46331570295189767,0.5090355828220859,0.9177944199640523,0.04854957439311011,0.48510077033530874
plwiki,86.0,0.4716653224257787,0.48218895705521475,0.9195193728638773,0.0444721213747442,0.47686908743198575
plwiki,87.0,0.4805432880593284,0.4528687116564417,0.9211367962322847,0.04030738095776906,0.4662957404122638
plwiki,88.0,0.4890590060694565,0.4207803680981595,0.9224943565664327,0.036195982839944005,0.45235771156616206
plwiki,89.0,0.5003232553717437,0.3874159509202454,0.9239646735619979,0.03185747584240422,0.4366895330825404
plwiki,90.0,0.513102342821977,0.35192147239263805,0.9252938580475774,0.027496338778558334,0.4174954002375573
plwiki,91.0,0.5275071822474656,0.31360981595092025,0.9264147040660351,0.02312873598148214,0.39336128194236675
plwiki,92.0,0.5433895989852668,0.2733349693251534,0.9272473112016649,0.018911461482010714,0.36371473354231976
plwiki,93.0,0.5625447943045535,0.2311361963190184,0.9278364834258909,0.014799255147531868,0.3276491828598861
plwiki,94.0,0.5872421395995047,0.1908515337423313,0.9282404659015642,0.011045088790681586,0.28807858709180345
plwiki,95.0,0.622232858681345,0.15312883435582822,0.9285033158672518,0.007654619928036389,0.24577379358152285
plwiki,96.0,0.6683687628351002,0.11820368098159509,0.9284570184301136,0.004829094506389761,0.2008807927134421
plwiki,97.0,0.7300829354109073,0.08554601226993865,0.9280283937701571,0.00260407405850842,0.15314729554001336
plwiki,98.0,0.829780514763935,0.051582822085889574,0.9270456933302568,0.0008712575527846297,0.09712775395534527
plwiki,99.0,0.9460959175584621,0.023430674846625768,0.9256074858475455,0.00010991746491531507,0.0457288453801797
