wiki_db,threshold,precision,recall,accuracy,fpr,F1
sahwiki,0.0,0.017797695262483995,1.0,0.017797695262483995,1.0,0.034972952572650644
sahwiki,1.0,0.017797695262483995,1.0,0.017797695262483995,1.0,0.034972952572650644
sahwiki,2.0,0.017802254098360656,1.0,0.018053777208706785,0.9997392777995047,0.03498175412105197
sahwiki,3.0,0.01782736950109016,1.0,0.019462227912932138,0.9983053056967801,0.03503024193548387
sahwiki,4.0,0.01788931788931789,1.0,0.02291933418693982,0.9947855559900926,0.035149829308382854
sahwiki,5.0,0.018066025474395633,1.0,0.03265044814340589,0.9848781123712684,0.03549087195199796
sahwiki,6.0,0.018439904483947996,1.0,0.052624839948783614,0.9645417807326294,0.03621206200338674
sahwiki,7.0,0.01891156462585034,1.0,0.07669654289372599,0.9400338938860644,0.037121110962745354
sahwiki,8.0,0.01914008321775312,0.9928057553956835,0.09436619718309859,0.921913700951636,0.03755613008572595
sahwiki,9.0,0.019549511262218443,0.9928057553956835,0.11370038412291933,0.9022291748142355,0.038343984440122256
sahwiki,10.0,0.020020310459886843,0.9928057553956835,0.134955185659411,0.8805892321731196,0.03924914675767918
sahwiki,11.0,0.020600089565606806,0.9928057553956835,0.15979513444302176,0.8552991787250684,0.040362679145949105
sahwiki,12.0,0.02123076923076923,0.9928057553956835,0.1852752880921895,0.8293573197757789,0.04157252598282874
sahwiki,13.0,0.022154438914753573,0.9928057553956835,0.21997439180537773,0.794029461608656,0.04334170854271357
sahwiki,14.0,0.02349336057201226,0.9928057553956835,0.26542893725992317,0.7477512710207275,0.04590054881090969
sahwiki,15.0,0.02527935519325884,0.9928057553956835,0.3185659411011524,0.6936514144179377,0.04930332261521972
sahwiki,16.0,0.02675974403723095,0.9928057553956835,0.35723431498079383,0.6542823621431365,0.05211480362537765
sahwiki,17.0,0.027587595650422875,0.9856115107913669,0.3814340588988476,0.6295137530960762,0.05367286973555338
sahwiki,18.0,0.028174849803190388,0.9784172661870504,0.3989756722151088,0.6115239212618955,0.05477245267821185
sahwiki,19.0,0.028789161727349702,0.9784172661870504,0.4121638924455826,0.5980967279363838,0.05593255192268146
sahwiki,20.0,0.029367307277045996,0.9784172661870504,0.4240717029449424,0.585973145613349,0.0570230607966457
sahwiki,21.0,0.029955947136563875,0.9784172661870504,0.4357234314980794,0.5741102854908096,0.05813207950416755
sahwiki,22.0,0.030445489142601298,0.9784172661870504,0.4450704225352113,0.5645939251727284,0.059053408597481545
sahwiki,23.0,0.03071364046973803,0.9784172661870504,0.4500640204865557,0.5595098422630687,0.0595576965185023
sahwiki,24.0,0.031000683838614086,0.9784172661870504,0.45531370038412294,0.5541650371529135,0.060097216084843134
sahwiki,25.0,0.030970406056434963,0.9712230215827338,0.4586427656850192,0.5506452874462261,0.06002667852378836
sahwiki,26.0,0.0311994453431939,0.9712230215827338,0.46274007682458385,0.5464737322383001,0.06045678459471564
sahwiki,27.0,0.03143189755529686,0.9712230215827338,0.46683738796414853,0.5423021770303741,0.06089309878213802
sahwiki,28.0,0.031675269826372594,0.9712230215827338,0.4710627400768246,0.5380002607222005,0.061349693251533735
sahwiki,29.0,0.031982942430703626,0.9712230215827338,0.47631241997439183,0.5326554556120454,0.06192660550458716
sahwiki,30.0,0.032219570405727926,0.9712230215827338,0.4802816901408451,0.5286142615043671,0.06237006237006237
sahwiki,31.0,0.03249879634087626,0.9712230215827338,0.4848911651728553,0.5239212618954504,0.06289308176100629
sahwiki,32.0,0.03278290432248664,0.9712230215827338,0.48950064020486556,0.5192282622865337,0.06342494714587738
sahwiki,33.0,0.03300733496332518,0.9712230215827338,0.4930857874519846,0.5155781514795985,0.06384488058642705
sahwiki,34.0,0.03323485967503693,0.9712230215827338,0.4966709346991037,0.5119280406726633,0.06427041180671268
sahwiki,35.0,0.033217649975210706,0.9640287769784173,0.5,0.5084082909659757,0.06422238197939131
sahwiki,36.0,0.03344147741452458,0.9640287769784173,0.5034571062740076,0.5048885412592883,0.06464061746261456
sahwiki,37.0,0.033668341708542715,0.9640287769784173,0.5069142125480154,0.5013687915526007,0.06506433600388443
sahwiki,38.0,0.03360282971197574,0.9568345323741008,0.5094750320102432,0.4986312084473993,0.0649255552843544
sahwiki,39.0,0.03384223918575063,0.9568345323741008,0.5130601792573624,0.4949810976404641,0.06537232735315801
sahwiki,40.0,0.0336069779374038,0.9424460431654677,0.5166453265044815,0.4910702646330335,0.06489967797869706
sahwiki,41.0,0.03373680144218388,0.9424460431654677,0.5185659411011524,0.4891148481293182,0.06514172053704625
sahwiki,42.0,0.03395541731467081,0.9424460431654677,0.5217669654289373,0.48585582062312604,0.06554916187140354
sahwiki,43.0,0.03415906127770534,0.9424460431654677,0.5247119078104994,0.48285751531742926,0.06592853548062405
sahwiki,44.0,0.03413865546218487,0.935251798561151,0.5279129321382843,0.47946812671098943,0.06587281479604763
sahwiki,45.0,0.034427966101694914,0.935251798561151,0.532010243277849,0.4752965715030635,0.06641123882503193
sahwiki,46.0,0.03449197860962567,0.9280575539568345,0.5363636363636364,0.4707339329943945,0.06651198762567671
sahwiki,47.0,0.034733441033925685,0.9280575539568345,0.5396927016645326,0.46734454438795464,0.06696080975862964
sahwiki,48.0,0.03497830802603037,0.9280575539568345,0.5430217669654289,0.4639551557815148,0.06741573033707865
sahwiki,49.0,0.035207423580786025,0.9280575539568345,0.5460947503201025,0.4608264893755703,0.06784117801735473
sahwiki,50.0,0.03547854785478548,0.9280575539568345,0.5496798975672215,0.45717637856863513,0.06834437086092715
sahwiki,51.0,0.035793562708102106,0.9280575539568345,0.5537772087067862,0.4530048233607092,0.06892866684477691
sahwiki,52.0,0.03557422969187675,0.9136690647482014,0.557618437900128,0.4488332681527832,0.06848207063898624
sahwiki,53.0,0.03560327776207969,0.9064748201438849,0.5613316261203585,0.4449224351453526,0.06851549755301796
sahwiki,54.0,0.03584637268847795,0.9064748201438849,0.564404609475032,0.4417937687394082,0.06896551724137931
sahwiki,55.0,0.03612385321100917,0.9064748201438849,0.5678617157490397,0.4382740190327206,0.0694789081885856
sahwiki,56.0,0.03633217993079585,0.9064748201438849,0.5704225352112676,0.4356667970277669,0.06986415303576379
sahwiki,57.0,0.036734693877551024,0.9064748201438849,0.5752880921895006,0.43071307521835484,0.07060801344914543
sahwiki,58.0,0.03671071953010279,0.8992805755395683,0.5782330345710628,0.4275844088124104,0.07054176072234765
sahwiki,59.0,0.037069988137603795,0.8992805755395683,0.5824583866837388,0.4232824925042367,0.07120478496154942
sahwiki,60.0,0.036937742031575814,0.8920863309352518,0.5841229193341869,0.4214574371007691,0.07093821510297482
sahwiki,61.0,0.03694803244217483,0.8848920863309353,0.5874519846350832,0.4179376873940816,0.07093425605536333
sahwiki,62.0,0.03731796116504854,0.8848920863309353,0.5916773367477592,0.413635771085908,0.07161572052401746
sahwiki,63.0,0.03758020164986251,0.8848920863309353,0.5946222791293214,0.4106374657802112,0.07209847596717468
sahwiki,64.0,0.03755001538935057,0.8776978417266187,0.5974391805377721,0.40763916047451443,0.07201889020070838
sahwiki,65.0,0.0375077495350279,0.8705035971223022,0.6001280409731113,0.4047712162690653,0.07191679049034175
sahwiki,66.0,0.0373948270489249,0.8633093525179856,0.6020486555697824,0.4026854386651023,0.07168458781362007
sahwiki,67.0,0.03672316384180791,0.841726618705036,0.604225352112676,0.4000782166601486,0.07037593984962406
sahwiki,68.0,0.0370487650411653,0.841726618705036,0.6078104993597951,0.3964281058532134,0.07097361237488627
sahwiki,69.0,0.037108125399872044,0.8345323741007195,0.611651728553137,0.39238691174553514,0.07105666156202144
sahwiki,70.0,0.03708481135117704,0.8273381294964028,0.614596670934699,0.3892582453395907,0.07098765432098766
sahwiki,71.0,0.037194127243066887,0.8201438848920863,0.6189500640204866,0.38469560683092163,0.07116104868913858
sahwiki,72.0,0.036742800397219465,0.7985611510791367,0.6238156209987196,0.3793508017207665,0.07025316455696203
sahwiki,73.0,0.03646704583472733,0.7841726618705036,0.6274007682458387,0.37543996871333596,0.069693094629156
sahwiki,74.0,0.03640694113644097,0.7697841726618705,0.6332906530089629,0.369182635901447,0.0695256660168941
sahwiki,75.0,0.03681833970128517,0.762589928057554,0.6407170294494238,0.3614913309868335,0.07024519549370445
sahwiki,76.0,0.03668091168091168,0.7410071942446043,0.6490396927016645,0.3526267761699909,0.06990159484221241
sahwiki,77.0,0.036450662739322535,0.7122302158273381,0.6597951344430217,0.3411549993481945,0.06935201401050789
sahwiki,78.0,0.03775038520801233,0.7050359712230215,0.6749039692701665,0.32564202841871986,0.0716636197440585
sahwiki,79.0,0.0391286809197257,0.697841726618705,0.6896286811779769,0.31052014078998824,0.07410236822001529
sahwiki,80.0,0.039862837548221175,0.6690647482014388,0.7072983354673495,0.29200886455481684,0.07524271844660194
sahwiki,81.0,0.04219409282700422,0.6474820143884892,0.7321382842509603,0.2663277278060227,0.07922535211267605
sahwiki,82.0,0.04449042938437662,0.6187050359712231,0.7567221510883483,0.24077695215747622,0.08301158301158301
sahwiki,83.0,0.04537719795802609,0.5755395683453237,0.7769526248399488,0.2193977317168557,0.08412197686645637
sahwiki,84.0,0.04584882280049566,0.5323741007194245,0.79449423815621,0.20075609438143657,0.08442669709070166
sahwiki,85.0,0.04679144385026738,0.5035971223021583,0.8085787451984635,0.18589492895320037,0.08562691131498472
sahwiki,86.0,0.048835462058602556,0.4676258992805755,0.8284250960307298,0.1650371529135706,0.08843537414965986
sahwiki,87.0,0.05459272097053726,0.45323741007194246,0.8505761843790013,0.14222396037022553,0.09744779582366589
sahwiki,88.0,0.059415911379657606,0.4244604316546763,0.8701664532650448,0.1217572676313388,0.10424028268551237
sahwiki,89.0,0.06674757281553398,0.39568345323741005,0.8907810499359795,0.1002476860904706,0.1142263759086189
sahwiki,90.0,0.07692307692307693,0.35251798561151076,0.9131882202304737,0.07665232694563942,0.12628865979381443
sahwiki,91.0,0.08677685950413223,0.302158273381295,0.9309859154929577,0.05761960630947725,0.1348314606741573
sahwiki,92.0,0.09826589595375723,0.2446043165467626,0.9466069142125481,0.04067266327727806,0.1402061855670103
sahwiki,93.0,0.11618257261410789,0.2014388489208633,0.9585147247119078,0.027766914352757136,0.14736842105263157
sahwiki,94.0,0.1342281879194631,0.14388489208633093,0.9682458386683739,0.016816581931951506,0.13888888888888887
sahwiki,95.0,0.21052631578947367,0.11510791366906475,0.9765685019206146,0.007821666014861166,0.14883720930232558
sahwiki,96.0,0.11428571428571428,0.02877697841726619,0.9787451984635083,0.004041194107678269,0.04597701149425287
sahwiki,97.0,0.16666666666666666,0.02158273381294964,0.9806658130601793,0.0019554165037152915,0.038216560509554146
sahwiki,98.0,0.2222222222222222,0.014388489208633094,0.9815620998719591,0.0009125277017338027,0.02702702702702703
sahwiki,99.0,0.25,0.007194244604316547,0.9819462227912932,0.00039108330074305825,0.013986013986013986
