wiki_db,user_is_anonymous_or_bot,threshold,precision,recall,accuracy,fpr,F1
arcwiki,True,0.0,0.4,1.0,0.4,1.0,0.5714285714285715
arcwiki,True,1.0,0.4,1.0,0.4,1.0,0.5714285714285715
arcwiki,True,2.0,0.4,1.0,0.4,1.0,0.5714285714285715
arcwiki,True,3.0,0.4,1.0,0.4,1.0,0.5714285714285715
arcwiki,True,4.0,0.4,1.0,0.4,1.0,0.5714285714285715
arcwiki,True,5.0,0.4,1.0,0.4,1.0,0.5714285714285715
arcwiki,True,6.0,0.4,1.0,0.4,1.0,0.5714285714285715
arcwiki,True,7.0,0.4,1.0,0.4,1.0,0.5714285714285715
arcwiki,True,8.0,0.4,1.0,0.4,1.0,0.5714285714285715
arcwiki,True,9.0,0.4,1.0,0.4,1.0,0.5714285714285715
arcwiki,True,10.0,0.4,1.0,0.4,1.0,0.5714285714285715
arcwiki,True,11.0,0.4,1.0,0.4,1.0,0.5714285714285715
arcwiki,True,12.0,0.4,1.0,0.4,1.0,0.5714285714285715
arcwiki,True,13.0,0.4,1.0,0.4,1.0,0.5714285714285715
arcwiki,True,14.0,0.4,1.0,0.4,1.0,0.5714285714285715
arcwiki,True,15.0,0.4,1.0,0.4,1.0,0.5714285714285715
arcwiki,True,16.0,0.4,1.0,0.4,1.0,0.5714285714285715
arcwiki,True,17.0,0.4,1.0,0.4,1.0,0.5714285714285715
arcwiki,True,18.0,0.4,1.0,0.4,1.0,0.5714285714285715
arcwiki,True,19.0,0.4,1.0,0.4,1.0,0.5714285714285715
arcwiki,True,20.0,0.4,1.0,0.4,1.0,0.5714285714285715
arcwiki,True,21.0,0.4,1.0,0.4,1.0,0.5714285714285715
arcwiki,True,22.0,0.4,1.0,0.4,1.0,0.5714285714285715
arcwiki,True,23.0,0.4,1.0,0.4,1.0,0.5714285714285715
arcwiki,True,24.0,0.4,1.0,0.4,1.0,0.5714285714285715
arcwiki,True,25.0,0.4,1.0,0.4,1.0,0.5714285714285715
arcwiki,True,26.0,0.4,1.0,0.4,1.0,0.5714285714285715
arcwiki,True,27.0,0.4,1.0,0.4,1.0,0.5714285714285715
arcwiki,True,28.0,0.4,1.0,0.4,1.0,0.5714285714285715
arcwiki,True,29.0,0.4,1.0,0.4,1.0,0.5714285714285715
arcwiki,True,30.0,0.4,1.0,0.4,1.0,0.5714285714285715
arcwiki,True,31.0,0.4,1.0,0.4,1.0,0.5714285714285715
arcwiki,True,32.0,0.4,1.0,0.4,1.0,0.5714285714285715
arcwiki,True,33.0,0.4,1.0,0.4,1.0,0.5714285714285715
arcwiki,True,34.0,0.4,1.0,0.4,1.0,0.5714285714285715
arcwiki,True,35.0,0.4,1.0,0.4,1.0,0.5714285714285715
arcwiki,True,36.0,0.4,1.0,0.4,1.0,0.5714285714285715
arcwiki,True,37.0,0.4,1.0,0.4,1.0,0.5714285714285715
arcwiki,True,38.0,0.4,1.0,0.4,1.0,0.5714285714285715
arcwiki,True,39.0,0.4,1.0,0.4,1.0,0.5714285714285715
arcwiki,True,40.0,0.4,1.0,0.4,1.0,0.5714285714285715
arcwiki,True,41.0,0.4,1.0,0.4,1.0,0.5714285714285715
arcwiki,True,42.0,0.4,1.0,0.4,1.0,0.5714285714285715
arcwiki,True,43.0,0.4,1.0,0.4,1.0,0.5714285714285715
arcwiki,True,44.0,0.4,1.0,0.4,1.0,0.5714285714285715
arcwiki,True,45.0,0.4,1.0,0.4,1.0,0.5714285714285715
arcwiki,True,46.0,0.4,1.0,0.4,1.0,0.5714285714285715
arcwiki,True,47.0,0.4,1.0,0.4,1.0,0.5714285714285715
arcwiki,True,48.0,0.4,1.0,0.4,1.0,0.5714285714285715
arcwiki,True,49.0,0.4,1.0,0.4,1.0,0.5714285714285715
arcwiki,True,50.0,0.4,1.0,0.4,1.0,0.5714285714285715
arcwiki,True,51.0,0.4,1.0,0.4,1.0,0.5714285714285715
arcwiki,True,52.0,0.4,1.0,0.4,1.0,0.5714285714285715
arcwiki,True,53.0,0.4,1.0,0.4,1.0,0.5714285714285715
arcwiki,True,54.0,0.4,1.0,0.4,1.0,0.5714285714285715
arcwiki,True,55.0,0.4,1.0,0.4,1.0,0.5714285714285715
arcwiki,True,56.0,0.4,1.0,0.4,1.0,0.5714285714285715
arcwiki,True,57.0,0.4,1.0,0.4,1.0,0.5714285714285715
arcwiki,True,58.0,0.4,1.0,0.4,1.0,0.5714285714285715
arcwiki,True,59.0,0.4,1.0,0.4,1.0,0.5714285714285715
arcwiki,True,60.0,0.4,1.0,0.4,1.0,0.5714285714285715
arcwiki,True,61.0,0.4,1.0,0.4,1.0,0.5714285714285715
arcwiki,True,62.0,0.4,1.0,0.4,1.0,0.5714285714285715
arcwiki,True,63.0,0.4,1.0,0.4,1.0,0.5714285714285715
arcwiki,True,64.0,0.4,1.0,0.4,1.0,0.5714285714285715
arcwiki,True,65.0,0.4,1.0,0.4,1.0,0.5714285714285715
arcwiki,True,66.0,0.4,1.0,0.4,1.0,0.5714285714285715
arcwiki,True,67.0,0.4,1.0,0.4,1.0,0.5714285714285715
arcwiki,True,68.0,0.4,1.0,0.4,1.0,0.5714285714285715
arcwiki,True,69.0,0.4,1.0,0.4,1.0,0.5714285714285715
arcwiki,True,70.0,0.4,1.0,0.4,1.0,0.5714285714285715
arcwiki,True,71.0,0.4,1.0,0.4,1.0,0.5714285714285715
arcwiki,True,72.0,0.4,1.0,0.4,1.0,0.5714285714285715
arcwiki,True,73.0,0.4,1.0,0.4,1.0,0.5714285714285715
arcwiki,True,74.0,0.4,1.0,0.4,1.0,0.5714285714285715
arcwiki,True,75.0,0.4,1.0,0.4,1.0,0.5714285714285715
arcwiki,True,76.0,0.4,1.0,0.4,1.0,0.5714285714285715
arcwiki,True,77.0,0.4,1.0,0.4,1.0,0.5714285714285715
arcwiki,True,78.0,0.4,1.0,0.4,1.0,0.5714285714285715
arcwiki,True,79.0,0.4,1.0,0.4,1.0,0.5714285714285715
arcwiki,True,80.0,0.4,1.0,0.4,1.0,0.5714285714285715
arcwiki,True,81.0,0.4,1.0,0.4,1.0,0.5714285714285715
arcwiki,True,82.0,0.4,1.0,0.4,1.0,0.5714285714285715
arcwiki,True,83.0,0.5,1.0,0.6,0.6666666666666666,0.6666666666666666
arcwiki,True,84.0,0.3333333333333333,0.5,0.4,0.6666666666666666,0.4
arcwiki,True,85.0,0.3333333333333333,0.5,0.4,0.6666666666666666,0.4
arcwiki,True,86.0,0.3333333333333333,0.5,0.4,0.6666666666666666,0.4
arcwiki,True,87.0,0.3333333333333333,0.5,0.4,0.6666666666666666,0.4
arcwiki,True,88.0,0.5,0.5,0.6,0.3333333333333333,0.5
arcwiki,True,89.0,0.5,0.5,0.6,0.3333333333333333,0.5
arcwiki,True,90.0,0.5,0.5,0.6,0.3333333333333333,0.5
arcwiki,True,91.0,0.5,0.5,0.6,0.3333333333333333,0.5
arcwiki,True,92.0,0.0,0.0,0.4,0.3333333333333333,0.5
arcwiki,True,93.0,0.0,0.0,0.6,0.0,0.5
arcwiki,True,94.0,0.0,0.0,0.6,0.0,0.5
arcwiki,True,95.0,0.0,0.0,0.6,0.0,0.5
arcwiki,True,96.0,0.0,0.0,0.6,0.0,0.5
arcwiki,True,97.0,0.0,0.0,0.6,0.0,0.5
arcwiki,True,98.0,0.0,0.0,0.6,0.0,0.5
arcwiki,True,99.0,0.0,0.0,0.6,0.0,0.5
arcwiki,False,0.0,0.016877637130801686,1.0,0.016877637130801686,1.0,0.03319502074688797
arcwiki,False,1.0,0.016877637130801686,1.0,0.016877637130801686,1.0,0.03319502074688797
arcwiki,False,2.0,0.016877637130801686,1.0,0.016877637130801686,1.0,0.03319502074688797
arcwiki,False,3.0,0.01694915254237288,1.0,0.02109704641350211,0.9957081545064378,0.03333333333333333
arcwiki,False,4.0,0.01694915254237288,1.0,0.02109704641350211,0.9957081545064378,0.03333333333333333
arcwiki,False,5.0,0.01694915254237288,1.0,0.02109704641350211,0.9957081545064378,0.03333333333333333
arcwiki,False,6.0,0.01694915254237288,1.0,0.02109704641350211,0.9957081545064378,0.03333333333333333
arcwiki,False,7.0,0.01694915254237288,1.0,0.02109704641350211,0.9957081545064378,0.03333333333333333
arcwiki,False,8.0,0.01694915254237288,1.0,0.02109704641350211,0.9957081545064378,0.03333333333333333
arcwiki,False,9.0,0.017094017094017096,1.0,0.029535864978902954,0.9871244635193133,0.033613445378151266
arcwiki,False,10.0,0.017094017094017096,1.0,0.029535864978902954,0.9871244635193133,0.033613445378151266
arcwiki,False,11.0,0.017167381974248927,1.0,0.03375527426160337,0.9828326180257511,0.03375527426160338
arcwiki,False,12.0,0.017316017316017316,1.0,0.04219409282700422,0.9742489270386266,0.03404255319148936
arcwiki,False,13.0,0.017467248908296942,1.0,0.05063291139240506,0.9656652360515021,0.034334763948497854
arcwiki,False,14.0,0.017543859649122806,1.0,0.05485232067510549,0.9613733905579399,0.034482758620689655
arcwiki,False,15.0,0.01762114537444934,1.0,0.05907172995780591,0.9570815450643777,0.03463203463203464
arcwiki,False,16.0,0.017777777777777778,1.0,0.06751054852320675,0.9484978540772532,0.03493449781659389
arcwiki,False,17.0,0.017857142857142856,1.0,0.07172995780590717,0.944206008583691,0.03508771929824561
arcwiki,False,18.0,0.017857142857142856,1.0,0.07172995780590717,0.944206008583691,0.03508771929824561
arcwiki,False,19.0,0.01818181818181818,1.0,0.08860759493670886,0.927038626609442,0.03571428571428572
arcwiki,False,20.0,0.0182648401826484,1.0,0.09282700421940929,0.9227467811158798,0.03587443946188341
arcwiki,False,21.0,0.013824884792626729,0.75,0.09282700421940929,0.9184549356223176,0.027149321266968323
arcwiki,False,22.0,0.014018691588785047,0.75,0.10548523206751055,0.9055793991416309,0.027522935779816515
arcwiki,False,23.0,0.014354066985645933,0.75,0.12658227848101267,0.8841201716738197,0.028169014084507046
arcwiki,False,24.0,0.014492753623188406,0.75,0.1350210970464135,0.8755364806866953,0.028436018957345974
arcwiki,False,25.0,0.014634146341463415,0.75,0.14345991561181434,0.8669527896995708,0.028708133971291867
arcwiki,False,26.0,0.01485148514851485,0.75,0.15611814345991562,0.8540772532188842,0.029126213592233007
arcwiki,False,27.0,0.014925373134328358,0.75,0.16033755274261605,0.8497854077253219,0.029268292682926828
arcwiki,False,28.0,0.015,0.75,0.16455696202531644,0.8454935622317596,0.029411764705882353
arcwiki,False,29.0,0.015228426395939087,0.75,0.17721518987341772,0.8326180257510729,0.029850746268656712
arcwiki,False,30.0,0.015625,0.75,0.19831223628691982,0.8111587982832618,0.030612244897959183
arcwiki,False,31.0,0.015873015873015872,0.75,0.2109704641350211,0.7982832618025751,0.031088082901554404
arcwiki,False,32.0,0.016129032258064516,0.75,0.22362869198312235,0.7854077253218884,0.031578947368421054
arcwiki,False,33.0,0.016304347826086956,0.75,0.2320675105485232,0.776824034334764,0.031914893617021274
arcwiki,False,34.0,0.016483516483516484,0.75,0.24050632911392406,0.7682403433476395,0.03225806451612903
arcwiki,False,35.0,0.016483516483516484,0.75,0.24050632911392406,0.7682403433476395,0.03225806451612903
arcwiki,False,36.0,0.016574585635359115,0.75,0.24472573839662448,0.7639484978540773,0.032432432432432434
arcwiki,False,37.0,0.017142857142857144,0.75,0.270042194092827,0.7381974248927039,0.033519553072625705
arcwiki,False,38.0,0.01764705882352941,0.75,0.2911392405063291,0.7167381974248928,0.034482758620689655
arcwiki,False,39.0,0.018518518518518517,0.75,0.32489451476793246,0.6824034334763949,0.03614457831325301
arcwiki,False,40.0,0.018633540372670808,0.75,0.3291139240506329,0.6781115879828327,0.03636363636363636
arcwiki,False,41.0,0.019230769230769232,0.75,0.350210970464135,0.6566523605150214,0.0375
arcwiki,False,42.0,0.019736842105263157,0.75,0.3670886075949367,0.6394849785407726,0.03846153846153846
arcwiki,False,43.0,0.02054794520547945,0.75,0.3924050632911392,0.6137339055793991,0.04
arcwiki,False,44.0,0.02142857142857143,0.75,0.4177215189873418,0.5879828326180258,0.04166666666666666
arcwiki,False,45.0,0.02158273381294964,0.75,0.4219409282700422,0.5836909871244635,0.04195804195804196
arcwiki,False,46.0,0.022058823529411766,0.75,0.4345991561181435,0.5708154506437768,0.04285714285714286
arcwiki,False,47.0,0.022900763358778626,0.75,0.45569620253164556,0.5493562231759657,0.044444444444444446
arcwiki,False,48.0,0.024193548387096774,0.75,0.48523206751054854,0.51931330472103,0.04687499999999999
arcwiki,False,49.0,0.025,0.75,0.5021097046413502,0.5021459227467812,0.048387096774193554
arcwiki,False,50.0,0.02564102564102564,0.75,0.5147679324894515,0.4892703862660944,0.049586776859504134
arcwiki,False,51.0,0.018018018018018018,0.5,0.5316455696202531,0.4678111587982833,0.034782608695652174
arcwiki,False,52.0,0.01834862385321101,0.5,0.540084388185654,0.4592274678111588,0.035398230088495575
arcwiki,False,53.0,0.018867924528301886,0.5,0.5527426160337553,0.44635193133047213,0.03636363636363636
arcwiki,False,54.0,0.019230769230769232,0.5,0.5611814345991561,0.43776824034334766,0.037037037037037035
arcwiki,False,55.0,0.019801980198019802,0.5,0.5738396624472574,0.4248927038626609,0.03809523809523809
arcwiki,False,56.0,0.020618556701030927,0.5,0.5907172995780591,0.40772532188841204,0.0396039603960396
arcwiki,False,57.0,0.02127659574468085,0.5,0.6033755274261603,0.3948497854077253,0.04081632653061224
arcwiki,False,58.0,0.021739130434782608,0.5,0.6118143459915611,0.38626609442060084,0.041666666666666664
arcwiki,False,59.0,0.022727272727272728,0.5,0.6286919831223629,0.36909871244635195,0.04347826086956522
arcwiki,False,60.0,0.023809523809523808,0.5,0.6455696202531646,0.351931330472103,0.04545454545454545
arcwiki,False,61.0,0.024390243902439025,0.5,0.6540084388185654,0.34334763948497854,0.046511627906976744
arcwiki,False,62.0,0.02531645569620253,0.5,0.6666666666666666,0.33047210300429186,0.048192771084337345
arcwiki,False,63.0,0.025974025974025976,0.5,0.6751054852320675,0.3218884120171674,0.04938271604938272
arcwiki,False,64.0,0.028169014084507043,0.5,0.70042194092827,0.296137339055794,0.05333333333333334
arcwiki,False,65.0,0.02857142857142857,0.5,0.7046413502109705,0.2918454935622318,0.05405405405405405
arcwiki,False,66.0,0.03125,0.5,0.729957805907173,0.26609442060085836,0.058823529411764705
arcwiki,False,67.0,0.03278688524590164,0.5,0.7426160337552743,0.2532188841201717,0.061538461538461535
arcwiki,False,68.0,0.03278688524590164,0.5,0.7426160337552743,0.2532188841201717,0.061538461538461535
arcwiki,False,69.0,0.03333333333333333,0.5,0.7468354430379747,0.24892703862660945,0.0625
arcwiki,False,70.0,0.03571428571428571,0.5,0.7637130801687764,0.2317596566523605,0.06666666666666667
arcwiki,False,71.0,0.03773584905660377,0.5,0.7763713080168776,0.21888412017167383,0.07017543859649122
arcwiki,False,72.0,0.04,0.5,0.7890295358649789,0.20600858369098712,0.07407407407407407
arcwiki,False,73.0,0.041666666666666664,0.5,0.7974683544303798,0.19742489270386265,0.07692307692307693
arcwiki,False,74.0,0.045454545454545456,0.5,0.8143459915611815,0.18025751072961374,0.08333333333333334
arcwiki,False,75.0,0.04878048780487805,0.5,0.8270042194092827,0.16738197424892703,0.08888888888888888
arcwiki,False,76.0,0.05128205128205128,0.5,0.8354430379746836,0.15879828326180256,0.09302325581395347
arcwiki,False,77.0,0.05555555555555555,0.5,0.8481012658227848,0.1459227467811159,0.09999999999999999
arcwiki,False,78.0,0.0625,0.5,0.8649789029535865,0.12875536480686695,0.1111111111111111
arcwiki,False,79.0,0.06451612903225806,0.5,0.869198312236287,0.12446351931330472,0.1142857142857143
arcwiki,False,80.0,0.07142857142857142,0.5,0.8818565400843882,0.11158798283261803,0.125
arcwiki,False,81.0,0.08,0.5,0.8945147679324894,0.09871244635193133,0.13793103448275865
arcwiki,False,82.0,0.09523809523809523,0.5,0.9113924050632911,0.0815450643776824,0.16
arcwiki,False,83.0,0.1,0.5,0.9156118143459916,0.07725321888412018,0.16666666666666669
arcwiki,False,84.0,0.058823529411764705,0.25,0.919831223628692,0.06866952789699571,0.09523809523809523
arcwiki,False,85.0,0.0625,0.25,0.9240506329113924,0.06437768240343347,0.1
arcwiki,False,86.0,0.07142857142857142,0.25,0.9324894514767933,0.055793991416309016,0.11111111111111112
arcwiki,False,87.0,0.1,0.25,0.9493670886075949,0.03862660944206009,0.14285714285714288
arcwiki,False,88.0,0.1111111111111111,0.25,0.9535864978902954,0.034334763948497854,0.15384615384615383
arcwiki,False,89.0,0.16666666666666666,0.25,0.9662447257383966,0.02145922746781116,0.2
arcwiki,False,90.0,0.25,0.25,0.9746835443037974,0.012875536480686695,0.25
arcwiki,False,91.0,0.3333333333333333,0.25,0.9789029535864979,0.008583690987124463,0.28571428571428575
arcwiki,False,92.0,0.0,0.0,0.9789029535864979,0.004291845493562232,0.28571428571428575
arcwiki,False,93.0,0.0,0.0,0.9831223628691983,0.0,0.28571428571428575
arcwiki,False,94.0,0.0,0.0,0.9831223628691983,0.0,0.28571428571428575
arcwiki,False,95.0,0.0,0.0,0.9831223628691983,0.0,0.28571428571428575
arcwiki,False,96.0,0.0,0.0,0.9831223628691983,0.0,0.28571428571428575
arcwiki,False,97.0,0.0,0.0,0.9831223628691983,0.0,0.28571428571428575
arcwiki,False,98.0,0.0,0.0,0.9831223628691983,0.0,0.28571428571428575
arcwiki,False,99.0,0.0,0.0,0.9831223628691983,0.0,0.28571428571428575
