wiki_db,user_is_anonymous_or_bot,threshold,precision,recall,accuracy,fpr,F1
bhwiki,True,0.0,0.4027504911591356,1.0,0.4027504911591356,1.0,0.5742296918767508
bhwiki,True,1.0,0.4027504911591356,1.0,0.4027504911591356,1.0,0.5742296918767508
bhwiki,True,2.0,0.4027504911591356,1.0,0.4027504911591356,1.0,0.5742296918767508
bhwiki,True,3.0,0.4027504911591356,1.0,0.4027504911591356,1.0,0.5742296918767508
bhwiki,True,4.0,0.4027504911591356,1.0,0.4027504911591356,1.0,0.5742296918767508
bhwiki,True,5.0,0.40674603174603174,1.0,0.412573673870334,0.9835526315789473,0.5782792665726375
bhwiki,True,6.0,0.41082164328657317,1.0,0.4223968565815324,0.9671052631578947,0.5823863636363636
bhwiki,True,7.0,0.42531120331950206,1.0,0.45579567779960706,0.9111842105263158,0.5967976710334788
bhwiki,True,8.0,0.4334038054968288,1.0,0.47347740667976423,0.881578947368421,0.6047197640117994
bhwiki,True,9.0,0.43991416309012876,1.0,0.48722986247544203,0.8585526315789473,0.6110283159463487
bhwiki,True,10.0,0.44086021505376344,1.0,0.48919449901768175,0.8552631578947368,0.6119402985074627
bhwiki,True,11.0,0.44468546637744033,1.0,0.49705304518664045,0.8421052631578947,0.6156156156156155
bhwiki,True,12.0,0.4485776805251641,1.0,0.5049115913555993,0.8289473684210527,0.6193353474320242
bhwiki,True,13.0,0.45454545454545453,1.0,0.5166994106090373,0.8092105263157895,0.625
bhwiki,True,14.0,0.45964125560538116,1.0,0.5265225933202358,0.7927631578947368,0.629800307219662
bhwiki,True,15.0,0.4606741573033708,1.0,0.5284872298624754,0.7894736842105263,0.6307692307692307
bhwiki,True,16.0,0.4606741573033708,1.0,0.5284872298624754,0.7894736842105263,0.6307692307692307
bhwiki,True,17.0,0.46697038724373574,1.0,0.5402750491159135,0.7697368421052632,0.6366459627329193
bhwiki,True,18.0,0.4701834862385321,1.0,0.5461689587426326,0.7598684210526315,0.6396255850234009
bhwiki,True,19.0,0.47785547785547783,1.0,0.5599214145383105,0.7368421052631579,0.6466876971608833
bhwiki,True,20.0,0.4812206572769953,1.0,0.5658153241650294,0.7269736842105263,0.6497622820919177
bhwiki,True,21.0,0.4846335697399527,1.0,0.5717092337917485,0.7171052631578947,0.6528662420382165
bhwiki,True,22.0,0.4880952380952381,1.0,0.5776031434184676,0.7072368421052632,0.6559999999999999
bhwiki,True,23.0,0.4904306220095694,1.0,0.581532416502947,0.7006578947368421,0.6581059390048154
bhwiki,True,24.0,0.49160671462829736,1.0,0.5834970530451866,0.6973684210526315,0.6591639871382636
bhwiki,True,25.0,0.4975728155339806,1.0,0.593320235756385,0.680921052631579,0.6645056726094003
bhwiki,True,26.0,0.5049261083743842,1.0,0.6051080550098232,0.6611842105263158,0.6710310965630114
bhwiki,True,27.0,0.5150753768844221,1.0,0.6208251473477406,0.6348684210526315,0.6799336650082919
bhwiki,True,28.0,0.5203045685279187,1.0,0.6286836935166994,0.6217105263157895,0.684474123539232
bhwiki,True,29.0,0.5242966751918159,1.0,0.6345776031434185,0.6118421052631579,0.6879194630872484
bhwiki,True,30.0,0.5256410256410257,1.0,0.6365422396856582,0.6085526315789473,0.689075630252101
bhwiki,True,31.0,0.5256410256410257,1.0,0.6365422396856582,0.6085526315789473,0.689075630252101
bhwiki,True,32.0,0.5297157622739018,1.0,0.6424361493123772,0.5986842105263158,0.6925675675675677
bhwiki,True,33.0,0.5338541666666666,1.0,0.6483300589390962,0.5888157894736842,0.6960950764006791
bhwiki,True,34.0,0.5352480417754569,1.0,0.650294695481336,0.5855263157894737,0.6972789115646258
bhwiki,True,35.0,0.5366492146596858,1.0,0.6522593320235757,0.5822368421052632,0.6984667802385008
bhwiki,True,36.0,0.5380577427821522,1.0,0.6542239685658153,0.5789473684210527,0.6996587030716723
bhwiki,True,37.0,0.5394736842105263,1.0,0.656188605108055,0.5756578947368421,0.7008547008547009
bhwiki,True,38.0,0.5437665782493368,1.0,0.6620825147347741,0.5657894736842105,0.70446735395189
bhwiki,True,39.0,0.5437665782493368,1.0,0.6620825147347741,0.5657894736842105,0.70446735395189
bhwiki,True,40.0,0.5452127659574468,1.0,0.6640471512770137,0.5625,0.7056798623063684
bhwiki,True,41.0,0.5452127659574468,1.0,0.6640471512770137,0.5625,0.7056798623063684
bhwiki,True,42.0,0.5452127659574468,1.0,0.6640471512770137,0.5625,0.7056798623063684
bhwiki,True,43.0,0.5466666666666666,1.0,0.6660117878192534,0.5592105263157895,0.7068965517241379
bhwiki,True,44.0,0.5495978552278821,1.0,0.6699410609037328,0.5526315789473685,0.7093425605536332
bhwiki,True,45.0,0.5495978552278821,1.0,0.6699410609037328,0.5526315789473685,0.7093425605536332
bhwiki,True,46.0,0.5525606469002695,1.0,0.6738703339882122,0.5460526315789473,0.7118055555555556
bhwiki,True,47.0,0.5525606469002695,1.0,0.6738703339882122,0.5460526315789473,0.7118055555555556
bhwiki,True,48.0,0.5555555555555556,1.0,0.6777996070726916,0.5394736842105263,0.7142857142857143
bhwiki,True,49.0,0.5555555555555556,1.0,0.6777996070726916,0.5394736842105263,0.7142857142857143
bhwiki,True,50.0,0.5555555555555556,1.0,0.6777996070726916,0.5394736842105263,0.7142857142857143
bhwiki,True,51.0,0.555858310626703,0.9951219512195122,0.6777996070726916,0.5361842105263158,0.7132867132867133
bhwiki,True,52.0,0.5573770491803278,0.9951219512195122,0.6797642436149313,0.5328947368421053,0.7145359019264448
bhwiki,True,53.0,0.5573770491803278,0.9951219512195122,0.6797642436149313,0.5328947368421053,0.7145359019264448
bhwiki,True,54.0,0.5589041095890411,0.9951219512195122,0.6817288801571709,0.5296052631578947,0.7157894736842106
bhwiki,True,55.0,0.5589041095890411,0.9951219512195122,0.6817288801571709,0.5296052631578947,0.7157894736842106
bhwiki,True,56.0,0.5576923076923077,0.9902439024390244,0.6797642436149313,0.5296052631578947,0.7135325131810194
bhwiki,True,57.0,0.5564738292011019,0.9853658536585366,0.6777996070726916,0.5296052631578947,0.7112676056338028
bhwiki,True,58.0,0.5564738292011019,0.9853658536585366,0.6777996070726916,0.5296052631578947,0.7112676056338028
bhwiki,True,59.0,0.5564738292011019,0.9853658536585366,0.6777996070726916,0.5296052631578947,0.7112676056338028
bhwiki,True,60.0,0.5552486187845304,0.9804878048780488,0.6758349705304518,0.5296052631578947,0.7089947089947088
bhwiki,True,61.0,0.5583333333333333,0.9804878048780488,0.6797642436149313,0.5230263157894737,0.7115044247787611
bhwiki,True,62.0,0.5571030640668524,0.975609756097561,0.6777996070726916,0.5230263157894737,0.7092198581560284
bhwiki,True,63.0,0.5571030640668524,0.975609756097561,0.6777996070726916,0.5230263157894737,0.7092198581560284
bhwiki,True,64.0,0.5558659217877095,0.9707317073170731,0.6758349705304518,0.5230263157894737,0.7069271758436945
bhwiki,True,65.0,0.5558659217877095,0.9707317073170731,0.6758349705304518,0.5230263157894737,0.7069271758436945
bhwiki,True,66.0,0.5558659217877095,0.9707317073170731,0.6758349705304518,0.5230263157894737,0.7069271758436945
bhwiki,True,67.0,0.5549295774647888,0.9609756097560975,0.6738703339882122,0.5197368421052632,0.7035714285714285
bhwiki,True,68.0,0.5580736543909348,0.9609756097560975,0.6777996070726916,0.5131578947368421,0.7060931899641577
bhwiki,True,69.0,0.5571428571428572,0.9512195121951219,0.6758349705304518,0.5098684210526315,0.7027027027027027
bhwiki,True,70.0,0.5606936416184971,0.9463414634146341,0.6797642436149313,0.5,0.7041742286751361
bhwiki,True,71.0,0.5626822157434402,0.9414634146341463,0.6817288801571709,0.4934210526315789,0.7043795620437957
bhwiki,True,72.0,0.5659824046920822,0.9414634146341463,0.6856581532416502,0.4868421052631579,0.706959706959707
bhwiki,True,73.0,0.5727002967359051,0.9414634146341463,0.693516699410609,0.47368421052631576,0.7121771217712177
bhwiki,True,74.0,0.5705705705705706,0.926829268292683,0.6895874263261297,0.47039473684210525,0.7063197026022304
bhwiki,True,75.0,0.5749235474006116,0.9170731707317074,0.693516699410609,0.45723684210526316,0.7067669172932332
bhwiki,True,76.0,0.5763239875389408,0.9024390243902439,0.693516699410609,0.4473684210526316,0.7034220532319392
bhwiki,True,77.0,0.580952380952381,0.8926829268292683,0.6974459724950884,0.4342105263157895,0.7038461538461539
bhwiki,True,78.0,0.5857605177993528,0.8829268292682927,0.7013752455795678,0.42105263157894735,0.7042801556420234
bhwiki,True,79.0,0.5849673202614379,0.8731707317073171,0.6994106090373281,0.41776315789473684,0.7005870841487281
bhwiki,True,80.0,0.5906040268456376,0.8585365853658536,0.7033398821218074,0.40131578947368424,0.6998011928429424
bhwiki,True,81.0,0.5958188153310104,0.8341463414634146,0.7053045186640472,0.3815789473684211,0.6951219512195121
bhwiki,True,82.0,0.6094890510948905,0.8146341463414634,0.7151277013752456,0.3519736842105263,0.697286012526096
bhwiki,True,83.0,0.6153846153846154,0.7804878048780488,0.7151277013752456,0.32894736842105265,0.6881720430107527
bhwiki,True,84.0,0.625,0.7560975609756098,0.7190569744597249,0.3059210526315789,0.684326710816777
bhwiki,True,85.0,0.6307053941908713,0.7414634146341463,0.7210216110019646,0.29276315789473684,0.6816143497757847
bhwiki,True,86.0,0.6387665198237885,0.7073170731707317,0.7210216110019646,0.26973684210526316,0.6712962962962963
bhwiki,True,87.0,0.6394230769230769,0.6487804878048781,0.7111984282907662,0.24671052631578946,0.6440677966101696
bhwiki,True,88.0,0.6479591836734694,0.6195121951219512,0.7111984282907662,0.22697368421052633,0.6334164588528679
bhwiki,True,89.0,0.632768361581921,0.5463414634146342,0.6895874263261297,0.2138157894736842,0.5863874345549739
bhwiki,True,90.0,0.6217948717948718,0.47317073170731705,0.6719056974459725,0.19407894736842105,0.5373961218836565
bhwiki,True,91.0,0.6159420289855072,0.4146341463414634,0.6601178781925344,0.17434210526315788,0.49562682215743437
bhwiki,True,92.0,0.5934959349593496,0.35609756097560974,0.6424361493123772,0.16447368421052633,0.44512195121951215
bhwiki,True,93.0,0.5957446808510638,0.2731707317073171,0.6326129666011788,0.125,0.37458193979933113
bhwiki,True,94.0,0.6438356164383562,0.22926829268292684,0.6385068762278978,0.08552631578947369,0.33812949640287776
bhwiki,True,95.0,0.75,0.16097560975609757,0.6404715127701375,0.03618421052631579,0.2650602409638554
bhwiki,True,96.0,0.8571428571428571,0.08780487804878048,0.6267190569744597,0.009868421052631578,0.1592920353982301
bhwiki,True,97.0,0.9230769230769231,0.05853658536585366,0.618860510805501,0.003289473684210526,0.11009174311926606
bhwiki,True,98.0,0.9230769230769231,0.05853658536585366,0.618860510805501,0.003289473684210526,0.11009174311926606
bhwiki,True,99.0,1.0,0.05365853658536585,0.618860510805501,0.0,0.10185185185185185
bhwiki,False,0.0,0.10194516053433325,1.0,0.10194516053433325,1.0,0.18502764780944278
bhwiki,False,1.0,0.1019690576652602,1.0,0.10217951722521677,0.9997390396659708,0.18506700701978304
bhwiki,False,2.0,0.10865746549560854,0.9954022988505747,0.16709632059995314,0.9269311064718163,0.19592760180995475
bhwiki,False,3.0,0.11776061776061776,0.9816091954022989,0.2484180923365362,0.8348121085594989,0.21029303127308546
bhwiki,False,4.0,0.12721804511278195,0.9724137931034482,0.31708460276540895,0.7573068893528184,0.22499999999999998
bhwiki,False,5.0,0.13553826199740596,0.960919540229885,0.3712209983595032,0.6957202505219207,0.2375674907644217
bhwiki,False,6.0,0.14275932899691887,0.9586206896551724,0.40895242559175066,0.6534446764091858,0.24851013110846248
bhwiki,False,7.0,0.1490125673249551,0.9540229885057471,0.4398875087883759,0.6184759916492694,0.2577639751552795
bhwiki,False,8.0,0.15310650887573965,0.9517241379310345,0.4584016873681744,0.5975991649269311,0.26377827333545717
bhwiki,False,9.0,0.15801526717557252,0.9517241379310345,0.47808764940239046,0.5756784968684759,0.27103109656301144
bhwiki,False,10.0,0.16129032258064516,0.9425287356321839,0.4944926177642372,0.5563674321503131,0.2754450789385287
bhwiki,False,11.0,0.16659894351889476,0.9425287356321839,0.5134755097258027,0.5352296450939458,0.2831491712707182
bhwiki,False,12.0,0.17228306655433867,0.9402298850574713,0.5333958284509023,0.5127870563674322,0.2912068351726593
bhwiki,False,13.0,0.1782437745740498,0.9379310344827586,0.5528474337942348,0.49086638830897705,0.29955947136563876
bhwiki,False,14.0,0.18493150684931506,0.9310344827586207,0.5746426060464026,0.4658141962421712,0.3085714285714286
bhwiki,False,15.0,0.19157994323557237,0.9310344827586207,0.5924537145535506,0.4459812108559499,0.31777167516673205
bhwiki,False,16.0,0.19833087874324987,0.9287356321839081,0.6100304663698148,0.4261482254697286,0.32686084142394817
bhwiki,False,17.0,0.20624360286591606,0.9264367816091954,0.6290133583313804,0.4047494780793319,0.3373796567601507
bhwiki,False,18.0,0.2136387852956846,0.9218390804597701,0.6461213967658777,0.38517745302713985,0.34688581314878897
bhwiki,False,19.0,0.22043309272626319,0.9126436781609195,0.6620576517459573,0.3663883089770355,0.3550983899821109
bhwiki,False,20.0,0.22771707878090858,0.9103448275862069,0.6761190531989688,0.3504697286012526,0.36430542778288866
bhwiki,False,21.0,0.23631990378833434,0.903448275862069,0.6925240215608156,0.331419624217119,0.3746425166825548
bhwiki,False,22.0,0.2445414847161572,0.9011494252873563,0.70611670963206,0.3160229645093946,0.38469087340529934
bhwiki,False,23.0,0.25555555555555554,0.8988505747126436,0.7227560346847902,0.2972338204592902,0.39796437659033074
bhwiki,False,24.0,0.26498637602179836,0.8942528735632184,0.7363487227560347,0.28157620041753656,0.40882816605359956
bhwiki,False,25.0,0.2749822820694543,0.8919540229885058,0.7492383407546286,0.26696242171189977,0.42036836403033595
bhwiki,False,26.0,0.28161764705882353,0.8804597701149425,0.758846965080853,0.25495824634655534,0.4267409470752089
bhwiki,False,27.0,0.2915072685539403,0.8758620689655172,0.7703304429341458,0.24164926931106473,0.4374282433983926
bhwiki,False,28.0,0.30278884462151395,0.8735632183908046,0.782048277478322,0.22834029227557412,0.4497041420118344
bhwiki,False,29.0,0.31193415637860084,0.871264367816092,0.7909538317318959,0.21816283924843424,0.4593939393939394
bhwiki,False,30.0,0.3181434599156118,0.8666666666666667,0.7970471056948676,0.21085594989561587,0.46543209876543207
bhwiki,False,31.0,0.3255208333333333,0.8620689655172413,0.8038434497304898,0.2027661795407098,0.47258979206049145
bhwiki,False,32.0,0.333034914950761,0.8551724137931035,0.8106397937661121,0.19441544885177453,0.47938144329896915
bhwiki,False,33.0,0.33974358974358976,0.8528735632183908,0.8160299976564331,0.18815240083507306,0.4859201047806156
bhwiki,False,34.0,0.3464788732394366,0.8482758620689655,0.8214202015467542,0.18162839248434237,0.4919999999999999
bhwiki,False,35.0,0.35186960690316393,0.8436781609195402,0.8256386219826576,0.17640918580375783,0.49661705006765905
bhwiki,False,36.0,0.35909980430528377,0.8436781609195402,0.8305601124912116,0.17092901878914404,0.5037748798901853
bhwiki,False,37.0,0.36810431293881646,0.8436781609195402,0.8364190297632997,0.16440501043841335,0.5125698324022346
bhwiki,False,38.0,0.37679671457905545,0.8436781609195402,0.8418092336536208,0.15840292275574114,0.5209368346344926
bhwiki,False,39.0,0.38308977035490605,0.8436781609195402,0.8455589407077572,0.15422755741127347,0.5269203158650395
bhwiki,False,40.0,0.38812301166489926,0.8413793103448276,0.848605577689243,0.1505741127348643,0.5312046444121915
bhwiki,False,41.0,0.3916309012875536,0.8390804597701149,0.8507147879071948,0.14796450939457204,0.5340160936356986
bhwiki,False,42.0,0.3945945945945946,0.8390804597701149,0.8523552847433794,0.14613778705636743,0.5367647058823529
bhwiki,False,43.0,0.39737991266375544,0.8367816091954023,0.8539957815795641,0.1440501043841336,0.538860103626943
bhwiki,False,44.0,0.401330376940133,0.832183908045977,0.8563393484883993,0.1409185803757829,0.5415108451757665
bhwiki,False,45.0,0.40492170022371365,0.832183908045977,0.8582142020154675,0.13883089770354906,0.54477050413845
bhwiki,False,46.0,0.41043083900226757,0.832183908045977,0.8610264823060698,0.13569937369519833,0.5497342444950646
bhwiki,False,47.0,0.4108967082860386,0.832183908045977,0.8612608389969534,0.1354384133611691,0.5501519756838905
bhwiki,False,48.0,0.41418764302059496,0.832183908045977,0.862901335833138,0.1336116910229645,0.5530939648586708
bhwiki,False,49.0,0.4151376146788991,0.832183908045977,0.8633700492149051,0.13308977035490605,0.5539403213465952
bhwiki,False,50.0,0.4183082271147161,0.8298850574712644,0.8650105460510897,0.13100208768267224,0.5562403697996918
bhwiki,False,51.0,0.4203747072599532,0.825287356321839,0.8661823295055073,0.12917536534446764,0.5570209464701319
bhwiki,False,52.0,0.4233490566037736,0.825287356321839,0.8675884696508085,0.12760960334029228,0.5596258768511301
bhwiki,False,53.0,0.42738095238095236,0.825287356321839,0.8694633231778768,0.12552192066805845,0.5631372549019608
bhwiki,False,54.0,0.43184559710494574,0.8229885057471265,0.8715725333958284,0.12291231732776618,0.5664556962025317
bhwiki,False,55.0,0.4343065693430657,0.8206896551724138,0.8727443168502461,0.12134655532359082,0.5680190930787589
bhwiki,False,56.0,0.43734643734643736,0.8183908045977012,0.8741504569955473,0.11951983298538622,0.5700560448358687
bhwiki,False,57.0,0.44069912609238454,0.8114942528735632,0.8757909538317319,0.11691022964509394,0.5711974110032363
bhwiki,False,58.0,0.4431818181818182,0.8068965517241379,0.8769627372861495,0.11508350730688935,0.5721271393643031
bhwiki,False,59.0,0.4494238156209987,0.8068965517241379,0.8795406608858682,0.11221294363256785,0.5773026315789473
bhwiki,False,60.0,0.45359477124183006,0.7977011494252874,0.8814155144129365,0.10908141962421712,0.5783333333333334
bhwiki,False,61.0,0.46021220159151194,0.7977011494252874,0.8839934380126553,0.10621085594989561,0.5836837678721615
bhwiki,False,62.0,0.46380697050938335,0.7954022988505747,0.8853995781579564,0.10438413361169102,0.5859441151566468
bhwiki,False,63.0,0.46747967479674796,0.7931034482758621,0.8868057183032576,0.10255741127348643,0.588235294117647
bhwiki,False,64.0,0.47448275862068967,0.7908045977011494,0.8893836419029764,0.0994258872651357,0.5931034482758621
bhwiki,False,65.0,0.4783821478382148,0.7885057471264367,0.8907897820482775,0.0975991649269311,0.595486111111111
bhwiki,False,66.0,0.48241912798874825,0.7885057471264367,0.8921959221935786,0.09603340292275574,0.5986038394415358
bhwiki,False,67.0,0.484375,0.7839080459770115,0.8928989922662292,0.09472860125260961,0.5987708516242318
bhwiki,False,68.0,0.4899425287356322,0.7839080459770115,0.8947738457932974,0.09264091858037578,0.6030061892130858
bhwiki,False,69.0,0.49416909620991256,0.7793103448275862,0.8961799859385986,0.09055323590814196,0.6048171275646744
bhwiki,False,70.0,0.5007429420505201,0.774712643678161,0.8982891961565502,0.08768267223382047,0.6083032490974729
bhwiki,False,71.0,0.5037707390648567,0.767816091954023,0.8992266229200844,0.08585594989561586,0.6083788706739527
bhwiki,False,72.0,0.506079027355623,0.7655172413793103,0.899929692992735,0.08481210855949896,0.6093321134492223
bhwiki,False,73.0,0.5162790697674419,0.7655172413793103,0.9029763299742207,0.081419624217119,0.6166666666666666
bhwiki,False,74.0,0.5213270142180095,0.7586206896551724,0.9043824701195219,0.07907098121085596,0.6179775280898876
bhwiki,False,75.0,0.5308441558441559,0.7517241379310344,0.9069603937192406,0.07541753653444676,0.6222645099904853
bhwiki,False,76.0,0.5392320534223706,0.7425287356321839,0.9090696039371924,0.0720250521920668,0.6247582205029014
bhwiki,False,77.0,0.5473321858864028,0.7310344827586207,0.9109444574642606,0.06863256784968685,0.6259842519685039
bhwiki,False,78.0,0.5500878734622144,0.7195402298850575,0.9114131708460277,0.06680584551148225,0.6235059760956175
bhwiki,False,79.0,0.5567567567567567,0.7103448275862069,0.9128193109913288,0.06419624217118998,0.6242424242424243
bhwiki,False,80.0,0.5642458100558659,0.696551724137931,0.9142254511366299,0.061064718162839246,0.6234567901234568
bhwiki,False,81.0,0.5694716242661448,0.6689655172413793,0.914694164518397,0.05741127348643006,0.6152219873150105
bhwiki,False,82.0,0.58298755186722,0.6459770114942529,0.9168033747363488,0.052453027139874736,0.6128680479825518
bhwiki,False,83.0,0.5959821428571429,0.6137931034482759,0.9182095148816499,0.047233820459290185,0.6047565118912798
bhwiki,False,84.0,0.6047058823529412,0.5908045977011495,0.9189125849543004,0.04384133611691023,0.5976744186046512
bhwiki,False,85.0,0.6218905472636815,0.5747126436781609,0.9210217951722521,0.03966597077244259,0.5973715651135006
bhwiki,False,86.0,0.6390374331550802,0.5494252873563218,0.9224279353175533,0.03522964509394572,0.5908529048207664
bhwiki,False,87.0,0.6463768115942029,0.5126436781609195,0.9217248652449027,0.031837160751565764,0.5717948717948718
bhwiki,False,88.0,0.659375,0.4850574712643678,0.9219592219357863,0.028444676409185805,0.5589403973509934
bhwiki,False,89.0,0.6573426573426573,0.432183908045977,0.919146941645184,0.0255741127348643,0.5214979195561719
bhwiki,False,90.0,0.6563706563706564,0.39080459770114945,0.9170377314272322,0.023225469728601254,0.489913544668588
bhwiki,False,91.0,0.6666666666666666,0.35402298850574715,0.9161003046636982,0.02009394572025052,0.4624624624624625
bhwiki,False,92.0,0.675,0.3103448275862069,0.9144598078275135,0.01696242171189979,0.42519685039370086
bhwiki,False,93.0,0.6829268292682927,0.2574712643678161,0.9121162409186783,0.013569937369519834,0.3739565943238731
bhwiki,False,94.0,0.7251908396946565,0.21839080459770116,0.9118818842277947,0.009394572025052192,0.33568904593639576
bhwiki,False,95.0,0.7938144329896907,0.17701149425287357,0.9114131708460277,0.005219206680584551,0.2894736842105263
bhwiki,False,96.0,0.8852459016393442,0.12413793103448276,0.9090696039371924,0.0018267223382045928,0.21774193548387097
bhwiki,False,97.0,0.9534883720930233,0.09425287356321839,0.9071947504101242,0.0005219206680584551,0.17154811715481172
bhwiki,False,98.0,0.9411764705882353,0.0735632183908046,0.9050855401921725,0.0005219206680584551,0.13646055437100213
bhwiki,False,99.0,0.9583333333333334,0.052873563218390804,0.9032106866651043,0.00026096033402922753,0.10021786492374726
