wiki_db,user_is_anonymous_or_bot,threshold,precision,recall,accuracy,fpr,F1
csbwiki,True,0.0,0.0872093023255814,1.0,0.0872093023255814,1.0,0.16042780748663102
csbwiki,True,1.0,0.0872093023255814,1.0,0.0872093023255814,1.0,0.16042780748663102
csbwiki,True,2.0,0.0872093023255814,1.0,0.0872093023255814,1.0,0.16042780748663102
csbwiki,True,3.0,0.0872093023255814,1.0,0.0872093023255814,1.0,0.16042780748663102
csbwiki,True,4.0,0.0872093023255814,1.0,0.0872093023255814,1.0,0.16042780748663102
csbwiki,True,5.0,0.0872093023255814,1.0,0.0872093023255814,1.0,0.16042780748663102
csbwiki,True,6.0,0.08771929824561403,1.0,0.09302325581395349,0.9936305732484076,0.16129032258064516
csbwiki,True,7.0,0.08982035928143713,1.0,0.11627906976744186,0.9681528662420382,0.16483516483516483
csbwiki,True,8.0,0.09090909090909091,1.0,0.12790697674418605,0.9554140127388535,0.16666666666666669
csbwiki,True,9.0,0.09090909090909091,1.0,0.12790697674418605,0.9554140127388535,0.16666666666666669
csbwiki,True,10.0,0.09090909090909091,1.0,0.12790697674418605,0.9554140127388535,0.16666666666666669
csbwiki,True,11.0,0.09146341463414634,1.0,0.13372093023255813,0.9490445859872612,0.16759776536312848
csbwiki,True,12.0,0.09146341463414634,1.0,0.13372093023255813,0.9490445859872612,0.16759776536312848
csbwiki,True,13.0,0.09146341463414634,1.0,0.13372093023255813,0.9490445859872612,0.16759776536312848
csbwiki,True,14.0,0.09146341463414634,1.0,0.13372093023255813,0.9490445859872612,0.16759776536312848
csbwiki,True,15.0,0.09202453987730061,1.0,0.13953488372093023,0.9426751592356688,0.16853932584269662
csbwiki,True,16.0,0.09202453987730061,1.0,0.13953488372093023,0.9426751592356688,0.16853932584269662
csbwiki,True,17.0,0.09259259259259259,1.0,0.14534883720930233,0.9363057324840764,0.1694915254237288
csbwiki,True,18.0,0.09259259259259259,1.0,0.14534883720930233,0.9363057324840764,0.1694915254237288
csbwiki,True,19.0,0.09259259259259259,1.0,0.14534883720930233,0.9363057324840764,0.1694915254237288
csbwiki,True,20.0,0.09259259259259259,1.0,0.14534883720930233,0.9363057324840764,0.1694915254237288
csbwiki,True,21.0,0.09259259259259259,1.0,0.14534883720930233,0.9363057324840764,0.1694915254237288
csbwiki,True,22.0,0.09259259259259259,1.0,0.14534883720930233,0.9363057324840764,0.1694915254237288
csbwiki,True,23.0,0.09259259259259259,1.0,0.14534883720930233,0.9363057324840764,0.1694915254237288
csbwiki,True,24.0,0.09259259259259259,1.0,0.14534883720930233,0.9363057324840764,0.1694915254237288
csbwiki,True,25.0,0.09259259259259259,1.0,0.14534883720930233,0.9363057324840764,0.1694915254237288
csbwiki,True,26.0,0.09259259259259259,1.0,0.14534883720930233,0.9363057324840764,0.1694915254237288
csbwiki,True,27.0,0.09316770186335403,1.0,0.1511627906976744,0.9299363057324841,0.17045454545454544
csbwiki,True,28.0,0.09316770186335403,1.0,0.1511627906976744,0.9299363057324841,0.17045454545454544
csbwiki,True,29.0,0.09375,1.0,0.1569767441860465,0.9235668789808917,0.17142857142857143
csbwiki,True,30.0,0.0949367088607595,1.0,0.1686046511627907,0.910828025477707,0.17341040462427745
csbwiki,True,31.0,0.09615384615384616,1.0,0.18023255813953487,0.8980891719745223,0.17543859649122806
csbwiki,True,32.0,0.09740259740259741,1.0,0.19186046511627908,0.8853503184713376,0.1775147928994083
csbwiki,True,33.0,0.09868421052631579,1.0,0.20348837209302326,0.8726114649681529,0.17964071856287428
csbwiki,True,34.0,0.09933774834437085,1.0,0.20930232558139536,0.8662420382165605,0.18072289156626503
csbwiki,True,35.0,0.09933774834437085,1.0,0.20930232558139536,0.8662420382165605,0.18072289156626503
csbwiki,True,36.0,0.1,1.0,0.21511627906976744,0.8598726114649682,0.18181818181818182
csbwiki,True,37.0,0.10273972602739725,1.0,0.23837209302325582,0.8343949044585988,0.18633540372670807
csbwiki,True,38.0,0.10714285714285714,1.0,0.27325581395348836,0.7961783439490446,0.19354838709677416
csbwiki,True,39.0,0.11029411764705882,1.0,0.29651162790697677,0.7707006369426752,0.1986754966887417
csbwiki,True,40.0,0.11363636363636363,1.0,0.31976744186046513,0.7452229299363057,0.20408163265306123
csbwiki,True,41.0,0.11538461538461539,1.0,0.3313953488372093,0.732484076433121,0.20689655172413793
csbwiki,True,42.0,0.11904761904761904,1.0,0.3546511627906977,0.7070063694267515,0.21276595744680848
csbwiki,True,43.0,0.12096774193548387,1.0,0.36627906976744184,0.6942675159235668,0.2158273381294964
csbwiki,True,44.0,0.12195121951219512,1.0,0.37209302325581395,0.6878980891719745,0.21739130434782605
csbwiki,True,45.0,0.12295081967213115,1.0,0.37790697674418605,0.6815286624203821,0.218978102189781
csbwiki,True,46.0,0.12605042016806722,1.0,0.3953488372093023,0.6624203821656051,0.22388059701492538
csbwiki,True,47.0,0.1282051282051282,1.0,0.4069767441860465,0.6496815286624203,0.22727272727272727
csbwiki,True,48.0,0.12931034482758622,1.0,0.4127906976744186,0.643312101910828,0.22900763358778625
csbwiki,True,49.0,0.13157894736842105,1.0,0.42441860465116277,0.6305732484076433,0.23255813953488372
csbwiki,True,50.0,0.13274336283185842,1.0,0.43023255813953487,0.6242038216560509,0.23437500000000003
csbwiki,True,51.0,0.13392857142857142,1.0,0.436046511627907,0.6178343949044586,0.23622047244094488
csbwiki,True,52.0,0.13636363636363635,1.0,0.4476744186046512,0.6050955414012739,0.24000000000000002
csbwiki,True,53.0,0.13761467889908258,1.0,0.45348837209302323,0.5987261146496815,0.24193548387096775
csbwiki,True,54.0,0.1320754716981132,0.9333333333333333,0.45930232558139533,0.5859872611464968,0.23140495867768596
csbwiki,True,55.0,0.13592233009708737,0.9333333333333333,0.47674418604651164,0.5668789808917197,0.23728813559322035
csbwiki,True,56.0,0.13725490196078433,0.9333333333333333,0.48255813953488375,0.5605095541401274,0.23931623931623935
csbwiki,True,57.0,0.1414141414141414,0.9333333333333333,0.5,0.5414012738853503,0.24561403508771928
csbwiki,True,58.0,0.1414141414141414,0.9333333333333333,0.5,0.5414012738853503,0.24561403508771928
csbwiki,True,59.0,0.14285714285714285,0.9333333333333333,0.5058139534883721,0.535031847133758,0.24778761061946902
csbwiki,True,60.0,0.1368421052631579,0.8666666666666667,0.5116279069767442,0.5222929936305732,0.2363636363636364
csbwiki,True,61.0,0.13978494623655913,0.8666666666666667,0.5232558139534884,0.5095541401273885,0.24074074074074073
csbwiki,True,62.0,0.13978494623655913,0.8666666666666667,0.5232558139534884,0.5095541401273885,0.24074074074074073
csbwiki,True,63.0,0.14130434782608695,0.8666666666666667,0.5290697674418605,0.5031847133757962,0.24299065420560745
csbwiki,True,64.0,0.14285714285714285,0.8666666666666667,0.5348837209302325,0.4968152866242038,0.24528301886792456
csbwiki,True,65.0,0.14285714285714285,0.8666666666666667,0.5348837209302325,0.4968152866242038,0.24528301886792456
csbwiki,True,66.0,0.14444444444444443,0.8666666666666667,0.5406976744186046,0.49044585987261147,0.2476190476190476
csbwiki,True,67.0,0.14772727272727273,0.8666666666666667,0.5523255813953488,0.47770700636942676,0.25242718446601947
csbwiki,True,68.0,0.14942528735632185,0.8666666666666667,0.5581395348837209,0.4713375796178344,0.25490196078431376
csbwiki,True,69.0,0.1511627906976744,0.8666666666666667,0.563953488372093,0.46496815286624205,0.25742574257425743
csbwiki,True,70.0,0.15294117647058825,0.8666666666666667,0.5697674418604651,0.4585987261146497,0.26000000000000006
csbwiki,True,71.0,0.16049382716049382,0.8666666666666667,0.5930232558139535,0.43312101910828027,0.2708333333333333
csbwiki,True,72.0,0.1625,0.8666666666666667,0.5988372093023255,0.4267515923566879,0.27368421052631575
csbwiki,True,73.0,0.16883116883116883,0.8666666666666667,0.6162790697674418,0.40764331210191085,0.28260869565217395
csbwiki,True,74.0,0.1780821917808219,0.8666666666666667,0.6395348837209303,0.3821656050955414,0.2954545454545454
csbwiki,True,75.0,0.18309859154929578,0.8666666666666667,0.6511627906976745,0.36942675159235666,0.3023255813953489
csbwiki,True,76.0,0.17647058823529413,0.8,0.6569767441860465,0.35668789808917195,0.28915662650602414
csbwiki,True,77.0,0.18461538461538463,0.8,0.6744186046511628,0.3375796178343949,0.3
csbwiki,True,78.0,0.1746031746031746,0.7333333333333333,0.6744186046511628,0.33121019108280253,0.28205128205128205
csbwiki,True,79.0,0.1774193548387097,0.7333333333333333,0.6802325581395349,0.3248407643312102,0.2857142857142857
csbwiki,True,80.0,0.1724137931034483,0.6666666666666666,0.6918604651162791,0.3057324840764331,0.273972602739726
csbwiki,True,81.0,0.18867924528301888,0.6666666666666666,0.7209302325581395,0.27388535031847133,0.29411764705882354
csbwiki,True,82.0,0.2127659574468085,0.6666666666666666,0.7558139534883721,0.2356687898089172,0.3225806451612903
csbwiki,True,83.0,0.23809523809523808,0.6666666666666666,0.7848837209302325,0.20382165605095542,0.3508771929824562
csbwiki,True,84.0,0.24242424242424243,0.5333333333333333,0.813953488372093,0.1592356687898089,0.3333333333333333
csbwiki,True,85.0,0.25925925925925924,0.4666666666666667,0.8372093023255814,0.12738853503184713,0.33333333333333337
csbwiki,True,86.0,0.3181818181818182,0.4666666666666667,0.8662790697674418,0.09554140127388536,0.3783783783783784
csbwiki,True,87.0,0.3333333333333333,0.4,0.877906976744186,0.07643312101910828,0.3636363636363636
csbwiki,True,88.0,0.35714285714285715,0.3333333333333333,0.8895348837209303,0.05732484076433121,0.3448275862068965
csbwiki,True,89.0,0.4166666666666667,0.3333333333333333,0.9011627906976745,0.044585987261146494,0.3703703703703704
csbwiki,True,90.0,0.375,0.2,0.9011627906976745,0.03184713375796178,0.26086956521739135
csbwiki,True,91.0,0.3333333333333333,0.13333333333333333,0.9011627906976745,0.025477707006369428,0.19047619047619044
csbwiki,True,92.0,0.25,0.06666666666666667,0.9011627906976745,0.01910828025477707,0.10526315789473685
csbwiki,True,93.0,0.25,0.06666666666666667,0.9011627906976745,0.01910828025477707,0.10526315789473685
csbwiki,True,94.0,0.0,0.0,0.9011627906976745,0.012738853503184714,0.10526315789473685
csbwiki,True,95.0,0.0,0.0,0.9069767441860465,0.006369426751592357,0.10526315789473685
csbwiki,True,96.0,0.0,0.0,0.9127906976744186,0.0,0.10526315789473685
csbwiki,True,97.0,0.0,0.0,0.9127906976744186,0.0,0.10526315789473685
csbwiki,True,98.0,0.0,0.0,0.9127906976744186,0.0,0.10526315789473685
csbwiki,True,99.0,0.0,0.0,0.9127906976744186,0.0,0.10526315789473685
csbwiki,False,0.0,0.05168986083499006,1.0,0.05168986083499006,1.0,0.09829867674858224
csbwiki,False,1.0,0.05168986083499006,1.0,0.05168986083499006,1.0,0.09829867674858224
csbwiki,False,2.0,0.05168986083499006,1.0,0.05168986083499006,1.0,0.09829867674858224
csbwiki,False,3.0,0.05168986083499006,1.0,0.05168986083499006,1.0,0.09829867674858224
csbwiki,False,4.0,0.05168986083499006,1.0,0.05168986083499006,1.0,0.09829867674858224
csbwiki,False,5.0,0.05168986083499006,1.0,0.05168986083499006,1.0,0.09829867674858224
csbwiki,False,6.0,0.05179282868525897,1.0,0.0536779324055666,0.9979035639412998,0.0984848484848485
csbwiki,False,7.0,0.05220883534136546,1.0,0.061630218687872766,0.989517819706499,0.09923664122137404
csbwiki,False,8.0,0.05241935483870968,1.0,0.06560636182902585,0.9853249475890985,0.09961685823754789
csbwiki,False,9.0,0.052525252525252523,1.0,0.06759443339960239,0.9832285115303984,0.0998080614203455
csbwiki,False,10.0,0.052525252525252523,1.0,0.06759443339960239,0.9832285115303984,0.0998080614203455
csbwiki,False,11.0,0.053388090349075976,1.0,0.08349900596421471,0.9664570230607966,0.10136452241715399
csbwiki,False,12.0,0.05416666666666667,1.0,0.09741550695825049,0.9517819706498952,0.10276679841897234
csbwiki,False,13.0,0.0546218487394958,1.0,0.10536779324055666,0.9433962264150944,0.10358565737051792
csbwiki,False,14.0,0.05531914893617021,1.0,0.1172962226640159,0.9308176100628931,0.10483870967741934
csbwiki,False,15.0,0.05664488017429194,1.0,0.13916500994035785,0.9077568134171907,0.1072164948453608
csbwiki,False,16.0,0.05714285714285714,1.0,0.147117296222664,0.89937106918239,0.1081081081081081
csbwiki,False,17.0,0.058426966292134834,1.0,0.16699801192842942,0.8784067085953878,0.11040339702760085
csbwiki,False,18.0,0.06018518518518518,1.0,0.19284294234592445,0.8511530398322851,0.11353711790393013
csbwiki,False,19.0,0.0625,1.0,0.22465208747514911,0.8176100628930818,0.11764705882352941
csbwiki,False,20.0,0.06326034063260341,1.0,0.2345924453280318,0.8071278825995807,0.11899313501144167
csbwiki,False,21.0,0.06467661691542288,1.0,0.2524850894632207,0.7882599580712788,0.12149532710280372
csbwiki,False,22.0,0.06683804627249357,1.0,0.2783300198807157,0.7610062893081762,0.1253012048192771
csbwiki,False,23.0,0.06788511749347259,1.0,0.29025844930417494,0.7484276729559748,0.1271393643031785
csbwiki,False,24.0,0.06896551724137931,1.0,0.30218687872763417,0.7358490566037735,0.12903225806451613
csbwiki,False,25.0,0.06989247311827956,1.0,0.3121272365805169,0.7253668763102725,0.13065326633165827
csbwiki,False,26.0,0.07027027027027027,1.0,0.31610337972166996,0.7211740041928721,0.13131313131313133
csbwiki,False,27.0,0.07123287671232877,1.0,0.3260437375745527,0.710691823899371,0.1329923273657289
csbwiki,False,28.0,0.07162534435261708,1.0,0.33001988071570576,0.7064989517819706,0.13367609254498714
csbwiki,False,29.0,0.07222222222222222,1.0,0.3359840954274354,0.70020964360587,0.13471502590673573
csbwiki,False,30.0,0.07344632768361582,1.0,0.34791252485089463,0.6876310272536688,0.13684210526315788
csbwiki,False,31.0,0.07471264367816093,1.0,0.35984095427435386,0.6750524109014675,0.13903743315508024
csbwiki,False,32.0,0.07602339181286549,1.0,0.3717693836978131,0.6624737945492662,0.14130434782608695
csbwiki,False,33.0,0.07738095238095238,1.0,0.3836978131212724,0.649895178197065,0.14364640883977903
csbwiki,False,34.0,0.07807807807807808,1.0,0.38966202783300197,0.6436058700209644,0.14484679665738162
csbwiki,False,35.0,0.07878787878787878,1.0,0.3956262425447316,0.6373165618448637,0.14606741573033705
csbwiki,False,36.0,0.0790273556231003,1.0,0.3976143141153082,0.6352201257861635,0.14647887323943662
csbwiki,False,37.0,0.08,1.0,0.40556660039761433,0.6268343815513627,0.14814814814814814
csbwiki,False,38.0,0.08253968253968254,1.0,0.4254473161033797,0.6058700209643606,0.15249266862170088
csbwiki,False,39.0,0.08387096774193549,1.0,0.43538767395626243,0.5953878406708596,0.15476190476190477
csbwiki,False,40.0,0.08552631578947369,1.0,0.44731610337972166,0.5828092243186582,0.1575757575757576
csbwiki,False,41.0,0.087248322147651,1.0,0.4592445328031809,0.570230607966457,0.16049382716049382
csbwiki,False,42.0,0.08934707903780069,1.0,0.4731610337972167,0.5555555555555556,0.1640378548895899
csbwiki,False,43.0,0.09252669039145907,1.0,0.49304174950298213,0.5345911949685535,0.16938110749185667
csbwiki,False,44.0,0.0931899641577061,1.0,0.4970178926441352,0.5303983228511531,0.17049180327868854
csbwiki,False,45.0,0.09420289855072464,1.0,0.5029821073558648,0.5241090146750524,0.17218543046357618
csbwiki,False,46.0,0.09665427509293681,1.0,0.5168986083499006,0.5094339622641509,0.17627118644067796
csbwiki,False,47.0,0.09774436090225563,1.0,0.5228628230616302,0.5031446540880503,0.1780821917808219
csbwiki,False,48.0,0.09885931558935361,1.0,0.5288270377733598,0.4968553459119497,0.17993079584775087
csbwiki,False,49.0,0.10038610038610038,1.0,0.536779324055666,0.48846960167714887,0.18245614035087718
csbwiki,False,50.0,0.1015625,1.0,0.5427435387673957,0.48218029350104824,0.18439716312056736
csbwiki,False,51.0,0.10441767068273092,1.0,0.5566600397614314,0.46750524109014674,0.1890909090909091
csbwiki,False,52.0,0.10569105691056911,1.0,0.562624254473161,0.4612159329140461,0.1911764705882353
csbwiki,False,53.0,0.10655737704918032,1.0,0.5666003976143141,0.4570230607966457,0.1925925925925926
csbwiki,False,54.0,0.10504201680672269,0.9615384615384616,0.5745526838966203,0.44654088050314467,0.1893939393939394
csbwiki,False,55.0,0.1091703056768559,0.9615384615384616,0.5924453280318092,0.4276729559748428,0.19607843137254902
csbwiki,False,56.0,0.1111111111111111,0.9615384615384616,0.6003976143141153,0.4192872117400419,0.199203187250996
csbwiki,False,57.0,0.11574074074074074,0.9615384615384616,0.6182902584493042,0.40041928721174,0.20661157024793386
csbwiki,False,58.0,0.11737089201877934,0.9615384615384616,0.6242544731610338,0.3941299790356394,0.2092050209205021
csbwiki,False,59.0,0.11904761904761904,0.9615384615384616,0.6302186878727635,0.38784067085953877,0.21186440677966104
csbwiki,False,60.0,0.11822660098522167,0.9230769230769231,0.6401590457256461,0.3752620545073375,0.2096069868995633
csbwiki,False,61.0,0.1218274111675127,0.9230769230769231,0.6520874751491054,0.36268343815513626,0.2152466367713005
csbwiki,False,62.0,0.125,0.9230769230769231,0.6620278330019881,0.3522012578616352,0.22018348623853212
csbwiki,False,63.0,0.12299465240641712,0.8846153846153846,0.6679920477137177,0.3438155136268344,0.21596244131455397
csbwiki,False,64.0,0.12432432432432433,0.8846153846153846,0.6719681908548708,0.33962264150943394,0.21800947867298578
csbwiki,False,65.0,0.12637362637362637,0.8846153846153846,0.6779324055666004,0.3333333333333333,0.22115384615384615
csbwiki,False,66.0,0.12429378531073447,0.8461538461538461,0.68389662027833,0.3249475890985325,0.21674876847290642
csbwiki,False,67.0,0.12790697674418605,0.8461538461538461,0.6938369781312127,0.31446540880503143,0.22222222222222224
csbwiki,False,68.0,0.12941176470588237,0.8461538461538461,0.6978131212723658,0.31027253668763105,0.22448979591836737
csbwiki,False,69.0,0.13253012048192772,0.8461538461538461,0.705765407554672,0.3018867924528302,0.22916666666666669
csbwiki,False,70.0,0.1375,0.8461538461538461,0.7176938369781312,0.2893081761006289,0.23655913978494622
csbwiki,False,71.0,0.14285714285714285,0.8461538461538461,0.7296222664015904,0.27672955974842767,0.2444444444444444
csbwiki,False,72.0,0.14666666666666667,0.8461538461538461,0.7375745526838966,0.26834381551362685,0.25000000000000006
csbwiki,False,73.0,0.1527777777777778,0.8461538461538461,0.7495029821073559,0.2557651991614256,0.25882352941176473
csbwiki,False,74.0,0.16417910447761194,0.8461538461538461,0.7693836978131213,0.2348008385744235,0.275
csbwiki,False,75.0,0.171875,0.8461538461538461,0.7813121272365805,0.2222222222222222,0.2857142857142857
csbwiki,False,76.0,0.1652892561983471,0.7692307692307693,0.7872763419483101,0.21174004192872117,0.27210884353741494
csbwiki,False,77.0,0.17391304347826086,0.7692307692307693,0.7992047713717694,0.19916142557651992,0.2836879432624113
csbwiki,False,78.0,0.17272727272727273,0.7307692307692307,0.805168986083499,0.19077568134171907,0.27941176470588236
csbwiki,False,79.0,0.18811881188118812,0.7307692307692307,0.8230616302186878,0.1719077568134172,0.2992125984251968
csbwiki,False,80.0,0.18947368421052632,0.6923076923076923,0.831013916500994,0.16142557651991615,0.2975206611570248
csbwiki,False,81.0,0.20224719101123595,0.6923076923076923,0.8429423459244533,0.1488469601677149,0.3130434782608696
csbwiki,False,82.0,0.2222222222222222,0.6923076923076923,0.8588469184890656,0.1320754716981132,0.3364485981308411
csbwiki,False,83.0,0.24324324324324326,0.6923076923076923,0.8727634194831014,0.11740041928721175,0.36000000000000004
csbwiki,False,84.0,0.25,0.6153846153846154,0.8846918489065606,0.10062893081761007,0.35555555555555557
csbwiki,False,85.0,0.23529411764705882,0.46153846153846156,0.8946322067594433,0.08176100628930817,0.31168831168831174
csbwiki,False,86.0,0.24444444444444444,0.4230769230769231,0.9025844930417495,0.07127882599580712,0.30985915492957744
csbwiki,False,87.0,0.2564102564102564,0.38461538461538464,0.9105367793240556,0.06079664570230608,0.3076923076923077
csbwiki,False,88.0,0.3,0.34615384615384615,0.9244532803180915,0.0440251572327044,0.32142857142857145
csbwiki,False,89.0,0.34615384615384615,0.34615384615384615,0.9324055666003976,0.03563941299790356,0.34615384615384615
csbwiki,False,90.0,0.3333333333333333,0.23076923076923078,0.9363817097415507,0.025157232704402517,0.27272727272727276
csbwiki,False,91.0,0.35714285714285715,0.19230769230769232,0.9403578528827038,0.018867924528301886,0.25
csbwiki,False,92.0,0.3333333333333333,0.15384615384615385,0.9403578528827038,0.016771488469601678,0.21052631578947367
csbwiki,False,93.0,0.3333333333333333,0.15384615384615385,0.9403578528827038,0.016771488469601678,0.21052631578947367
csbwiki,False,94.0,0.3333333333333333,0.11538461538461539,0.9423459244532804,0.012578616352201259,0.17142857142857146
csbwiki,False,95.0,0.42857142857142855,0.11538461538461539,0.9463220675944334,0.008385744234800839,0.18181818181818182
csbwiki,False,96.0,0.5,0.11538461538461539,0.94831013916501,0.006289308176100629,0.1875
csbwiki,False,97.0,0.5,0.11538461538461539,0.94831013916501,0.006289308176100629,0.1875
csbwiki,False,98.0,0.6666666666666666,0.07692307692307693,0.9502982107355865,0.0020964360587002098,0.13793103448275862
csbwiki,False,99.0,1.0,0.07692307692307693,0.952286282306163,0.0,0.14285714285714288
