wiki_db,user_is_anonymous_or_bot,threshold,precision,recall,accuracy,fpr,F1
cswiki,True,0.0,0.1920678961971601,1.0,0.1920678961971601,1.0,0.32224321586023713
cswiki,True,1.0,0.1920678961971601,1.0,0.1920678961971601,1.0,0.32224321586023713
cswiki,True,2.0,0.19210050343129892,1.0,0.1922376366900604,0.9997899074784857,0.322289107132098
cswiki,True,3.0,0.19347710277607877,0.9999320190346703,0.1993928513138567,0.9909175386853056,0.3242206657886471
cswiki,True,4.0,0.19884511880130365,0.9995921142080217,0.22638811816549698,0.957423942466971,0.3317053362960624
cswiki,True,5.0,0.2085204816541428,0.9988783140720598,0.2715717316794516,0.9013292392226576,0.3450170530258114
cswiki,True,6.0,0.22079242980162886,0.9961250849762067,0.324047657907622,0.8357238091390247,0.3614655475451894
cswiki,True,7.0,0.23298080376741032,0.9921481985044187,0.3711310592459605,0.7765019595167872,0.37735044116221195
cswiki,True,8.0,0.24427878238385467,0.989055064581917,0.41020401501550513,0.7274049533352188,0.39179199935370074
cswiki,True,9.0,0.2548102243600997,0.9867097212780421,0.44321201240411295,0.6859924851521151,0.4050256725080924
cswiki,True,10.0,0.2648327151131982,0.9852821210061183,0.4718459278602905,0.6502121126419135,0.4174575514495154
cswiki,True,11.0,0.2746135609293504,0.9842963970088375,0.4976073118981557,0.6180921982950184,0.4294209238525988
cswiki,True,12.0,0.28460683331857667,0.9833446634942217,0.5220564713562919,0.5876045412306573,0.4414468714951667
cswiki,True,13.0,0.29395794354510696,0.9826308633582597,0.5433589032152767,0.5610682396670842,0.45253749099902946
cswiki,True,14.0,0.302877154720463,0.9818490822569681,0.562461237147054,0.5372388994384065,0.4629463427142766
cswiki,True,15.0,0.31068326858298984,0.9812712440516655,0.5782405745062836,0.517571007232031,0.4719431752233511
cswiki,True,16.0,0.31836239240785696,0.9806254248810333,0.593014525869104,0.4991313482283544,0.48067310896367876
cswiki,True,17.0,0.32545801397464696,0.9800135961930659,0.6060388444589522,0.48286533877419097,0.4886406968959995
cswiki,True,18.0,0.3318060943741582,0.9797076818490823,0.6171633752244166,0.4690234737990384,0.49572179177380105
cswiki,True,19.0,0.3374048483428973,0.979299796057104,0.6266492573853436,0.4571855682598683,0.5018900792613884
cswiki,True,20.0,0.3429054456270686,0.9789938817131203,0.6356455035090582,0.445977940285241,0.5079090764808577
cswiki,True,21.0,0.34752859970072886,0.9788919102651258,0.6429574016647626,0.4369035594521434,0.5129488458250214
cswiki,True,22.0,0.35187289948059886,0.9786539768864718,0.6496752080953159,0.4285321805179589,0.5176322531349723
cswiki,True,23.0,0.355969724702565,0.9783480625424881,0.655870736086176,0.42079107914831726,0.5220080161047534
cswiki,True,24.0,0.35966205913965055,0.9781781101291638,0.6613154888199771,0.41401155508868326,0.5259425772611802
cswiki,True,25.0,0.36344346771749014,0.9781101291638341,0.6667602415537783,0.40725627247383944,0.5299642712438765
cswiki,True,26.0,0.3667482597720493,0.9778042148198505,0.6714607475110168,0.40136560138984284,0.5334235754417845
cswiki,True,27.0,0.36983359481494815,0.9775322909585316,0.6757695446384854,0.3959678396832451,0.5366386146927655
cswiki,True,28.0,0.37242888969483445,0.9773283480625425,0.6793340949893912,0.391507413841865,0.5393344837935174
cswiki,True,29.0,0.3750603336942484,0.9772603670972128,0.6828790598988086,0.38710355137166175,0.5420779245265233
cswiki,True,30.0,0.3772908680354986,0.9768524813052345,0.6858886894075404,0.38328148357642117,0.5443404803394196
cswiki,True,31.0,0.3794601589942688,0.9767165193745752,0.6887481638648605,0.37970991071067833,0.546573336123105
cswiki,True,32.0,0.38171985862719565,0.976512576478586,0.6916990370491268,0.3760090501393883,0.5488813740662195
cswiki,True,33.0,0.3838250227139116,0.9764445955132562,0.694401827974539,0.3726475697951598,0.5510435049489757
cswiki,True,34.0,0.38571044856298686,0.9762066621346023,0.6968173657581198,0.3696012282332027,0.5529457065845206
cswiki,True,35.0,0.3876559209460554,0.9760707002039429,0.6992720744246776,0.3665306452264555,0.554919996908093
cswiki,True,36.0,0.3893793309195449,0.9760027192386131,0.7014199445079158,0.36385600581794675,0.5566724503940367
cswiki,True,37.0,0.39080303298438585,0.975798776342624,0.7031956912028725,0.36160963193406326,0.5580925164513652
cswiki,True,38.0,0.39206687428290443,0.9756628144119647,0.7047559980414558,0.35964607490606443,0.5593577051991582
cswiki,True,39.0,0.39329322607611245,0.9754928619986404,0.7062640770360699,0.3577390812492425,0.5605766131788926
cswiki,True,40.0,0.39459065533646837,0.9754248810333107,0.7078374408356455,0.3557755242212436,0.5618820120220077
cswiki,True,41.0,0.3957301852183867,0.9753229095853161,0.7092149502203362,0.3540463011595491,0.5630193566109744
cswiki,True,42.0,0.3968271531514087,0.9752209381373216,0.7105337032805614,0.35238980243222495,0.5641116386980073
cswiki,True,43.0,0.39790002219263204,0.9750849762066621,0.7118198139383058,0.3507656256312876,0.5651719925923007
cswiki,True,44.0,0.3988708578421148,0.9749830047586676,0.712975354986127,0.34931113894388105,0.5661334412284251
cswiki,True,45.0,0.3998354873339189,0.9748130523453433,0.714124367553452,0.34784857177487777,0.5670756423818798
cswiki,True,46.0,0.40074074074074073,0.9746091094493542,0.7152015668353191,0.34646680942184155,0.5679508764979696
cswiki,True,47.0,0.4016139652829343,0.9743711760707002,0.7162395952342092,0.3451254494767888,0.5687867694475034
cswiki,True,48.0,0.4024857804929429,0.9741332426920463,0.7172710951526032,0.3437921700133328,0.5696198757763975
cswiki,True,49.0,0.4032060574500725,0.9737933378653977,0.718132854578097,0.34264474162660097,0.5702825634747644
cswiki,True,50.0,0.404022453527404,0.9736913664174032,0.7190794842500408,0.3414488303502889,0.5710811187974721
cswiki,True,51.0,0.40487163537661164,0.9734534330387492,0.7200718132854578,0.3401640337764131,0.5718878549462839
cswiki,True,52.0,0.40567387946548766,0.9730795377294358,0.7210184429574017,0.3389034786473274,0.5726229885287382
cswiki,True,53.0,0.406614951837013,0.972807613868117,0.7221086992002611,0.3374893943679043,0.5735126144720758
cswiki,True,54.0,0.4075641025641026,0.9725016995241332,0.7232054839236168,0.3360591491252879,0.5744027303754267
cswiki,True,55.0,0.408650548696845,0.972093813732155,0.7244589521788803,0.3344107308795604,0.5754094402639732
cswiki,True,56.0,0.4097072905019925,0.9715159755268524,0.7256863065121593,0.33275423215223626,0.5763545804682301
cswiki,True,57.0,0.41087100394210574,0.970700203942896,0.7270442304553615,0.33087956042180117,0.5773608555890262
cswiki,True,58.0,0.41208243670657557,0.9698504418762747,0.7284478537620369,0.32894024483859235,0.5784048408185606
cswiki,True,59.0,0.41344759584710866,0.9691706322229776,0.7299951036396278,0.32686356106823966,0.579626768580257
cswiki,True,60.0,0.4149407206734831,0.9683548606390211,0.7316794516076384,0.32458486525796937,0.5809457778502823
cswiki,True,61.0,0.41664714837803024,0.9674371176070701,0.7335857679125184,0.32200719162862107,0.5824499652109852
cswiki,True,62.0,0.41834376150165625,0.9658735554044867,0.7355116696588869,0.3192517474041453,0.583820432482408
cswiki,True,63.0,0.4205597783408158,0.9647858599592114,0.7379272074424678,0.3160033938022706,0.5857745766734427
cswiki,True,64.0,0.4229001939430106,0.9635282121006118,0.7404537293944834,0.3125772696052685,0.5878071539657854
cswiki,True,65.0,0.42577372350674375,0.9614208021753909,0.7435482291496655,0.3082461314694356,0.5901806952384927
cswiki,True,66.0,0.4287320178037035,0.95931339225017,0.7466753713073282,0.3038745909256192,0.5926151455658326
cswiki,True,67.0,0.431880276285495,0.9563902107409925,0.7499853109188837,0.2990828653387742,0.5950512847626097
cswiki,True,68.0,0.43554120550752085,0.9537049626104691,0.7537130732821936,0.29383055230091715,0.5979902174955509
cswiki,True,69.0,0.43966547192353644,0.9506458191706322,0.7578194875142811,0.28802068603288755,0.6012554819846934
cswiki,True,70.0,0.4437911308698631,0.9466689326988443,0.7618736739023992,0.2820572906145206,0.6042939127982034
cswiki,True,71.0,0.4483829236739974,0.9424881033310673,0.7662542843153256,0.27564138822673834,0.6076703922857769
cswiki,True,72.0,0.45381678132920766,0.937219578518015,0.7712942712583646,0.26815078178659446,0.6115238750027723
cswiki,True,73.0,0.4601434064919145,0.931407205982325,0.7769414068875469,0.25977940285241,0.6159759921772263
cswiki,True,74.0,0.4666758232324967,0.9239292997960571,0.7825885425167293,0.25101208031998706,0.6201263887938311
cswiki,True,75.0,0.47430050536176505,0.915567641060503,0.7888754692345357,0.24124277806957295,0.6248854554523205
cswiki,True,76.0,0.48279669146259796,0.9066961250849762,0.7955214623796312,0.2309078421073896,0.6300858617472334
cswiki,True,77.0,0.4921432708656415,0.8953093133922502,0.8024416517055656,0.2196355702799887,0.6351502875538032
cswiki,True,78.0,0.5018268989115936,0.882324949014276,0.809165986616615,0.2082259302654438,0.6397771944742258
cswiki,True,79.0,0.5134106560347952,0.8666553365057784,0.816628039823731,0.19526483778433196,0.6448243595255557
cswiki,True,80.0,0.5260984960188735,0.8489462950373895,0.8241096784723355,0.18179467496262777,0.6496215569485265
cswiki,True,81.0,0.5386862606232294,0.8273283480625425,0.830755671617431,0.16842955840168075,0.6525119296552464
cswiki,True,82.0,0.5526715062673607,0.8047926580557444,0.8373951362820303,0.15485434931921943,0.6553189133834295
cswiki,True,83.0,0.5665263679128497,0.7777702243371856,0.843016157989228,0.14147307179507898,0.6555507806904456
cswiki,True,84.0,0.5815078759828542,0.751631543167913,0.8484021543985637,0.12859278412993413,0.655714857591887
cswiki,True,85.0,0.5976872091383444,0.7202923181509178,0.8531548881997715,0.11525998949537393,0.6532870905587668
cswiki,True,86.0,0.6135859154073038,0.6858939496940857,0.856706381589685,0.1026867601309038,0.6477281846341503
cswiki,True,87.0,0.6324868073878628,0.6518354860639021,0.8603819161090256,0.09004080643206334,0.6420154000669568
cswiki,True,88.0,0.6523419161460402,0.6140040788579197,0.8630128937489799,0.07779079633146135,0.6325926704137557
cswiki,True,89.0,0.6718824653607263,0.5735893949694085,0.8642990044067244,0.06659124883843077,0.6188572685932228
cswiki,True,90.0,0.6938902743142145,0.5296397008837526,0.8647821119634405,0.05554523049573755,0.6007402266944253
cswiki,True,91.0,0.7175603352519438,0.4830727396329028,0.8641945487187856,0.0452022140519575,0.5774184374111243
cswiki,True,92.0,0.7414752957550452,0.43460231135282124,0.862301289374898,0.0360227869581027,0.5480027430138865
cswiki,True,93.0,0.7680922174476502,0.3827668252889191,0.8592524889831892,0.027473637428790755,0.5109230734329984
cswiki,True,94.0,0.7985136251032204,0.32868796736913664,0.8551330177901093,0.01971637509595572,0.46568745485191426
cswiki,True,95.0,0.8265907915157786,0.27154996600951736,0.8491464011751265,0.013542887156074502,0.4088013304336703
cswiki,True,96.0,0.8684247637850797,0.20931339225016996,0.8420434143952995,0.007539089329724052,0.33732299854838266
cswiki,True,97.0,0.9040437158469945,0.14058463630183549,0.8320678961971602,0.003547331420952689,0.24332990145609648
cswiki,True,98.0,0.9544314381270903,0.07760027192386132,0.8221250204015016,0.0008807724940406448,0.14353074311580535
cswiki,True,99.0,0.9808394160583942,0.03653976886471788,0.8148131222457973,0.00016969011353076642,0.07045484336085989
cswiki,False,0.0,0.07514174597117672,1.0,0.07514174597117672,1.0,0.1397801662018083
cswiki,False,1.0,0.07517187927770216,1.0,0.07554260473398781,0.9995665727574308,0.13983230165618254
cswiki,False,2.0,0.07568824704482317,0.9999487047961015,0.08240538384153745,0.9921420474436128,0.14072473890233403
cswiki,False,3.0,0.07658454163228418,0.9997435239805078,0.09419410043824655,0.9793788654208412,0.14227056225705784
cswiki,False,4.0,0.07852457496260638,0.9990766863298282,0.1189664010977363,0.95253971693867,0.1456050117369137
cswiki,False,5.0,0.08183409715471275,0.9974608874070274,0.15887112005334506,0.9092615900111691,0.15125857589570468
cswiki,False,6.0,0.08584385058960879,0.9938445755321877,0.20427415655847334,0.8598758897761182,0.15803715810445135
cswiki,False,7.0,0.09013734992686198,0.9893562451910747,0.24877911525845753,0.8113903845833264,0.16522182341502692
cswiki,False,8.0,0.0944351297797751,0.9852013336753014,0.28899604151971725,0.7675683898177939,0.17234989545850193
cswiki,False,9.0,0.09859837038983386,0.9816619646063093,0.3242619766191418,0.7291496490906363,0.17919804485686397
cswiki,False,10.0,0.10278116594101634,0.9790202616055399,0.35624202618686956,0.6943566939503559,0.18603200440566206
cswiki,False,11.0,0.10710518395166259,0.976558091818415,0.38649529954556494,0.6614453965025756,0.19303862445531078
cswiki,False,12.0,0.11158906733893953,0.9740446268273917,0.4153397856176501,0.6300531781886075,0.20023831618019236
cswiki,False,13.0,0.11612612308626713,0.9709412669915363,0.4425076028260543,0.6004259256172171,0.20744186811109375
cswiki,False,14.0,0.12077149340818671,0.9677609643498333,0.46817412687950727,0.572415690066181,0.21474405488542297
cswiki,False,15.0,0.1254037190482063,0.9649653757373685,0.49167061743812707,0.5467830529948156,0.22196198965821368
cswiki,False,16.0,0.1301314739653797,0.9621184919210054,0.5138932251014674,0.5225236301198593,0.22925502658436717
cswiki,False,17.0,0.1348661905792397,0.9590407796870992,0.5346492293104844,0.4998312134295764,0.23647747035573122
cswiki,False,18.0,0.13969770185986402,0.9564760194921775,0.5541236418018601,0.4785661893410239,0.2437889163084868
cswiki,False,19.0,0.14446508663241273,0.9533213644524237,0.5722682824358337,0.45869104972744096,0.25090791267837614
cswiki,False,20.0,0.14912181805004146,0.9498589381892794,0.588977154904931,0.4403433243869505,0.2577746533771368
cswiki,False,21.0,0.15405222703487645,0.9468581687612209,0.6053082950783024,0.42244152899794957,0.26499088416428607
cswiki,False,22.0,0.1589235715026444,0.9433187996922288,0.620606453055199,0.40561288279127145,0.27201928837150824
cswiki,False,23.0,0.1639474802603619,0.939933316234932,0.6353168133270121,0.38943229366362714,0.27919626702218836
cswiki,False,24.0,0.16901251944588488,0.9362400615542447,0.6493141075303631,0.37399769950155864,0.2863350773019995
cswiki,False,25.0,0.1743682881363242,0.9332392921261862,0.66294137826035,0.3590194542150799,0.2938357242933109
cswiki,False,26.0,0.1796451405065173,0.9296486278532957,0.6757168241193634,0.3449143147681998,0.3011048346901478
cswiki,False,27.0,0.1851492916147492,0.9260836111823545,0.6881877714950876,0.33114049710770666,0.3086008777365167
cswiki,False,28.0,0.19068663296558888,0.9229546037445499,0.6998647101675513,0.3182606231350126,0.3160714599399231
cswiki,False,29.0,0.1962434169467772,0.9193895870736086,0.7109923952467402,0.3059392034940904,0.32344714332118235
cswiki,False,30.0,0.20181967166793818,0.9159528084124134,0.7214821752754941,0.2943179355527031,0.3307601472597189
cswiki,False,31.0,0.20747950222180753,0.9125160297512183,0.7315132803737238,0.2831926083984863,0.3380877266334714
cswiki,False,32.0,0.21334608513633,0.9096947935368043,0.7411705075874084,0.2725215463350393,0.3456326952217149
cswiki,False,33.0,0.21904732389128212,0.9063862528853552,0.7501474312276685,0.262546468401487,0.3528266566828903
cswiki,False,34.0,0.22491150499022403,0.9027955886124648,0.7589142894585709,0.2527756013802991,0.36010966976306424
cswiki,False,35.0,0.23046071102169097,0.8989740959220313,0.766848594874404,0.2438861753379899,0.3668705941459381
cswiki,False,36.0,0.23605460566331013,0.8958450884842267,0.774320370948532,0.23555311984263258,0.3736521181001284
cswiki,False,37.0,0.24170833333333333,0.892690433444473,0.781497284567323,0.227536799639922,0.3804142302858079
cswiki,False,38.0,0.2471593944790739,0.8898435496281097,0.7880555651915835,0.22021437978228617,0.38686477294901456
cswiki,False,39.0,0.252734406394529,0.8871761990253911,0.7944153436400289,0.21312117625485522,0.3933991822901562
cswiki,False,40.0,0.2579390312324668,0.8843293152090279,0.8001391442436296,0.20670103522429858,0.39938609446037127
cswiki,False,41.0,0.26307128259688173,0.881508078994614,0.8055468831303986,0.2006247186890493,0.4052134237999517
cswiki,False,42.0,0.2680706638618004,0.8791741472172352,0.8105460544319947,0.19502975644723022,0.41086400220540203
cswiki,False,43.0,0.2730032918917191,0.876327263400872,0.8153544323801375,0.18959941320619467,0.416312307336152
cswiki,False,44.0,0.27799753688554674,0.874198512439087,0.8199431088909702,0.1844649674096054,0.421846669843254
cswiki,False,45.0,0.28284844553121413,0.8722236470889971,0.824223432507333,0.1796764298931435,0.42717178314826915
cswiki,False,46.0,0.2875395030034991,0.8704283149525519,0.8282031120515875,0.17522754930234885,0.4322788961845381
cswiki,False,47.0,0.29226254692961634,0.8685047448063606,0.8320845041107295,0.1708745228132762,0.43735107035613957
cswiki,False,48.0,0.29670619235836626,0.8663759938445755,0.8356479072474493,0.16684865054095055,0.4420308819680712
cswiki,False,49.0,0.30087760804935315,0.8643498332905873,0.8388913942561564,0.16317702168803241,0.446373817045146
cswiki,False,50.0,0.3049846723140271,0.8624519107463452,0.8419807048176285,0.15968251454481805,0.4506191037735849
cswiki,False,51.0,0.3091887607936376,0.8605026929982047,0.8450507433231962,0.15620467768016402,0.4549195609580821
cswiki,False,52.0,0.3131952956146671,0.8585278276481149,0.8479030075970444,0.152960224715355,0.4589597515579048
cswiki,False,53.0,0.3173820517205343,0.8568094383175173,0.8507687623100257,0.1497220231050061,0.46318839775941434
cswiki,False,54.0,0.32136453895240114,0.8550654013849706,0.8534283060248301,0.1467047026855819,0.4671552279797102
cswiki,False,55.0,0.32542104336599964,0.8533726596563221,0.8560570144501876,0.14372489039291847,0.4711688238126256
cswiki,False,56.0,0.3292727651181001,0.8520133367530136,0.8584679486438255,0.14100763498758065,0.47498194868421995
cswiki,False,57.0,0.33312220379027796,0.8498076429853809,0.8608808100430537,0.1382195308983613,0.4786248239500199
cswiki,False,58.0,0.3370830061293382,0.847704539625545,0.8632859626199204,0.13544809708770233,0.4823595513816831
cswiki,False,59.0,0.3410369941239758,0.8454988458579122,0.8656313718234834,0.13273292546718457,0.4860306367670691
cswiki,False,60.0,0.3448804189272859,0.8428827904590921,0.8678842751587054,0.13008443496090819,0.48948101369516167
cswiki,False,61.0,0.34892783373437536,0.840523211079764,0.8701680137833744,0.12742344174571157,0.49313831708197914
cswiki,False,62.0,0.35297231314342503,0.8380353936906899,0.8723977906515111,0.12481037558137596,0.49672775366559996
cswiki,False,63.0,0.3573707581821172,0.8359579379328033,0.8747181461823984,0.12213271208761899,0.5006951111793847
cswiki,False,64.0,0.36165737371039364,0.8334444729417799,0.8769459958449447,0.11951964592328337,0.5044278695777031
cswiki,False,65.0,0.3663791151564552,0.830033341882534,0.8793646388609444,0.11662735259306183,0.5083646188404204
cswiki,False,66.0,0.37090725017832077,0.8268786868427802,0.8816079061682142,0.11394552152966476,0.5121036914670564
cswiki,False,67.0,0.3757570078131406,0.8227237753270069,0.8839764418388625,0.11104697684498308,0.5158935018776285
cswiki,False,68.0,0.38076106912090796,0.8191587586560657,0.886306433397702,0.1082380349075633,0.5198743407773945
cswiki,False,69.0,0.3862032892175944,0.8142857142857143,0.8888002374317288,0.1051456982346175,0.523919536626017
cswiki,False,70.0,0.3919178881262954,0.809899974352398,0.8912921142601651,0.10209503725807258,0.5282236143288476
cswiki,False,71.0,0.3977745107979317,0.8049756347781483,0.8937685734438778,0.09901728707886709,0.5324443992060665
cswiki,False,72.0,0.4045245697375594,0.7993588099512695,0.8965052053822997,0.09560196375881441,0.5371953531662588
cswiki,False,73.0,0.4119669051520844,0.793049499871762,0.8993902321511854,0.09196992681747712,0.5422501249484862
cswiki,False,74.0,0.4195284258954979,0.7858168761220826,0.9022058795188153,0.08833788987613983,0.5470175501240827
cswiki,False,75.0,0.42820835039464583,0.7778148243139267,0.9052605003796595,0.08438495007251572,0.5523389762596415
cswiki,False,76.0,0.43721018402403106,0.7689920492433957,0.9082611594839715,0.08042367512961142,0.5574706232336755
cswiki,False,77.0,0.4469126847402303,0.7585021800461657,0.9113177075504061,0.07626652441362296,0.5624358145372942
cswiki,False,78.0,0.45732502080748755,0.7469094639651193,0.9143838916447928,0.07200935202627236,0.5672987951572529
cswiki,False,79.0,0.4689909762100082,0.7331367017183893,0.9175734168969677,0.06744169570073516,0.5720432259355613
cswiki,False,80.0,0.4814719151427489,0.7171325981020774,0.9207109075982007,0.0627490122859953,0.5761353333882799
cswiki,False,81.0,0.4942002940695965,0.6982559630674532,0.9236267696565335,0.058062580225715574,0.5787689069824297
cswiki,False,82.0,0.5081960912427695,0.6782508335470634,0.9265021603974669,0.053328221114574824,0.5810363957946544
cswiki,False,83.0,0.5223950773759634,0.6553988202103104,0.9290807614774729,0.04868346475069599,0.5813871477811778
cswiki,False,84.0,0.538027001679426,0.6326750448833034,0.9315784199226805,0.044136646273359226,0.5815250061881918
cswiki,False,85.0,0.5548956548275781,0.6062580148756092,0.9338717945753017,0.03951064397286078,0.5794408559977448
cswiki,False,86.0,0.5717877094972067,0.5775070530905361,0.9357546744371597,0.03513886342040776,0.5746331504402195
cswiki,False,87.0,0.5914608854353898,0.5485765580918184,0.9376067190095705,0.030785836931335124,0.5692121405665775
cswiki,False,88.0,0.6118001094291446,0.5162092844319056,0.939034778352085,0.026612015936786304,0.559954373469842
cswiki,False,89.0,0.630626996133804,0.48109771736342655,0.9398345686721168,0.022894543817827195,0.545806357750782
cswiki,False,90.0,0.6523246175872203,0.4440625801487561,0.9404416384331048,0.019229166319369197,0.5284135994628578
cswiki,False,91.0,0.6769501415944392,0.4046422159528084,0.9407538457387558,0.015688815910113858,0.5065172723770387
cswiki,False,92.0,0.702542289049362,0.3642985380866889,0.9406420678145103,0.012531881907746678,0.4798000270233753
cswiki,False,93.0,0.732046783625731,0.3210566812003078,0.9401525575945391,0.00954790204544318,0.4463540738099483
cswiki,False,94.0,0.7664165773490532,0.27509617850730955,0.9392294261167193,0.006811892576724957,0.40486930263282056
cswiki,False,95.0,0.8008677573894966,0.22723775327006926,0.9376876616443689,0.004590577958557687,0.3540247337821909
cswiki,False,96.0,0.8482596308683266,0.17563477814824313,0.935694931063856,0.0025526364045543202,0.29101417249219125
cswiki,False,97.0,0.8888677087304613,0.11959476788920236,0.9327212528378103,0.001214846550085852,0.2108237634505832
cswiki,False,98.0,0.943687230989957,0.0674788407283919,0.9296261606595668,0.0003271542167469618,0.1259514577050122
cswiki,False,99.0,0.9726775956284153,0.03195691202872531,0.9271920999988437,7.2932468701552e-05,0.061880757865461496
