wiki_db,user_is_anonymous_or_bot,threshold,precision,recall,accuracy,fpr,F1
dtywiki,True,0.0,0.15384615384615385,1.0,0.15384615384615385,1.0,0.2666666666666667
dtywiki,True,1.0,0.15384615384615385,1.0,0.15384615384615385,1.0,0.2666666666666667
dtywiki,True,2.0,0.15384615384615385,1.0,0.15384615384615385,1.0,0.2666666666666667
dtywiki,True,3.0,0.15384615384615385,1.0,0.15384615384615385,1.0,0.2666666666666667
dtywiki,True,4.0,0.15384615384615385,1.0,0.15384615384615385,1.0,0.2666666666666667
dtywiki,True,5.0,0.15384615384615385,1.0,0.15384615384615385,1.0,0.2666666666666667
dtywiki,True,6.0,0.15384615384615385,1.0,0.15384615384615385,1.0,0.2666666666666667
dtywiki,True,7.0,0.15384615384615385,1.0,0.15384615384615385,1.0,0.2666666666666667
dtywiki,True,8.0,0.15384615384615385,1.0,0.15384615384615385,1.0,0.2666666666666667
dtywiki,True,9.0,0.15384615384615385,1.0,0.15384615384615385,1.0,0.2666666666666667
dtywiki,True,10.0,0.15384615384615385,1.0,0.15384615384615385,1.0,0.2666666666666667
dtywiki,True,11.0,0.15384615384615385,1.0,0.15384615384615385,1.0,0.2666666666666667
dtywiki,True,12.0,0.15384615384615385,1.0,0.15384615384615385,1.0,0.2666666666666667
dtywiki,True,13.0,0.15384615384615385,1.0,0.15384615384615385,1.0,0.2666666666666667
dtywiki,True,14.0,0.15384615384615385,1.0,0.15384615384615385,1.0,0.2666666666666667
dtywiki,True,15.0,0.15384615384615385,1.0,0.15384615384615385,1.0,0.2666666666666667
dtywiki,True,16.0,0.15384615384615385,1.0,0.15384615384615385,1.0,0.2666666666666667
dtywiki,True,17.0,0.15384615384615385,1.0,0.15384615384615385,1.0,0.2666666666666667
dtywiki,True,18.0,0.15384615384615385,1.0,0.15384615384615385,1.0,0.2666666666666667
dtywiki,True,19.0,0.15384615384615385,1.0,0.15384615384615385,1.0,0.2666666666666667
dtywiki,True,20.0,0.15384615384615385,1.0,0.15384615384615385,1.0,0.2666666666666667
dtywiki,True,21.0,0.15384615384615385,1.0,0.15384615384615385,1.0,0.2666666666666667
dtywiki,True,22.0,0.15384615384615385,1.0,0.15384615384615385,1.0,0.2666666666666667
dtywiki,True,23.0,0.15384615384615385,1.0,0.15384615384615385,1.0,0.2666666666666667
dtywiki,True,24.0,0.15384615384615385,1.0,0.15384615384615385,1.0,0.2666666666666667
dtywiki,True,25.0,0.15384615384615385,1.0,0.15384615384615385,1.0,0.2666666666666667
dtywiki,True,26.0,0.16666666666666666,1.0,0.23076923076923078,0.9090909090909091,0.2857142857142857
dtywiki,True,27.0,0.16666666666666666,1.0,0.23076923076923078,0.9090909090909091,0.2857142857142857
dtywiki,True,28.0,0.16666666666666666,1.0,0.23076923076923078,0.9090909090909091,0.2857142857142857
dtywiki,True,29.0,0.16666666666666666,1.0,0.23076923076923078,0.9090909090909091,0.2857142857142857
dtywiki,True,30.0,0.16666666666666666,1.0,0.23076923076923078,0.9090909090909091,0.2857142857142857
dtywiki,True,31.0,0.16666666666666666,1.0,0.23076923076923078,0.9090909090909091,0.2857142857142857
dtywiki,True,32.0,0.16666666666666666,1.0,0.23076923076923078,0.9090909090909091,0.2857142857142857
dtywiki,True,33.0,0.16666666666666666,1.0,0.23076923076923078,0.9090909090909091,0.2857142857142857
dtywiki,True,34.0,0.16666666666666666,1.0,0.23076923076923078,0.9090909090909091,0.2857142857142857
dtywiki,True,35.0,0.16666666666666666,1.0,0.23076923076923078,0.9090909090909091,0.2857142857142857
dtywiki,True,36.0,0.16666666666666666,1.0,0.23076923076923078,0.9090909090909091,0.2857142857142857
dtywiki,True,37.0,0.16666666666666666,1.0,0.23076923076923078,0.9090909090909091,0.2857142857142857
dtywiki,True,38.0,0.16666666666666666,1.0,0.23076923076923078,0.9090909090909091,0.2857142857142857
dtywiki,True,39.0,0.16666666666666666,1.0,0.23076923076923078,0.9090909090909091,0.2857142857142857
dtywiki,True,40.0,0.16666666666666666,1.0,0.23076923076923078,0.9090909090909091,0.2857142857142857
dtywiki,True,41.0,0.16666666666666666,1.0,0.23076923076923078,0.9090909090909091,0.2857142857142857
dtywiki,True,42.0,0.16666666666666666,1.0,0.23076923076923078,0.9090909090909091,0.2857142857142857
dtywiki,True,43.0,0.16666666666666666,1.0,0.23076923076923078,0.9090909090909091,0.2857142857142857
dtywiki,True,44.0,0.16666666666666666,1.0,0.23076923076923078,0.9090909090909091,0.2857142857142857
dtywiki,True,45.0,0.16666666666666666,1.0,0.23076923076923078,0.9090909090909091,0.2857142857142857
dtywiki,True,46.0,0.16666666666666666,1.0,0.23076923076923078,0.9090909090909091,0.2857142857142857
dtywiki,True,47.0,0.16666666666666666,1.0,0.23076923076923078,0.9090909090909091,0.2857142857142857
dtywiki,True,48.0,0.16666666666666666,1.0,0.23076923076923078,0.9090909090909091,0.2857142857142857
dtywiki,True,49.0,0.16666666666666666,1.0,0.23076923076923078,0.9090909090909091,0.2857142857142857
dtywiki,True,50.0,0.16666666666666666,1.0,0.23076923076923078,0.9090909090909091,0.2857142857142857
dtywiki,True,51.0,0.16666666666666666,1.0,0.23076923076923078,0.9090909090909091,0.2857142857142857
dtywiki,True,52.0,0.16666666666666666,1.0,0.23076923076923078,0.9090909090909091,0.2857142857142857
dtywiki,True,53.0,0.16666666666666666,1.0,0.23076923076923078,0.9090909090909091,0.2857142857142857
dtywiki,True,54.0,0.16666666666666666,1.0,0.23076923076923078,0.9090909090909091,0.2857142857142857
dtywiki,True,55.0,0.16666666666666666,1.0,0.23076923076923078,0.9090909090909091,0.2857142857142857
dtywiki,True,56.0,0.16666666666666666,1.0,0.23076923076923078,0.9090909090909091,0.2857142857142857
dtywiki,True,57.0,0.16666666666666666,1.0,0.23076923076923078,0.9090909090909091,0.2857142857142857
dtywiki,True,58.0,0.16666666666666666,1.0,0.23076923076923078,0.9090909090909091,0.2857142857142857
dtywiki,True,59.0,0.16666666666666666,1.0,0.23076923076923078,0.9090909090909091,0.2857142857142857
dtywiki,True,60.0,0.16666666666666666,1.0,0.23076923076923078,0.9090909090909091,0.2857142857142857
dtywiki,True,61.0,0.18181818181818182,1.0,0.3076923076923077,0.8181818181818182,0.3076923076923077
dtywiki,True,62.0,0.18181818181818182,1.0,0.3076923076923077,0.8181818181818182,0.3076923076923077
dtywiki,True,63.0,0.18181818181818182,1.0,0.3076923076923077,0.8181818181818182,0.3076923076923077
dtywiki,True,64.0,0.18181818181818182,1.0,0.3076923076923077,0.8181818181818182,0.3076923076923077
dtywiki,True,65.0,0.18181818181818182,1.0,0.3076923076923077,0.8181818181818182,0.3076923076923077
dtywiki,True,66.0,0.18181818181818182,1.0,0.3076923076923077,0.8181818181818182,0.3076923076923077
dtywiki,True,67.0,0.18181818181818182,1.0,0.3076923076923077,0.8181818181818182,0.3076923076923077
dtywiki,True,68.0,0.18181818181818182,1.0,0.3076923076923077,0.8181818181818182,0.3076923076923077
dtywiki,True,69.0,0.18181818181818182,1.0,0.3076923076923077,0.8181818181818182,0.3076923076923077
dtywiki,True,70.0,0.18181818181818182,1.0,0.3076923076923077,0.8181818181818182,0.3076923076923077
dtywiki,True,71.0,0.2,1.0,0.38461538461538464,0.7272727272727273,0.33333333333333337
dtywiki,True,72.0,0.2,1.0,0.38461538461538464,0.7272727272727273,0.33333333333333337
dtywiki,True,73.0,0.2,1.0,0.38461538461538464,0.7272727272727273,0.33333333333333337
dtywiki,True,74.0,0.2,1.0,0.38461538461538464,0.7272727272727273,0.33333333333333337
dtywiki,True,75.0,0.2,1.0,0.38461538461538464,0.7272727272727273,0.33333333333333337
dtywiki,True,76.0,0.2,1.0,0.38461538461538464,0.7272727272727273,0.33333333333333337
dtywiki,True,77.0,0.2,1.0,0.38461538461538464,0.7272727272727273,0.33333333333333337
dtywiki,True,78.0,0.2,1.0,0.38461538461538464,0.7272727272727273,0.33333333333333337
dtywiki,True,79.0,0.2222222222222222,1.0,0.46153846153846156,0.6363636363636364,0.3636363636363636
dtywiki,True,80.0,0.2222222222222222,1.0,0.46153846153846156,0.6363636363636364,0.3636363636363636
dtywiki,True,81.0,0.2222222222222222,1.0,0.46153846153846156,0.6363636363636364,0.3636363636363636
dtywiki,True,82.0,0.2222222222222222,1.0,0.46153846153846156,0.6363636363636364,0.3636363636363636
dtywiki,True,83.0,0.2222222222222222,1.0,0.46153846153846156,0.6363636363636364,0.3636363636363636
dtywiki,True,84.0,0.2222222222222222,1.0,0.46153846153846156,0.6363636363636364,0.3636363636363636
dtywiki,True,85.0,0.25,1.0,0.5384615384615384,0.5454545454545454,0.4
dtywiki,True,86.0,0.25,1.0,0.5384615384615384,0.5454545454545454,0.4
dtywiki,True,87.0,0.2857142857142857,1.0,0.6153846153846154,0.45454545454545453,0.4444444444444445
dtywiki,True,88.0,0.4,1.0,0.7692307692307693,0.2727272727272727,0.5714285714285715
dtywiki,True,89.0,0.25,0.5,0.6923076923076923,0.2727272727272727,0.3333333333333333
dtywiki,True,90.0,0.25,0.5,0.6923076923076923,0.2727272727272727,0.3333333333333333
dtywiki,True,91.0,0.0,0.0,0.6153846153846154,0.2727272727272727,0.3333333333333333
dtywiki,True,92.0,0.0,0.0,0.6153846153846154,0.2727272727272727,0.3333333333333333
dtywiki,True,93.0,0.0,0.0,0.6153846153846154,0.2727272727272727,0.3333333333333333
dtywiki,True,94.0,0.0,0.0,0.6923076923076923,0.18181818181818182,0.3333333333333333
dtywiki,True,95.0,0.0,0.0,0.7692307692307693,0.09090909090909091,0.3333333333333333
dtywiki,True,96.0,0.0,0.0,0.7692307692307693,0.09090909090909091,0.3333333333333333
dtywiki,True,97.0,0.0,0.0,0.8461538461538461,0.0,0.3333333333333333
dtywiki,True,98.0,0.0,0.0,0.8461538461538461,0.0,0.3333333333333333
dtywiki,True,99.0,0.0,0.0,0.8461538461538461,0.0,0.3333333333333333
dtywiki,False,0.0,0.06422018348623854,1.0,0.06422018348623854,1.0,0.1206896551724138
dtywiki,False,1.0,0.06422018348623854,1.0,0.06422018348623854,1.0,0.1206896551724138
dtywiki,False,2.0,0.06422018348623854,1.0,0.06422018348623854,1.0,0.1206896551724138
dtywiki,False,3.0,0.06422018348623854,1.0,0.06422018348623854,1.0,0.1206896551724138
dtywiki,False,4.0,0.06422018348623854,1.0,0.06422018348623854,1.0,0.1206896551724138
dtywiki,False,5.0,0.06481481481481481,1.0,0.07339449541284404,0.9901960784313726,0.1217391304347826
dtywiki,False,6.0,0.06542056074766354,1.0,0.08256880733944955,0.9803921568627451,0.12280701754385964
dtywiki,False,7.0,0.0660377358490566,1.0,0.09174311926605505,0.9705882352941176,0.1238938053097345
dtywiki,False,8.0,0.06666666666666667,1.0,0.10091743119266056,0.9607843137254902,0.125
dtywiki,False,9.0,0.06666666666666667,1.0,0.10091743119266056,0.9607843137254902,0.125
dtywiki,False,10.0,0.0673076923076923,1.0,0.11009174311926606,0.9509803921568627,0.12612612612612611
dtywiki,False,11.0,0.06862745098039216,1.0,0.12844036697247707,0.9313725490196079,0.12844036697247707
dtywiki,False,12.0,0.06930693069306931,1.0,0.13761467889908258,0.9215686274509803,0.12962962962962962
dtywiki,False,13.0,0.07,1.0,0.14678899082568808,0.9117647058823529,0.13084112149532712
dtywiki,False,14.0,0.07,1.0,0.14678899082568808,0.9117647058823529,0.13084112149532712
dtywiki,False,15.0,0.0707070707070707,1.0,0.1559633027522936,0.9019607843137255,0.1320754716981132
dtywiki,False,16.0,0.07291666666666667,1.0,0.1834862385321101,0.8725490196078431,0.13592233009708737
dtywiki,False,17.0,0.07368421052631578,1.0,0.1926605504587156,0.8627450980392157,0.1372549019607843
dtywiki,False,18.0,0.07446808510638298,1.0,0.2018348623853211,0.8529411764705882,0.1386138613861386
dtywiki,False,19.0,0.07446808510638298,1.0,0.2018348623853211,0.8529411764705882,0.1386138613861386
dtywiki,False,20.0,0.07526881720430108,1.0,0.21100917431192662,0.8431372549019608,0.14
dtywiki,False,21.0,0.07865168539325842,1.0,0.24770642201834864,0.803921568627451,0.14583333333333334
dtywiki,False,22.0,0.08045977011494253,1.0,0.26605504587155965,0.7843137254901961,0.14893617021276595
dtywiki,False,23.0,0.08139534883720931,1.0,0.27522935779816515,0.7745098039215687,0.15053763440860218
dtywiki,False,24.0,0.08139534883720931,1.0,0.27522935779816515,0.7745098039215687,0.15053763440860218
dtywiki,False,25.0,0.08235294117647059,1.0,0.28440366972477066,0.7647058823529411,0.15217391304347827
dtywiki,False,26.0,0.0875,1.0,0.3302752293577982,0.7156862745098039,0.16091954022988506
dtywiki,False,27.0,0.0875,1.0,0.3302752293577982,0.7156862745098039,0.16091954022988506
dtywiki,False,28.0,0.08860759493670886,1.0,0.3394495412844037,0.7058823529411765,0.1627906976744186
dtywiki,False,29.0,0.08974358974358974,1.0,0.3486238532110092,0.696078431372549,0.1647058823529412
dtywiki,False,30.0,0.08974358974358974,1.0,0.3486238532110092,0.696078431372549,0.1647058823529412
dtywiki,False,31.0,0.09090909090909091,1.0,0.3577981651376147,0.6862745098039216,0.16666666666666669
dtywiki,False,32.0,0.09210526315789473,1.0,0.3669724770642202,0.6764705882352942,0.1686746987951807
dtywiki,False,33.0,0.0945945945945946,1.0,0.3853211009174312,0.6568627450980392,0.17283950617283952
dtywiki,False,34.0,0.0958904109589041,1.0,0.3944954128440367,0.6470588235294118,0.175
dtywiki,False,35.0,0.0958904109589041,1.0,0.3944954128440367,0.6470588235294118,0.175
dtywiki,False,36.0,0.0958904109589041,1.0,0.3944954128440367,0.6470588235294118,0.175
dtywiki,False,37.0,0.0958904109589041,1.0,0.3944954128440367,0.6470588235294118,0.175
dtywiki,False,38.0,0.0958904109589041,1.0,0.3944954128440367,0.6470588235294118,0.175
dtywiki,False,39.0,0.0958904109589041,1.0,0.3944954128440367,0.6470588235294118,0.175
dtywiki,False,40.0,0.09722222222222222,1.0,0.4036697247706422,0.6372549019607843,0.17721518987341772
dtywiki,False,41.0,0.09859154929577464,1.0,0.41284403669724773,0.6274509803921569,0.17948717948717946
dtywiki,False,42.0,0.09859154929577464,1.0,0.41284403669724773,0.6274509803921569,0.17948717948717946
dtywiki,False,43.0,0.09859154929577464,1.0,0.41284403669724773,0.6274509803921569,0.17948717948717946
dtywiki,False,44.0,0.1,1.0,0.42201834862385323,0.6176470588235294,0.18181818181818182
dtywiki,False,45.0,0.1,1.0,0.42201834862385323,0.6176470588235294,0.18181818181818182
dtywiki,False,46.0,0.10294117647058823,1.0,0.44036697247706424,0.5980392156862745,0.18666666666666665
dtywiki,False,47.0,0.10294117647058823,1.0,0.44036697247706424,0.5980392156862745,0.18666666666666665
dtywiki,False,48.0,0.10294117647058823,1.0,0.44036697247706424,0.5980392156862745,0.18666666666666665
dtywiki,False,49.0,0.1044776119402985,1.0,0.44954128440366975,0.5882352941176471,0.18918918918918917
dtywiki,False,50.0,0.10606060606060606,1.0,0.45871559633027525,0.5784313725490197,0.19178082191780824
dtywiki,False,51.0,0.10606060606060606,1.0,0.45871559633027525,0.5784313725490197,0.19178082191780824
dtywiki,False,52.0,0.109375,1.0,0.47706422018348627,0.5588235294117647,0.19718309859154928
dtywiki,False,53.0,0.109375,1.0,0.47706422018348627,0.5588235294117647,0.19718309859154928
dtywiki,False,54.0,0.109375,1.0,0.47706422018348627,0.5588235294117647,0.19718309859154928
dtywiki,False,55.0,0.1111111111111111,1.0,0.48623853211009177,0.5490196078431373,0.19999999999999998
dtywiki,False,56.0,0.11290322580645161,1.0,0.4954128440366973,0.5392156862745098,0.2028985507246377
dtywiki,False,57.0,0.11475409836065574,1.0,0.5045871559633027,0.5294117647058824,0.2058823529411765
dtywiki,False,58.0,0.11475409836065574,1.0,0.5045871559633027,0.5294117647058824,0.2058823529411765
dtywiki,False,59.0,0.11864406779661017,1.0,0.5229357798165137,0.5098039215686274,0.21212121212121215
dtywiki,False,60.0,0.12280701754385964,1.0,0.5412844036697247,0.49019607843137253,0.21875
dtywiki,False,61.0,0.125,1.0,0.5504587155963303,0.4803921568627451,0.2222222222222222
dtywiki,False,62.0,0.12962962962962962,1.0,0.5688073394495413,0.46078431372549017,0.22950819672131148
dtywiki,False,63.0,0.1320754716981132,1.0,0.5779816513761468,0.45098039215686275,0.23333333333333334
dtywiki,False,64.0,0.15217391304347827,1.0,0.6422018348623854,0.38235294117647056,0.2641509433962264
dtywiki,False,65.0,0.1590909090909091,1.0,0.6605504587155964,0.3627450980392157,0.2745098039215686
dtywiki,False,66.0,0.1590909090909091,1.0,0.6605504587155964,0.3627450980392157,0.2745098039215686
dtywiki,False,67.0,0.17073170731707318,1.0,0.6880733944954128,0.3333333333333333,0.2916666666666667
dtywiki,False,68.0,0.175,1.0,0.6972477064220184,0.3235294117647059,0.2978723404255319
dtywiki,False,69.0,0.19444444444444445,1.0,0.7339449541284404,0.28431372549019607,0.32558139534883723
dtywiki,False,70.0,0.20588235294117646,1.0,0.7522935779816514,0.2647058823529412,0.34146341463414637
dtywiki,False,71.0,0.21212121212121213,1.0,0.7614678899082569,0.2549019607843137,0.35
dtywiki,False,72.0,0.22580645161290322,1.0,0.7798165137614679,0.23529411764705882,0.3684210526315789
dtywiki,False,73.0,0.22580645161290322,1.0,0.7798165137614679,0.23529411764705882,0.3684210526315789
dtywiki,False,74.0,0.23333333333333334,1.0,0.7889908256880734,0.22549019607843138,0.37837837837837834
dtywiki,False,75.0,0.23333333333333334,1.0,0.7889908256880734,0.22549019607843138,0.37837837837837834
dtywiki,False,76.0,0.23333333333333334,1.0,0.7889908256880734,0.22549019607843138,0.37837837837837834
dtywiki,False,77.0,0.25,1.0,0.8073394495412844,0.20588235294117646,0.4
dtywiki,False,78.0,0.25,1.0,0.8073394495412844,0.20588235294117646,0.4
dtywiki,False,79.0,0.28,1.0,0.8348623853211009,0.17647058823529413,0.43750000000000006
dtywiki,False,80.0,0.28,1.0,0.8348623853211009,0.17647058823529413,0.43750000000000006
dtywiki,False,81.0,0.25,0.8571428571428571,0.8256880733944955,0.17647058823529413,0.3870967741935483
dtywiki,False,82.0,0.2857142857142857,0.8571428571428571,0.8532110091743119,0.14705882352941177,0.42857142857142855
dtywiki,False,83.0,0.2857142857142857,0.8571428571428571,0.8532110091743119,0.14705882352941177,0.42857142857142855
dtywiki,False,84.0,0.2857142857142857,0.8571428571428571,0.8532110091743119,0.14705882352941177,0.42857142857142855
dtywiki,False,85.0,0.29411764705882354,0.7142857142857143,0.8715596330275229,0.11764705882352941,0.4166666666666667
dtywiki,False,86.0,0.3333333333333333,0.7142857142857143,0.8899082568807339,0.09803921568627451,0.4545454545454545
dtywiki,False,87.0,0.3076923076923077,0.5714285714285714,0.8899082568807339,0.08823529411764706,0.4
dtywiki,False,88.0,0.36363636363636365,0.5714285714285714,0.908256880733945,0.06862745098039216,0.4444444444444444
dtywiki,False,89.0,0.25,0.2857142857142857,0.8990825688073395,0.058823529411764705,0.26666666666666666
dtywiki,False,90.0,0.3333333333333333,0.2857142857142857,0.9174311926605505,0.0392156862745098,0.30769230769230765
dtywiki,False,91.0,0.2,0.14285714285714285,0.908256880733945,0.0392156862745098,0.16666666666666666
dtywiki,False,92.0,0.25,0.14285714285714285,0.9174311926605505,0.029411764705882353,0.18181818181818182
dtywiki,False,93.0,0.25,0.14285714285714285,0.9174311926605505,0.029411764705882353,0.18181818181818182
dtywiki,False,94.0,0.3333333333333333,0.14285714285714285,0.926605504587156,0.0196078431372549,0.2
dtywiki,False,95.0,0.5,0.14285714285714285,0.9357798165137615,0.00980392156862745,0.22222222222222224
dtywiki,False,96.0,0.5,0.14285714285714285,0.9357798165137615,0.00980392156862745,0.22222222222222224
dtywiki,False,97.0,1.0,0.14285714285714285,0.944954128440367,0.0,0.25
dtywiki,False,98.0,1.0,0.14285714285714285,0.944954128440367,0.0,0.25
dtywiki,False,99.0,1.0,0.0,0.9357798165137615,0.0,0.0
