wiki_db,user_is_anonymous_or_bot,threshold,precision,recall,accuracy,fpr,F1
etwiki,True,0.0,0.10954214805305948,1.0,0.10954214805305948,1.0,0.1974546856922484
etwiki,True,1.0,0.10954214805305948,1.0,0.10954214805305948,1.0,0.1974546856922484
etwiki,True,2.0,0.10954214805305948,1.0,0.10954214805305948,1.0,0.1974546856922484
etwiki,True,3.0,0.10955067107566621,1.0,0.10961994787411988,0.9999126294176751,0.19746853195890748
etwiki,True,4.0,0.10970003895597974,1.0,0.11098144474267709,0.9983836442269888,0.19771115635750897
etwiki,True,5.0,0.11029267719311993,0.9996448863636364,0.11662193176955693,0.9920055917172688,0.19866614912311653
etwiki,True,6.0,0.11209333811173496,0.9996448863636364,0.1325708950869413,0.9740946223406579,0.2015825844104694
etwiki,True,7.0,0.11582932148294449,0.9996448863636364,0.164079822616408,0.9387095364990607,0.20760352520373168
etwiki,True,8.0,0.12215761152577677,0.9996448863636364,0.21305480997393705,0.8837097549255166,0.21771075019334876
etwiki,True,9.0,0.1305074515994243,0.9982244318181818,0.2712879760376551,0.8181381328906557,0.23083555738041472
etwiki,True,10.0,0.13959151219997018,0.9975142045454546,0.32621464970630565,0.7563671311869293,0.24491041457779328
etwiki,True,11.0,0.14884140198313803,0.9968039772727273,0.375228536974365,0.7012362937398978,0.25900807381776236
etwiki,True,12.0,0.15869516056083222,0.9968039772727273,0.4207803322052359,0.6500808177886506,0.27380023410066334
etwiki,True,13.0,0.1677928601327513,0.9964488636363636,0.4582409460458241,0.6079681971080337,0.2872204309330058
etwiki,True,14.0,0.17706491538267238,0.9957386363636364,0.4925895670439958,0.5693067144292516,0.30066480806347845
etwiki,True,15.0,0.1853003440063509,0.9946732954545454,0.5203641031625628,0.5379843606657638,0.3124024091010484
etwiki,True,16.0,0.1939037062694839,0.9939630681818182,0.5466993425915121,0.5083220479664496,0.3245029273665295
etwiki,True,17.0,0.20159953887167664,0.9936079545454546,0.5682498930252461,0.4840767113712813,0.33519017669961065
etwiki,True,18.0,0.2093214633051545,0.9936079545454546,0.5881666472167114,0.4617098422960989,0.3457949700302787
etwiki,True,19.0,0.2160951498300896,0.9936079545454546,0.6044657097288676,0.44340570529902584,0.3549860441512307
etwiki,True,20.0,0.2222398729150119,0.9936079545454546,0.6183918776986813,0.42776637106286314,0.3632351032065429
etwiki,True,21.0,0.22804012723268902,0.9928977272727273,0.6310343486209982,0.4134812808527369,0.3708960668568017
etwiki,True,22.0,0.23252911813643926,0.9925426136363636,0.6403314272377173,0.4029968109737451,0.3767861957400917
etwiki,True,23.0,0.23684433522582832,0.9925426136363636,0.6488505076438325,0.39342973220916516,0.3824314154751317
etwiki,True,24.0,0.24063388166393937,0.9921875,0.6561636908235111,0.38517321217945916,0.38732931309350527
etwiki,True,25.0,0.24448722436121806,0.9921875,0.6632823744505387,0.377178803896728,0.39230553215388936
etwiki,True,26.0,0.24751948972360027,0.9921875,0.6687283619247676,0.3710628631339828,0.3961996596710153
etwiki,True,27.0,0.25040329808209355,0.9921875,0.6737853502936944,0.36538377528286226,0.3998855016459138
etwiki,True,28.0,0.25271345875542695,0.9921875,0.6777531411677753,0.3609278755842908,0.40282583621683965
etwiki,True,29.0,0.2547178411888048,0.9921875,0.6811374333839032,0.35712725525315625,0.40536815379035185
etwiki,True,30.0,0.25600586832936,0.9914772727272727,0.6834325281051854,0.35446245249224584,0.40693776417431865
etwiki,True,31.0,0.25775480059084194,0.9914772727272727,0.6863111214844206,0.3512297409462234,0.4091441969519343
etwiki,True,32.0,0.25926269848639616,0.9914772727272727,0.6887618158478236,0.3484775676029881,0.4110415899889584
etwiki,True,33.0,0.26048379564770713,0.9904119318181818,0.6909402108375151,0.3459001354244026,0.41248243732899503
etwiki,True,34.0,0.2621331828442438,0.9897017045454546,0.6937021044851597,0.3427111091695426,0.41448542534205834
etwiki,True,35.0,0.2629289968800227,0.9875710227272727,0.6953748006379585,0.3405705299025818,0.41529157022325097
etwiki,True,36.0,0.26423885138347436,0.9868607954545454,0.6975531956276501,0.33803678301515877,0.41686042151053776
etwiki,True,37.0,0.2650567910661449,0.9861505681818182,0.6989535924067375,0.3363767419509851,0.4178138870081998
etwiki,True,38.0,0.2657536870331354,0.9854403409090909,0.7001594896331739,0.33493512734262376,0.41861517574294765
etwiki,True,39.0,0.2664808764174515,0.9847301136363636,0.7014042867701404,0.3334498274430999,0.4194524277718954
etwiki,True,40.0,0.26666023724563603,0.9818892045454546,0.7022211848912747,0.3321829539993884,0.4194160030337505
etwiki,True,41.0,0.2674733785091965,0.9811789772727273,0.703582681759832,0.3305665982263772,0.42035600182565036
etwiki,True,42.0,0.2682074189162944,0.9808238636363636,0.7047496790757382,0.32921235420034073,0.42122922068018903
etwiki,True,43.0,0.2692870379401151,0.98046875,0.706422375228537,0.32729020138919224,0.4225265896396052
etwiki,True,44.0,0.26978382079624375,0.9794034090909091,0.707355973081262,0.32611069852780566,0.42303857657795835
etwiki,True,45.0,0.27097661623108665,0.9794034090909091,0.7091064690551212,0.32414486042549473,0.42450361705402495
etwiki,True,46.0,0.27176807021003846,0.9786931818181818,0.710390166102618,0.32261587523480845,0.42540711584471713
etwiki,True,47.0,0.27279928705812456,0.9783380681818182,0.7119461625238261,0.32082477829714734,0.4266356949283779
etwiki,True,48.0,0.2736214605067064,0.9779829545454546,0.7131909596607928,0.319383163688786,0.4276065522863131
etwiki,True,49.0,0.2739862508717744,0.9765625,0.7139689578713969,0.3183347167008868,0.4279156617132187
etwiki,True,50.0,0.27485497099419887,0.9758522727272727,0.715330454739954,0.3167183609278756,0.4289058841891681
etwiki,True,51.0,0.2752256770310933,0.9744318181818182,0.7161084529505582,0.3156699139399764,0.429219458783044
etwiki,True,52.0,0.27604953186348535,0.9737215909090909,0.717392149998055,0.3141409287492901,0.43015138442230766
etwiki,True,53.0,0.2767162066525124,0.9719460227272727,0.7186369471350216,0.3125245729762789,0.4307861808452035
etwiki,True,54.0,0.276955816781516,0.9705255681818182,0.7192204457929747,0.31169455244419203,0.4309366130558183
etwiki,True,55.0,0.2777777777777778,0.9694602272727273,0.7205430427510017,0.3100781966711808,0.43182537171781077
etwiki,True,56.0,0.2785495403472932,0.9683948863636364,0.7217878398879682,0.3085492114804945,0.4326511185149929
etwiki,True,57.0,0.27915556466489033,0.9673295454545454,0.7227992375617536,0.307282338036783,0.4332750119293781
etwiki,True,58.0,0.2796096558808423,0.9666193181818182,0.7235383358618275,0.30636494692237126,0.43375029878097354
etwiki,True,59.0,0.28015644298065046,0.9666193181818182,0.7242774341619014,0.3055349263902844,0.4344079157357166
etwiki,True,60.0,0.2807144332025604,0.9655539772727273,0.7252110320146263,0.30435542352889783,0.43497040473524234
etwiki,True,61.0,0.2812209001551992,0.9651988636363636,0.7259501303147002,0.3034817177056485,0.435542023876292
etwiki,True,62.0,0.2821258044425991,0.9651988636363636,0.7271560275411366,0.30212747367961207,0.4366265060240964
etwiki,True,63.0,0.2827830434329757,0.9641335227272727,0.7282063251254522,0.3008169149447381,0.43730369654505924
etwiki,True,64.0,0.2831016825164594,0.9620028409090909,0.7289843233360563,0.299681097374514,0.43746467501009284
etwiki,True,65.0,0.28421494542401343,0.9616477272727273,0.7305014198467343,0.2979336857280154,0.4387556707712249
etwiki,True,66.0,0.2850068485934043,0.9605823863636364,0.7317073170731707,0.29644838582849153,0.43958722678150647
etwiki,True,67.0,0.2861381941500636,0.9588068181818182,0.73345781304703,0.2942641212703683,0.4407443682664055
etwiki,True,68.0,0.2876960836623626,0.9573863636363636,0.7356751079472518,0.29159931850945786,0.44243866415032407
etwiki,True,69.0,0.28947934595524955,0.9556107954545454,0.7382036021317151,0.2885413481280853,0.4443527080581241
etwiki,True,70.0,0.29117487818083376,0.9549005681818182,0.7404208970319368,0.2859639159494998,0.4462700190855531
etwiki,True,71.0,0.29253633482679486,0.9506392045454546,0.7427548916637492,0.28281857498580226,0.44739700843987634
etwiki,True,72.0,0.294786834548266,0.9477982954545454,0.7459057844166959,0.27893058407234284,0.44970513900589726
etwiki,True,73.0,0.2981275927794596,0.9442471590909091,0.7503792741276695,0.2734699226770346,0.45317426501917346
etwiki,True,74.0,0.30086481565771506,0.9389204545454546,0.7543081650912203,0.26840242890218863,0.4557049293347122
etwiki,True,75.0,0.3049604098742431,0.9300426136363636,0.7601431516707512,0.26075750294875716,0.4593125219221326
etwiki,True,76.0,0.3110367892976589,0.9247159090909091,0.7673785350293695,0.25197675942510156,0.46549874865927776
etwiki,True,77.0,0.3165626147631289,0.9183238636363636,0.7738748200879138,0.24389498056004544,0.47082385070550753
etwiki,True,78.0,0.32247925572039227,0.9108664772727273,0.7806045046096394,0.2354200340745271,0.4763231197771588
etwiki,True,79.0,0.3284104158569763,0.9002130681818182,0.7874119889524254,0.22646454938622165,0.4812529663028001
etwiki,True,80.0,0.33538297019115093,0.8909801136363636,0.7946473723110437,0.21720326765977896,0.48732640574924735
etwiki,True,81.0,0.34341612321354237,0.87890625,0.802660753880266,0.20671879778078722,0.4938641125411553
etwiki,True,82.0,0.3526946972980783,0.8668323863636364,0.8111409343758509,0.1957101044078459,0.5013864640032865
etwiki,True,83.0,0.3621678743961353,0.8519176136363636,0.8194266153187848,0.18457035516141715,0.5082627118644067
etwiki,True,84.0,0.3730462519936204,0.8306107954545454,0.8285291943828529,0.17172687955965227,0.5148580233325996
etwiki,True,85.0,0.38327702702702704,0.8057528409090909,0.8366981755941961,0.1594949980341619,0.519459706959707
etwiki,True,86.0,0.3971516134847665,0.7823153409090909,0.8460730540319757,0.14608361364728495,0.5268444338156164
etwiki,True,87.0,0.41036632891660174,0.7478693181818182,0.8546699342591512,0.1321916910576209,0.5299446401610468
etwiki,True,88.0,0.4263680540883161,0.7166193181818182,0.8633446143073871,0.1186055655060941,0.5346403497151941
etwiki,True,89.0,0.4415914873930141,0.6779119318181818,0.8708133971291866,0.10545629286619196,0.5348087967502452
etwiki,True,90.0,0.4648648648648649,0.6413352272727273,0.8798381763721943,0.09082172032676598,0.5390240262647367
etwiki,True,91.0,0.4930313588850174,0.6029829545454546,0.8885906562414907,0.07627451836966494,0.5424920127795526
etwiki,True,92.0,0.5279696132596685,0.54296875,0.8967596374528338,0.05971779301909047,0.5353641456582633
etwiki,True,93.0,0.5644146034410407,0.4776278409090909,0.9024001244797137,0.04534533222663929,0.5174071936910944
etwiki,True,94.0,0.6140829694323144,0.3995028409090909,0.9067180145485665,0.030885500851863177,0.48407917383821003
etwiki,True,95.0,0.6713780918727915,0.33735795454545453,0.9093243085540903,0.020313660390546502,0.4490664145592059
etwiki,True,96.0,0.7279549718574109,0.2755681818181818,0.9093632084646205,0.012668734437115024,0.3997939206594539
etwiki,True,97.0,0.8017118402282454,0.19957386363636365,0.9069125141012175,0.006072255471582718,0.31959056013648
etwiki,True,98.0,0.8762135922330098,0.12819602272727273,0.9025168242113043,0.0022279498492857454,0.22366790582403964
etwiki,True,99.0,0.9489795918367347,0.06605113636363637,0.8973042362002568,0.00043685291162465597,0.12350597609561753
etwiki,False,0.0,0.043342932774820375,1.0,0.043342932774820375,1.0,0.08308472969582066
etwiki,False,1.0,0.04334797660954819,1.0,0.04345928964132996,0.9998783713929517,0.08309399659816524
etwiki,False,2.0,0.04351508425571683,1.0,0.04729906623614626,0.9958646273603552,0.0834009683468137
etwiki,False,3.0,0.04386947211253217,0.9991051454138703,0.05615188449641718,0.9865701746384082,0.08404847937368262
etwiki,False,4.0,0.04460387086459967,0.9986577181208054,0.07280061281283029,0.9691468766787281,0.08539373128903598
etwiki,False,5.0,0.04560260586319218,0.9959731543624161,0.0963725746865637,0.9443853194271292,0.08721203573107664
etwiki,False,6.0,0.04693592134260044,0.9910514541387024,0.12738167961136806,0.9117483098691479,0.08962712687397575
etwiki,False,7.0,0.04892482633511792,0.9894854586129754,0.16583762399278587,0.8714791052188808,0.09323945443430234
etwiki,False,8.0,0.05112733095837636,0.9856823266219239,0.20649465243234333,0.8288077355794082,0.09721226295409666
etwiki,False,9.0,0.05376698934193801,0.9841163310961969,0.24864492732544047,0.7846768226553552,0.10196323853232275
etwiki,False,10.0,0.0563593842358202,0.9812080536912752,0.2871202645179432,0.7443265322670559,0.10659602391483983
etwiki,False,11.0,0.05897107410154406,0.9782997762863535,0.3224248770980597,0.7072906214208249,0.11123688394276629
etwiki,False,12.0,0.06171006870811774,0.9765100671140939,0.3554411379701545,0.6726974184328154,0.1160842508377214
etwiki,False,13.0,0.0643491124260355,0.9731543624161074,0.3855387807739671,0.6410841163174912,0.12071597058415427
etwiki,False,14.0,0.06684149633629001,0.9693512304250559,0.41211662836586477,0.6131298081308724,0.12505952810448084
etwiki,False,15.0,0.0693739152792955,0.9657718120805369,0.43698790858228853,0.5869695218982172,0.12944915889531922
etwiki,False,16.0,0.0720422004521477,0.9624161073825503,0.4610640835442302,0.5616505001976465,0.1340500116849731
etwiki,False,17.0,0.07472056079655431,0.9586129753914989,0.4836954940803444,0.5378214289334184,0.13863500331623985
etwiki,False,18.0,0.07747643008955658,0.9541387024608501,0.5055899777952313,0.5147322650287347,0.14331557989885585
etwiki,False,19.0,0.08028825293818032,0.9521252796420582,0.5251961098020964,0.49414662328579684,0.1480888672384697
etwiki,False,20.0,0.08289131158129612,0.9474272930648769,0.5433865665997615,0.4749191676548991,0.15244506038408237
etwiki,False,21.0,0.08538097270491636,0.9398210290827741,0.5610340246870485,0.45612754786592474,0.15654053248374417
etwiki,False,22.0,0.088016363367986,0.9337807606263983,0.5777700206533438,0.43835963551960755,0.1608694814329486
etwiki,False,23.0,0.09062643690744673,0.9259507829977629,0.5940793747757707,0.4209566089944355,0.16509443369697452
etwiki,False,24.0,0.09271131723730278,0.9123042505592841,0.6092348566386441,0.4044962041738884,0.1683176490011557
etwiki,False,25.0,0.09543617498995532,0.9033557046979865,0.6247006234788763,0.3879243064635469,0.1726341890938629
etwiki,False,26.0,0.0980272175445467,0.8959731543624161,0.6381689307773608,0.37351131652831415,0.17671976349115298
etwiki,False,27.0,0.10096959236509467,0.8899328859060402,0.6517826841589822,0.3590071051377951,0.18136226862405397
etwiki,False,28.0,0.10389712843168192,0.8838926174496644,0.6645431538528668,0.34539483686563077,0.18593816179584924
etwiki,False,29.0,0.10725577845617096,0.8803131991051454,0.6772260523024115,0.3319751472212931,0.19121434472034599
etwiki,False,30.0,0.1104539822011941,0.8774049217002237,0.6884157042984166,0.3201467651858384,0.1962079143528941
etwiki,False,31.0,0.1138455265610438,0.874496644295302,0.699527785050082,0.3083994688884159,0.201463691181776
etwiki,False,32.0,0.11720443053214544,0.8711409395973154,0.7100192958470295,0.29728058706074334,0.20661113174510531
etwiki,False,33.0,0.12074168559250847,0.8682326621923937,0.7202490036943305,0.28645564103343774,0.21200120175893805
etwiki,False,34.0,0.12440037345867809,0.8644295302013423,0.7304108367028342,0.2756611021578942,0.2175002110832794
etwiki,False,35.0,0.12806176783812567,0.8608501118568233,0.7399230105399929,0.2655557920556248,0.2229561388261197
etwiki,False,36.0,0.13165131307575967,0.8568232662192393,0.748843703639061,0.25604848927134327,0.22823431261545798
etwiki,False,37.0,0.1352753108348135,0.8519015659955257,0.757551075816195,0.24672362939763431,0.2334763948497854
etwiki,False,38.0,0.13925398340553638,0.8485458612975392,0.7661033055046494,0.2376318910207681,0.2392456162482654
etwiki,False,39.0,0.14316620488101112,0.8438478747203579,0.7743355538102026,0.2288138170097607,0.24479994808060485
etwiki,False,40.0,0.14642243399468832,0.8387024608501119,0.7810939484733009,0.22151610058685803,0.24931834807474895
etwiki,False,41.0,0.15003413517529415,0.8357941834451902,0.78765841502555,0.2145224556815763,0.2544005992305335
etwiki,False,42.0,0.15346820809248554,0.8315436241610739,0.7938932037893552,0.20781261085940747,0.2591146741024747
etwiki,False,43.0,0.15723857179204478,0.8295302013422818,0.7999049752256838,0.20143724470662167,0.26436617709967203
etwiki,False,44.0,0.16074228959749084,0.825503355704698,0.8056258544957384,0.1952747286161705,0.2690877269744038
etwiki,False,45.0,0.16449460343051636,0.8217002237136465,0.8113758229824204,0.18909194109121133,0.27411470577260344
etwiki,False,46.0,0.16815298335938217,0.81834451901566,0.8166603640030641,0.18341593942895368,0.27898108602806587
etwiki,False,47.0,0.1717371822083864,0.8145413870246085,0.8216927984796036,0.17798319498079282,0.28366639398543103
etwiki,False,48.0,0.17567959756215537,0.8125279642058165,0.8266282689007185,0.1727328934432045,0.2888959592745784
etwiki,False,49.0,0.17921820880752104,0.8102908277404922,0.8309334729615732,0.16813127780987422,0.293517017828201
etwiki,False,50.0,0.18283771440170507,0.8060402684563759,0.835451997944362,0.16321545494166895,0.29806419589675714
etwiki,False,51.0,0.18663198959687907,0.8026845637583893,0.839825076844014,0.15849221070129027,0.3028487022578603
etwiki,False,52.0,0.18996701776784763,0.7988814317673378,0.8436357642222029,0.15433656662713738,0.30694516073577444
etwiki,False,53.0,0.19328187846505054,0.7955257270693512,0.847223434272915,0.15043431548433525,0.31100227391988805
etwiki,False,54.0,0.19654942860312882,0.7926174496644295,0.850578390590608,0.14679559299013795,0.3149893314366998
etwiki,False,55.0,0.19973971595088552,0.7897091722595079,0.8537491152029942,0.14334944912376724,0.318836652666757
etwiki,False,56.0,0.2032440544908797,0.7876957494407159,0.8569586254375503,0.13990330525739653,0.32311645406992756
etwiki,False,57.0,0.20649488175079422,0.785234899328859,0.8599063327224598,0.1367105543223766,0.3269983230855226
etwiki,False,58.0,0.2101723413198823,0.7829977628635347,0.8630576645237611,0.13331508904227607,0.33139232116650097
etwiki,False,59.0,0.21342134213421343,0.7812080536912752,0.865724176047939,0.13044668105938517,0.33525345622119823
etwiki,False,60.0,0.21588721197441152,0.7776286353467562,0.8679446529171636,0.12796343033214747,0.33795148510038403
etwiki,False,61.0,0.21839515518546557,0.774496644295302,0.8700875585420484,0.12558153677745004,0.3407144966046649
etwiki,False,62.0,0.22158070310495254,0.7727069351230426,0.8724922671165799,0.122986793160418,0.3444012364143983
etwiki,False,63.0,0.22454171831169678,0.7700223713646532,0.8747709224190593,0.12048327099867222,0.3476943279963634
etwiki,False,64.0,0.22767738506510762,0.7666666666666667,0.8771659345880483,0.11782771307811597,0.3510910767339412
etwiki,False,65.0,0.231200594554422,0.7655480984340045,0.8795027683237824,0.11533432663362422,0.3551450365834674
etwiki,False,66.0,0.2339754575992322,0.7635346756152125,0.8814032638101056,0.11325650459654778,0.35818859211838167
etwiki,False,67.0,0.23696319018404907,0.7604026845637584,0.8834879910017357,0.11093542534537457,0.36132667162751136
etwiki,False,68.0,0.24032109114157846,0.7568232662192393,0.885766646304215,0.10839136031461266,0.36480293308890926
etwiki,False,69.0,0.24397830018083183,0.754586129753915,0.888016212390067,0.10593851673913704,0.3687346269472533
etwiki,False,70.0,0.2473276815333579,0.7505592841163311,0.8901882072315792,0.10348567316366143,0.3720543387856945
etwiki,False,71.0,0.2505451537709602,0.745413870246085,0.8923214164509217,0.10102269387093178,0.37503517361697336
etwiki,False,72.0,0.25473441108545036,0.7402684563758389,0.8948715711085901,0.09812387873627877,0.37903780068728526
etwiki,False,73.0,0.25949616994393115,0.7351230425055928,0.8975962610660229,0.09504262069105321,0.38358722932352773
etwiki,False,74.0,0.26354520459323955,0.729082774049217,0.899952487612842,0.09230597703246471,0.3871465906391066
etwiki,False,75.0,0.2687437520826391,0.7217002237136465,0.9028226236534117,0.08897132605588834,0.3916474444579337
etwiki,False,76.0,0.27545219638242896,0.7154362416107383,0.906100008726765,0.08526165354091282,0.3977611940298507
etwiki,False,77.0,0.28177041588743434,0.7078299776286353,0.9091349836615567,0.0817445596537639,0.4030829989171285
etwiki,False,78.0,0.28875772387715576,0.7004474272930649,0.9122378334351456,0.07816665146309079,0.4089335858420949
etwiki,False,79.0,0.29570976101353297,0.689261744966443,0.9153794688309044,0.074375893210083,0.41386258311505136
etwiki,False,80.0,0.3037784886045582,0.6798657718120805,0.9185889790654604,0.07059527067432927,0.4199253834461794
etwiki,False,81.0,0.3132265158655357,0.6691275167785234,0.9220699886552055,0.06647003375193845,0.42670661245452596
etwiki,False,82.0,0.32264793061807007,0.6574944071588367,0.9253279809174739,0.06253737545737424,0.43287429118491794
etwiki,False,83.0,0.332523991212857,0.6434004474272931,0.9285665803686574,0.05851349570752374,0.43844805244302154
etwiki,False,84.0,0.345150172328902,0.6272930648769575,0.9322609108803367,0.05392201579144748,0.4452914086072733
etwiki,False,85.0,0.35628114345659584,0.6078299776286353,0.9354025462760954,0.049756236000040546,0.449239417989418
etwiki,False,86.0,0.37184725940538255,0.5903803131991051,0.939019305543435,0.045185027518472344,0.4562980893922365
etwiki,False,87.0,0.3857603191652601,0.5624161073825503,0.9422191193724486,0.04057327616788802,0.4576317466096296
etwiki,False,88.0,0.40214837193689157,0.5360178970917227,0.945351058362665,0.03610342485886014,0.4595320291522823
etwiki,False,89.0,0.4190740740740741,0.5062639821029082,0.9481824087810649,0.03179574502589676,0.4585612968591692
etwiki,False,90.0,0.44208333333333333,0.4747203579418344,0.9512658657435689,0.027143450806296307,0.4578209277238403
etwiki,False,91.0,0.46903696727101485,0.44563758389261743,0.9541069125675112,0.02285604240784099,0.45703797177928185
etwiki,False,92.0,0.5040764689344953,0.4011185682326622,0.9569382629859111,0.017879405236111534,0.44674224492338355
etwiki,False,93.0,0.540068493150685,0.3527964205816555,0.9589260261221165,0.01361226827216428,0.42679296346414075
etwiki,False,94.0,0.5878975265017667,0.2977628635346756,0.9605162366310809,0.009456624198011371,0.39530739530739534
etwiki,False,95.0,0.6466208476517755,0.25257270693512307,0.961621626862922,0.0062537375457374245,0.3632561132561133
etwiki,False,96.0,0.7028051554207733,0.20738255033557046,0.9618446441903986,0.003973201163580341,0.3202625669372949
etwiki,False,97.0,0.7724687144482366,0.15190156599552573,0.9613016454800205,0.0020271434508062963,0.25387922976257243
etwiki,False,98.0,0.8495238095238096,0.09977628635346757,0.9602156480592644,0.0008007216630684871,0.17857857857857856
etwiki,False,99.0,0.9444444444444444,0.049440715883668905,0.9586739195780124,0.00013176432430240926,0.09396258503401361
