wiki_db,user_is_anonymous_or_bot,threshold,precision,recall,accuracy,fpr,F1
frpwiki,True,0.0,0.4189189189189189,1.0,0.4189189189189189,1.0,0.5904761904761905
frpwiki,True,1.0,0.4189189189189189,1.0,0.4189189189189189,1.0,0.5904761904761905
frpwiki,True,2.0,0.4189189189189189,1.0,0.4189189189189189,1.0,0.5904761904761905
frpwiki,True,3.0,0.4189189189189189,1.0,0.4189189189189189,1.0,0.5904761904761905
frpwiki,True,4.0,0.4189189189189189,1.0,0.4189189189189189,1.0,0.5904761904761905
frpwiki,True,5.0,0.4189189189189189,1.0,0.4189189189189189,1.0,0.5904761904761905
frpwiki,True,6.0,0.4189189189189189,1.0,0.4189189189189189,1.0,0.5904761904761905
frpwiki,True,7.0,0.4189189189189189,1.0,0.4189189189189189,1.0,0.5904761904761905
frpwiki,True,8.0,0.4189189189189189,1.0,0.4189189189189189,1.0,0.5904761904761905
frpwiki,True,9.0,0.4189189189189189,1.0,0.4189189189189189,1.0,0.5904761904761905
frpwiki,True,10.0,0.4189189189189189,1.0,0.4189189189189189,1.0,0.5904761904761905
frpwiki,True,11.0,0.4189189189189189,1.0,0.4189189189189189,1.0,0.5904761904761905
frpwiki,True,12.0,0.4189189189189189,1.0,0.4189189189189189,1.0,0.5904761904761905
frpwiki,True,13.0,0.4189189189189189,1.0,0.4189189189189189,1.0,0.5904761904761905
frpwiki,True,14.0,0.4189189189189189,1.0,0.4189189189189189,1.0,0.5904761904761905
frpwiki,True,15.0,0.4189189189189189,1.0,0.4189189189189189,1.0,0.5904761904761905
frpwiki,True,16.0,0.4189189189189189,1.0,0.4189189189189189,1.0,0.5904761904761905
frpwiki,True,17.0,0.4189189189189189,1.0,0.4189189189189189,1.0,0.5904761904761905
frpwiki,True,18.0,0.4189189189189189,1.0,0.4189189189189189,1.0,0.5904761904761905
frpwiki,True,19.0,0.4189189189189189,1.0,0.4189189189189189,1.0,0.5904761904761905
frpwiki,True,20.0,0.4189189189189189,1.0,0.4189189189189189,1.0,0.5904761904761905
frpwiki,True,21.0,0.4189189189189189,1.0,0.4189189189189189,1.0,0.5904761904761905
frpwiki,True,22.0,0.4189189189189189,1.0,0.4189189189189189,1.0,0.5904761904761905
frpwiki,True,23.0,0.4189189189189189,1.0,0.4189189189189189,1.0,0.5904761904761905
frpwiki,True,24.0,0.4189189189189189,1.0,0.4189189189189189,1.0,0.5904761904761905
frpwiki,True,25.0,0.4189189189189189,1.0,0.4189189189189189,1.0,0.5904761904761905
frpwiki,True,26.0,0.4189189189189189,1.0,0.4189189189189189,1.0,0.5904761904761905
frpwiki,True,27.0,0.4189189189189189,1.0,0.4189189189189189,1.0,0.5904761904761905
frpwiki,True,28.0,0.4189189189189189,1.0,0.4189189189189189,1.0,0.5904761904761905
frpwiki,True,29.0,0.4189189189189189,1.0,0.4189189189189189,1.0,0.5904761904761905
frpwiki,True,30.0,0.4189189189189189,1.0,0.4189189189189189,1.0,0.5904761904761905
frpwiki,True,31.0,0.4189189189189189,1.0,0.4189189189189189,1.0,0.5904761904761905
frpwiki,True,32.0,0.4189189189189189,1.0,0.4189189189189189,1.0,0.5904761904761905
frpwiki,True,33.0,0.4189189189189189,1.0,0.4189189189189189,1.0,0.5904761904761905
frpwiki,True,34.0,0.4189189189189189,1.0,0.4189189189189189,1.0,0.5904761904761905
frpwiki,True,35.0,0.4246575342465753,1.0,0.43243243243243246,0.9767441860465116,0.5961538461538461
frpwiki,True,36.0,0.4246575342465753,1.0,0.43243243243243246,0.9767441860465116,0.5961538461538461
frpwiki,True,37.0,0.4246575342465753,1.0,0.43243243243243246,0.9767441860465116,0.5961538461538461
frpwiki,True,38.0,0.4246575342465753,1.0,0.43243243243243246,0.9767441860465116,0.5961538461538461
frpwiki,True,39.0,0.4246575342465753,1.0,0.43243243243243246,0.9767441860465116,0.5961538461538461
frpwiki,True,40.0,0.4246575342465753,1.0,0.43243243243243246,0.9767441860465116,0.5961538461538461
frpwiki,True,41.0,0.4246575342465753,1.0,0.43243243243243246,0.9767441860465116,0.5961538461538461
frpwiki,True,42.0,0.4246575342465753,1.0,0.43243243243243246,0.9767441860465116,0.5961538461538461
frpwiki,True,43.0,0.4246575342465753,1.0,0.43243243243243246,0.9767441860465116,0.5961538461538461
frpwiki,True,44.0,0.4246575342465753,1.0,0.43243243243243246,0.9767441860465116,0.5961538461538461
frpwiki,True,45.0,0.4246575342465753,1.0,0.43243243243243246,0.9767441860465116,0.5961538461538461
frpwiki,True,46.0,0.4305555555555556,1.0,0.44594594594594594,0.9534883720930233,0.6019417475728156
frpwiki,True,47.0,0.4305555555555556,1.0,0.44594594594594594,0.9534883720930233,0.6019417475728156
frpwiki,True,48.0,0.4305555555555556,1.0,0.44594594594594594,0.9534883720930233,0.6019417475728156
frpwiki,True,49.0,0.43661971830985913,1.0,0.4594594594594595,0.9302325581395349,0.607843137254902
frpwiki,True,50.0,0.43661971830985913,1.0,0.4594594594594595,0.9302325581395349,0.607843137254902
frpwiki,True,51.0,0.43661971830985913,1.0,0.4594594594594595,0.9302325581395349,0.607843137254902
frpwiki,True,52.0,0.44285714285714284,1.0,0.47297297297297297,0.9069767441860465,0.6138613861386139
frpwiki,True,53.0,0.44285714285714284,1.0,0.47297297297297297,0.9069767441860465,0.6138613861386139
frpwiki,True,54.0,0.44285714285714284,1.0,0.47297297297297297,0.9069767441860465,0.6138613861386139
frpwiki,True,55.0,0.44285714285714284,1.0,0.47297297297297297,0.9069767441860465,0.6138613861386139
frpwiki,True,56.0,0.44285714285714284,1.0,0.47297297297297297,0.9069767441860465,0.6138613861386139
frpwiki,True,57.0,0.44285714285714284,1.0,0.47297297297297297,0.9069767441860465,0.6138613861386139
frpwiki,True,58.0,0.44285714285714284,1.0,0.47297297297297297,0.9069767441860465,0.6138613861386139
frpwiki,True,59.0,0.44285714285714284,1.0,0.47297297297297297,0.9069767441860465,0.6138613861386139
frpwiki,True,60.0,0.44285714285714284,1.0,0.47297297297297297,0.9069767441860465,0.6138613861386139
frpwiki,True,61.0,0.44285714285714284,1.0,0.47297297297297297,0.9069767441860465,0.6138613861386139
frpwiki,True,62.0,0.4492753623188406,1.0,0.4864864864864865,0.8837209302325582,0.62
frpwiki,True,63.0,0.4492753623188406,1.0,0.4864864864864865,0.8837209302325582,0.62
frpwiki,True,64.0,0.4492753623188406,1.0,0.4864864864864865,0.8837209302325582,0.62
frpwiki,True,65.0,0.4492753623188406,1.0,0.4864864864864865,0.8837209302325582,0.62
frpwiki,True,66.0,0.4492753623188406,1.0,0.4864864864864865,0.8837209302325582,0.62
frpwiki,True,67.0,0.4492753623188406,1.0,0.4864864864864865,0.8837209302325582,0.62
frpwiki,True,68.0,0.45588235294117646,1.0,0.5,0.8604651162790697,0.6262626262626263
frpwiki,True,69.0,0.45588235294117646,1.0,0.5,0.8604651162790697,0.6262626262626263
frpwiki,True,70.0,0.45588235294117646,1.0,0.5,0.8604651162790697,0.6262626262626263
frpwiki,True,71.0,0.45588235294117646,1.0,0.5,0.8604651162790697,0.6262626262626263
frpwiki,True,72.0,0.44776119402985076,0.967741935483871,0.4864864864864865,0.8604651162790697,0.6122448979591837
frpwiki,True,73.0,0.44776119402985076,0.967741935483871,0.4864864864864865,0.8604651162790697,0.6122448979591837
frpwiki,True,74.0,0.4393939393939394,0.9354838709677419,0.47297297297297297,0.8604651162790697,0.5979381443298969
frpwiki,True,75.0,0.4375,0.9032258064516129,0.47297297297297297,0.8372093023255814,0.5894736842105263
frpwiki,True,76.0,0.4444444444444444,0.9032258064516129,0.4864864864864865,0.813953488372093,0.5957446808510638
frpwiki,True,77.0,0.4444444444444444,0.9032258064516129,0.4864864864864865,0.813953488372093,0.5957446808510638
frpwiki,True,78.0,0.4666666666666667,0.9032258064516129,0.527027027027027,0.7441860465116279,0.6153846153846154
frpwiki,True,79.0,0.49122807017543857,0.9032258064516129,0.5675675675675675,0.6744186046511628,0.6363636363636364
frpwiki,True,80.0,0.5,0.9032258064516129,0.581081081081081,0.6511627906976745,0.6436781609195402
frpwiki,True,81.0,0.5294117647058824,0.8709677419354839,0.6216216216216216,0.5581395348837209,0.6585365853658537
frpwiki,True,82.0,0.5434782608695652,0.8064516129032258,0.6351351351351351,0.4883720930232558,0.6493506493506493
frpwiki,True,83.0,0.5116279069767442,0.7096774193548387,0.5945945945945946,0.4883720930232558,0.5945945945945946
frpwiki,True,84.0,0.5121951219512195,0.6774193548387096,0.5945945945945946,0.46511627906976744,0.5833333333333334
frpwiki,True,85.0,0.5555555555555556,0.6451612903225806,0.6351351351351351,0.37209302325581395,0.5970149253731343
frpwiki,True,86.0,0.6060606060606061,0.6451612903225806,0.6756756756756757,0.3023255813953488,0.625
frpwiki,True,87.0,0.5806451612903226,0.5806451612903226,0.6486486486486487,0.3023255813953488,0.5806451612903226
frpwiki,True,88.0,0.5925925925925926,0.5161290322580645,0.6486486486486487,0.2558139534883721,0.5517241379310345
frpwiki,True,89.0,0.6086956521739131,0.45161290322580644,0.6486486486486487,0.20930232558139536,0.5185185185185185
frpwiki,True,90.0,0.5789473684210527,0.3548387096774194,0.6216216216216216,0.18604651162790697,0.44000000000000006
frpwiki,True,91.0,0.6923076923076923,0.2903225806451613,0.6486486486486487,0.09302325581395349,0.4090909090909091
frpwiki,True,92.0,0.8,0.25806451612903225,0.6621621621621622,0.046511627906976744,0.3902439024390244
frpwiki,True,93.0,0.6666666666666666,0.12903225806451613,0.6081081081081081,0.046511627906976744,0.2162162162162162
frpwiki,True,94.0,0.6666666666666666,0.06451612903225806,0.5945945945945946,0.023255813953488372,0.1176470588235294
frpwiki,True,95.0,0.6666666666666666,0.06451612903225806,0.5945945945945946,0.023255813953488372,0.1176470588235294
frpwiki,True,96.0,1.0,0.03225806451612903,0.5945945945945946,0.0,0.0625
frpwiki,True,97.0,1.0,0.0,0.581081081081081,0.0,0.0
frpwiki,True,98.0,1.0,0.0,0.581081081081081,0.0,0.0
frpwiki,True,99.0,1.0,0.0,0.581081081081081,0.0,0.0
frpwiki,False,0.0,0.025190392501464556,1.0,0.025190392501464556,1.0,0.04914285714285714
frpwiki,False,1.0,0.02519777322004102,1.0,0.025483304042179262,0.9996995192307693,0.049156901971992
frpwiki,False,2.0,0.025557206537890044,1.0,0.03954305799648506,0.9852764423076923,0.04984062590553463
frpwiki,False,3.0,0.026155717761557177,1.0,0.062097246631517285,0.9621394230769231,0.05097806757557795
frpwiki,False,4.0,0.026674937965260544,1.0,0.08084358523725835,0.9429086538461539,0.051963746223564956
frpwiki,False,5.0,0.027724049000644745,1.0,0.11657879320445226,0.90625,0.053952321204516936
frpwiki,False,6.0,0.029281579843377595,1.0,0.16490919742237845,0.8566706730769231,0.05689712206417466
frpwiki,False,7.0,0.029882604055496264,0.9767441860465116,0.20064440538957234,0.8194110576923077,0.057991025198481184
frpwiki,False,8.0,0.030843552582683016,0.9651162790697675,0.23520796719390744,0.7836538461538461,0.05977673748649622
frpwiki,False,9.0,0.032421875,0.9651162790697675,0.2735793790275337,0.7442908653846154,0.06273620559334846
frpwiki,False,10.0,0.03412828947368421,0.9651162790697675,0.3110720562390158,0.7058293269230769,0.0659253375694996
frpwiki,False,11.0,0.03458711629917856,0.9302325581395349,0.3441710603397774,0.6709735576923077,0.06669445602334306
frpwiki,False,12.0,0.035778985507246376,0.9186046511627907,0.37434094903339193,0.6397235576923077,0.06887532693984307
frpwiki,False,13.0,0.036242250834525515,0.8837209302325582,0.40509666080843587,0.6072716346153846,0.0696289509848832
frpwiki,False,14.0,0.03609022556390978,0.8372093023255814,0.43263034563561803,0.5778245192307693,0.06919750120134552
frpwiki,False,15.0,0.035751840168243953,0.7906976744186046,0.45752782659636787,0.5510817307692307,0.06841046277665996
frpwiki,False,16.0,0.03736263736263736,0.7906976744186046,0.48154657293497366,0.5264423076923077,0.07135362014690451
frpwiki,False,17.0,0.03761574074074074,0.7558139534883721,0.5067369654364382,0.4996995192307692,0.07166482910694598
frpwiki,False,18.0,0.03944174757281554,0.7558139534883721,0.5301698886936145,0.4756610576923077,0.07497116493656288
frpwiki,False,19.0,0.041296060991105464,0.7558139534883721,0.5518453427065027,0.4534254807692308,0.0783132530120482
frpwiki,False,20.0,0.0426098535286285,0.7441860465116279,0.5723491505565319,0.43209134615384615,0.0806045340050378
frpwiki,False,21.0,0.04484933426769446,0.7441860465116279,0.5943175161101347,0.40955528846153844,0.08460013218770654
frpwiki,False,22.0,0.046460176991150445,0.7325581395348837,0.6145284124194493,0.38852163461538464,0.08737864077669903
frpwiki,False,23.0,0.04824902723735409,0.7209302325581395,0.6347393087287639,0.3674879807692308,0.09044493070751276
frpwiki,False,24.0,0.051623646960865945,0.7209302325581395,0.659343878148799,0.34224759615384615,0.09634809634809634
frpwiki,False,25.0,0.05516014234875445,0.7209302325581395,0.6818980667838312,0.3191105769230769,0.10247933884297522
frpwiki,False,26.0,0.058485139022051776,0.7093023255813954,0.7050380785002929,0.29507211538461536,0.10806023029229407
frpwiki,False,27.0,0.061855670103092786,0.6976744186046512,0.7258347978910369,0.2734375,0.11363636363636365
frpwiki,False,28.0,0.06430155210643015,0.6744186046511628,0.7445811364967779,0.2536057692307692,0.11740890688259108
frpwiki,False,29.0,0.06826347305389222,0.6627906976744186,0.7636203866432337,0.23377403846153846,0.12377850162866448
frpwiki,False,30.0,0.07261146496815286,0.6627906976744186,0.7782659636789689,0.21875,0.1308840413318025
frpwiki,False,31.0,0.0782122905027933,0.6511627906976745,0.7978910369068541,0.19831730769230768,0.1396508728179551
frpwiki,False,32.0,0.08270676691729323,0.6395348837209303,0.8122437024018746,0.18329326923076922,0.14647137150466047
frpwiki,False,33.0,0.08709677419354839,0.627906976744186,0.824838898652607,0.1700721153846154,0.15297450424929177
frpwiki,False,34.0,0.08934707903780069,0.6046511627906976,0.8347978910369068,0.15925480769230768,0.15568862275449102
frpwiki,False,35.0,0.08957952468007313,0.5697674418604651,0.8432923257176332,0.14963942307692307,0.15481832543443919
frpwiki,False,36.0,0.09741550695825049,0.5697674418604651,0.8561804335090802,0.13641826923076922,0.166383701188455
frpwiki,False,37.0,0.09873949579831932,0.5465116279069767,0.8629173989455184,0.12890625,0.16725978647686832
frpwiki,False,38.0,0.10561797752808989,0.5465116279069767,0.8719976567076743,0.11959134615384616,0.1770244821092279
frpwiki,False,39.0,0.11057692307692307,0.5348837209302325,0.8799062683069713,0.11117788461538461,0.18326693227091634
frpwiki,False,40.0,0.11764705882352941,0.5348837209302325,0.8872290568248389,0.10366586538461539,0.1928721174004193
frpwiki,False,41.0,0.125,0.5232558139534884,0.8957234915055653,0.0946514423076923,0.20179372197309417
frpwiki,False,42.0,0.13274336283185842,0.5232558139534884,0.9018746338605741,0.08834134615384616,0.21176470588235294
frpwiki,False,43.0,0.1388888888888889,0.5232558139534884,0.9062683069712947,0.08383413461538461,0.21951219512195125
frpwiki,False,44.0,0.1476510067114094,0.5116279069767442,0.9132981839484475,0.07632211538461539,0.22916666666666669
frpwiki,False,45.0,0.15658362989323843,0.5116279069767442,0.9182776801405975,0.0712139423076923,0.23978201634877386
frpwiki,False,46.0,0.16356877323420074,0.5116279069767442,0.9217926186291739,0.06760817307692307,0.247887323943662
frpwiki,False,47.0,0.1752988047808765,0.5116279069767442,0.9270650263620387,0.06219951923076923,0.2611275964391691
frpwiki,False,48.0,0.18410041841004185,0.5116279069767442,0.9305799648506151,0.05859375,0.27076923076923076
frpwiki,False,49.0,0.19469026548672566,0.5116279069767442,0.9343878148799063,0.0546875,0.28205128205128205
frpwiki,False,50.0,0.2037037037037037,0.5116279069767442,0.9373169302870533,0.051682692307692304,0.2913907284768212
frpwiki,False,51.0,0.2028985507246377,0.4883720930232558,0.9387814879906269,0.04957932692307692,0.28668941979522183
frpwiki,False,52.0,0.208955223880597,0.4883720930232558,0.9405389572349151,0.047776442307692304,0.29268292682926833
frpwiki,False,53.0,0.21465968586387435,0.47674418604651164,0.9428822495606327,0.045072115384615384,0.296028880866426
frpwiki,False,54.0,0.22527472527472528,0.47674418604651164,0.945518453427065,0.042367788461538464,0.30597014925373134
frpwiki,False,55.0,0.2342857142857143,0.47674418604651164,0.947568834212068,0.04026442307692308,0.314176245210728
frpwiki,False,56.0,0.23391812865497075,0.46511627906976744,0.9481546572934973,0.03936298076923077,0.311284046692607
frpwiki,False,57.0,0.23636363636363636,0.45348837209302323,0.9493263034563562,0.03786057692307692,0.3107569721115538
frpwiki,False,58.0,0.24375,0.45348837209302323,0.9507908611599297,0.03635817307692308,0.3170731707317073
frpwiki,False,59.0,0.24836601307189543,0.4418604651162791,0.9522554188635032,0.034555288461538464,0.3179916317991632
frpwiki,False,60.0,0.25333333333333335,0.4418604651162791,0.9531341534856473,0.03365384615384615,0.32203389830508483
frpwiki,False,61.0,0.2676056338028169,0.4418604651162791,0.955477445811365,0.03125,0.3333333333333333
frpwiki,False,62.0,0.2878787878787879,0.4418604651162791,0.958406561218512,0.028245192307692308,0.34862385321100914
frpwiki,False,63.0,0.2923076923076923,0.4418604651162791,0.9589923842999414,0.027644230769230768,0.3518518518518519
frpwiki,False,64.0,0.304,0.4418604651162791,0.960456942003515,0.026141826923076924,0.36018957345971564
frpwiki,False,65.0,0.31666666666666665,0.4418604651162791,0.9619214997070885,0.024639423076923076,0.3689320388349514
frpwiki,False,66.0,0.3275862068965517,0.4418604651162791,0.9630931458699473,0.0234375,0.37623762376237624
frpwiki,False,67.0,0.33043478260869563,0.4418604651162791,0.963386057410662,0.023137019230769232,0.3781094527363184
frpwiki,False,68.0,0.33035714285714285,0.43023255813953487,0.9636789689513767,0.022536057692307692,0.3737373737373737
frpwiki,False,69.0,0.3333333333333333,0.43023255813953487,0.9639718804920914,0.022235576923076924,0.37563451776649737
frpwiki,False,70.0,0.34285714285714286,0.4186046511627907,0.9651435266549502,0.020733173076923076,0.3769633507853403
frpwiki,False,71.0,0.34615384615384615,0.4186046511627907,0.9654364381956649,0.020432692307692308,0.37894736842105264
frpwiki,False,72.0,0.3465346534653465,0.4069767441860465,0.9657293497363796,0.019831730769230768,0.37433155080213903
frpwiki,False,73.0,0.35,0.4069767441860465,0.9660222612770943,0.01953125,0.37634408602150543
frpwiki,False,74.0,0.3434343434343434,0.3953488372093023,0.9657293497363796,0.01953125,0.3675675675675675
frpwiki,False,75.0,0.358695652173913,0.38372093023255816,0.9671939074399531,0.017728365384615384,0.3707865168539326
frpwiki,False,76.0,0.3793103448275862,0.38372093023255816,0.9686584651435266,0.01622596153846154,0.38150289017341044
frpwiki,False,77.0,0.3793103448275862,0.38372093023255816,0.9686584651435266,0.01622596153846154,0.38150289017341044
frpwiki,False,78.0,0.3902439024390244,0.37209302325581395,0.9695371997656708,0.015024038461538462,0.380952380952381
frpwiki,False,79.0,0.42105263157894735,0.37209302325581395,0.971294669009959,0.013221153846153846,0.3950617283950617
frpwiki,False,80.0,0.4266666666666667,0.37209302325581395,0.9715875805506737,0.012920673076923076,0.39751552795031053
frpwiki,False,81.0,0.44285714285714284,0.36046511627906974,0.9724663151728178,0.01171875,0.3974358974358974
frpwiki,False,82.0,0.4603174603174603,0.3372093023255814,0.973345049794962,0.010216346153846154,0.38926174496644295
frpwiki,False,83.0,0.43333333333333335,0.3023255813953488,0.9724663151728178,0.010216346153846154,0.35616438356164387
frpwiki,False,84.0,0.42105263157894735,0.27906976744186046,0.9721734036321031,0.009915865384615384,0.3356643356643356
frpwiki,False,85.0,0.44,0.2558139534883721,0.9730521382542472,0.008413461538461538,0.3235294117647059
frpwiki,False,86.0,0.4782608695652174,0.2558139534883721,0.974223784417106,0.007211538461538462,0.33333333333333337
frpwiki,False,87.0,0.4878048780487805,0.23255813953488372,0.9745166959578208,0.006310096153846154,0.31496062992125984
frpwiki,False,88.0,0.4864864864864865,0.20930232558139536,0.9745166959578208,0.005709134615384615,0.2926829268292683
frpwiki,False,89.0,0.5,0.18604651162790697,0.9748096074985354,0.004807692307692308,0.2711864406779661
frpwiki,False,90.0,0.52,0.1511627906976744,0.9751025190392502,0.003605769230769231,0.2342342342342342
frpwiki,False,91.0,0.6470588235294118,0.12790697674418605,0.976274165202109,0.0018028846153846155,0.21359223300970875
frpwiki,False,92.0,0.7692307692307693,0.11627906976744186,0.9768599882835384,0.0009014423076923077,0.20202020202020202
frpwiki,False,93.0,0.6666666666666666,0.06976744186046512,0.9756883421206796,0.0009014423076923077,0.12631578947368421
frpwiki,False,94.0,0.6666666666666666,0.046511627906976744,0.9753954305799648,0.0006009615384615385,0.08695652173913045
frpwiki,False,95.0,0.75,0.03488372093023256,0.9753954305799648,0.00030048076923076925,0.06666666666666667
frpwiki,False,96.0,1.0,0.011627906976744186,0.9751025190392502,0.0,0.022988505747126436
frpwiki,False,97.0,1.0,0.0,0.9748096074985354,0.0,0.0
frpwiki,False,98.0,1.0,0.0,0.9748096074985354,0.0,0.0
frpwiki,False,99.0,1.0,0.0,0.9748096074985354,0.0,0.0
