wiki_db,user_is_anonymous_or_bot,threshold,precision,recall,accuracy,fpr,F1
ganwiki,True,0.0,0.23595505617977527,1.0,0.23595505617977527,1.0,0.38181818181818183
ganwiki,True,1.0,0.23595505617977527,1.0,0.23595505617977527,1.0,0.38181818181818183
ganwiki,True,2.0,0.23595505617977527,1.0,0.23595505617977527,1.0,0.38181818181818183
ganwiki,True,3.0,0.23595505617977527,1.0,0.23595505617977527,1.0,0.38181818181818183
ganwiki,True,4.0,0.23595505617977527,1.0,0.23595505617977527,1.0,0.38181818181818183
ganwiki,True,5.0,0.23595505617977527,1.0,0.23595505617977527,1.0,0.38181818181818183
ganwiki,True,6.0,0.23595505617977527,1.0,0.23595505617977527,1.0,0.38181818181818183
ganwiki,True,7.0,0.23595505617977527,1.0,0.23595505617977527,1.0,0.38181818181818183
ganwiki,True,8.0,0.23595505617977527,1.0,0.23595505617977527,1.0,0.38181818181818183
ganwiki,True,9.0,0.23595505617977527,1.0,0.23595505617977527,1.0,0.38181818181818183
ganwiki,True,10.0,0.23863636363636365,1.0,0.24719101123595505,0.9852941176470589,0.38532110091743116
ganwiki,True,11.0,0.2413793103448276,1.0,0.25842696629213485,0.9705882352941176,0.3888888888888889
ganwiki,True,12.0,0.2413793103448276,1.0,0.25842696629213485,0.9705882352941176,0.3888888888888889
ganwiki,True,13.0,0.2413793103448276,1.0,0.25842696629213485,0.9705882352941176,0.3888888888888889
ganwiki,True,14.0,0.2413793103448276,1.0,0.25842696629213485,0.9705882352941176,0.3888888888888889
ganwiki,True,15.0,0.2413793103448276,1.0,0.25842696629213485,0.9705882352941176,0.3888888888888889
ganwiki,True,16.0,0.2413793103448276,1.0,0.25842696629213485,0.9705882352941176,0.3888888888888889
ganwiki,True,17.0,0.2413793103448276,1.0,0.25842696629213485,0.9705882352941176,0.3888888888888889
ganwiki,True,18.0,0.2413793103448276,1.0,0.25842696629213485,0.9705882352941176,0.3888888888888889
ganwiki,True,19.0,0.2413793103448276,1.0,0.25842696629213485,0.9705882352941176,0.3888888888888889
ganwiki,True,20.0,0.2413793103448276,1.0,0.25842696629213485,0.9705882352941176,0.3888888888888889
ganwiki,True,21.0,0.2413793103448276,1.0,0.25842696629213485,0.9705882352941176,0.3888888888888889
ganwiki,True,22.0,0.2413793103448276,1.0,0.25842696629213485,0.9705882352941176,0.3888888888888889
ganwiki,True,23.0,0.2413793103448276,1.0,0.25842696629213485,0.9705882352941176,0.3888888888888889
ganwiki,True,24.0,0.2413793103448276,1.0,0.25842696629213485,0.9705882352941176,0.3888888888888889
ganwiki,True,25.0,0.2413793103448276,1.0,0.25842696629213485,0.9705882352941176,0.3888888888888889
ganwiki,True,26.0,0.2413793103448276,1.0,0.25842696629213485,0.9705882352941176,0.3888888888888889
ganwiki,True,27.0,0.2413793103448276,1.0,0.25842696629213485,0.9705882352941176,0.3888888888888889
ganwiki,True,28.0,0.2413793103448276,1.0,0.25842696629213485,0.9705882352941176,0.3888888888888889
ganwiki,True,29.0,0.2413793103448276,1.0,0.25842696629213485,0.9705882352941176,0.3888888888888889
ganwiki,True,30.0,0.2413793103448276,1.0,0.25842696629213485,0.9705882352941176,0.3888888888888889
ganwiki,True,31.0,0.2413793103448276,1.0,0.25842696629213485,0.9705882352941176,0.3888888888888889
ganwiki,True,32.0,0.2413793103448276,1.0,0.25842696629213485,0.9705882352941176,0.3888888888888889
ganwiki,True,33.0,0.2441860465116279,1.0,0.2696629213483146,0.9558823529411765,0.3925233644859813
ganwiki,True,34.0,0.2441860465116279,1.0,0.2696629213483146,0.9558823529411765,0.3925233644859813
ganwiki,True,35.0,0.2441860465116279,1.0,0.2696629213483146,0.9558823529411765,0.3925233644859813
ganwiki,True,36.0,0.2441860465116279,1.0,0.2696629213483146,0.9558823529411765,0.3925233644859813
ganwiki,True,37.0,0.2441860465116279,1.0,0.2696629213483146,0.9558823529411765,0.3925233644859813
ganwiki,True,38.0,0.2441860465116279,1.0,0.2696629213483146,0.9558823529411765,0.3925233644859813
ganwiki,True,39.0,0.2441860465116279,1.0,0.2696629213483146,0.9558823529411765,0.3925233644859813
ganwiki,True,40.0,0.2441860465116279,1.0,0.2696629213483146,0.9558823529411765,0.3925233644859813
ganwiki,True,41.0,0.2441860465116279,1.0,0.2696629213483146,0.9558823529411765,0.3925233644859813
ganwiki,True,42.0,0.2441860465116279,1.0,0.2696629213483146,0.9558823529411765,0.3925233644859813
ganwiki,True,43.0,0.2441860465116279,1.0,0.2696629213483146,0.9558823529411765,0.3925233644859813
ganwiki,True,44.0,0.2441860465116279,1.0,0.2696629213483146,0.9558823529411765,0.3925233644859813
ganwiki,True,45.0,0.2441860465116279,1.0,0.2696629213483146,0.9558823529411765,0.3925233644859813
ganwiki,True,46.0,0.2441860465116279,1.0,0.2696629213483146,0.9558823529411765,0.3925233644859813
ganwiki,True,47.0,0.2441860465116279,1.0,0.2696629213483146,0.9558823529411765,0.3925233644859813
ganwiki,True,48.0,0.2441860465116279,1.0,0.2696629213483146,0.9558823529411765,0.3925233644859813
ganwiki,True,49.0,0.24705882352941178,1.0,0.2808988764044944,0.9411764705882353,0.39622641509433965
ganwiki,True,50.0,0.24705882352941178,1.0,0.2808988764044944,0.9411764705882353,0.39622641509433965
ganwiki,True,51.0,0.24705882352941178,1.0,0.2808988764044944,0.9411764705882353,0.39622641509433965
ganwiki,True,52.0,0.24705882352941178,1.0,0.2808988764044944,0.9411764705882353,0.39622641509433965
ganwiki,True,53.0,0.24705882352941178,1.0,0.2808988764044944,0.9411764705882353,0.39622641509433965
ganwiki,True,54.0,0.24705882352941178,1.0,0.2808988764044944,0.9411764705882353,0.39622641509433965
ganwiki,True,55.0,0.24705882352941178,1.0,0.2808988764044944,0.9411764705882353,0.39622641509433965
ganwiki,True,56.0,0.24705882352941178,1.0,0.2808988764044944,0.9411764705882353,0.39622641509433965
ganwiki,True,57.0,0.25,1.0,0.29213483146067415,0.9264705882352942,0.4
ganwiki,True,58.0,0.25,1.0,0.29213483146067415,0.9264705882352942,0.4
ganwiki,True,59.0,0.25,1.0,0.29213483146067415,0.9264705882352942,0.4
ganwiki,True,60.0,0.25,1.0,0.29213483146067415,0.9264705882352942,0.4
ganwiki,True,61.0,0.25,1.0,0.29213483146067415,0.9264705882352942,0.4
ganwiki,True,62.0,0.25,1.0,0.29213483146067415,0.9264705882352942,0.4
ganwiki,True,63.0,0.25,1.0,0.29213483146067415,0.9264705882352942,0.4
ganwiki,True,64.0,0.25,1.0,0.29213483146067415,0.9264705882352942,0.4
ganwiki,True,65.0,0.25,1.0,0.29213483146067415,0.9264705882352942,0.4
ganwiki,True,66.0,0.26582278481012656,1.0,0.34831460674157305,0.8529411764705882,0.41999999999999993
ganwiki,True,67.0,0.2692307692307692,1.0,0.3595505617977528,0.8382352941176471,0.42424242424242425
ganwiki,True,68.0,0.28,1.0,0.39325842696629215,0.7941176470588235,0.43750000000000006
ganwiki,True,69.0,0.28378378378378377,1.0,0.4044943820224719,0.7794117647058824,0.4421052631578947
ganwiki,True,70.0,0.2876712328767123,1.0,0.4157303370786517,0.7647058823529411,0.44680851063829785
ganwiki,True,71.0,0.2916666666666667,1.0,0.42696629213483145,0.75,0.45161290322580644
ganwiki,True,72.0,0.30434782608695654,1.0,0.4606741573033708,0.7058823529411765,0.4666666666666667
ganwiki,True,73.0,0.30434782608695654,1.0,0.4606741573033708,0.7058823529411765,0.4666666666666667
ganwiki,True,74.0,0.30434782608695654,1.0,0.4606741573033708,0.7058823529411765,0.4666666666666667
ganwiki,True,75.0,0.30434782608695654,1.0,0.4606741573033708,0.7058823529411765,0.4666666666666667
ganwiki,True,76.0,0.30303030303030304,0.9523809523809523,0.47191011235955055,0.6764705882352942,0.45977011494252873
ganwiki,True,77.0,0.3125,0.9523809523809523,0.4943820224719101,0.6470588235294118,0.47058823529411764
ganwiki,True,78.0,0.2903225806451613,0.8571428571428571,0.47191011235955055,0.6470588235294118,0.43373493975903615
ganwiki,True,79.0,0.2833333333333333,0.8095238095238095,0.47191011235955055,0.6323529411764706,0.419753086419753
ganwiki,True,80.0,0.2982456140350877,0.8095238095238095,0.5056179775280899,0.5882352941176471,0.43589743589743585
ganwiki,True,81.0,0.2982456140350877,0.8095238095238095,0.5056179775280899,0.5882352941176471,0.43589743589743585
ganwiki,True,82.0,0.3076923076923077,0.7619047619047619,0.5393258426966292,0.5294117647058824,0.4383561643835617
ganwiki,True,83.0,0.32,0.7619047619047619,0.5617977528089888,0.5,0.4507042253521127
ganwiki,True,84.0,0.3333333333333333,0.7619047619047619,0.5842696629213483,0.47058823529411764,0.463768115942029
ganwiki,True,85.0,0.3333333333333333,0.7142857142857143,0.5955056179775281,0.4411764705882353,0.4545454545454545
ganwiki,True,86.0,0.325,0.6190476190476191,0.6067415730337079,0.39705882352941174,0.42622950819672134
ganwiki,True,87.0,0.325,0.6190476190476191,0.6067415730337079,0.39705882352941174,0.42622950819672134
ganwiki,True,88.0,0.32432432432432434,0.5714285714285714,0.6179775280898876,0.36764705882352944,0.41379310344827586
ganwiki,True,89.0,0.3125,0.47619047619047616,0.6292134831460674,0.3235294117647059,0.37735849056603776
ganwiki,True,90.0,0.3448275862068966,0.47619047619047616,0.6629213483146067,0.27941176470588236,0.39999999999999997
ganwiki,True,91.0,0.34782608695652173,0.38095238095238093,0.6853932584269663,0.22058823529411764,0.3636363636363636
ganwiki,True,92.0,0.3684210526315789,0.3333333333333333,0.7078651685393258,0.17647058823529413,0.35
ganwiki,True,93.0,0.46153846153846156,0.2857142857142857,0.7528089887640449,0.10294117647058823,0.35294117647058826
ganwiki,True,94.0,0.4,0.19047619047619047,0.7415730337078652,0.08823529411764706,0.25806451612903225
ganwiki,True,95.0,0.6,0.14285714285714285,0.7752808988764045,0.029411764705882353,0.23076923076923073
ganwiki,True,96.0,0.6,0.14285714285714285,0.7752808988764045,0.029411764705882353,0.23076923076923073
ganwiki,True,97.0,0.6,0.14285714285714285,0.7752808988764045,0.029411764705882353,0.23076923076923073
ganwiki,True,98.0,0.6,0.14285714285714285,0.7752808988764045,0.029411764705882353,0.23076923076923073
ganwiki,True,99.0,0.5,0.047619047619047616,0.7640449438202247,0.014705882352941176,0.08695652173913042
ganwiki,False,0.0,0.11458333333333333,1.0,0.11458333333333333,1.0,0.205607476635514
ganwiki,False,1.0,0.11458333333333333,1.0,0.11458333333333333,1.0,0.205607476635514
ganwiki,False,2.0,0.11458333333333333,1.0,0.11458333333333333,1.0,0.205607476635514
ganwiki,False,3.0,0.11458333333333333,1.0,0.11458333333333333,1.0,0.205607476635514
ganwiki,False,4.0,0.11458333333333333,1.0,0.11458333333333333,1.0,0.205607476635514
ganwiki,False,5.0,0.11458333333333333,1.0,0.11458333333333333,1.0,0.205607476635514
ganwiki,False,6.0,0.11458333333333333,1.0,0.11458333333333333,1.0,0.205607476635514
ganwiki,False,7.0,0.11458333333333333,1.0,0.11458333333333333,1.0,0.205607476635514
ganwiki,False,8.0,0.11458333333333333,1.0,0.11458333333333333,1.0,0.205607476635514
ganwiki,False,9.0,0.11458333333333333,1.0,0.11458333333333333,1.0,0.205607476635514
ganwiki,False,10.0,0.11518324607329843,1.0,0.11979166666666667,0.9941176470588236,0.20657276995305163
ganwiki,False,11.0,0.11578947368421053,1.0,0.125,0.9882352941176471,0.20754716981132076
ganwiki,False,12.0,0.11578947368421053,1.0,0.125,0.9882352941176471,0.20754716981132076
ganwiki,False,13.0,0.11578947368421053,1.0,0.125,0.9882352941176471,0.20754716981132076
ganwiki,False,14.0,0.1164021164021164,1.0,0.13020833333333334,0.9823529411764705,0.2085308056872038
ganwiki,False,15.0,0.1164021164021164,1.0,0.13020833333333334,0.9823529411764705,0.2085308056872038
ganwiki,False,16.0,0.11764705882352941,1.0,0.140625,0.9705882352941176,0.21052631578947367
ganwiki,False,17.0,0.11764705882352941,1.0,0.140625,0.9705882352941176,0.21052631578947367
ganwiki,False,18.0,0.11891891891891893,1.0,0.15104166666666666,0.9588235294117647,0.21256038647342995
ganwiki,False,19.0,0.12021857923497267,1.0,0.16145833333333334,0.9470588235294117,0.2146341463414634
ganwiki,False,20.0,0.12021857923497267,1.0,0.16145833333333334,0.9470588235294117,0.2146341463414634
ganwiki,False,21.0,0.12021857923497267,1.0,0.16145833333333334,0.9470588235294117,0.2146341463414634
ganwiki,False,22.0,0.12021857923497267,1.0,0.16145833333333334,0.9470588235294117,0.2146341463414634
ganwiki,False,23.0,0.12087912087912088,1.0,0.16666666666666666,0.9411764705882353,0.21568627450980393
ganwiki,False,24.0,0.12154696132596685,1.0,0.171875,0.9352941176470588,0.21674876847290642
ganwiki,False,25.0,0.12290502793296089,1.0,0.18229166666666666,0.9235294117647059,0.21890547263681592
ganwiki,False,26.0,0.12290502793296089,1.0,0.18229166666666666,0.9235294117647059,0.21890547263681592
ganwiki,False,27.0,0.12359550561797752,1.0,0.1875,0.9176470588235294,0.21999999999999997
ganwiki,False,28.0,0.12359550561797752,1.0,0.1875,0.9176470588235294,0.21999999999999997
ganwiki,False,29.0,0.12359550561797752,1.0,0.1875,0.9176470588235294,0.21999999999999997
ganwiki,False,30.0,0.125,1.0,0.19791666666666666,0.9058823529411765,0.2222222222222222
ganwiki,False,31.0,0.12571428571428572,1.0,0.203125,0.9,0.22335025380710663
ganwiki,False,32.0,0.12716763005780346,1.0,0.21354166666666666,0.888235294117647,0.22564102564102562
ganwiki,False,33.0,0.1286549707602339,1.0,0.22395833333333334,0.8764705882352941,0.22797927461139894
ganwiki,False,34.0,0.1286549707602339,1.0,0.22395833333333334,0.8764705882352941,0.22797927461139894
ganwiki,False,35.0,0.12941176470588237,1.0,0.22916666666666666,0.8705882352941177,0.22916666666666669
ganwiki,False,36.0,0.1301775147928994,1.0,0.234375,0.8647058823529412,0.23036649214659685
ganwiki,False,37.0,0.13095238095238096,1.0,0.23958333333333334,0.8588235294117647,0.23157894736842108
ganwiki,False,38.0,0.13095238095238096,1.0,0.23958333333333334,0.8588235294117647,0.23157894736842108
ganwiki,False,39.0,0.13253012048192772,1.0,0.25,0.8470588235294118,0.23404255319148937
ganwiki,False,40.0,0.13253012048192772,1.0,0.25,0.8470588235294118,0.23404255319148937
ganwiki,False,41.0,0.13414634146341464,1.0,0.2604166666666667,0.8352941176470589,0.23655913978494622
ganwiki,False,42.0,0.13496932515337423,1.0,0.265625,0.8294117647058824,0.23783783783783782
ganwiki,False,43.0,0.13496932515337423,1.0,0.265625,0.8294117647058824,0.23783783783783782
ganwiki,False,44.0,0.13496932515337423,1.0,0.265625,0.8294117647058824,0.23783783783783782
ganwiki,False,45.0,0.13580246913580246,1.0,0.2708333333333333,0.8235294117647058,0.2391304347826087
ganwiki,False,46.0,0.13580246913580246,1.0,0.2708333333333333,0.8235294117647058,0.2391304347826087
ganwiki,False,47.0,0.13580246913580246,1.0,0.2708333333333333,0.8235294117647058,0.2391304347826087
ganwiki,False,48.0,0.13580246913580246,1.0,0.2708333333333333,0.8235294117647058,0.2391304347826087
ganwiki,False,49.0,0.1375,1.0,0.28125,0.8117647058823529,0.2417582417582418
ganwiki,False,50.0,0.13924050632911392,1.0,0.2916666666666667,0.8,0.2444444444444444
ganwiki,False,51.0,0.14193548387096774,1.0,0.3072916666666667,0.7823529411764706,0.24858757062146894
ganwiki,False,52.0,0.14193548387096774,1.0,0.3072916666666667,0.7823529411764706,0.24858757062146894
ganwiki,False,53.0,0.1437908496732026,1.0,0.3177083333333333,0.7705882352941177,0.25142857142857145
ganwiki,False,54.0,0.1437908496732026,1.0,0.3177083333333333,0.7705882352941177,0.25142857142857145
ganwiki,False,55.0,0.1456953642384106,1.0,0.328125,0.7588235294117647,0.2543352601156069
ganwiki,False,56.0,0.1456953642384106,1.0,0.328125,0.7588235294117647,0.2543352601156069
ganwiki,False,57.0,0.14864864864864866,1.0,0.34375,0.7411764705882353,0.25882352941176473
ganwiki,False,58.0,0.15172413793103448,1.0,0.359375,0.7235294117647059,0.26347305389221554
ganwiki,False,59.0,0.14893617021276595,0.9545454545454546,0.3697916666666667,0.7058823529411765,0.2576687116564417
ganwiki,False,60.0,0.15,0.9545454545454546,0.375,0.7,0.2592592592592593
ganwiki,False,61.0,0.15,0.9545454545454546,0.375,0.7,0.2592592592592593
ganwiki,False,62.0,0.15217391304347827,0.9545454545454546,0.3854166666666667,0.6882352941176471,0.2625
ganwiki,False,63.0,0.15328467153284672,0.9545454545454546,0.390625,0.6823529411764706,0.26415094339622647
ganwiki,False,64.0,0.15441176470588236,0.9545454545454546,0.3958333333333333,0.6764705882352942,0.2658227848101266
ganwiki,False,65.0,0.15555555555555556,0.9545454545454546,0.4010416666666667,0.6705882352941176,0.26751592356687903
ganwiki,False,66.0,0.1640625,0.9545454545454546,0.4375,0.6294117647058823,0.28
ganwiki,False,67.0,0.16666666666666666,0.9545454545454546,0.4479166666666667,0.6176470588235294,0.28378378378378377
ganwiki,False,68.0,0.17355371900826447,0.9545454545454546,0.4739583333333333,0.5882352941176471,0.2937062937062937
ganwiki,False,69.0,0.18421052631578946,0.9545454545454546,0.5104166666666666,0.5470588235294118,0.3088235294117647
ganwiki,False,70.0,0.1875,0.9545454545454546,0.5208333333333334,0.5352941176470588,0.31343283582089554
ganwiki,False,71.0,0.1891891891891892,0.9545454545454546,0.5260416666666666,0.5294117647058824,0.3157894736842105
ganwiki,False,72.0,0.19626168224299065,0.9545454545454546,0.546875,0.5058823529411764,0.32558139534883723
ganwiki,False,73.0,0.2,0.9545454545454546,0.5572916666666666,0.49411764705882355,0.33070866141732286
ganwiki,False,74.0,0.20388349514563106,0.9545454545454546,0.5677083333333334,0.4823529411764706,0.336
ganwiki,False,75.0,0.2079207920792079,0.9545454545454546,0.578125,0.47058823529411764,0.3414634146341463
ganwiki,False,76.0,0.20408163265306123,0.9090909090909091,0.5833333333333334,0.4588235294117647,0.33333333333333337
ganwiki,False,77.0,0.21739130434782608,0.9090909090909091,0.6145833333333334,0.4235294117647059,0.3508771929824562
ganwiki,False,78.0,0.20224719101123595,0.8181818181818182,0.609375,0.4176470588235294,0.32432432432432434
ganwiki,False,79.0,0.2,0.7727272727272727,0.6197916666666666,0.4,0.31775700934579443
ganwiki,False,80.0,0.20987654320987653,0.7727272727272727,0.640625,0.3764705882352941,0.33009708737864074
ganwiki,False,81.0,0.20987654320987653,0.7727272727272727,0.640625,0.3764705882352941,0.33009708737864074
ganwiki,False,82.0,0.22535211267605634,0.7272727272727273,0.6822916666666666,0.3235294117647059,0.34408602150537637
ganwiki,False,83.0,0.23880597014925373,0.7272727272727273,0.703125,0.3,0.3595505617977528
ganwiki,False,84.0,0.25806451612903225,0.7272727272727273,0.7291666666666666,0.27058823529411763,0.38095238095238093
ganwiki,False,85.0,0.25862068965517243,0.6818181818181818,0.7395833333333334,0.2529411764705882,0.375
ganwiki,False,86.0,0.2549019607843137,0.5909090909090909,0.7552083333333334,0.2235294117647059,0.35616438356164387
ganwiki,False,87.0,0.2653061224489796,0.5909090909090909,0.765625,0.21176470588235294,0.36619718309859156
ganwiki,False,88.0,0.2727272727272727,0.5454545454545454,0.78125,0.18823529411764706,0.3636363636363636
ganwiki,False,89.0,0.2564102564102564,0.45454545454545453,0.7864583333333334,0.17058823529411765,0.3278688524590163
ganwiki,False,90.0,0.2857142857142857,0.45454545454545453,0.8072916666666666,0.14705882352941177,0.3508771929824561
ganwiki,False,91.0,0.27586206896551724,0.36363636363636365,0.8177083333333334,0.12352941176470589,0.3137254901960784
ganwiki,False,92.0,0.28,0.3181818181818182,0.828125,0.10588235294117647,0.29787234042553196
ganwiki,False,93.0,0.35294117647058826,0.2727272727272727,0.859375,0.06470588235294118,0.30769230769230765
ganwiki,False,94.0,0.2857142857142857,0.18181818181818182,0.8541666666666666,0.058823529411764705,0.2222222222222222
ganwiki,False,95.0,0.375,0.13636363636363635,0.875,0.029411764705882353,0.19999999999999998
ganwiki,False,96.0,0.5,0.13636363636363635,0.8854166666666666,0.01764705882352941,0.21428571428571427
ganwiki,False,97.0,0.5,0.13636363636363635,0.8854166666666666,0.01764705882352941,0.21428571428571427
ganwiki,False,98.0,0.6,0.13636363636363635,0.890625,0.011764705882352941,0.22222222222222218
ganwiki,False,99.0,0.5,0.045454545454545456,0.8854166666666666,0.0058823529411764705,0.08333333333333334
