wiki_db,user_is_anonymous_or_bot,threshold,precision,recall,accuracy,fpr,F1
gnwiki,True,0.0,0.2905405405405405,1.0,0.2905405405405405,1.0,0.450261780104712
gnwiki,True,1.0,0.2905405405405405,1.0,0.2905405405405405,1.0,0.450261780104712
gnwiki,True,2.0,0.2905405405405405,1.0,0.2905405405405405,1.0,0.450261780104712
gnwiki,True,3.0,0.2905405405405405,1.0,0.2905405405405405,1.0,0.450261780104712
gnwiki,True,4.0,0.2905405405405405,1.0,0.2905405405405405,1.0,0.450261780104712
gnwiki,True,5.0,0.2905405405405405,1.0,0.2905405405405405,1.0,0.450261780104712
gnwiki,True,6.0,0.2905405405405405,1.0,0.2905405405405405,1.0,0.450261780104712
gnwiki,True,7.0,0.2905405405405405,1.0,0.2905405405405405,1.0,0.450261780104712
gnwiki,True,8.0,0.2925170068027211,1.0,0.2972972972972973,0.9904761904761905,0.4526315789473684
gnwiki,True,9.0,0.2925170068027211,1.0,0.2972972972972973,0.9904761904761905,0.4526315789473684
gnwiki,True,10.0,0.2925170068027211,1.0,0.2972972972972973,0.9904761904761905,0.4526315789473684
gnwiki,True,11.0,0.2925170068027211,1.0,0.2972972972972973,0.9904761904761905,0.4526315789473684
gnwiki,True,12.0,0.2925170068027211,1.0,0.2972972972972973,0.9904761904761905,0.4526315789473684
gnwiki,True,13.0,0.2925170068027211,1.0,0.2972972972972973,0.9904761904761905,0.4526315789473684
gnwiki,True,14.0,0.2925170068027211,1.0,0.2972972972972973,0.9904761904761905,0.4526315789473684
gnwiki,True,15.0,0.2925170068027211,1.0,0.2972972972972973,0.9904761904761905,0.4526315789473684
gnwiki,True,16.0,0.2925170068027211,1.0,0.2972972972972973,0.9904761904761905,0.4526315789473684
gnwiki,True,17.0,0.2925170068027211,1.0,0.2972972972972973,0.9904761904761905,0.4526315789473684
gnwiki,True,18.0,0.2925170068027211,1.0,0.2972972972972973,0.9904761904761905,0.4526315789473684
gnwiki,True,19.0,0.2925170068027211,1.0,0.2972972972972973,0.9904761904761905,0.4526315789473684
gnwiki,True,20.0,0.2925170068027211,1.0,0.2972972972972973,0.9904761904761905,0.4526315789473684
gnwiki,True,21.0,0.2925170068027211,1.0,0.2972972972972973,0.9904761904761905,0.4526315789473684
gnwiki,True,22.0,0.2925170068027211,1.0,0.2972972972972973,0.9904761904761905,0.4526315789473684
gnwiki,True,23.0,0.2925170068027211,1.0,0.2972972972972973,0.9904761904761905,0.4526315789473684
gnwiki,True,24.0,0.2925170068027211,1.0,0.2972972972972973,0.9904761904761905,0.4526315789473684
gnwiki,True,25.0,0.2925170068027211,1.0,0.2972972972972973,0.9904761904761905,0.4526315789473684
gnwiki,True,26.0,0.2925170068027211,1.0,0.2972972972972973,0.9904761904761905,0.4526315789473684
gnwiki,True,27.0,0.2925170068027211,1.0,0.2972972972972973,0.9904761904761905,0.4526315789473684
gnwiki,True,28.0,0.2925170068027211,1.0,0.2972972972972973,0.9904761904761905,0.4526315789473684
gnwiki,True,29.0,0.2925170068027211,1.0,0.2972972972972973,0.9904761904761905,0.4526315789473684
gnwiki,True,30.0,0.2925170068027211,1.0,0.2972972972972973,0.9904761904761905,0.4526315789473684
gnwiki,True,31.0,0.2925170068027211,1.0,0.2972972972972973,0.9904761904761905,0.4526315789473684
gnwiki,True,32.0,0.2925170068027211,1.0,0.2972972972972973,0.9904761904761905,0.4526315789473684
gnwiki,True,33.0,0.2925170068027211,1.0,0.2972972972972973,0.9904761904761905,0.4526315789473684
gnwiki,True,34.0,0.2945205479452055,1.0,0.30405405405405406,0.9809523809523809,0.455026455026455
gnwiki,True,35.0,0.2945205479452055,1.0,0.30405405405405406,0.9809523809523809,0.455026455026455
gnwiki,True,36.0,0.2945205479452055,1.0,0.30405405405405406,0.9809523809523809,0.455026455026455
gnwiki,True,37.0,0.2945205479452055,1.0,0.30405405405405406,0.9809523809523809,0.455026455026455
gnwiki,True,38.0,0.2945205479452055,1.0,0.30405405405405406,0.9809523809523809,0.455026455026455
gnwiki,True,39.0,0.2945205479452055,1.0,0.30405405405405406,0.9809523809523809,0.455026455026455
gnwiki,True,40.0,0.2986111111111111,1.0,0.31756756756756754,0.9619047619047619,0.4598930481283422
gnwiki,True,41.0,0.2986111111111111,1.0,0.31756756756756754,0.9619047619047619,0.4598930481283422
gnwiki,True,42.0,0.3006993006993007,1.0,0.32432432432432434,0.9523809523809523,0.46236559139784944
gnwiki,True,43.0,0.3006993006993007,1.0,0.32432432432432434,0.9523809523809523,0.46236559139784944
gnwiki,True,44.0,0.3006993006993007,1.0,0.32432432432432434,0.9523809523809523,0.46236559139784944
gnwiki,True,45.0,0.3006993006993007,1.0,0.32432432432432434,0.9523809523809523,0.46236559139784944
gnwiki,True,46.0,0.3006993006993007,1.0,0.32432432432432434,0.9523809523809523,0.46236559139784944
gnwiki,True,47.0,0.3006993006993007,1.0,0.32432432432432434,0.9523809523809523,0.46236559139784944
gnwiki,True,48.0,0.3006993006993007,1.0,0.32432432432432434,0.9523809523809523,0.46236559139784944
gnwiki,True,49.0,0.3006993006993007,1.0,0.32432432432432434,0.9523809523809523,0.46236559139784944
gnwiki,True,50.0,0.3006993006993007,1.0,0.32432432432432434,0.9523809523809523,0.46236559139784944
gnwiki,True,51.0,0.3006993006993007,1.0,0.32432432432432434,0.9523809523809523,0.46236559139784944
gnwiki,True,52.0,0.3028169014084507,1.0,0.3310810810810811,0.9428571428571428,0.46486486486486484
gnwiki,True,53.0,0.3028169014084507,1.0,0.3310810810810811,0.9428571428571428,0.46486486486486484
gnwiki,True,54.0,0.3028169014084507,1.0,0.3310810810810811,0.9428571428571428,0.46486486486486484
gnwiki,True,55.0,0.3028169014084507,1.0,0.3310810810810811,0.9428571428571428,0.46486486486486484
gnwiki,True,56.0,0.3028169014084507,1.0,0.3310810810810811,0.9428571428571428,0.46486486486486484
gnwiki,True,57.0,0.3028169014084507,1.0,0.3310810810810811,0.9428571428571428,0.46486486486486484
gnwiki,True,58.0,0.3049645390070922,1.0,0.33783783783783783,0.9333333333333333,0.46739130434782605
gnwiki,True,59.0,0.3049645390070922,1.0,0.33783783783783783,0.9333333333333333,0.46739130434782605
gnwiki,True,60.0,0.30714285714285716,1.0,0.34459459459459457,0.9238095238095239,0.46994535519125685
gnwiki,True,61.0,0.30714285714285716,1.0,0.34459459459459457,0.9238095238095239,0.46994535519125685
gnwiki,True,62.0,0.30714285714285716,1.0,0.34459459459459457,0.9238095238095239,0.46994535519125685
gnwiki,True,63.0,0.30714285714285716,1.0,0.34459459459459457,0.9238095238095239,0.46994535519125685
gnwiki,True,64.0,0.30714285714285716,1.0,0.34459459459459457,0.9238095238095239,0.46994535519125685
gnwiki,True,65.0,0.30714285714285716,1.0,0.34459459459459457,0.9238095238095239,0.46994535519125685
gnwiki,True,66.0,0.3115942028985507,1.0,0.3581081081081081,0.9047619047619048,0.4751381215469613
gnwiki,True,67.0,0.3161764705882353,1.0,0.3716216216216216,0.8857142857142857,0.48044692737430167
gnwiki,True,68.0,0.3161764705882353,1.0,0.3716216216216216,0.8857142857142857,0.48044692737430167
gnwiki,True,69.0,0.3161764705882353,1.0,0.3716216216216216,0.8857142857142857,0.48044692737430167
gnwiki,True,70.0,0.31851851851851853,1.0,0.3783783783783784,0.8761904761904762,0.4831460674157304
gnwiki,True,71.0,0.31851851851851853,1.0,0.3783783783783784,0.8761904761904762,0.4831460674157304
gnwiki,True,72.0,0.31851851851851853,1.0,0.3783783783783784,0.8761904761904762,0.4831460674157304
gnwiki,True,73.0,0.31851851851851853,1.0,0.3783783783783784,0.8761904761904762,0.4831460674157304
gnwiki,True,74.0,0.3208955223880597,1.0,0.38513513513513514,0.8666666666666667,0.4858757062146893
gnwiki,True,75.0,0.3282442748091603,1.0,0.40540540540540543,0.8380952380952381,0.4942528735632184
gnwiki,True,76.0,0.33076923076923076,1.0,0.41216216216216217,0.8285714285714286,0.4971098265895954
gnwiki,True,77.0,0.3333333333333333,1.0,0.4189189189189189,0.819047619047619,0.5
gnwiki,True,78.0,0.336,0.9767441860465116,0.43243243243243246,0.7904761904761904,0.5
gnwiki,True,79.0,0.32786885245901637,0.9302325581395349,0.42567567567567566,0.780952380952381,0.48484848484848475
gnwiki,True,80.0,0.34782608695652173,0.9302325581395349,0.47297297297297297,0.7142857142857143,0.5063291139240506
gnwiki,True,81.0,0.35714285714285715,0.9302325581395349,0.49324324324324326,0.6857142857142857,0.5161290322580646
gnwiki,True,82.0,0.36792452830188677,0.9069767441860465,0.5202702702702703,0.638095238095238,0.523489932885906
gnwiki,True,83.0,0.3838383838383838,0.8837209302325582,0.5540540540540541,0.580952380952381,0.5352112676056338
gnwiki,True,84.0,0.39361702127659576,0.8604651162790697,0.5743243243243243,0.5428571428571428,0.54014598540146
gnwiki,True,85.0,0.3977272727272727,0.813953488372093,0.5878378378378378,0.5047619047619047,0.5343511450381679
gnwiki,True,86.0,0.4074074074074074,0.7674418604651163,0.6081081081081081,0.45714285714285713,0.532258064516129
gnwiki,True,87.0,0.4266666666666667,0.7441860465116279,0.6351351351351351,0.4095238095238095,0.5423728813559322
gnwiki,True,88.0,0.43283582089552236,0.6744186046511628,0.6486486486486487,0.3619047619047619,0.5272727272727272
gnwiki,True,89.0,0.45901639344262296,0.6511627906976745,0.6756756756756757,0.3142857142857143,0.5384615384615384
gnwiki,True,90.0,0.5192307692307693,0.627906976744186,0.722972972972973,0.23809523809523808,0.5684210526315789
gnwiki,True,91.0,0.5555555555555556,0.5813953488372093,0.7432432432432432,0.19047619047619047,0.5681818181818183
gnwiki,True,92.0,0.65625,0.4883720930232558,0.777027027027027,0.10476190476190476,0.5599999999999999
gnwiki,True,93.0,0.6666666666666666,0.4186046511627907,0.7702702702702703,0.08571428571428572,0.5142857142857143
gnwiki,True,94.0,0.625,0.3488372093023256,0.75,0.08571428571428572,0.44776119402985076
gnwiki,True,95.0,0.6842105263157895,0.3023255813953488,0.7567567567567568,0.05714285714285714,0.41935483870967744
gnwiki,True,96.0,0.75,0.20930232558139536,0.75,0.02857142857142857,0.32727272727272727
gnwiki,True,97.0,0.7777777777777778,0.16279069767441862,0.7432432432432432,0.01904761904761905,0.2692307692307693
gnwiki,True,98.0,0.8571428571428571,0.13953488372093023,0.7432432432432432,0.009523809523809525,0.24
gnwiki,True,99.0,0.6666666666666666,0.046511627906976744,0.7162162162162162,0.009523809523809525,0.08695652173913045
gnwiki,False,0.0,0.041423948220064725,1.0,0.041423948220064725,1.0,0.0795525170913611
gnwiki,False,1.0,0.041423948220064725,1.0,0.041423948220064725,1.0,0.0795525170913611
gnwiki,False,2.0,0.04145077720207254,1.0,0.042071197411003236,0.9993247805536799,0.07960199004975126
gnwiki,False,3.0,0.04158544509421702,1.0,0.045307443365695796,0.9959486833220796,0.07985028072364317
gnwiki,False,4.0,0.04169381107491857,1.0,0.04789644012944984,0.9932478055367995,0.08005003126954346
gnwiki,False,5.0,0.04199475065616798,1.0,0.05501618122977346,0.9858203916272789,0.08060453400503778
gnwiki,False,6.0,0.0425249169435216,1.0,0.06731391585760518,0.9729912221471978,0.08158062460165712
gnwiki,False,7.0,0.04330175913396482,1.0,0.08478964401294499,0.9547602970965564,0.08300907911802854
gnwiki,False,8.0,0.04450625869262865,1.0,0.11067961165048544,0.9277515192437542,0.085219707057257
gnwiki,False,9.0,0.045616535994297935,1.0,0.13333333333333333,0.9041188386225524,0.08725289706884799
gnwiki,False,10.0,0.0470242468772961,1.0,0.16051779935275082,0.8757596218771101,0.08982456140350877
gnwiki,False,11.0,0.04830188679245283,1.0,0.18381877022653723,0.8514517218095882,0.09215262778977683
gnwiki,False,12.0,0.04914196567862714,0.984375,0.21035598705501618,0.8230925050641459,0.09361069836552749
gnwiki,False,13.0,0.050359712230215826,0.984375,0.23042071197411004,0.8021607022282242,0.09581749049429658
gnwiki,False,14.0,0.05155482815057283,0.984375,0.24919093851132687,0.7825793382849426,0.09797822706065318
gnwiki,False,15.0,0.05232067510548523,0.96875,0.27184466019417475,0.7582714382174207,0.09927942353883105
gnwiki,False,16.0,0.05391304347826087,0.96875,0.29449838187702265,0.7346387575962188,0.10214168039538715
gnwiki,False,17.0,0.055062166962699825,0.96875,0.3100323624595469,0.7184334908845375,0.10420168067226891
gnwiki,False,18.0,0.05656934306569343,0.96875,0.3294498381877023,0.6981769074949359,0.10689655172413792
gnwiki,False,19.0,0.05805243445692884,0.96875,0.34757281553398056,0.6792707629979743,0.10954063604240283
gnwiki,False,20.0,0.05842911877394636,0.953125,0.3618122977346278,0.6637407157326131,0.11010830324909748
gnwiki,False,21.0,0.06045589692765114,0.953125,0.3844660194174757,0.6401080351114112,0.11369990680335508
gnwiki,False,22.0,0.060544904137235116,0.9375,0.3948220064724919,0.6286293045239703,0.11374407582938388
gnwiki,False,23.0,0.061139896373056994,0.921875,0.4103559870550162,0.611748818365969,0.11467444120505345
gnwiki,False,24.0,0.06269925611052073,0.921875,0.42588996763754045,0.5955435516542876,0.1174129353233831
gnwiki,False,25.0,0.06420021762785637,0.921875,0.4401294498381877,0.5806887238352465,0.12004069175991862
gnwiki,False,26.0,0.0659217877094972,0.921875,0.455663430420712,0.5644834571235652,0.12304483837330553
gnwiki,False,27.0,0.06742857142857143,0.921875,0.4686084142394822,0.550979068197164,0.12566560170394037
gnwiki,False,28.0,0.06900584795321638,0.921875,0.4815533980582524,0.537474679270763,0.12840043525571274
gnwiki,False,29.0,0.07057416267942583,0.921875,0.49385113268608416,0.5246455097906819,0.1311111111111111
gnwiki,False,30.0,0.07239263803680981,0.921875,0.5074433656957928,0.5104659014179609,0.13424345847554037
gnwiki,False,31.0,0.07360406091370558,0.90625,0.5236245954692557,0.49291019581363943,0.136150234741784
gnwiki,False,32.0,0.07354838709677419,0.890625,0.5307443365695793,0.48480756245779877,0.13587604290822408
gnwiki,False,33.0,0.0758988015978695,0.890625,0.5462783171521035,0.4686022957461175,0.1398773006134969
gnwiki,False,34.0,0.07776261937244201,0.890625,0.5579288025889968,0.45644834571235654,0.14303638644918443
gnwiki,False,35.0,0.07746478873239436,0.859375,0.5702265372168285,0.4422687373396354,0.1421188630490956
gnwiki,False,36.0,0.07936507936507936,0.859375,0.5812297734627832,0.4307900067521945,0.1453104359313078
gnwiki,False,37.0,0.07941176470588235,0.84375,0.5883495145631068,0.4226873733963538,0.14516129032258066
gnwiki,False,38.0,0.08169440242057488,0.84375,0.6006472491909385,0.4098582039162728,0.1489655172413793
gnwiki,False,39.0,0.08372093023255814,0.84375,0.6110032362459547,0.39905469277515193,0.152327221438646
gnwiki,False,40.0,0.0864,0.84375,0.623948220064725,0.38555030384875083,0.1567489114658926
gnwiki,False,41.0,0.08985024958402663,0.84375,0.6394822006472491,0.36934503713706957,0.16240601503759397
gnwiki,False,42.0,0.0907563025210084,0.84375,0.6433656957928803,0.3652937204591492,0.16388467374810317
gnwiki,False,43.0,0.09246575342465753,0.84375,0.6504854368932039,0.35786630654962864,0.16666666666666663
gnwiki,False,44.0,0.09507042253521127,0.84375,0.6608414239482201,0.34706279540850776,0.17088607594936708
gnwiki,False,45.0,0.09800362976406533,0.84375,0.6718446601941748,0.33558406482106684,0.17560975609756097
gnwiki,False,46.0,0.09925093632958802,0.828125,0.6815533980582524,0.32478055367994596,0.17725752508361203
gnwiki,False,47.0,0.10153256704980843,0.828125,0.6893203883495146,0.31667792032410536,0.18088737201365188
gnwiki,False,48.0,0.10371819960861056,0.828125,0.6964401294498382,0.30925050641458474,0.18434782608695655
gnwiki,False,49.0,0.104,0.8125,0.7022653721682848,0.3024983119513842,0.18439716312056736
gnwiki,False,50.0,0.10677618069815195,0.8125,0.7106796116504854,0.2937204591492235,0.18874773139745915
gnwiki,False,51.0,0.11353711790393013,0.8125,0.7294498381877023,0.27413909520594193,0.1992337164750958
gnwiki,False,52.0,0.11564625850340136,0.796875,0.7391585760517799,0.26333558406482105,0.201980198019802
gnwiki,False,53.0,0.11832946635730858,0.796875,0.7456310679611651,0.2565833896016205,0.20606060606060606
gnwiki,False,54.0,0.12200956937799043,0.796875,0.7540453074433657,0.24780553679945982,0.21161825726141079
gnwiki,False,55.0,0.1259259259259259,0.796875,0.7624595469255664,0.23902768399729912,0.21748400852878463
gnwiki,False,56.0,0.1297709923664122,0.796875,0.7702265372168284,0.23092505064145846,0.22319474835886213
gnwiki,False,57.0,0.13421052631578947,0.796875,0.7786407766990291,0.22214719783929776,0.22972972972972974
gnwiki,False,58.0,0.13858695652173914,0.796875,0.7864077669902912,0.21404456448345713,0.23611111111111113
gnwiki,False,59.0,0.14206128133704735,0.796875,0.7922330097087379,0.20796758946657665,0.24113475177304966
gnwiki,False,60.0,0.14613180515759314,0.796875,0.7987055016181229,0.2012153950033761,0.2469733656174334
gnwiki,False,61.0,0.14825581395348839,0.796875,0.8019417475728156,0.19783929777177583,0.25
gnwiki,False,62.0,0.15088757396449703,0.796875,0.8058252427184466,0.1937879810938555,0.2537313432835821
gnwiki,False,63.0,0.15548780487804878,0.796875,0.8122977346278317,0.18703578663065495,0.2602040816326531
gnwiki,False,64.0,0.159375,0.796875,0.8174757281553398,0.18163403106009454,0.26562499999999994
gnwiki,False,65.0,0.16233766233766234,0.78125,0.8239482200647249,0.17420661715057395,0.26881720430107525
gnwiki,False,66.0,0.16722408026755853,0.78125,0.8297734627831715,0.16812964213369344,0.27548209366391185
gnwiki,False,67.0,0.17921146953405018,0.78125,0.8427184466019417,0.15462525320729237,0.29154518950437314
gnwiki,False,68.0,0.1814814814814815,0.765625,0.8472491909385114,0.14922349763673193,0.2934131736526946
gnwiki,False,69.0,0.18773946360153257,0.765625,0.8530744336569579,0.14314652261985145,0.30153846153846153
gnwiki,False,70.0,0.1991869918699187,0.765625,0.8627831715210356,0.13301823092505063,0.3161290322580645
gnwiki,False,71.0,0.19834710743801653,0.75,0.8640776699029126,0.13099257258609048,0.3137254901960784
gnwiki,False,72.0,0.20425531914893616,0.75,0.8686084142394822,0.1262660364618501,0.3210702341137124
gnwiki,False,73.0,0.22119815668202766,0.75,0.8802588996763754,0.11411208642808914,0.3416370106761566
gnwiki,False,74.0,0.22857142857142856,0.75,0.884789644012945,0.10938555030384875,0.35036496350364965
gnwiki,False,75.0,0.24615384615384617,0.75,0.8944983818770227,0.09925725860904794,0.3706563706563707
gnwiki,False,76.0,0.2513089005235602,0.75,0.8970873786407767,0.09655638082376772,0.37647058823529406
gnwiki,False,77.0,0.2608695652173913,0.75,0.9016181229773462,0.09182984469952735,0.3870967741935483
gnwiki,False,78.0,0.27011494252873564,0.734375,0.9067961165048544,0.08575286968264687,0.3949579831932773
gnwiki,False,79.0,0.26785714285714285,0.703125,0.9080906148867314,0.08305199189736664,0.3879310344827587
gnwiki,False,80.0,0.2903225806451613,0.703125,0.916504854368932,0.07427413909520594,0.41095890410958913
gnwiki,False,81.0,0.3,0.703125,0.9197411003236245,0.07089804186360567,0.4205607476635514
gnwiki,False,82.0,0.30935251798561153,0.671875,0.9242718446601942,0.06482106684672519,0.4236453201970444
gnwiki,False,83.0,0.328,0.640625,0.9307443365695793,0.05671843349088454,0.43386243386243384
gnwiki,False,84.0,0.3448275862068966,0.625,0.9352750809061489,0.05131667792032411,0.4444444444444445
gnwiki,False,85.0,0.35185185185185186,0.59375,0.9378640776699029,0.04726536124240378,0.4418604651162791
gnwiki,False,86.0,0.3469387755102041,0.53125,0.9391585760517799,0.04321404456448346,0.4197530864197531
gnwiki,False,87.0,0.3626373626373626,0.515625,0.9423948220064725,0.03916272788656313,0.4258064516129032
gnwiki,False,88.0,0.379746835443038,0.46875,0.9462783171521035,0.03308575286968265,0.4195804195804196
gnwiki,False,89.0,0.4084507042253521,0.453125,0.9501618122977347,0.02835921674544227,0.42962962962962964
gnwiki,False,90.0,0.4666666666666667,0.4375,0.9559870550161812,0.02160702228224173,0.45161290322580644
gnwiki,False,91.0,0.5,0.40625,0.9585760517799353,0.017555705604321403,0.4482758620689655
gnwiki,False,92.0,0.5641025641025641,0.34375,0.9618122977346278,0.011478730587440918,0.4271844660194175
gnwiki,False,93.0,0.5806451612903226,0.28125,0.9618122977346278,0.008777852802160702,0.37894736842105264
gnwiki,False,94.0,0.5357142857142857,0.234375,0.9598705501618123,0.008777852802160702,0.3260869565217391
gnwiki,False,95.0,0.6842105263157895,0.203125,0.9631067961165048,0.004051316677920324,0.3132530120481928
gnwiki,False,96.0,0.75,0.140625,0.9624595469255663,0.002025658338960162,0.23684210526315788
gnwiki,False,97.0,0.7777777777777778,0.109375,0.9618122977346278,0.0013504388926401081,0.19178082191780824
gnwiki,False,98.0,0.8571428571428571,0.09375,0.9618122977346278,0.0006752194463200541,0.16901408450704225
gnwiki,False,99.0,0.6666666666666666,0.03125,0.9592233009708738,0.0006752194463200541,0.05970149253731343
