wiki_db,user_is_anonymous_or_bot,threshold,precision,recall,accuracy,fpr,F1
gotwiki,True,0.0,0.7,1.0,0.7,1.0,0.8235294117647058
gotwiki,True,1.0,0.7,1.0,0.7,1.0,0.8235294117647058
gotwiki,True,2.0,0.7,1.0,0.7,1.0,0.8235294117647058
gotwiki,True,3.0,0.7,1.0,0.7,1.0,0.8235294117647058
gotwiki,True,4.0,0.7,1.0,0.7,1.0,0.8235294117647058
gotwiki,True,5.0,0.7,1.0,0.7,1.0,0.8235294117647058
gotwiki,True,6.0,0.7,1.0,0.7,1.0,0.8235294117647058
gotwiki,True,7.0,0.7,1.0,0.7,1.0,0.8235294117647058
gotwiki,True,8.0,0.7,1.0,0.7,1.0,0.8235294117647058
gotwiki,True,9.0,0.7,1.0,0.7,1.0,0.8235294117647058
gotwiki,True,10.0,0.7,1.0,0.7,1.0,0.8235294117647058
gotwiki,True,11.0,0.7,1.0,0.7,1.0,0.8235294117647058
gotwiki,True,12.0,0.7,1.0,0.7,1.0,0.8235294117647058
gotwiki,True,13.0,0.7,1.0,0.7,1.0,0.8235294117647058
gotwiki,True,14.0,0.7,1.0,0.7,1.0,0.8235294117647058
gotwiki,True,15.0,0.7,1.0,0.7,1.0,0.8235294117647058
gotwiki,True,16.0,0.7,1.0,0.7,1.0,0.8235294117647058
gotwiki,True,17.0,0.7,1.0,0.7,1.0,0.8235294117647058
gotwiki,True,18.0,0.7,1.0,0.7,1.0,0.8235294117647058
gotwiki,True,19.0,0.7,1.0,0.7,1.0,0.8235294117647058
gotwiki,True,20.0,0.7,1.0,0.7,1.0,0.8235294117647058
gotwiki,True,21.0,0.7,1.0,0.7,1.0,0.8235294117647058
gotwiki,True,22.0,0.7,1.0,0.7,1.0,0.8235294117647058
gotwiki,True,23.0,0.7,1.0,0.7,1.0,0.8235294117647058
gotwiki,True,24.0,0.7,1.0,0.7,1.0,0.8235294117647058
gotwiki,True,25.0,0.7,1.0,0.7,1.0,0.8235294117647058
gotwiki,True,26.0,0.7,1.0,0.7,1.0,0.8235294117647058
gotwiki,True,27.0,0.7,1.0,0.7,1.0,0.8235294117647058
gotwiki,True,28.0,0.7,1.0,0.7,1.0,0.8235294117647058
gotwiki,True,29.0,0.7,1.0,0.7,1.0,0.8235294117647058
gotwiki,True,30.0,0.7,1.0,0.7,1.0,0.8235294117647058
gotwiki,True,31.0,0.7,1.0,0.7,1.0,0.8235294117647058
gotwiki,True,32.0,0.7,1.0,0.7,1.0,0.8235294117647058
gotwiki,True,33.0,0.7,1.0,0.7,1.0,0.8235294117647058
gotwiki,True,34.0,0.7,1.0,0.7,1.0,0.8235294117647058
gotwiki,True,35.0,0.7,1.0,0.7,1.0,0.8235294117647058
gotwiki,True,36.0,0.7,1.0,0.7,1.0,0.8235294117647058
gotwiki,True,37.0,0.7,1.0,0.7,1.0,0.8235294117647058
gotwiki,True,38.0,0.7,1.0,0.7,1.0,0.8235294117647058
gotwiki,True,39.0,0.7,1.0,0.7,1.0,0.8235294117647058
gotwiki,True,40.0,0.7,1.0,0.7,1.0,0.8235294117647058
gotwiki,True,41.0,0.7,1.0,0.7,1.0,0.8235294117647058
gotwiki,True,42.0,0.7,1.0,0.7,1.0,0.8235294117647058
gotwiki,True,43.0,0.7,1.0,0.7,1.0,0.8235294117647058
gotwiki,True,44.0,0.7,1.0,0.7,1.0,0.8235294117647058
gotwiki,True,45.0,0.7,1.0,0.7,1.0,0.8235294117647058
gotwiki,True,46.0,0.7,1.0,0.7,1.0,0.8235294117647058
gotwiki,True,47.0,0.7,1.0,0.7,1.0,0.8235294117647058
gotwiki,True,48.0,0.7,1.0,0.7,1.0,0.8235294117647058
gotwiki,True,49.0,0.7,1.0,0.7,1.0,0.8235294117647058
gotwiki,True,50.0,0.7,1.0,0.7,1.0,0.8235294117647058
gotwiki,True,51.0,0.7,1.0,0.7,1.0,0.8235294117647058
gotwiki,True,52.0,0.7,1.0,0.7,1.0,0.8235294117647058
gotwiki,True,53.0,0.7,1.0,0.7,1.0,0.8235294117647058
gotwiki,True,54.0,0.7,1.0,0.7,1.0,0.8235294117647058
gotwiki,True,55.0,0.7,1.0,0.7,1.0,0.8235294117647058
gotwiki,True,56.0,0.7,1.0,0.7,1.0,0.8235294117647058
gotwiki,True,57.0,0.7,1.0,0.7,1.0,0.8235294117647058
gotwiki,True,58.0,0.7,1.0,0.7,1.0,0.8235294117647058
gotwiki,True,59.0,0.7,1.0,0.7,1.0,0.8235294117647058
gotwiki,True,60.0,0.7,1.0,0.7,1.0,0.8235294117647058
gotwiki,True,61.0,0.7,1.0,0.7,1.0,0.8235294117647058
gotwiki,True,62.0,0.7,1.0,0.7,1.0,0.8235294117647058
gotwiki,True,63.0,0.7,1.0,0.7,1.0,0.8235294117647058
gotwiki,True,64.0,0.7,1.0,0.7,1.0,0.8235294117647058
gotwiki,True,65.0,0.7,1.0,0.7,1.0,0.8235294117647058
gotwiki,True,66.0,0.7,1.0,0.7,1.0,0.8235294117647058
gotwiki,True,67.0,0.7,1.0,0.7,1.0,0.8235294117647058
gotwiki,True,68.0,0.7,1.0,0.7,1.0,0.8235294117647058
gotwiki,True,69.0,0.7,1.0,0.7,1.0,0.8235294117647058
gotwiki,True,70.0,0.7,1.0,0.7,1.0,0.8235294117647058
gotwiki,True,71.0,0.7,1.0,0.7,1.0,0.8235294117647058
gotwiki,True,72.0,0.7,1.0,0.7,1.0,0.8235294117647058
gotwiki,True,73.0,0.7,1.0,0.7,1.0,0.8235294117647058
gotwiki,True,74.0,0.7,1.0,0.7,1.0,0.8235294117647058
gotwiki,True,75.0,0.7,1.0,0.7,1.0,0.8235294117647058
gotwiki,True,76.0,0.7,1.0,0.7,1.0,0.8235294117647058
gotwiki,True,77.0,0.7,1.0,0.7,1.0,0.8235294117647058
gotwiki,True,78.0,0.7,1.0,0.7,1.0,0.8235294117647058
gotwiki,True,79.0,0.7,1.0,0.7,1.0,0.8235294117647058
gotwiki,True,80.0,0.7,1.0,0.7,1.0,0.8235294117647058
gotwiki,True,81.0,0.7068965517241379,0.9761904761904762,0.7,0.9444444444444444,0.8199999999999998
gotwiki,True,82.0,0.7068965517241379,0.9761904761904762,0.7,0.9444444444444444,0.8199999999999998
gotwiki,True,83.0,0.7192982456140351,0.9761904761904762,0.7166666666666667,0.8888888888888888,0.8282828282828282
gotwiki,True,84.0,0.7142857142857143,0.9523809523809523,0.7,0.8888888888888888,0.8163265306122449
gotwiki,True,85.0,0.7142857142857143,0.9523809523809523,0.7,0.8888888888888888,0.8163265306122449
gotwiki,True,86.0,0.7090909090909091,0.9285714285714286,0.6833333333333333,0.8888888888888888,0.8041237113402062
gotwiki,True,87.0,0.7090909090909091,0.9285714285714286,0.6833333333333333,0.8888888888888888,0.8041237113402062
gotwiki,True,88.0,0.7169811320754716,0.9047619047619048,0.6833333333333333,0.8333333333333334,0.8
gotwiki,True,89.0,0.7254901960784313,0.8809523809523809,0.6833333333333333,0.7777777777777778,0.7956989247311828
gotwiki,True,90.0,0.74,0.8809523809523809,0.7,0.7222222222222222,0.8043478260869565
gotwiki,True,91.0,0.7555555555555555,0.8095238095238095,0.6833333333333333,0.6111111111111112,0.7816091954022989
gotwiki,True,92.0,0.7674418604651163,0.7857142857142857,0.6833333333333333,0.5555555555555556,0.7764705882352941
gotwiki,True,93.0,0.7692307692307693,0.7142857142857143,0.65,0.5,0.7407407407407408
gotwiki,True,94.0,0.7631578947368421,0.6904761904761905,0.6333333333333333,0.5,0.725
gotwiki,True,95.0,0.8,0.6666666666666666,0.65,0.3888888888888889,0.7272727272727272
gotwiki,True,96.0,0.8214285714285714,0.5476190476190477,0.6,0.2777777777777778,0.6571428571428571
gotwiki,True,97.0,0.8076923076923077,0.5,0.5666666666666667,0.2777777777777778,0.6176470588235294
gotwiki,True,98.0,0.75,0.35714285714285715,0.4666666666666667,0.2777777777777778,0.48387096774193544
gotwiki,True,99.0,0.7692307692307693,0.23809523809523808,0.4166666666666667,0.16666666666666666,0.36363636363636365
gotwiki,False,0.0,0.2974683544303797,1.0,0.2974683544303797,1.0,0.4585365853658536
gotwiki,False,1.0,0.2974683544303797,1.0,0.2974683544303797,1.0,0.4585365853658536
gotwiki,False,2.0,0.2974683544303797,1.0,0.2974683544303797,1.0,0.4585365853658536
gotwiki,False,3.0,0.2974683544303797,1.0,0.2974683544303797,1.0,0.4585365853658536
gotwiki,False,4.0,0.2974683544303797,1.0,0.2974683544303797,1.0,0.4585365853658536
gotwiki,False,5.0,0.2974683544303797,1.0,0.2974683544303797,1.0,0.4585365853658536
gotwiki,False,6.0,0.2974683544303797,1.0,0.2974683544303797,1.0,0.4585365853658536
gotwiki,False,7.0,0.2974683544303797,1.0,0.2974683544303797,1.0,0.4585365853658536
gotwiki,False,8.0,0.2974683544303797,1.0,0.2974683544303797,1.0,0.4585365853658536
gotwiki,False,9.0,0.2974683544303797,1.0,0.2974683544303797,1.0,0.4585365853658536
gotwiki,False,10.0,0.2974683544303797,1.0,0.2974683544303797,1.0,0.4585365853658536
gotwiki,False,11.0,0.29936305732484075,1.0,0.3037974683544304,0.990990990990991,0.4607843137254902
gotwiki,False,12.0,0.3032258064516129,1.0,0.31645569620253167,0.972972972972973,0.4653465346534653
gotwiki,False,13.0,0.3032258064516129,1.0,0.31645569620253167,0.972972972972973,0.4653465346534653
gotwiki,False,14.0,0.3032258064516129,1.0,0.31645569620253167,0.972972972972973,0.4653465346534653
gotwiki,False,15.0,0.3032258064516129,1.0,0.31645569620253167,0.972972972972973,0.4653465346534653
gotwiki,False,16.0,0.3051948051948052,1.0,0.3227848101265823,0.963963963963964,0.46766169154228854
gotwiki,False,17.0,0.3051948051948052,1.0,0.3227848101265823,0.963963963963964,0.46766169154228854
gotwiki,False,18.0,0.3051948051948052,1.0,0.3227848101265823,0.963963963963964,0.46766169154228854
gotwiki,False,19.0,0.3051948051948052,1.0,0.3227848101265823,0.963963963963964,0.46766169154228854
gotwiki,False,20.0,0.30718954248366015,1.0,0.3291139240506329,0.954954954954955,0.47000000000000003
gotwiki,False,21.0,0.30718954248366015,1.0,0.3291139240506329,0.954954954954955,0.47000000000000003
gotwiki,False,22.0,0.30718954248366015,1.0,0.3291139240506329,0.954954954954955,0.47000000000000003
gotwiki,False,23.0,0.30718954248366015,1.0,0.3291139240506329,0.954954954954955,0.47000000000000003
gotwiki,False,24.0,0.30718954248366015,1.0,0.3291139240506329,0.954954954954955,0.47000000000000003
gotwiki,False,25.0,0.30718954248366015,1.0,0.3291139240506329,0.954954954954955,0.47000000000000003
gotwiki,False,26.0,0.3092105263157895,1.0,0.33544303797468356,0.9459459459459459,0.4723618090452262
gotwiki,False,27.0,0.31333333333333335,1.0,0.34810126582278483,0.9279279279279279,0.47715736040609136
gotwiki,False,28.0,0.31333333333333335,1.0,0.34810126582278483,0.9279279279279279,0.47715736040609136
gotwiki,False,29.0,0.31333333333333335,1.0,0.34810126582278483,0.9279279279279279,0.47715736040609136
gotwiki,False,30.0,0.31543624161073824,1.0,0.35443037974683544,0.918918918918919,0.4795918367346939
gotwiki,False,31.0,0.31543624161073824,1.0,0.35443037974683544,0.918918918918919,0.4795918367346939
gotwiki,False,32.0,0.31756756756756754,1.0,0.36075949367088606,0.9099099099099099,0.482051282051282
gotwiki,False,33.0,0.32413793103448274,1.0,0.379746835443038,0.8828828828828829,0.4895833333333333
gotwiki,False,34.0,0.3263888888888889,1.0,0.3860759493670886,0.8738738738738738,0.49214659685863876
gotwiki,False,35.0,0.32867132867132864,1.0,0.3924050632911392,0.8648648648648649,0.4947368421052631
gotwiki,False,36.0,0.32867132867132864,1.0,0.3924050632911392,0.8648648648648649,0.4947368421052631
gotwiki,False,37.0,0.3333333333333333,1.0,0.4050632911392405,0.8468468468468469,0.5
gotwiki,False,38.0,0.3333333333333333,1.0,0.4050632911392405,0.8468468468468469,0.5
gotwiki,False,39.0,0.3333333333333333,1.0,0.4050632911392405,0.8468468468468469,0.5
gotwiki,False,40.0,0.3333333333333333,1.0,0.4050632911392405,0.8468468468468469,0.5
gotwiki,False,41.0,0.3381294964028777,1.0,0.4177215189873418,0.8288288288288288,0.5053763440860215
gotwiki,False,42.0,0.3381294964028777,1.0,0.4177215189873418,0.8288288288288288,0.5053763440860215
gotwiki,False,43.0,0.34057971014492755,1.0,0.4240506329113924,0.8198198198198198,0.5081081081081081
gotwiki,False,44.0,0.34057971014492755,1.0,0.4240506329113924,0.8198198198198198,0.5081081081081081
gotwiki,False,45.0,0.34814814814814815,1.0,0.4430379746835443,0.7927927927927928,0.5164835164835165
gotwiki,False,46.0,0.3560606060606061,1.0,0.4620253164556962,0.7657657657657657,0.5251396648044694
gotwiki,False,47.0,0.3643410852713178,1.0,0.4810126582278481,0.7387387387387387,0.5340909090909091
gotwiki,False,48.0,0.3671875,1.0,0.4873417721518987,0.7297297297297297,0.5371428571428571
gotwiki,False,49.0,0.3671875,1.0,0.4873417721518987,0.7297297297297297,0.5371428571428571
gotwiki,False,50.0,0.3700787401574803,1.0,0.4936708860759494,0.7207207207207207,0.5402298850574713
gotwiki,False,51.0,0.373015873015873,1.0,0.5,0.7117117117117117,0.5433526011560694
gotwiki,False,52.0,0.3790322580645161,1.0,0.5126582278481012,0.6936936936936937,0.5497076023391814
gotwiki,False,53.0,0.38524590163934425,1.0,0.5253164556962026,0.6756756756756757,0.5562130177514792
gotwiki,False,54.0,0.3884297520661157,1.0,0.5316455696202531,0.6666666666666666,0.5595238095238095
gotwiki,False,55.0,0.39166666666666666,1.0,0.5379746835443038,0.6576576576576577,0.562874251497006
gotwiki,False,56.0,0.3983050847457627,1.0,0.5506329113924051,0.6396396396396397,0.5696969696969697
gotwiki,False,57.0,0.41228070175438597,1.0,0.5759493670886076,0.6036036036036037,0.5838509316770186
gotwiki,False,58.0,0.41964285714285715,1.0,0.5886075949367089,0.5855855855855856,0.5911949685534591
gotwiki,False,59.0,0.41964285714285715,1.0,0.5886075949367089,0.5855855855855856,0.5911949685534591
gotwiki,False,60.0,0.41964285714285715,1.0,0.5886075949367089,0.5855855855855856,0.5911949685534591
gotwiki,False,61.0,0.42342342342342343,1.0,0.5949367088607594,0.5765765765765766,0.5949367088607594
gotwiki,False,62.0,0.42342342342342343,1.0,0.5949367088607594,0.5765765765765766,0.5949367088607594
gotwiki,False,63.0,0.42727272727272725,1.0,0.6012658227848101,0.5675675675675675,0.5987261146496815
gotwiki,False,64.0,0.4351851851851852,1.0,0.6139240506329114,0.5495495495495496,0.6064516129032258
gotwiki,False,65.0,0.44761904761904764,1.0,0.6329113924050633,0.5225225225225225,0.618421052631579
gotwiki,False,66.0,0.45098039215686275,0.9787234042553191,0.6392405063291139,0.5045045045045045,0.6174496644295302
gotwiki,False,67.0,0.45098039215686275,0.9787234042553191,0.6392405063291139,0.5045045045045045,0.6174496644295302
gotwiki,False,68.0,0.45454545454545453,0.9574468085106383,0.6455696202531646,0.4864864864864865,0.6164383561643836
gotwiki,False,69.0,0.46875,0.9574468085106383,0.6645569620253164,0.4594594594594595,0.6293706293706293
gotwiki,False,70.0,0.47368421052631576,0.9574468085106383,0.6708860759493671,0.45045045045045046,0.6338028169014084
gotwiki,False,71.0,0.4787234042553192,0.9574468085106383,0.6772151898734177,0.44144144144144143,0.6382978723404257
gotwiki,False,72.0,0.4838709677419355,0.9574468085106383,0.6835443037974683,0.43243243243243246,0.6428571428571429
gotwiki,False,73.0,0.4891304347826087,0.9574468085106383,0.689873417721519,0.42342342342342343,0.6474820143884892
gotwiki,False,74.0,0.4945054945054945,0.9574468085106383,0.6962025316455697,0.4144144144144144,0.6521739130434783
gotwiki,False,75.0,0.5056179775280899,0.9574468085106383,0.7088607594936709,0.3963963963963964,0.6617647058823529
gotwiki,False,76.0,0.5113636363636364,0.9574468085106383,0.7151898734177216,0.38738738738738737,0.6666666666666667
gotwiki,False,77.0,0.5232558139534884,0.9574468085106383,0.7278481012658228,0.36936936936936937,0.6766917293233082
gotwiki,False,78.0,0.5357142857142857,0.9574468085106383,0.740506329113924,0.35135135135135137,0.6870229007633588
gotwiki,False,79.0,0.5421686746987951,0.9574468085106383,0.7468354430379747,0.34234234234234234,0.6923076923076923
gotwiki,False,80.0,0.569620253164557,0.9574468085106383,0.7721518987341772,0.3063063063063063,0.7142857142857143
gotwiki,False,81.0,0.5866666666666667,0.9361702127659575,0.7848101265822784,0.27927927927927926,0.7213114754098361
gotwiki,False,82.0,0.6027397260273972,0.9361702127659575,0.7974683544303798,0.26126126126126126,0.7333333333333333
gotwiki,False,83.0,0.6086956521739131,0.8936170212765957,0.7974683544303798,0.24324324324324326,0.7241379310344828
gotwiki,False,84.0,0.6153846153846154,0.851063829787234,0.7974683544303798,0.22522522522522523,0.7142857142857144
gotwiki,False,85.0,0.625,0.851063829787234,0.8037974683544303,0.21621621621621623,0.7207207207207208
gotwiki,False,86.0,0.6190476190476191,0.8297872340425532,0.7974683544303798,0.21621621621621623,0.7090909090909091
gotwiki,False,87.0,0.6190476190476191,0.8297872340425532,0.7974683544303798,0.21621621621621623,0.7090909090909091
gotwiki,False,88.0,0.6333333333333333,0.8085106382978723,0.8037974683544303,0.1981981981981982,0.7102803738317757
gotwiki,False,89.0,0.6727272727272727,0.7872340425531915,0.8227848101265823,0.16216216216216217,0.7254901960784313
gotwiki,False,90.0,0.6851851851851852,0.7872340425531915,0.8291139240506329,0.15315315315315314,0.7326732673267328
gotwiki,False,91.0,0.7083333333333334,0.723404255319149,0.8291139240506329,0.12612612612612611,0.7157894736842105
gotwiki,False,92.0,0.717391304347826,0.7021276595744681,0.8291139240506329,0.11711711711711711,0.7096774193548387
gotwiki,False,93.0,0.7317073170731707,0.6382978723404256,0.8227848101265823,0.0990990990990991,0.6818181818181819
gotwiki,False,94.0,0.725,0.6170212765957447,0.8164556962025317,0.0990990990990991,0.6666666666666666
gotwiki,False,95.0,0.7777777777777778,0.5957446808510638,0.8291139240506329,0.07207207207207207,0.674698795180723
gotwiki,False,96.0,0.7931034482758621,0.48936170212765956,0.810126582278481,0.05405405405405406,0.6052631578947368
gotwiki,False,97.0,0.7777777777777778,0.44680851063829785,0.7974683544303798,0.05405405405405406,0.5675675675675675
gotwiki,False,98.0,0.7142857142857143,0.3191489361702128,0.759493670886076,0.05405405405405406,0.4411764705882353
gotwiki,False,99.0,0.7692307692307693,0.2127659574468085,0.7468354430379747,0.02702702702702703,0.33333333333333337
