wiki_db,user_is_anonymous_or_bot,threshold,precision,recall,accuracy,fpr,F1
kowiki,True,0.0,0.08601837161155505,1.0,0.08601837161155505,1.0,0.15841052759339866
kowiki,True,1.0,0.08722352392752432,0.9995923015281664,0.10016712458642106,0.9844812826724636,0.16044662027911508
kowiki,True,2.0,0.09513578860321957,0.9979193319368489,0.18337751291527193,0.8932821908528348,0.17371098826068762
kowiki,True,3.0,0.10689140689940245,0.9961198352335832,0.28374658978774453,0.7832976315068729,0.19306539509536785
kowiki,True,4.0,0.11854321956322741,0.9940391671704321,0.3636894626859896,0.6956352036327215,0.21182539765756886
kowiki,True,5.0,0.1274219226645391,0.9924224318510917,0.4147628330398777,0.6396029621710592,0.22584633989886954
kowiki,True,6.0,0.1349672081177402,0.9897513039321815,0.4534590677785732,0.5970134837793746,0.2375420494842717
kowiki,True,7.0,0.14027592842869321,0.98786745582095,0.4781625486136641,0.5698077658418861,0.24566739736180598
kowiki,True,8.0,0.14468727382948057,0.9864897161575122,0.49721378402956484,0.5488338799968775,0.25236105216972243
kowiki,True,9.0,0.1485440823342157,0.9853369135819825,0.5129104347657837,0.5315514615697072,0.2581681290103948
kowiki,True,10.0,0.15173671022170584,0.9841138181664816,0.5253988255325736,0.51777262942298,0.2629328235013513
kowiki,True,11.0,0.15439640284274364,0.9828485470469978,0.5354964398351489,0.5066056097073686,0.2668700005535059
kowiki,True,12.0,0.15676119610632655,0.9821315600792904,0.5440268076543544,0.4972049373045937,0.27036806978638755
kowiki,True,13.0,0.15869591410365122,0.9813864559755944,0.5508726273629627,0.4896447061843326,0.27321187452300344
kowiki,True,14.0,0.16036404262949305,0.9807116447118697,0.5566518487703888,0.4832580706194917,0.27565372874825883
kowiki,True,15.0,0.16184996598473608,0.9799805991761679,0.5617441905462144,0.47761766717782683,0.2778167470407716
kowiki,True,16.0,0.16322911346736824,0.9795307250003514,0.5663044424665751,0.47258589277279484,0.2798277056537848
kowiki,True,17.0,0.16445692238307638,0.9791511436645063,0.5702914884971848,0.4681878864298218,0.2816142845012676
kowiki,True,18.0,0.16549892656670145,0.9786309766487186,0.5736968635721611,0.4644130632960967,0.2831188585930891
kowiki,True,19.0,0.16639922325824988,0.9782092196088906,0.5765943346941934,0.4612032066811591,0.2844173574663592
kowiki,True,20.0,0.1672103639847204,0.9778577554090341,0.5791677147224426,0.4583545581683971,0.28558641785223055
kowiki,True,21.0,0.16787142194924093,0.9775062912091774,0.5812682603564034,0.456023244336773,0.2865349468292251
kowiki,True,22.0,0.1684943496592339,0.9770142413293782,0.5832865739217925,0.4537686706880287,0.2874205929062996
kowiki,True,23.0,0.16905295590779992,0.9765362500175732,0.5850956794303737,0.4517443175879237,0.28821210738143643
kowiki,True,24.0,0.16955269950500731,0.9761144929777453,0.5867016233577772,0.44994753882325544,0.2889195892075434
kowiki,True,25.0,0.17000636755485893,0.9759036144578314,0.5880935220478687,0.4484047965260513,0.28956869419398434
kowiki,True,26.0,0.1704339497531865,0.9756505602339346,0.589416490915775,0.44693350198532145,0.2901775167722095
kowiki,True,27.0,0.17081980209720823,0.9753834474420435,0.5906173209759495,0.44559451810472916,0.29072471662930294
kowiki,True,28.0,0.17115191953688305,0.9751022760821583,0.5916633612599888,0.4444235687625116,0.29119304764003906
kowiki,True,29.0,0.17149054144624737,0.9748351632902672,0.5927190759050365,0.44324335767408446,0.2916710482592108
kowiki,True,30.0,0.1717750351368167,0.9742306448665139,0.593727628040168,0.4420829931846779,0.29205527716550694
kowiki,True,31.0,0.1720778172224389,0.9737948292586918,0.5947289244045431,0.4409464446140961,0.29247314552087555
kowiki,True,32.0,0.1723403990490534,0.9732746622429039,0.59564073292959,0.4398998672924079,0.2928288032214129
kowiki,True,33.0,0.17261585513399705,0.972796670931099,0.5965718901766538,0.4388360895849018,0.2932046322230179
kowiki,True,34.0,0.1728836693064555,0.9722765039153112,0.5974921637675832,0.4377802505170039,0.29356719436797885
kowiki,True,35.0,0.17319211084695915,0.9719390982834488,0.5984632277538069,0.43668604135766614,0.29399632584327
kowiki,True,36.0,0.17344987022636338,0.9714470484036496,0.5993399667201982,0.43568048034062057,0.2943450396897237
kowiki,True,37.0,0.17374408608100528,0.9711237013397815,0.6002602403111275,0.434643164765142,0.29475368564784193
kowiki,True,38.0,0.17402834426535316,0.9705473000520167,0.6012313042973512,0.4335264627935808,0.2951360017100412
kowiki,True,39.0,0.17431373440649964,0.9700411916042232,0.6021793916761798,0.43244151538045267,0.29552282913855094
kowiki,True,40.0,0.17458616986789854,0.969127384684596,0.6032193854845888,0.4312176417741801,0.2958717023728537
kowiki,True,41.0,0.17489482597093972,0.9684385148528771,0.6042823559003928,0.4299897988481034,0.296282596633993
kowiki,True,42.0,0.17525846684165103,0.9678058792931352,0.6054723023044328,0.42862832215528773,0.29677449949130036
kowiki,True,43.0,0.1756139414569124,0.966835838101531,0.6067420621867926,0.42714776586834824,0.29723818991226175
kowiki,True,44.0,0.17600151645947698,0.9659360897498981,0.608069868235203,0.4256103159975496,0.297750447440381
kowiki,True,45.0,0.17642507954948516,0.9649941656942824,0.6095004643693284,0.4239564327458299,0.29831137534577584
kowiki,True,46.0,0.1768253362291775,0.9637429531427929,0.6109588742913531,0.42224300969704825,0.29882326786730107
kowiki,True,47.0,0.17730114416238923,0.9624776820233091,0.6126131900237989,0.4203139202722424,0.2994412430428745
kowiki,True,48.0,0.17779413447633713,0.9610296495198999,0.6143594121858251,0.4182670743599141,0.3000735269909902
kowiki,True,49.0,0.17833235390140384,0.9599049640803587,0.6161116808234816,0.41624404436641055,0.3007845711290159
kowiki,True,50.0,0.17894430184400736,0.9585272244169208,0.6181203200278622,0.41391669985459056,0.3015864239443192
kowiki,True,51.0,0.179610651412167,0.9569807819375519,0.620304307025521,0.4113816276063546,0.3024551067152756
kowiki,True,52.0,0.18028851255278963,0.9554624565941713,0.6224907126134319,0.40884655535811865,0.30333921744971537
kowiki,True,53.0,0.18096506871989834,0.9529319143552037,0.6249625118510922,0.4059039662766589,0.30416764827965315
kowiki,True,54.0,0.18169774459931906,0.9505700749321674,0.6275008223206857,0.40290448361134007,0.30508053963813564
kowiki,True,55.0,0.18253233750067652,0.9482925869170966,0.6302398757812047,0.3996933038898011,0.3061376854841821
kowiki,True,56.0,0.18333192483527389,0.945438697614261,0.6330369754077744,0.3963643676807397,0.30711128160163675
kowiki,True,57.0,0.18411934261541463,0.9420084070236606,0.6359465394810673,0.3928581351870939,0.30803249221942824
kowiki,True,58.0,0.18501162523243536,0.9385781164330601,0.6390737766770505,0.38911374350520045,0.30909478128819584
kowiki,True,59.0,0.18597654742798986,0.9351197087064712,0.6423425014027824,0.3852119021377433,0.31025049616478034
kowiki,True,60.0,0.18696579990289838,0.9311833096680772,0.6457648066095234,0.3810970406074647,0.3114064678102206
kowiki,True,61.0,0.18812104336712132,0.9270219735417751,0.6495825513224851,0.3765283535129142,0.3127712557808609
kowiki,True,62.0,0.18931169089707822,0.9224669975116334,0.6535345277944392,0.37177575460077245,0.3141520680624513
kowiki,True,63.0,0.19069850331152916,0.9176589672575951,0.6579242691020258,0.3665203751801079,0.31577572444487445
kowiki,True,64.0,0.19217785779430752,0.9124010628277404,0.662559497320202,0.36095406570812005,0.3174843887202542
kowiki,True,65.0,0.1937107599047413,0.9056810673264821,0.6676191881276242,0.35478574273250624,0.3191585810219991
kowiki,True,66.0,0.19534828295297255,0.898806427577287,0.6728348780063077,0.3484321848326998,0.3209423505552097
kowiki,True,67.0,0.19704669432539856,0.8907227509805851,0.6783843333397829,0.34159966234319533,0.3227043642355266
kowiki,True,68.0,0.19891447618564803,0.8825828401119062,0.6841550896813265,0.3345197189192336,0.32465823203762745
kowiki,True,69.0,0.2009548807530434,0.8739789964994166,0.6902330069848887,0.32706004390067706,0.32677423000402117
kowiki,True,70.0,0.20323642981954873,0.8649955715510818,0.6966894336629066,0.3191505126376527,0.32913938460221676
kowiki,True,71.0,0.20554623894403723,0.8546765826432919,0.70334660333185,0.3108956505516693,0.3313936532942308
kowiki,True,72.0,0.20781254330294044,0.8433453768399151,0.7099880521641545,0.3025627251762047,0.3334565516474659
kowiki,True,73.0,0.21042580883764928,0.8318876439245898,0.7170358241588143,0.2937733280232655,0.3358886520575472
kowiki,True,74.0,0.2131341798817953,0.8192771084337349,0.7242770833736432,0.28466373907279335,0.33826820101290067
kowiki,True,75.0,0.21593851651106077,0.8054153603913905,0.7317082019232629,0.27522866589838274,0.3405679501126508
kowiki,True,76.0,0.2190768128191446,0.7907382154053788,0.7395420157498597,0.2652762580428343,0.34309730626585994
kowiki,True,77.0,0.22246679132959882,0.7743881008280497,0.7477821527388117,0.2547218366836598,0.3456383419298972
kowiki,True,78.0,0.22635446903471534,0.7586284461064796,0.756202474701546,0.24402584291813806,0.3486739444378035
kowiki,True,79.0,0.23018938913363987,0.7397056135862001,0.7648211210649537,0.2328151606846812,0.35111508534974045
kowiki,True,80.0,0.2339779081366511,0.7188708158187007,0.7733720469013021,0.22149862992311428,0.3530463660748499
kowiki,True,81.0,0.2380595329074803,0.6963068141879069,0.7821745061238705,0.20974415087649198,0.3548125967104132
kowiki,True,82.0,0.24271563694704082,0.6720839015337897,0.7914183580674496,0.19735061134140516,0.3566361052466672
kowiki,True,83.0,0.24845901851333002,0.6482827459195006,0.8010697424685099,0.184550878079696,0.35923763375102735
kowiki,True,84.0,0.25418366641311113,0.6201093756589954,0.8108118240040245,0.17124042566985578,0.36056943632670246
kowiki,True,85.0,0.26096375520642584,0.5910362570468572,0.8208453456649188,0.15752642574659598,0.3620634715583688
kowiki,True,86.0,0.26819951814384146,0.5587015506600498,0.8309090997039645,0.1434723874267826,0.3624217994783592
kowiki,True,87.0,0.2769925169260007,0.5245532890019823,0.841327177214945,0.12885999812118862,0.3625428134185148
kowiki,True,88.0,0.28680221995470495,0.4860328126976986,0.8518250682042451,0.113748797626876,0.3607375022173064
kowiki,True,89.0,0.2978823573722023,0.4447568570665392,0.8620653793316951,0.09866008994478676,0.35679565114416867
kowiki,True,90.0,0.3136713420291437,0.40400106845116757,0.8726950834897355,0.08319429688130543,0.35315153675051925
kowiki,True,91.0,0.33202903042512527,0.36145984170052436,0.8825230249792001,0.06843768895616151,0.3461199324210626
kowiki,True,92.0,0.3539139157967334,0.31742840674248923,0.8914403672387439,0.054537131002107705,0.3346797204455677
kowiki,True,93.0,0.3826259420864736,0.2712178937453431,0.8996684112764352,0.04118566228762485,0.3174305435578481
kowiki,True,94.0,0.41802005738201153,0.22326411831690823,0.9064489290482364,0.02925388695641819,0.2910687120837228
kowiki,True,95.0,0.46589446589446587,0.1781220564873262,0.9117383859296093,0.019218123384983004,0.2577141346134288
kowiki,True,96.0,0.5309956516891515,0.1339078601453656,0.9153263645686203,0.011131295837374322,0.21387912741806914
kowiki,True,97.0,0.6357129223134186,0.0936441214097932,0.9174208637269509,0.0050502978974512995,0.16324179931135047
kowiki,True,98.0,0.7789401474875665,0.06385401582994756,0.9179154654335081,0.0017054844091733627,0.11803227566851172
kowiki,True,99.0,0.898600204848071,0.037002150960903125,0.9168053325077878,0.00039296266060860255,0.07107750472589794
kowiki,False,0.0,0.07124121013436886,1.0,0.07124121013436886,1.0,0.13300685123088735
kowiki,False,1.0,0.07183212902248634,0.9997116493656286,0.07971249072933483,0.9908568046561044,0.13403356471452396
kowiki,False,2.0,0.07581016202863076,0.9984090999482957,0.13277788442535335,0.9336210729754816,0.1409201236973639
kowiki,False,3.0,0.0815744874389072,0.9969076880244999,0.2001741149569565,0.8609399918696645,0.15080867449582405
kowiki,False,4.0,0.08727408508603873,0.9946704848267908,0.25853946027196784,0.7979260780130863,0.16046839910170038
kowiki,False,5.0,0.09187028756169366,0.9926023147595753,0.3004694303579132,0.7526211942440886,0.1681751293599766
kowiki,False,6.0,0.09601378156869515,0.9897585809171539,0.3353915921884862,0.7148021681911682,0.17504675469239497
kowiki,False,7.0,0.09926141595769464,0.9871236527065187,0.3609350639047227,0.6870972490330925,0.18038409090702615
kowiki,False,8.0,0.10221504288678096,0.9846577576263771,0.38277451971402077,0.6633934312075226,0.1852044413606857
kowiki,False,9.0,0.1050244717628599,0.9823211231754365,0.4023847657204626,0.642099731607404,0.18976074864009343
kowiki,False,10.0,0.10763957536190251,0.9798452849699718,0.41985930548107936,0.623094881625823,0.19397075626844712
kowiki,False,11.0,0.11009960864829002,0.9768225748717336,0.4358746230637857,0.6056192364043782,0.19789417281722374
kowiki,False,12.0,0.1125135365121217,0.9741876466610985,0.45072822978640814,0.5894241571641146,0.2017284954677181
kowiki,False,13.0,0.11478274768268504,0.9711052778109215,0.46439674975968875,0.574470746427343,0.20529949582163626
kowiki,False,14.0,0.11694058002354694,0.967853875830251,0.47703602224534625,0.5606125666309979,0.2086688275495417
kowiki,False,15.0,0.11907216621377145,0.9646323032255498,0.48905972964721534,0.5474194574335749,0.2119781936569325
kowiki,False,16.0,0.12114895793120391,0.9610726643598616,0.5005394163536304,0.5347861668366207,0.21517395214646354
kowiki,False,17.0,0.12310931998169093,0.9573937079902956,0.5111435697532993,0.5230864157042083,0.2181652161894555
kowiki,False,18.0,0.12499560136220925,0.953615320367498,0.5211194075841302,0.5120555486489228,0.22102079264393243
kowiki,False,19.0,0.126779855381773,0.9497673308674383,0.5303826349727387,0.5017866145389619,0.22369918642067246
kowiki,False,20.0,0.12856051954019881,0.9457900807381776,0.5394121034687694,0.49175945494718715,0.22635304364173298
kowiki,False,21.0,0.13031811742700353,0.942140953744581,0.5479556368123504,0.48228067352126663,0.22896544724778956
kowiki,False,22.0,0.1319773809007638,0.9382333054925824,0.5559834838716989,0.473337304435304,0.23140410744743073
kowiki,False,23.0,0.13364481861859215,0.9345742353736627,0.5637315286202346,0.46471426751854683,0.2338490475438162
kowiki,False,24.0,0.13528439401908482,0.9309350515053891,0.5711671864850525,0.4564291047707375,0.2362383932176019
kowiki,False,25.0,0.13682529149404093,0.9266793938670803,0.5782975410689581,0.4484253767144445,0.23844404248079232
kowiki,False,26.0,0.13838117767787625,0.9224833949807103,0.5852848068761949,0.44058028935147225,0.24066095121982853
kowiki,False,27.0,0.1398365835454134,0.918396770472895,0.5917273436276972,0.4333301045884532,0.24271672450015963
kowiki,False,28.0,0.14133428416859292,0.9143698047170187,0.5981415459679779,0.4261150038249186,0.24482580521492814
kowiki,False,29.0,0.14282818138436731,0.9106709620968063,0.6042801961591289,0.4192217606218715,0.2469284918942382
kowiki,False,30.0,0.14420919731541926,0.9062959869546195,0.6101680868109691,0.41254664837214056,0.24882545800995323
kowiki,False,31.0,0.14558886533687843,0.9021596468201886,0.6158455944594893,0.40611636142315954,0.25071741512257195
kowiki,False,32.0,0.14682539037019082,0.8974565485423378,0.6211752972102647,0.4000170843823576,0.2523636638152183
kowiki,False,33.0,0.1480206653940371,0.8928131090164261,0.6262648658259374,0.39418093733768883,0.25394024236768054
kowiki,False,34.0,0.1492665961743732,0.8884977926261782,0.631296348898606,0.3884325002917311,0.25559374101676297
kowiki,False,35.0,0.1505334475508138,0.8841228174839916,0.6363122480451027,0.38269626637602877,0.25726429205882606
kowiki,False,36.0,0.15165531339822874,0.8792606292009705,0.6409987596611488,0.37727731384696817,0.2586914039645206
kowiki,False,37.0,0.1527873066601822,0.8746470190510282,0.645552807904734,0.37202005279379224,0.2601333418107457
kowiki,False,38.0,0.15397068398176988,0.8700234657757626,0.6501677751324456,0.36669643721985234,0.2616384246675697
kowiki,False,39.0,0.15508712279163592,0.8653402537485583,0.6545496918278599,0.36161917233794433,0.2630331825174466
kowiki,False,40.0,0.1562760652683346,0.8606868710973233,0.6590321956831108,0.3564358927619421,0.26452243800326986
kowiki,False,41.0,0.1575429272655117,0.8565405878375691,0.6634714895612487,0.351338035097728,0.2661356969518157
kowiki,False,42.0,0.15884548109277954,0.852394304577815,0.6679164503216309,0.34623407586838617,0.2677880860900259
kowiki,False,43.0,0.16004378536907762,0.847542059420117,0.6722473650768465,0.34119875924673126,0.26924522640049275
kowiki,False,44.0,0.16123307629978204,0.8428489042675894,0.6764351910553931,0.33632971027480685,0.2706853112017295
kowiki,False,45.0,0.16261679361065712,0.8389611422662371,0.6807533553255588,0.331382103651863,0.2724284671862791
kowiki,False,46.0,0.16392632910601612,0.8348944040090681,0.6848774288788569,0.32662974711300635,0.2740455224903557
kowiki,False,47.0,0.16544592762643603,0.8312353338901484,0.689264304096235,0.321625701012631,0.27596485697356016
kowiki,False,48.0,0.16685783955915265,0.827347571888796,0.6933990030537411,0.31687563256069723,0.2777080607694978
kowiki,False,49.0,0.16824837089880884,0.8235691842659985,0.6973799878303704,0.3122994587149036,0.2794146420451095
kowiki,False,50.0,0.16961055850264828,0.8195819910114147,0.7012873031378235,0.3077865886073101,0.28105702838632685
kowiki,False,51.0,0.17102613177218198,0.8156544565087699,0.7052130358125707,0.30325846458689737,0.2827626857491495
kowiki,False,52.0,0.1723730864505175,0.811597661376924,0.7089666369391469,0.29890576056390666,0.2843531561409712
kowiki,False,53.0,0.17385317761132024,0.8072525156107068,0.7129837480900836,0.2942472155888887,0.2860923465090792
kowiki,False,54.0,0.17525350392000713,0.8030465735990137,0.7167373492166598,0.2898830711312836,0.2877168857863997
kowiki,False,55.0,0.17677815294259977,0.7990892097203993,0.7205837455399866,0.285438080935736,0.28950966070891426
kowiki,False,56.0,0.1781965318950557,0.7943363958159328,0.7243699312394676,0.2809969042183933,0.29109141060256594
kowiki,False,57.0,0.17974610763261667,0.7895338662848507,0.7283268317665584,0.27636810437337306,0.29282692953051076
kowiki,False,58.0,0.18135829186596275,0.7849301992602314,0.7322610647646721,0.27177896470168306,0.2946399578989799
kowiki,False,59.0,0.182925890952331,0.7800978403531799,0.7360968356837908,0.267278297724345,0.2963584132722153
kowiki,False,60.0,0.18451862442479217,0.7750765620649883,0.7399425236468371,0.26275246179085515,0.2980758200325795
kowiki,False,61.0,0.18623974596454088,0.7697768762677485,0.7439801772459094,0.2579985798607165,0.2999174837582468
kowiki,False,62.0,0.1879550711243466,0.764367816091954,0.7479469948169278,0.25331257784262384,0.3017186905140372
kowiki,False,63.0,0.18983815566604403,0.7589090402895438,0.7520916108183615,0.248431325740444,0.3037055458841084
kowiki,False,64.0,0.1917719083258221,0.7531221413514696,0.7562886454805552,0.24346846520468082,0.3057013012172678
kowiki,False,65.0,0.19370761339023174,0.7460724654973552,0.760672687256811,0.23820739067330007,0.3075611410676553
kowiki,False,66.0,0.19573049331605727,0.7389929602672712,0.7650765631209221,0.23292267257704943,0.3094893064161503
kowiki,False,67.0,0.19778836064250546,0.7309390287555184,0.7696284862836658,0.22740380691902232,0.3113319018638749
kowiki,False,68.0,0.1998630095535707,0.7224277134789007,0.7741825345272509,0.2218475691745879,0.3131042596331402
kowiki,False,69.0,0.20222209705128566,0.7139462275782524,0.7789660915017309,0.21604650612940351,0.31517287695164187
kowiki,False,70.0,0.20483548718659414,0.7054249691763115,0.7839246134655039,0.21005400647833677,0.31748290552393227
kowiki,False,71.0,0.20743147882396196,0.6956210476076841,0.7889653052218195,0.20387464639523345,0.3195687922528778
kowiki,False,72.0,0.20990088149351144,0.6849620172612656,0.7938749503262353,0.19777079318058574,0.3213321982904388
kowiki,False,73.0,0.2127997992188358,0.6744521337946944,0.799062981020903,0.191378641013653,0.3235231692688522
kowiki,False,74.0,0.21578783898332504,0.6631766296782404,0.8043055554571722,0.18486903371801158,0.32562283661005037
kowiki,False,75.0,0.21880181312510028,0.6508272680268862,0.8095828395471878,0.17823968320673858,0.3275009756732145
kowiki,False,76.0,0.2222630151599641,0.6380702382372827,0.8151540931536271,0.17126254348318523,0.3296848389259504
kowiki,False,77.0,0.22582503023671024,0.6237919102732371,0.8208500181694411,0.16403447689375422,0.3316031502722131
kowiki,False,78.0,0.22984513116824234,0.6099013641967943,0.8266181959338703,0.15675836047894234,0.33386947091113456
kowiki,False,79.0,0.23403430147375678,0.5940122499303981,0.8325747975329229,0.14912606519979957,0.33577639262810605
kowiki,False,80.0,0.23809289065260078,0.5762836574792188,0.8384357704941026,0.14145563513860848,0.33696707538997317
kowiki,False,81.0,0.2425026054392057,0.5575905818716939,0.8443994556959604,0.13360063273230374,0.3380035501282325
kowiki,False,82.0,0.2474692002123492,0.5376645587240981,0.8505841493053465,0.125413095026538,0.33893694371317534
kowiki,False,83.0,0.25351338199513385,0.5180069999602275,0.8569976432853467,0.11699979941104642,0.3404231684048198
kowiki,False,84.0,0.2594776352830779,0.49489917670922323,0.863395553339175,0.10833862771224104,0.34045391118772056
kowiki,False,85.0,0.2665327955991293,0.4711549934375373,0.8699556778972467,0.09945398619063273,0.34046451473837364
kowiki,False,86.0,0.2740121990054626,0.444895199459094,0.8764789677207304,0.09041604284519032,0.3391444077251917
kowiki,False,87.0,0.28296708853931374,0.4172731973113789,0.8831580968059327,0.08110581715592322,0.3372401849894929
kowiki,False,88.0,0.29293796802724165,0.38662848506542574,0.889820225244402,0.07158203668718573,0.33332476104753334
kowiki,False,89.0,0.3042288918713295,0.3538658871256413,0.8963137639361031,0.06207732360947237,0.3271754469025938
kowiki,False,90.0,0.3200146373787224,0.3217297060812154,0.902976600734853,0.05243837609894908,0.32086987996013544
kowiki,False,91.0,0.3386501634750117,0.28837052062204194,0.9091825451526552,0.04319755571300983,0.31149442570833247
kowiki,False,92.0,0.361160600661746,0.2539673070039375,0.9148480106764062,0.03445858905882595,0.2982241059231497
kowiki,False,93.0,0.3903560354966321,0.21781410332895837,0.9200417082533181,0.026093343268715215,0.27960941987363586
kowiki,False,94.0,0.426723024539157,0.1806864733723104,0.9243379133547872,0.018619688682893272,0.2538751161312406
kowiki,False,95.0,0.47459395995042725,0.1446923597025017,0.9276551645485513,0.012287026775955867,0.22177179694286542
kowiki,False,96.0,0.5404298874104401,0.11024937358310465,0.9299339595710453,0.0071914571986646724,0.18313802244629984
kowiki,False,97.0,0.6459392945036916,0.07829216879449549,0.931279135743789,0.0032917943864075433,0.13965697664106705
kowiki,False,98.0,0.7875431530494822,0.05443861114425486,0.9315908142672261,0.0011265014617061959,0.10183772925114393
kowiki,False,99.0,0.9073455759599333,0.03242453167879728,0.9308328687670493,0.00025397764844154586,0.06261160071424457
