wiki_db,user_is_anonymous_or_bot,threshold,precision,recall,accuracy,fpr,F1
lijwiki,True,0.0,0.29310344827586204,1.0,0.29310344827586204,1.0,0.4533333333333333
lijwiki,True,1.0,0.29310344827586204,1.0,0.29310344827586204,1.0,0.4533333333333333
lijwiki,True,2.0,0.29310344827586204,1.0,0.29310344827586204,1.0,0.4533333333333333
lijwiki,True,3.0,0.29310344827586204,1.0,0.29310344827586204,1.0,0.4533333333333333
lijwiki,True,4.0,0.29310344827586204,1.0,0.29310344827586204,1.0,0.4533333333333333
lijwiki,True,5.0,0.29310344827586204,1.0,0.29310344827586204,1.0,0.4533333333333333
lijwiki,True,6.0,0.29310344827586204,1.0,0.29310344827586204,1.0,0.4533333333333333
lijwiki,True,7.0,0.29310344827586204,1.0,0.29310344827586204,1.0,0.4533333333333333
lijwiki,True,8.0,0.29310344827586204,1.0,0.29310344827586204,1.0,0.4533333333333333
lijwiki,True,9.0,0.29310344827586204,1.0,0.29310344827586204,1.0,0.4533333333333333
lijwiki,True,10.0,0.29310344827586204,1.0,0.29310344827586204,1.0,0.4533333333333333
lijwiki,True,11.0,0.29310344827586204,1.0,0.29310344827586204,1.0,0.4533333333333333
lijwiki,True,12.0,0.29310344827586204,1.0,0.29310344827586204,1.0,0.4533333333333333
lijwiki,True,13.0,0.29310344827586204,1.0,0.29310344827586204,1.0,0.4533333333333333
lijwiki,True,14.0,0.29310344827586204,1.0,0.29310344827586204,1.0,0.4533333333333333
lijwiki,True,15.0,0.29310344827586204,1.0,0.29310344827586204,1.0,0.4533333333333333
lijwiki,True,16.0,0.29310344827586204,1.0,0.29310344827586204,1.0,0.4533333333333333
lijwiki,True,17.0,0.29310344827586204,1.0,0.29310344827586204,1.0,0.4533333333333333
lijwiki,True,18.0,0.29310344827586204,1.0,0.29310344827586204,1.0,0.4533333333333333
lijwiki,True,19.0,0.29310344827586204,1.0,0.29310344827586204,1.0,0.4533333333333333
lijwiki,True,20.0,0.29310344827586204,1.0,0.29310344827586204,1.0,0.4533333333333333
lijwiki,True,21.0,0.2982456140350877,1.0,0.3103448275862069,0.975609756097561,0.45945945945945943
lijwiki,True,22.0,0.30357142857142855,1.0,0.3275862068965517,0.9512195121951219,0.4657534246575342
lijwiki,True,23.0,0.30357142857142855,1.0,0.3275862068965517,0.9512195121951219,0.4657534246575342
lijwiki,True,24.0,0.3090909090909091,1.0,0.3448275862068966,0.926829268292683,0.4722222222222222
lijwiki,True,25.0,0.3090909090909091,1.0,0.3448275862068966,0.926829268292683,0.4722222222222222
lijwiki,True,26.0,0.3090909090909091,1.0,0.3448275862068966,0.926829268292683,0.4722222222222222
lijwiki,True,27.0,0.3090909090909091,1.0,0.3448275862068966,0.926829268292683,0.4722222222222222
lijwiki,True,28.0,0.3090909090909091,1.0,0.3448275862068966,0.926829268292683,0.4722222222222222
lijwiki,True,29.0,0.3090909090909091,1.0,0.3448275862068966,0.926829268292683,0.4722222222222222
lijwiki,True,30.0,0.3090909090909091,1.0,0.3448275862068966,0.926829268292683,0.4722222222222222
lijwiki,True,31.0,0.3090909090909091,1.0,0.3448275862068966,0.926829268292683,0.4722222222222222
lijwiki,True,32.0,0.3090909090909091,1.0,0.3448275862068966,0.926829268292683,0.4722222222222222
lijwiki,True,33.0,0.3090909090909091,1.0,0.3448275862068966,0.926829268292683,0.4722222222222222
lijwiki,True,34.0,0.3090909090909091,1.0,0.3448275862068966,0.926829268292683,0.4722222222222222
lijwiki,True,35.0,0.3148148148148148,1.0,0.3620689655172414,0.9024390243902439,0.4788732394366197
lijwiki,True,36.0,0.3333333333333333,1.0,0.41379310344827586,0.8292682926829268,0.5
lijwiki,True,37.0,0.34,1.0,0.43103448275862066,0.8048780487804879,0.5074626865671642
lijwiki,True,38.0,0.34,1.0,0.43103448275862066,0.8048780487804879,0.5074626865671642
lijwiki,True,39.0,0.3469387755102041,1.0,0.4482758620689655,0.7804878048780488,0.5151515151515151
lijwiki,True,40.0,0.3469387755102041,1.0,0.4482758620689655,0.7804878048780488,0.5151515151515151
lijwiki,True,41.0,0.3333333333333333,0.9411764705882353,0.43103448275862066,0.7804878048780488,0.49230769230769234
lijwiki,True,42.0,0.3404255319148936,0.9411764705882353,0.4482758620689655,0.7560975609756098,0.5
lijwiki,True,43.0,0.3409090909090909,0.8823529411764706,0.46551724137931033,0.7073170731707317,0.4918032786885246
lijwiki,True,44.0,0.3409090909090909,0.8823529411764706,0.46551724137931033,0.7073170731707317,0.4918032786885246
lijwiki,True,45.0,0.3488372093023256,0.8823529411764706,0.4827586206896552,0.6829268292682927,0.5
lijwiki,True,46.0,0.3488372093023256,0.8823529411764706,0.4827586206896552,0.6829268292682927,0.5
lijwiki,True,47.0,0.3488372093023256,0.8823529411764706,0.4827586206896552,0.6829268292682927,0.5
lijwiki,True,48.0,0.35714285714285715,0.8823529411764706,0.5,0.6585365853658537,0.5084745762711864
lijwiki,True,49.0,0.35714285714285715,0.8823529411764706,0.5,0.6585365853658537,0.5084745762711864
lijwiki,True,50.0,0.35714285714285715,0.8823529411764706,0.5,0.6585365853658537,0.5084745762711864
lijwiki,True,51.0,0.35714285714285715,0.8823529411764706,0.5,0.6585365853658537,0.5084745762711864
lijwiki,True,52.0,0.35714285714285715,0.8823529411764706,0.5,0.6585365853658537,0.5084745762711864
lijwiki,True,53.0,0.36585365853658536,0.8823529411764706,0.5172413793103449,0.6341463414634146,0.5172413793103449
lijwiki,True,54.0,0.36585365853658536,0.8823529411764706,0.5172413793103449,0.6341463414634146,0.5172413793103449
lijwiki,True,55.0,0.36585365853658536,0.8823529411764706,0.5172413793103449,0.6341463414634146,0.5172413793103449
lijwiki,True,56.0,0.35,0.8235294117647058,0.5,0.6341463414634146,0.4912280701754386
lijwiki,True,57.0,0.358974358974359,0.8235294117647058,0.5172413793103449,0.6097560975609756,0.5
lijwiki,True,58.0,0.358974358974359,0.8235294117647058,0.5172413793103449,0.6097560975609756,0.5
lijwiki,True,59.0,0.3684210526315789,0.8235294117647058,0.5344827586206896,0.5853658536585366,0.509090909090909
lijwiki,True,60.0,0.3783783783783784,0.8235294117647058,0.5517241379310345,0.5609756097560976,0.5185185185185186
lijwiki,True,61.0,0.3783783783783784,0.8235294117647058,0.5517241379310345,0.5609756097560976,0.5185185185185186
lijwiki,True,62.0,0.3888888888888889,0.8235294117647058,0.5689655172413793,0.5365853658536586,0.5283018867924528
lijwiki,True,63.0,0.3888888888888889,0.8235294117647058,0.5689655172413793,0.5365853658536586,0.5283018867924528
lijwiki,True,64.0,0.3888888888888889,0.8235294117647058,0.5689655172413793,0.5365853658536586,0.5283018867924528
lijwiki,True,65.0,0.3888888888888889,0.8235294117647058,0.5689655172413793,0.5365853658536586,0.5283018867924528
lijwiki,True,66.0,0.4,0.8235294117647058,0.5862068965517241,0.5121951219512195,0.5384615384615384
lijwiki,True,67.0,0.4,0.8235294117647058,0.5862068965517241,0.5121951219512195,0.5384615384615384
lijwiki,True,68.0,0.4,0.8235294117647058,0.5862068965517241,0.5121951219512195,0.5384615384615384
lijwiki,True,69.0,0.4117647058823529,0.8235294117647058,0.603448275862069,0.4878048780487805,0.5490196078431372
lijwiki,True,70.0,0.4117647058823529,0.8235294117647058,0.603448275862069,0.4878048780487805,0.5490196078431372
lijwiki,True,71.0,0.4117647058823529,0.8235294117647058,0.603448275862069,0.4878048780487805,0.5490196078431372
lijwiki,True,72.0,0.42424242424242425,0.8235294117647058,0.6206896551724138,0.4634146341463415,0.5599999999999999
lijwiki,True,73.0,0.42424242424242425,0.8235294117647058,0.6206896551724138,0.4634146341463415,0.5599999999999999
lijwiki,True,74.0,0.42424242424242425,0.8235294117647058,0.6206896551724138,0.4634146341463415,0.5599999999999999
lijwiki,True,75.0,0.42424242424242425,0.8235294117647058,0.6206896551724138,0.4634146341463415,0.5599999999999999
lijwiki,True,76.0,0.42424242424242425,0.8235294117647058,0.6206896551724138,0.4634146341463415,0.5599999999999999
lijwiki,True,77.0,0.45161290322580644,0.8235294117647058,0.6551724137931034,0.4146341463414634,0.5833333333333333
lijwiki,True,78.0,0.45161290322580644,0.8235294117647058,0.6551724137931034,0.4146341463414634,0.5833333333333333
lijwiki,True,79.0,0.45161290322580644,0.8235294117647058,0.6551724137931034,0.4146341463414634,0.5833333333333333
lijwiki,True,80.0,0.4827586206896552,0.8235294117647058,0.6896551724137931,0.36585365853658536,0.608695652173913
lijwiki,True,81.0,0.5,0.8235294117647058,0.7068965517241379,0.34146341463414637,0.6222222222222222
lijwiki,True,82.0,0.5384615384615384,0.8235294117647058,0.7413793103448276,0.2926829268292683,0.6511627906976744
lijwiki,True,83.0,0.6086956521739131,0.8235294117647058,0.7931034482758621,0.21951219512195122,0.7
lijwiki,True,84.0,0.6190476190476191,0.7647058823529411,0.7931034482758621,0.1951219512195122,0.6842105263157895
lijwiki,True,85.0,0.65,0.7647058823529411,0.8103448275862069,0.17073170731707318,0.7027027027027027
lijwiki,True,86.0,0.65,0.7647058823529411,0.8103448275862069,0.17073170731707318,0.7027027027027027
lijwiki,True,87.0,0.7222222222222222,0.7647058823529411,0.8448275862068966,0.12195121951219512,0.7428571428571428
lijwiki,True,88.0,0.6875,0.6470588235294118,0.8103448275862069,0.12195121951219512,0.6666666666666667
lijwiki,True,89.0,0.7333333333333333,0.6470588235294118,0.8275862068965517,0.0975609756097561,0.6875
lijwiki,True,90.0,0.7333333333333333,0.6470588235294118,0.8275862068965517,0.0975609756097561,0.6875
lijwiki,True,91.0,0.7692307692307693,0.5882352941176471,0.8275862068965517,0.07317073170731707,0.6666666666666667
lijwiki,True,92.0,0.7692307692307693,0.5882352941176471,0.8275862068965517,0.07317073170731707,0.6666666666666667
lijwiki,True,93.0,0.75,0.5294117647058824,0.8103448275862069,0.07317073170731707,0.6206896551724139
lijwiki,True,94.0,0.8181818181818182,0.5294117647058824,0.8275862068965517,0.04878048780487805,0.6428571428571428
lijwiki,True,95.0,0.9,0.5294117647058824,0.8448275862068966,0.024390243902439025,0.6666666666666667
lijwiki,True,96.0,1.0,0.5294117647058824,0.8620689655172413,0.0,0.6923076923076924
lijwiki,True,97.0,1.0,0.47058823529411764,0.8448275862068966,0.0,0.6399999999999999
lijwiki,True,98.0,1.0,0.35294117647058826,0.8103448275862069,0.0,0.5217391304347826
lijwiki,True,99.0,1.0,0.17647058823529413,0.7586206896551724,0.0,0.3
lijwiki,False,0.0,0.01610452749924035,1.0,0.01610452749924035,1.0,0.03169856459330143
lijwiki,False,1.0,0.01610452749924035,1.0,0.01610452749924035,1.0,0.03169856459330143
lijwiki,False,2.0,0.016292652935751613,1.0,0.027651169857186266,0.9882643607164917,0.03206291591046582
lijwiki,False,3.0,0.01669291338582677,1.0,0.05135217259191735,0.9641754169240272,0.03283767038413878
lijwiki,False,4.0,0.01715210355987055,1.0,0.07718018839258584,0.9379246448424954,0.03372573973910277
lijwiki,False,5.0,0.01759628154050465,1.0,0.10088119112731693,0.9138357010500309,0.03458401305057097
lijwiki,False,6.0,0.018206801786327723,1.0,0.13157095107869948,0.8826436071649166,0.03576248313090419
lijwiki,False,7.0,0.01889483065953654,1.0,0.16378000607718018,0.8499073502161828,0.0370888733379986
lijwiki,False,8.0,0.0193596425912137,0.9811320754716981,0.1993315101792768,0.8134651019147622,0.03797006206644761
lijwiki,False,9.0,0.019708316909735908,0.9433962264150944,0.24339106654512307,0.7680667078443484,0.03861003861003861
lijwiki,False,10.0,0.020764119601328904,0.9433962264150944,0.28258887876025524,0.7282273008029648,0.04063388866314506
lijwiki,False,11.0,0.021910604732690624,0.9433962264150944,0.32087511394712853,0.6893143915997529,0.04282655246252678
lijwiki,False,12.0,0.022843822843822845,0.9245283018867925,0.3618960802187785,0.6473131562693021,0.0445859872611465
lijwiki,False,13.0,0.02413793103448276,0.9245283018867925,0.3968398663020359,0.6117974058060531,0.0470475276044167
lijwiki,False,14.0,0.025627615062761507,0.9245283018867925,0.4326952294135521,0.5753551575046325,0.049872773536895676
lijwiki,False,15.0,0.02722222222222222,0.9245283018867925,0.4667274384685506,0.5407659048795552,0.05288720992984349
lijwiki,False,16.0,0.028419182948490232,0.9056603773584906,0.4998480704952902,0.5067943174799259,0.055109070034443174
lijwiki,False,17.0,0.03015075376884422,0.9056603773584906,0.5293223944089942,0.4768375540457072,0.05835866261398176
lijwiki,False,18.0,0.02982107355864811,0.8490566037735849,0.5527195381343056,0.45213094502779494,0.057618437900128036
lijwiki,False,19.0,0.031609195402298854,0.8301886792452831,0.5876633242175631,0.41630636195182213,0.06089965397923875
lijwiki,False,20.0,0.03348909657320872,0.8113207547169812,0.6198723792160438,0.38326127239036445,0.06432311144353028
lijwiki,False,21.0,0.03480475382003396,0.7735849056603774,0.650865998176846,0.35114268066707843,0.06661251015434606
lijwiki,False,22.0,0.03723887375113533,0.7735849056603774,0.6742631419021574,0.3273625694873379,0.07105719237435008
lijwiki,False,23.0,0.04039408866995074,0.7735849056603774,0.7003950167122455,0.30080296479308216,0.07677902621722847
lijwiki,False,24.0,0.043617021276595745,0.7735849056603774,0.7231844424187177,0.2776405188387894,0.08257804632426989
lijwiki,False,25.0,0.04645760743321719,0.7547169811320755,0.7465815861440291,0.2535515750463249,0.087527352297593
lijwiki,False,26.0,0.0493046776232617,0.7358490566037735,0.767243998784564,0.23224212476837555,0.09241706161137442
lijwiki,False,27.0,0.05234159779614325,0.7169811320754716,0.7863871163780006,0.2124768375540457,0.0975609756097561
lijwiki,False,28.0,0.053811659192825115,0.6792452830188679,0.8024916438772409,0.195491043854231,0.0997229916897507
lijwiki,False,29.0,0.05636070853462158,0.660377358490566,0.8164691583105439,0.18097591105620753,0.10385756676557863
lijwiki,False,30.0,0.06013745704467354,0.660377358490566,0.8283196596779094,0.1689314391599753,0.11023622047244096
lijwiki,False,31.0,0.062146892655367235,0.6226415094339622,0.8426010331206321,0.15379864113650402,0.113013698630137
lijwiki,False,32.0,0.06626506024096386,0.6226415094339622,0.8526283804314798,0.14360716491661518,0.11978221415607986
lijwiki,False,33.0,0.06986899563318777,0.6037735849056604,0.8641750227894257,0.13156269302038295,0.12524461839530332
lijwiki,False,34.0,0.07511737089201878,0.6037735849056604,0.8738985110908538,0.12168004941321804,0.13361169102296452
lijwiki,False,35.0,0.07537688442211055,0.5660377358490566,0.881191127316925,0.11365040148239654,0.13303769401330376
lijwiki,False,36.0,0.07923497267759563,0.5471698113207547,0.8903068975995139,0.10407659048795553,0.13842482100238665
lijwiki,False,37.0,0.08262108262108261,0.5471698113207547,0.8948647827408083,0.09944410129709698,0.14356435643564355
lijwiki,False,38.0,0.08761329305135952,0.5471698113207547,0.9009419629292008,0.0932674490426189,0.15104166666666666
lijwiki,False,39.0,0.09120521172638436,0.5283018867924528,0.9076268611364326,0.08616429894996912,0.15555555555555556
lijwiki,False,40.0,0.09929078014184398,0.5283018867924528,0.9152233363719234,0.07844348363187152,0.16716417910447762
lijwiki,False,41.0,0.10384615384615385,0.5094339622641509,0.921300516560316,0.07195799876466955,0.17252396166134187
lijwiki,False,42.0,0.1087866108786611,0.49056603773584906,0.927073837739289,0.06578134651019148,0.1780821917808219
lijwiki,False,43.0,0.11061946902654868,0.4716981132075472,0.9304162868429049,0.06207535515750463,0.1792114695340502
lijwiki,False,44.0,0.11574074074074074,0.4716981132075472,0.9334548769371012,0.0589870290302656,0.1858736059479554
lijwiki,False,45.0,0.12376237623762376,0.4716981132075472,0.937708903068976,0.054663372452130946,0.19607843137254902
lijwiki,False,46.0,0.13089005235602094,0.4716981132075472,0.941051352172592,0.051266213712168,0.20491803278688525
lijwiki,False,47.0,0.13872832369942195,0.4528301886792453,0.945913096323306,0.046016059295861646,0.21238938053097342
lijwiki,False,48.0,0.14457831325301204,0.4528301886792453,0.9480401093892434,0.043854231006794316,0.2191780821917808
lijwiki,False,49.0,0.1509433962264151,0.4528301886792453,0.9501671224551808,0.04169240271772699,0.22641509433962267
lijwiki,False,50.0,0.15483870967741936,0.4528301886792453,0.9513825584928594,0.04045707226683138,0.23076923076923075
lijwiki,False,51.0,0.16216216216216217,0.4528301886792453,0.9535095715587967,0.03829524397776405,0.23880597014925375
lijwiki,False,52.0,0.16901408450704225,0.4528301886792453,0.9553327256153145,0.03644224830142063,0.24615384615384614
lijwiki,False,53.0,0.17647058823529413,0.4528301886792453,0.9571558796718322,0.034589252625077206,0.25396825396825395
lijwiki,False,54.0,0.17557251908396945,0.4339622641509434,0.9580674567000912,0.033353922174181594,0.25
lijwiki,False,55.0,0.17829457364341086,0.4339622641509434,0.9586751747189304,0.032736256948733784,0.2527472527472528
lijwiki,False,56.0,0.1774193548387097,0.41509433962264153,0.9595867517471893,0.03150092649783817,0.24858757062146894
lijwiki,False,57.0,0.18032786885245902,0.41509433962264153,0.9601944697660285,0.030883261272390366,0.25142857142857145
lijwiki,False,58.0,0.175,0.39622641509433965,0.9601944697660285,0.03057442865966646,0.24277456647398846
lijwiki,False,59.0,0.1810344827586207,0.39622641509433965,0.9614099058037071,0.029339098208770845,0.24852071005917162
lijwiki,False,60.0,0.19090909090909092,0.39622641509433965,0.9632330598602249,0.027486102532427423,0.25766871165644173
lijwiki,False,61.0,0.19811320754716982,0.39622641509433965,0.9644484958979034,0.02625077208153181,0.26415094339622647
lijwiki,False,62.0,0.20588235294117646,0.39622641509433965,0.9656639319355819,0.025015441630636195,0.27096774193548384
lijwiki,False,63.0,0.20833333333333334,0.37735849056603776,0.9668793679732605,0.02347127856701668,0.2684563758389262
lijwiki,False,64.0,0.21505376344086022,0.37735849056603776,0.9677909450015193,0.022544780728844967,0.27397260273972607
lijwiki,False,65.0,0.21978021978021978,0.37735849056603776,0.9683986630203586,0.021927115503397158,0.2777777777777778
lijwiki,False,66.0,0.21839080459770116,0.3584905660377358,0.9690063810391978,0.021000617665225447,0.27142857142857146
lijwiki,False,67.0,0.2289156626506024,0.3584905660377358,0.9702218170768764,0.019765287214329835,0.2794117647058823
lijwiki,False,68.0,0.24050632911392406,0.3584905660377358,0.9714372531145549,0.01852995676343422,0.2878787878787879
lijwiki,False,69.0,0.25333333333333335,0.3584905660377358,0.9726526891522334,0.017294626312538603,0.296875
lijwiki,False,70.0,0.25333333333333335,0.3584905660377358,0.9726526891522334,0.017294626312538603,0.296875
lijwiki,False,71.0,0.25675675675675674,0.3584905660377358,0.972956548161653,0.016985793699814702,0.2992125984251968
lijwiki,False,72.0,0.2714285714285714,0.3584905660377358,0.9741719841993315,0.015750463248919086,0.30894308943089427
lijwiki,False,73.0,0.27941176470588236,0.3584905660377358,0.9747797022181708,0.015132798023471278,0.31404958677685946
lijwiki,False,74.0,0.2923076923076923,0.3584905660377358,0.9756912792464296,0.014206300185299567,0.3220338983050848
lijwiki,False,75.0,0.29508196721311475,0.33962264150943394,0.9762989972652689,0.013279802347127856,0.3157894736842105
lijwiki,False,76.0,0.3157894736842105,0.33962264150943394,0.9775144333029474,0.012044471896232242,0.3272727272727272
lijwiki,False,77.0,0.35294117647058826,0.33962264150943394,0.9793375873594652,0.01019147621988882,0.34615384615384615
lijwiki,False,78.0,0.36,0.33962264150943394,0.9796414463688848,0.009882643607164917,0.3495145631067961
lijwiki,False,79.0,0.3469387755102041,0.32075471698113206,0.9793375873594652,0.009882643607164917,0.3333333333333333
lijwiki,False,80.0,0.3695652173913043,0.32075471698113206,0.9802491643877241,0.008956145768993206,0.34343434343434337
lijwiki,False,81.0,0.37777777777777777,0.32075471698113206,0.9805530233971437,0.008647313156269302,0.3469387755102041
lijwiki,False,82.0,0.40476190476190477,0.32075471698113206,0.9814646004254026,0.0077208153180975915,0.3578947368421052
lijwiki,False,83.0,0.4358974358974359,0.32075471698113206,0.9823761774536615,0.0067943174799258805,0.3695652173913044
lijwiki,False,84.0,0.4166666666666667,0.2830188679245283,0.9820723184442419,0.006485484867201977,0.33707865168539325
lijwiki,False,85.0,0.4838709677419355,0.2830188679245283,0.98359161349134,0.004941321803582459,0.3571428571428572
lijwiki,False,86.0,0.5172413793103449,0.2830188679245283,0.9841993315101792,0.004323656578134651,0.36585365853658536
lijwiki,False,87.0,0.5769230769230769,0.2830188679245283,0.9851109085384382,0.0033971587399629403,0.379746835443038
lijwiki,False,88.0,0.5652173913043478,0.24528301886792453,0.9848070495290185,0.0030883261272390363,0.3421052631578947
lijwiki,False,89.0,0.6190476190476191,0.24528301886792453,0.9854147675478578,0.0024706609017912293,0.35135135135135137
lijwiki,False,90.0,0.6111111111111112,0.20754716981132076,0.9851109085384382,0.0021618282890673254,0.3098591549295775
lijwiki,False,91.0,0.6666666666666666,0.18867924528301888,0.9854147675478578,0.0015441630636195182,0.29411764705882354
lijwiki,False,92.0,0.6666666666666666,0.18867924528301888,0.9854147675478578,0.0015441630636195182,0.29411764705882354
lijwiki,False,93.0,0.6428571428571429,0.16981132075471697,0.9851109085384382,0.0015441630636195182,0.26865671641791045
lijwiki,False,94.0,0.75,0.16981132075471697,0.9857186265572774,0.0009264978381717109,0.27692307692307694
lijwiki,False,95.0,0.9,0.16981132075471697,0.9863263445761167,0.00030883261272390367,0.2857142857142857
lijwiki,False,96.0,1.0,0.16981132075471697,0.9866302035855363,0.0,0.2903225806451613
lijwiki,False,97.0,1.0,0.1509433962264151,0.9863263445761167,0.0,0.26229508196721313
lijwiki,False,98.0,1.0,0.11320754716981132,0.9857186265572774,0.0,0.2033898305084746
lijwiki,False,99.0,1.0,0.05660377358490566,0.9848070495290185,0.0,0.10714285714285715
