wiki_db,user_is_anonymous_or_bot,threshold,precision,recall,accuracy,fpr,F1
mrwiki,True,0.0,0.19166184931318303,1.0,0.19166184931318303,1.0,0.3216715369777891
mrwiki,True,1.0,0.19166184931318303,1.0,0.19166184931318303,1.0,0.3216715369777891
mrwiki,True,2.0,0.19166448735771408,1.0,0.19167561318027912,0.9999829726370277,0.32167525237358224
mrwiki,True,3.0,0.19162789417173692,0.9997127468581688,0.19166184931318303,0.9999318905481108,0.3216088528491065
mrwiki,True,4.0,0.1913045898627773,0.9871454219030521,0.19774547856965893,0.9894260075942038,0.32049802399188615
mrwiki,True,5.0,0.18557100982815106,0.9274685816876123,0.20594874335893412,0.9651279606327368,0.30926353851127264
mrwiki,True,6.0,0.1780167086119343,0.8584560143626571,0.21314724585019407,0.9398593539818488,0.2948838127189304
mrwiki,True,7.0,0.1739338246631102,0.8101256732495512,0.22618162799020014,0.9122750259667285,0.2863815797824404
mrwiki,True,8.0,0.17152444870565675,0.7708438061041293,0.24247804663198172,0.8828006606616833,0.28060911051565257
mrwiki,True,9.0,0.16974492830238552,0.7378815080789947,0.258031216450574,0.8557441808987042,0.2759982271646722
mrwiki,True,10.0,0.1674439187119175,0.7064991023339318,0.27047375230544773,0.8329104871528547,0.2707246935153208
mrwiki,True,11.0,0.16024985191965968,0.6411490125673249,0.287279434029785,0.7966251766588909,0.25641172922829486
mrwiki,True,12.0,0.15936371620962234,0.5863554757630162,0.3279103696974702,0.7333685232168095,0.25061387354205034
mrwiki,True,13.0,0.1494962350196203,0.5061400359066427,0.35345610702783054,0.6827461731001719,0.23081709513672835
mrwiki,True,14.0,0.1477505701319942,0.4606104129263914,0.38739780328681145,0.6299613478860528,0.22373377982419423
mrwiki,True,15.0,0.14598005805881611,0.41529622980251346,0.42227544250832716,0.5760697440787346,0.21602540156892044
mrwiki,True,16.0,0.14560333937496567,0.380754039497307,0.45309274093649354,0.529755316794088,0.21065178092532633
mrwiki,True,17.0,0.14476116643807024,0.34865350089766606,0.4803727255209624,0.48839585213437997,0.20458041000358174
mrwiki,True,18.0,0.14234756809014235,0.3066427289048474,0.5130068544058138,0.43806296718827153,0.1944355903647375
mrwiki,True,19.0,0.14027445001089087,0.2774865350089767,0.5355658325763206,0.40324200990992526,0.18634708591545898
mrwiki,True,20.0,0.1421780466724287,0.2598922800718133,0.5576155476642718,0.3717924705000937,0.18380355011554383
mrwiki,True,21.0,0.1432232585497017,0.24481149012567324,0.5745726319266661,0.34723901309404215,0.18071937869430382
mrwiki,True,22.0,0.14495675942106914,0.23231597845601437,0.5902221488149311,0.32491614023736143,0.17852215661387344
mrwiki,True,23.0,0.14725211924945233,0.22204667863554758,0.6044402235252017,0.3048919613819408,0.17707527990149757
mrwiki,True,24.0,0.14780611990216144,0.2126391382405745,0.6141162220937595,0.2906911406630455,0.17439189587137052
mrwiki,True,25.0,0.1546229436994408,0.204524236983842,0.6332204696231453,0.2651330688416285,0.1761068513480089
mrwiki,True,26.0,0.15737856236298603,0.19590664272890485,0.6448509373193493,0.2487016635733624,0.1745417319811894
mrwiki,True,27.0,0.15997108956212733,0.19073608617594254,0.6529303273047595,0.237480631374619,0.1740041928721174
mrwiki,True,28.0,0.15978862606945143,0.18240574506283663,0.6594681641754068,0.2274174598579918,0.17034975352939205
mrwiki,True,29.0,0.16111868146129388,0.17831238779174147,0.6645745588680596,0.2201297485058489,0.16928006544859558
mrwiki,True,30.0,0.16180513645812378,0.1732854578096948,0.6695020232884631,0.212842037153706,0.16734863721478604
mrwiki,True,31.0,0.15785828080626169,0.16366247755834828,0.6723649076444518,0.2070186790171806,0.16070798956350044
mrwiki,True,32.0,0.1569241723033108,0.15827648114901258,0.6756957634817078,0.20162100495496263,0.15759742581337147
mrwiki,True,33.0,0.15730912817509698,0.15432675044883304,0.679467063066039,0.19601900253707707,0.15580366852751393
mrwiki,True,34.0,0.1531654186521443,0.14542190305206462,0.6821097255484901,0.1906383558378314,0.1491932513077433
mrwiki,True,35.0,0.15003903200624513,0.13802513464991023,0.6849313183031904,0.18539392804236407,0.14378155975313262
mrwiki,True,36.0,0.15223336371923427,0.1319210053859964,0.6928180141492554,0.174189923206593,0.14135118497999383
mrwiki,True,37.0,0.15133327617251136,0.1267504488330341,0.6963966195942412,0.16853683869979055,0.13795529154291072
mrwiki,True,38.0,0.14818801578758523,0.11863554757630161,0.7003743771850139,0.16169183878492738,0.13177521636820486
mrwiki,True,39.0,0.14783821478382148,0.11418312387791742,0.7040768574338646,0.15605578164109724,0.1288492706645057
mrwiki,True,40.0,0.1483739837398374,0.11008976660682226,0.7083298923665593,0.14982376679323672,0.12639650410190872
mrwiki,True,41.0,0.1495674914504124,0.10678635547576301,0.7124315247611969,0.14396635393076673,0.1246071982234885
mrwiki,True,42.0,0.15089034676663543,0.10405745062836624,0.7160514218074711,0.1388411176761055,0.12317239034342059
mrwiki,True,43.0,0.15155080213903743,0.10175942549371633,0.7186527926886338,0.13507807045922798,0.12176154672395272
mrwiki,True,44.0,0.15186685645461515,0.09960502692998205,0.7208137198227214,0.13189395358340852,0.1203053170266285
mrwiki,True,45.0,0.1520572450805009,0.09766606822262118,0.7226718418806948,0.1291355207818965,0.11893830075648257
mrwiki,True,46.0,0.1530042184471554,0.09637342908438061,0.7245574916728604,0.12649627952119055,0.11825872400422982
mrwiki,True,47.0,0.15341040462427746,0.09529622980251347,0.7258100035786055,0.12469137904612712,0.11756367663344408
mrwiki,True,48.0,0.15360355098703424,0.09443447037701976,0.7267046549398519,0.1233802720972603,0.11696166503602241
mrwiki,True,49.0,0.1540550112147326,0.09371633752244166,0.7276681256365789,0.12201808305947658,0.11653866761921772
mrwiki,True,50.0,0.15422232824427481,0.09285457809694793,0.7285352492636331,0.12074103083655434,0.11591734277645792
mrwiki,True,51.0,0.15431949806949807,0.0918491921005386,0.7294711922261679,0.11934478707282603,0.11515779048305047
mrwiki,True,52.0,0.1544735240413877,0.0911310592459605,0.7302006771822611,0.11827206320557135,0.11463414634146342
mrwiki,True,53.0,0.1547999017922907,0.09055655296229803,0.7309301621383544,0.11723339406426127,0.1142675909564587
mrwiki,True,54.0,0.15512328088217073,0.08991023339317773,0.731714702562832,0.1161095881080897,0.11383887979632659
mrwiki,True,55.0,0.15529971217619823,0.08912028725314183,0.7325130068544058,0.11493470006300124,0.11325059317393686
mrwiki,True,56.0,0.156029263370333,0.08883303411131059,0.7332700195446913,0.11393008564763575,0.11321100077792523
mrwiki,True,57.0,0.15674300254452928,0.08847396768402155,0.7340683238362651,0.11285736178038107,0.11310534771631858
mrwiki,True,58.0,0.15750352428553122,0.08825852782764812,0.7347702810581661,0.11193788417987706,0.1131259204712813
mrwiki,True,59.0,0.1587527493854315,0.08811490125673249,0.7357337517548931,0.11071191404587172,0.11332779163203104
mrwiki,True,60.0,0.15970227213371638,0.08782764811490126,0.7366008753819473,0.10957108072672785,0.11332993559746096
mrwiki,True,61.0,0.16073781291172595,0.08761220825852782,0.7374542351419054,0.10846430213352858,0.11340924936091099
mrwiki,True,62.0,0.1623783495533929,0.0874685816876122,0.7386241638450739,0.10698292155493878,0.11369364323718846
mrwiki,True,63.0,0.16347708894878707,0.08710951526032316,0.7396013984088969,0.10568884196904425,0.11365659405012885
mrwiki,True,64.0,0.1648950667756882,0.08689407540394974,0.7406474523082005,0.10434368029423283,0.11381272633212622
mrwiki,True,65.0,0.1671270718232044,0.08689407540394974,0.7419963112836182,0.10267499872294777,0.1143397117883298
mrwiki,True,66.0,0.16862580464595578,0.08653500897666068,0.7431524761196906,0.1011595634184134,0.11437520763134165
mrwiki,True,67.0,0.17101325352714836,0.08617594254937164,0.7447903763041264,0.09904817040984863,0.11460223474357749
mrwiki,True,68.0,0.1727771362586605,0.08596050269299821,0.7459327772731027,0.09758381719423113,0.11480362537764352
mrwiki,True,69.0,0.17563198118753676,0.08581687612208258,0.7475844413246345,0.09550647891161096,0.11529740942640745
mrwiki,True,70.0,0.1782133772257968,0.08552962298025135,0.7491397583064938,0.09351427744385227,0.11558618012422363
mrwiki,True,71.0,0.18102790910477354,0.08524236983842011,0.7507638946238335,0.0914369391612321,0.1159066497412362
mrwiki,True,72.0,0.18324525955859497,0.08466786355475762,0.7522366284031161,0.089478792419418,0.11582101281988309
mrwiki,True,73.0,0.1849499920622321,0.0836624775583483,0.7537093621823988,0.08741848149977013,0.11520965189873417
mrwiki,True,74.0,0.18762183235867447,0.0829443447037702,0.7554023178352189,0.0851538422244547,0.11503411184701957
mrwiki,True,75.0,0.18941411451398135,0.08172351885098743,0.7569713986841743,0.08292325767508386,0.11418251141323434
mrwiki,True,76.0,0.19251793645370688,0.08093357271095153,0.7587882291408594,0.08048834477004546,0.11395924970928761
mrwiki,True,77.0,0.19517775431186202,0.07964093357271095,0.7606601150659289,0.07786613087231181,0.11312286428316416
mrwiki,True,78.0,0.1989080982711556,0.07849192100538599,0.7627935144658243,0.07495445180404911,0.1125643666323378
mrwiki,True,79.0,0.20143613000755858,0.07655296229802513,0.7648443306631432,0.07195763592092493,0.11094343549981787
mrwiki,True,80.0,0.2052693668895006,0.07497307001795332,0.7670740771327113,0.06882460113402238,0.10983115038661827
mrwiki,True,81.0,0.206719934439664,0.07245960502692998,0.7689321991906846,0.06592994942873197,0.10730617887908114
mrwiki,True,82.0,0.21089023336214346,0.07008976660682226,0.7715060423376552,0.06218392957482675,0.10521209507896297
mrwiki,True,83.0,0.2144320509902117,0.06764811490125673,0.7738046081427038,0.05876142961739515,0.10284965607599082
mrwiki,True,84.0,0.2181862506094588,0.06427289048473968,0.7765160899606354,0.054606753052154816,0.09929550119265547
mrwiki,True,85.0,0.2210581456259822,0.06061041292639138,0.7790211137721255,0.05063937747960973,0.09513611001521725
mrwiki,True,86.0,0.2252482269503546,0.057019748653500894,0.7816775401216726,0.04650172827734169,0.09100286532951289
mrwiki,True,87.0,0.23086535457669477,0.05307001795332136,0.7846230076802378,0.04192136763779394,0.08630152983767372
mrwiki,True,88.0,0.2396088019559902,0.049263913824057454,0.7878162248465329,0.03706856919068944,0.08172504169644984
mrwiki,True,89.0,0.2480252764612954,0.04509874326750449,0.7907754562721943,0.032420099099252496,0.07632010694537279
mrwiki,True,90.0,0.2573099415204678,0.04107719928186714,0.7934869380901258,0.02811217626726149,0.07084468664850135
mrwiki,True,91.0,0.27377824487651076,0.037414721723518854,0.7964874611170755,0.023531815627713736,0.0658327015415719
mrwiki,True,92.0,0.2847394540942928,0.03296229802513465,0.7987860269221241,0.019632549507057843,0.05908476539872562
mrwiki,True,93.0,0.3105058365758755,0.02865350089766607,0.8016351474110166,0.015086243593454682,0.05246548323471401
mrwiki,True,94.0,0.324,0.023267504488330343,0.80349326946899,0.011510497369272421,0.04341708542713569
mrwiki,True,95.0,0.3670886075949367,0.01874326750448833,0.8057367798056542,0.007662313337533417,0.035665482372232854
mrwiki,True,96.0,0.4144144144144144,0.013213644524236984,0.8072920967875135,0.004427114372797085,0.025610689679170434
mrwiki,True,97.0,0.4955357142857143,0.007971274685816876,0.8083106229526248,0.0019240920158695022,0.015690154781256627
mrwiki,True,98.0,0.5892857142857143,0.00473967684021544,0.8086134280287389,0.0007832586967256381,0.009403718743321222
mrwiki,True,99.0,0.7857142857142857,0.00236983842010772,0.8086684834971234,0.00015324626675066832,0.004725424214219231
mrwiki,False,0.0,0.13678479674268915,1.0,0.13678479674268915,1.0,0.2406520515309994
mrwiki,False,1.0,0.1367860654065184,1.0,0.13679407154583145,0.9999892555146072,0.24065401497968442
mrwiki,False,2.0,0.1373105972414949,0.9997287767832926,0.14081006130644877,0.995293915397922,0.2414575230296827
mrwiki,False,3.0,0.13863751810810301,0.9993219419582317,0.15063207783414798,0.9838510384545133,0.24349463875625754
mrwiki,False,4.0,0.13991563938238036,0.9873881204231082,0.16804088333225128,0.9617926099429468,0.24509993688196932
mrwiki,False,5.0,0.13705715540999322,0.930702468131272,0.18897411402442982,0.9285599166227934,0.23892911850717174
mrwiki,False,6.0,0.13295809881175735,0.8649308380797396,0.21000936755117372,0.8937692729206734,0.23048568950563747
mrwiki,False,7.0,0.1313982216127382,0.8186194738269595,0.23498641241339652,0.8574958902343373,0.22644871470237926
mrwiki,False,8.0,0.13071153824333678,0.7811228641171685,0.25949044231536184,0.8231672594041108,0.22394805649245247
mrwiki,False,9.0,0.13052412783144768,0.7493897477624084,0.2828907706433931,0.7910305035940304,0.22232503872382373
mrwiki,False,10.0,0.12973746666340438,0.7190805532953621,0.3017928194474072,0.7643304573927432,0.2198155249248627
mrwiki,False,11.0,0.12473932185062177,0.6570382424735557,0.3224756304547436,0.7305390508321604,0.20967218435572868
mrwiki,False,12.0,0.12344005091452448,0.6049633848657445,0.3583505690091728,0.6807276165508053,0.2050421713051272
mrwiki,False,13.0,0.11575572247127631,0.5287496609709791,0.3830586445802688,0.6400275058826057,0.18993107143727014
mrwiki,False,14.0,0.11406401860969043,0.4854217521019799,0.4138973650284273,0.5974363657852607,0.18472216846641124
mrwiki,False,15.0,0.11196540124939933,0.4423650664496881,0.44380860516235543,0.5559626521687744,0.1787005587816369
mrwiki,False,16.0,0.11092325786533372,0.4092758340113914,0.47048293899961974,0.5198182033071526,0.17454166907639815
mrwiki,False,17.0,0.10969618362614472,0.37849199891510715,0.494801472838739,0.486768166238678,0.17009476795563278
mrwiki,False,18.0,0.10677618069815195,0.33848657445077296,0.522199241321103,0.4486897100063392,0.16234146341463415
mrwiki,False,19.0,0.10452706871729245,0.3101437483048549,0.5422049916990512,0.4210226601196936,0.15635735894850192
mrwiki,False,20.0,0.10504549214226634,0.2927854624355845,0.5620623452267226,0.3952681286329791,0.15461739535216817
mrwiki,False,21.0,0.10488560961237926,0.2775969622999729,0.5771339003329654,0.3754015751415586,0.15224707610494412
mrwiki,False,22.0,0.10534824195069378,0.26512069433143476,0.5915098452035356,0.35677063747031834,0.15078186761274898
mrwiki,False,23.0,0.10630778365235093,0.25494982370490915,0.6049212105473062,0.33962243878329446,0.150048885607678
mrwiki,False,24.0,0.10603430521639354,0.24437211825332247,0.614826700303286,0.32647118866241903,0.1478958491495168
mrwiki,False,25.0,0.10894710516443666,0.2363032275562788,0.6311781782431668,0.3062500671530337,0.14913557001027045
mrwiki,False,26.0,0.10995279307631786,0.2274206672091131,0.6425119876830614,0.29171277841647775,0.14823654203129144
mrwiki,False,27.0,0.11107717369171248,0.22192839707078926,0.6506367152357191,0.2814303058954991,0.14805265300583523
mrwiki,False,28.0,0.11078265765765766,0.21345267154868458,0.6580565577495617,0.2714916569070924,0.14586229265128348
mrwiki,False,29.0,0.1117800667343682,0.20897748847301328,0.6646602175868818,0.2631324472714379,0.14565217391304347
mrwiki,False,30.0,0.11248783409448229,0.2037564415513968,0.6711896789990632,0.2547410041796048,0.1449520042448507
mrwiki,False,31.0,0.11033417036893954,0.193653376729048,0.6761145994676263,0.24743475411245178,0.14057539438387517
mrwiki,False,32.0,0.11024498886414254,0.18795768917819367,0.6814290616681661,0.2403756272093348,0.1389752331294495
mrwiki,False,33.0,0.11058341862845446,0.1831434770816382,0.6867806230812751,0.23341320067475368,0.13790110535317693
mrwiki,False,34.0,0.1084975630430176,0.1735828586927041,0.6918632152032573,0.2260102502390648,0.13353154421928384
mrwiki,False,35.0,0.10718662464985994,0.16605641442907512,0.6967324868529665,0.21917675752919813,0.1302798170018087
mrwiki,False,36.0,0.10793811119783298,0.15941144561974505,0.7048108403899127,0.20876535118350506,0.1287196474034329
mrwiki,False,37.0,0.10803613884926296,0.15405478708977488,0.7103107986532986,0.20154505699949501,0.12700542232656942
mrwiki,False,38.0,0.10688235002232918,0.14605370219690805,0.716255947467515,0.19338999258630507,0.12343485860004012
mrwiki,False,39.0,0.1074401397595314,0.14178193653376728,0.7214962112429164,0.18664245575958138,0.12224495761473253
mrwiki,False,40.0,0.10815139059413868,0.13737455926227285,0.7270518183251561,0.1795081174587143,0.12102386428123413
mrwiki,False,41.0,0.10925628084964784,0.13357743422836996,0.732523952179115,0.17256717989491893,0.12019890783733488
mrwiki,False,42.0,0.11036385583721331,0.13018714401952808,0.737476697057105,0.16629240042548163,0.11945870275314979
mrwiki,False,43.0,0.11183625037080985,0.12781394087333875,0.7418544041402722,0.16084494633129545,0.11929247223364871
mrwiki,False,44.0,0.11318104080136819,0.12564415513967997,0.7457405466568972,0.15599918341911015,0.11908740359897171
mrwiki,False,45.0,0.11372033314546935,0.12313534038513697,0.748791956890715,0.15206670176531895,0.11824071361135527
mrwiki,False,46.0,0.11549585448936307,0.12184703010577705,0.7522421836596518,0.14786560797670595,0.11858646517306233
mrwiki,False,47.0,0.11699402220324509,0.12076213723894766,0.755061723814912,0.14442737265098687,0.11884821994594774
mrwiki,False,48.0,0.11822989890875009,0.1197450501762951,0.7574360734193417,0.14151561710951854,0.1189826511706249
mrwiki,False,49.0,0.11940502183406114,0.11866015730946569,0.7597454994017752,0.13866832848040744,0.11903142429601415
mrwiki,False,50.0,0.12047774460106937,0.11764307024681313,0.7618323301087935,0.13608965198611814,0.11904353494116436
mrwiki,False,51.0,0.1218108165730936,0.11621914835909954,0.7645034734137768,0.13276960599972065,0.11894930427842743
mrwiki,False,52.0,0.12337520877205722,0.11520206129644697,0.7670076702621987,0.1297074276627521,0.11914863775027174
mrwiki,False,53.0,0.12497226946683428,0.11459180905885544,0.7691408749849284,0.12713949565385566,0.11955714336245622
mrwiki,False,54.0,0.12625310921836136,0.11357472199620287,0.771236980495089,0.12455007467417348,0.11957879707299661
mrwiki,False,55.0,0.1276301643372754,0.11269324654190399,0.7732681623832535,0.12205735406302715,0.11969751530428521
mrwiki,False,56.0,0.1295889551302165,0.11201518850013562,0.7756239623813984,0.11922080991930892,0.12016293279022403
mrwiki,False,57.0,0.1315873778632068,0.11140493626254408,0.7778870143481205,0.11650245511491227,0.12065800102812661
mrwiki,False,58.0,0.1333985649054142,0.11093029563330621,0.7798161734017196,0.11419239075544477,0.1211313490300607
mrwiki,False,59.0,0.1351261620185923,0.11038784919989152,0.7816711340301802,0.11195753779372737,0.12151067323481116
mrwiki,False,60.0,0.13687150837988826,0.1096419853539463,0.7836373922963485,0.10956151755111689,0.12175288005421278
mrwiki,False,61.0,0.1387018815812187,0.10896392731217792,0.7855665513499476,0.10721921973547077,0.12204754310017468
mrwiki,False,62.0,0.14100871402165302,0.10862489829129374,0.7875606340255428,0.1048554329490389,0.12271630472250948
mrwiki,False,63.0,0.14304968999910145,0.10794684024952536,0.7895268922917111,0.1024701571918213,0.12304362947791476
mrwiki,False,64.0,0.14490897447626017,0.10740439381611067,0.7912149064636103,0.1004287049671756,0.12336929008138947
mrwiki,False,65.0,0.14732226161597312,0.10706536479522648,0.7930976915014979,0.0981938520054582,0.12400848189743187
mrwiki,False,66.0,0.14959055418015615,0.10652291836181177,0.7949526521299586,0.0959589990437408,0.12443564356435645
mrwiki,False,67.0,0.15171002630809705,0.10557363710333605,0.7969096355929846,0.09354148983034458,0.12450521770421015
mrwiki,False,68.0,0.15416003184713375,0.10503119066992135,0.7987553214183029,0.09131738135402005,0.12493950637199548
mrwiki,False,69.0,0.15756087579292,0.1044209384323298,0.8011296710227326,0.08847009272490894,0.12560150069325504
mrwiki,False,70.0,0.16078925272879932,0.1038784919989151,0.8032628757454623,0.08591290520140538,0.12621519195913658
mrwiki,False,71.0,0.16348949919224556,0.10292921074043938,0.8052569584210575,0.08345241804643766,0.12632630133566344
mrwiki,False,72.0,0.16640866873065016,0.10204773528614049,0.8072510410966527,0.08100267537686283,0.1265131136516476
mrwiki,False,73.0,0.1684856753069577,0.10048820179007323,0.809124551331398,0.0785851661634666,0.12589194699286443
mrwiki,False,74.0,0.17157894736842105,0.09947111472742066,0.8111279088101355,0.07610319003771314,0.1259335565284574
mrwiki,False,75.0,0.17397590361445783,0.0979115812313534,0.8130199686511653,0.07366419185353118,0.12530371398819853
mrwiki,False,76.0,0.17814017179136063,0.09703010577705451,0.8152551962084604,0.07093509256374166,0.12563100829638732
mrwiki,False,77.0,0.18134981968057703,0.09547057228098725,0.8173234773091941,0.06829194915709512,0.12508884150675195
mrwiki,False,78.0,0.1859809319188935,0.09391103878491999,0.8198369489607583,0.06513307045159072,0.12480288353232712
mrwiki,False,79.0,0.1895608250315701,0.09160564144290752,0.8221741993526187,0.0620601476292293,0.12351999999999999
mrwiki,False,80.0,0.19416617560400706,0.08936804990507187,0.8247062206104675,0.058772335099010434,0.1223997028231798
mrwiki,False,81.0,0.1965970610982212,0.08618117710876051,0.826830150530055,0.05580685713057773,0.11983217838118135
mrwiki,False,82.0,0.2012434554973822,0.08340113913751017,0.8293436221816192,0.05245457768800163,0.11792905081495686
mrwiki,False,83.0,0.20510150963040083,0.08014646053702197,0.831690147376622,0.049220487584747126,0.115255228901565
mrwiki,False,84.0,0.20870535714285715,0.07607811228641172,0.834166519815617,0.04570704086127795,0.11150864639236732
mrwiki,False,85.0,0.21156162183861904,0.07146731760238677,0.8365594190263311,0.042204338623201644,0.10684237202230107
mrwiki,False,86.0,0.21563929427140058,0.06712774613506917,0.8389986922527569,0.03869089189973246,0.10238378406329181
mrwiki,False,87.0,0.22174226061915048,0.06265256305939788,0.8417069347703094,0.034844366129084245,0.09770023790642349
mrwiki,False,88.0,0.22909384243076095,0.05777054515866558,0.8445264749255698,0.030804439621364334,0.09227270265879678
mrwiki,False,89.0,0.23879680785758134,0.0527529156495796,0.8474294883091107,0.026646323774322828,0.08641563923136732
mrwiki,False,90.0,0.2504427913567127,0.04793870355302414,0.8501470056298055,0.02273533109131738,0.08047350748392237
mrwiki,False,91.0,0.2682619647355164,0.04332790886899918,0.852975820588208,0.018727638039776087,0.07460595446584939
mrwiki,False,92.0,0.28319919517102615,0.03817466775155953,0.8552203229486454,0.015310891684842754,0.06728011472275335
mrwiki,False,93.0,0.3061744112030554,0.03261459180905885,0.8575668481436481,0.011711489078230598,0.058949690544763775
mrwiki,False,94.0,0.3217821782178218,0.02644426362896664,0.8592084882998359,0.008831966992940874,0.04887218045112782
mrwiki,False,95.0,0.3591549295774648,0.020748576078112285,0.8609892505031581,0.0058664890245081714,0.03923076923076923
mrwiki,False,96.0,0.41132075471698115,0.014781665310550583,0.8623433717619343,0.003352279442576098,0.028537766723393112
mrwiki,False,97.0,0.49635036496350365,0.009221589368049905,0.8631966536510263,0.001482738984216351,0.018106776727466384
mrwiki,False,98.0,0.5851851851851851,0.005356658529970165,0.8634285237295838,0.000601691182000838,0.010616139219243433
mrwiki,False,99.0,0.7872340425531915,0.0025088147545429887,0.863465622942153,0.00010744485392872108,0.005001689760054072
