wiki_db,user_is_anonymous_or_bot,threshold,precision,recall,accuracy,fpr,F1
ndswiki,True,0.0,0.43119266055045874,1.0,0.43119266055045874,1.0,0.6025641025641025
ndswiki,True,1.0,0.43119266055045874,1.0,0.43119266055045874,1.0,0.6025641025641025
ndswiki,True,2.0,0.43119266055045874,1.0,0.43119266055045874,1.0,0.6025641025641025
ndswiki,True,3.0,0.43119266055045874,1.0,0.43119266055045874,1.0,0.6025641025641025
ndswiki,True,4.0,0.43119266055045874,1.0,0.43119266055045874,1.0,0.6025641025641025
ndswiki,True,5.0,0.4351851851851852,1.0,0.44036697247706424,0.9838709677419355,0.6064516129032258
ndswiki,True,6.0,0.4372093023255814,1.0,0.44495412844036697,0.9758064516129032,0.6084142394822006
ndswiki,True,7.0,0.4519230769230769,1.0,0.47706422018348627,0.9193548387096774,0.6225165562913908
ndswiki,True,8.0,0.4630541871921182,1.0,0.5,0.8790322580645161,0.6329966329966329
ndswiki,True,9.0,0.46534653465346537,1.0,0.5045871559633027,0.8709677419354839,0.6351351351351352
ndswiki,True,10.0,0.46534653465346537,1.0,0.5045871559633027,0.8709677419354839,0.6351351351351352
ndswiki,True,11.0,0.46534653465346537,1.0,0.5045871559633027,0.8709677419354839,0.6351351351351352
ndswiki,True,12.0,0.4723618090452261,1.0,0.518348623853211,0.8467741935483871,0.6416382252559727
ndswiki,True,13.0,0.4723618090452261,1.0,0.518348623853211,0.8467741935483871,0.6416382252559727
ndswiki,True,14.0,0.4723618090452261,1.0,0.518348623853211,0.8467741935483871,0.6416382252559727
ndswiki,True,15.0,0.4723618090452261,1.0,0.518348623853211,0.8467741935483871,0.6416382252559727
ndswiki,True,16.0,0.4723618090452261,1.0,0.518348623853211,0.8467741935483871,0.6416382252559727
ndswiki,True,17.0,0.4723618090452261,1.0,0.518348623853211,0.8467741935483871,0.6416382252559727
ndswiki,True,18.0,0.4723618090452261,1.0,0.518348623853211,0.8467741935483871,0.6416382252559727
ndswiki,True,19.0,0.47474747474747475,1.0,0.5229357798165137,0.8387096774193549,0.6438356164383562
ndswiki,True,20.0,0.47474747474747475,1.0,0.5229357798165137,0.8387096774193549,0.6438356164383562
ndswiki,True,21.0,0.47715736040609136,1.0,0.5275229357798165,0.8306451612903226,0.6460481099656358
ndswiki,True,22.0,0.47715736040609136,1.0,0.5275229357798165,0.8306451612903226,0.6460481099656358
ndswiki,True,23.0,0.47715736040609136,1.0,0.5275229357798165,0.8306451612903226,0.6460481099656358
ndswiki,True,24.0,0.47715736040609136,1.0,0.5275229357798165,0.8306451612903226,0.6460481099656358
ndswiki,True,25.0,0.47715736040609136,1.0,0.5275229357798165,0.8306451612903226,0.6460481099656358
ndswiki,True,26.0,0.47715736040609136,1.0,0.5275229357798165,0.8306451612903226,0.6460481099656358
ndswiki,True,27.0,0.47715736040609136,1.0,0.5275229357798165,0.8306451612903226,0.6460481099656358
ndswiki,True,28.0,0.47715736040609136,1.0,0.5275229357798165,0.8306451612903226,0.6460481099656358
ndswiki,True,29.0,0.47715736040609136,1.0,0.5275229357798165,0.8306451612903226,0.6460481099656358
ndswiki,True,30.0,0.47959183673469385,1.0,0.5321100917431193,0.8225806451612904,0.6482758620689655
ndswiki,True,31.0,0.47959183673469385,1.0,0.5321100917431193,0.8225806451612904,0.6482758620689655
ndswiki,True,32.0,0.47959183673469385,1.0,0.5321100917431193,0.8225806451612904,0.6482758620689655
ndswiki,True,33.0,0.47959183673469385,1.0,0.5321100917431193,0.8225806451612904,0.6482758620689655
ndswiki,True,34.0,0.47959183673469385,1.0,0.5321100917431193,0.8225806451612904,0.6482758620689655
ndswiki,True,35.0,0.48205128205128206,1.0,0.536697247706422,0.8145161290322581,0.6505190311418685
ndswiki,True,36.0,0.48205128205128206,1.0,0.536697247706422,0.8145161290322581,0.6505190311418685
ndswiki,True,37.0,0.48205128205128206,1.0,0.536697247706422,0.8145161290322581,0.6505190311418685
ndswiki,True,38.0,0.4845360824742268,1.0,0.5412844036697247,0.8064516129032258,0.6527777777777778
ndswiki,True,39.0,0.48704663212435234,1.0,0.5458715596330275,0.7983870967741935,0.6550522648083624
ndswiki,True,40.0,0.48704663212435234,1.0,0.5458715596330275,0.7983870967741935,0.6550522648083624
ndswiki,True,41.0,0.484375,0.9893617021276596,0.5412844036697247,0.7983870967741935,0.6503496503496503
ndswiki,True,42.0,0.4869109947643979,0.9893617021276596,0.5458715596330275,0.7903225806451613,0.6526315789473685
ndswiki,True,43.0,0.4869109947643979,0.9893617021276596,0.5458715596330275,0.7903225806451613,0.6526315789473685
ndswiki,True,44.0,0.4869109947643979,0.9893617021276596,0.5458715596330275,0.7903225806451613,0.6526315789473685
ndswiki,True,45.0,0.4869109947643979,0.9893617021276596,0.5458715596330275,0.7903225806451613,0.6526315789473685
ndswiki,True,46.0,0.4869109947643979,0.9893617021276596,0.5458715596330275,0.7903225806451613,0.6526315789473685
ndswiki,True,47.0,0.4869109947643979,0.9893617021276596,0.5458715596330275,0.7903225806451613,0.6526315789473685
ndswiki,True,48.0,0.4869109947643979,0.9893617021276596,0.5458715596330275,0.7903225806451613,0.6526315789473685
ndswiki,True,49.0,0.4869109947643979,0.9893617021276596,0.5458715596330275,0.7903225806451613,0.6526315789473685
ndswiki,True,50.0,0.4869109947643979,0.9893617021276596,0.5458715596330275,0.7903225806451613,0.6526315789473685
ndswiki,True,51.0,0.48947368421052634,0.9893617021276596,0.5504587155963303,0.782258064516129,0.6549295774647887
ndswiki,True,52.0,0.48947368421052634,0.9893617021276596,0.5504587155963303,0.782258064516129,0.6549295774647887
ndswiki,True,53.0,0.49206349206349204,0.9893617021276596,0.555045871559633,0.7741935483870968,0.657243816254417
ndswiki,True,54.0,0.49206349206349204,0.9893617021276596,0.555045871559633,0.7741935483870968,0.657243816254417
ndswiki,True,55.0,0.49206349206349204,0.9893617021276596,0.555045871559633,0.7741935483870968,0.657243816254417
ndswiki,True,56.0,0.49206349206349204,0.9893617021276596,0.555045871559633,0.7741935483870968,0.657243816254417
ndswiki,True,57.0,0.49206349206349204,0.9893617021276596,0.555045871559633,0.7741935483870968,0.657243816254417
ndswiki,True,58.0,0.49206349206349204,0.9893617021276596,0.555045871559633,0.7741935483870968,0.657243816254417
ndswiki,True,59.0,0.49206349206349204,0.9893617021276596,0.555045871559633,0.7741935483870968,0.657243816254417
ndswiki,True,60.0,0.49206349206349204,0.9893617021276596,0.555045871559633,0.7741935483870968,0.657243816254417
ndswiki,True,61.0,0.49206349206349204,0.9893617021276596,0.555045871559633,0.7741935483870968,0.657243816254417
ndswiki,True,62.0,0.49206349206349204,0.9893617021276596,0.555045871559633,0.7741935483870968,0.657243816254417
ndswiki,True,63.0,0.49206349206349204,0.9893617021276596,0.555045871559633,0.7741935483870968,0.657243816254417
ndswiki,True,64.0,0.49206349206349204,0.9893617021276596,0.555045871559633,0.7741935483870968,0.657243816254417
ndswiki,True,65.0,0.49206349206349204,0.9893617021276596,0.555045871559633,0.7741935483870968,0.657243816254417
ndswiki,True,66.0,0.49206349206349204,0.9893617021276596,0.555045871559633,0.7741935483870968,0.657243816254417
ndswiki,True,67.0,0.49206349206349204,0.9893617021276596,0.555045871559633,0.7741935483870968,0.657243816254417
ndswiki,True,68.0,0.49206349206349204,0.9893617021276596,0.555045871559633,0.7741935483870968,0.657243816254417
ndswiki,True,69.0,0.49206349206349204,0.9893617021276596,0.555045871559633,0.7741935483870968,0.657243816254417
ndswiki,True,70.0,0.49206349206349204,0.9893617021276596,0.555045871559633,0.7741935483870968,0.657243816254417
ndswiki,True,71.0,0.49206349206349204,0.9893617021276596,0.555045871559633,0.7741935483870968,0.657243816254417
ndswiki,True,72.0,0.49206349206349204,0.9893617021276596,0.555045871559633,0.7741935483870968,0.657243816254417
ndswiki,True,73.0,0.49206349206349204,0.9893617021276596,0.555045871559633,0.7741935483870968,0.657243816254417
ndswiki,True,74.0,0.49206349206349204,0.9893617021276596,0.555045871559633,0.7741935483870968,0.657243816254417
ndswiki,True,75.0,0.49206349206349204,0.9893617021276596,0.555045871559633,0.7741935483870968,0.657243816254417
ndswiki,True,76.0,0.49206349206349204,0.9893617021276596,0.555045871559633,0.7741935483870968,0.657243816254417
ndswiki,True,77.0,0.49732620320855614,0.9893617021276596,0.5642201834862385,0.7580645161290323,0.6619217081850534
ndswiki,True,78.0,0.4946236559139785,0.9787234042553191,0.5596330275229358,0.7580645161290323,0.6571428571428571
ndswiki,True,79.0,0.4972677595628415,0.9680851063829787,0.5642201834862385,0.7419354838709677,0.6570397111913358
ndswiki,True,80.0,0.5,0.9680851063829787,0.5688073394495413,0.7338709677419355,0.6594202898550725
ndswiki,True,81.0,0.5084745762711864,0.9574468085106383,0.5825688073394495,0.7016129032258065,0.6642066420664205
ndswiki,True,82.0,0.5086705202312138,0.9361702127659575,0.5825688073394495,0.6854838709677419,0.6591760299625468
ndswiki,True,83.0,0.5058823529411764,0.9148936170212766,0.5779816513761468,0.6774193548387096,0.6515151515151516
ndswiki,True,84.0,0.5,0.8936170212765957,0.5688073394495413,0.6774193548387096,0.6412213740458015
ndswiki,True,85.0,0.503030303030303,0.8829787234042553,0.573394495412844,0.6612903225806451,0.6409266409266409
ndswiki,True,86.0,0.4968944099378882,0.851063829787234,0.5642201834862385,0.6532258064516129,0.6274509803921569
ndswiki,True,87.0,0.5032258064516129,0.8297872340425532,0.573394495412844,0.6209677419354839,0.6265060240963854
ndswiki,True,88.0,0.5034965034965035,0.7659574468085106,0.573394495412844,0.5725806451612904,0.6075949367088609
ndswiki,True,89.0,0.5196850393700787,0.7021276595744681,0.591743119266055,0.49193548387096775,0.5972850678733032
ndswiki,True,90.0,0.5042735042735043,0.6276595744680851,0.573394495412844,0.46774193548387094,0.5592417061611373
ndswiki,True,91.0,0.5048543689320388,0.5531914893617021,0.573394495412844,0.4112903225806452,0.5279187817258885
ndswiki,True,92.0,0.4666666666666667,0.3723404255319149,0.5458715596330275,0.3225806451612903,0.4142011834319527
ndswiki,True,93.0,0.4307692307692308,0.2978723404255319,0.5275229357798165,0.29838709677419356,0.3522012578616352
ndswiki,True,94.0,0.37735849056603776,0.2127659574468085,0.5091743119266054,0.2661290322580645,0.272108843537415
ndswiki,True,95.0,0.40476190476190477,0.18085106382978725,0.5321100917431193,0.20161290322580644,0.25
ndswiki,True,96.0,0.48484848484848486,0.1702127659574468,0.5642201834862385,0.13709677419354838,0.25196850393700787
ndswiki,True,97.0,0.5882352941176471,0.10638297872340426,0.5825688073394495,0.056451612903225805,0.18018018018018017
ndswiki,True,98.0,0.8571428571428571,0.06382978723404255,0.591743119266055,0.008064516129032258,0.1188118811881188
ndswiki,True,99.0,1.0,0.010638297872340425,0.573394495412844,0.0,0.021052631578947368
ndswiki,False,0.0,0.06875383670963782,1.0,0.06875383670963782,1.0,0.128661688684664
ndswiki,False,1.0,0.06875383670963782,1.0,0.06875383670963782,1.0,0.128661688684664
ndswiki,False,2.0,0.06896551724137931,1.0,0.0718232044198895,0.996704021094265,0.12903225806451613
ndswiki,False,3.0,0.06960845245494096,1.0,0.08103130755064457,0.98681608437706,0.13015688553166765
ndswiki,False,4.0,0.07093096896770108,1.0,0.09944751381215469,0.9670402109426499,0.13246599645180368
ndswiki,False,5.0,0.0721184803605924,1.0,0.11540822590546347,0.9499011206328279,0.13453453453453454
ndswiki,False,6.0,0.07402511566424323,1.0,0.13996316758747698,0.9235332893869479,0.13784615384615384
ndswiki,False,7.0,0.07745504840940526,1.0,0.1810926949048496,0.8793671720500988,0.14377406931964057
ndswiki,False,8.0,0.08051761322789361,1.0,0.21485573971761818,0.8431114040870138,0.14903526280771792
ndswiki,False,9.0,0.08314606741573034,0.9910714285714286,0.2480049109883364,0.8068556361239289,0.15342087076710437
ndswiki,False,10.0,0.08764940239043825,0.9821428571428571,0.29588704726826276,0.7547791694133158,0.16093635698610095
ndswiki,False,11.0,0.09159034138218151,0.9821428571428571,0.32903621853898096,0.7191825972313777,0.16755521706016754
ndswiki,False,12.0,0.09565217391304348,0.9821428571428571,0.3603437691835482,0.6855636123928807,0.17432646592709986
ndswiki,False,13.0,0.10009099181073704,0.9821428571428571,0.3916513198281154,0.6519446275543836,0.18166804293971925
ndswiki,False,14.0,0.10476190476190476,0.9821428571428571,0.42173112338858193,0.6196440342781806,0.18932874354561105
ndswiki,False,15.0,0.10826771653543307,0.9821428571428571,0.4426028238182934,0.5972313777191826,0.19503546099290783
ndswiki,False,16.0,0.11156186612576065,0.9821428571428571,0.46101903007980355,0.5774555042847725,0.20036429872495445
ndswiki,False,17.0,0.11389759665621735,0.9732142857142857,0.4775936157151627,0.5589980224126566,0.2039289055191768
ndswiki,False,18.0,0.11707841031149302,0.9732142857142857,0.49355432780847147,0.5418589321028345,0.2090124640460211
ndswiki,False,19.0,0.1188118811881188,0.9642857142857143,0.5058317986494782,0.5280158206987475,0.21155729676787463
ndswiki,False,20.0,0.12203389830508475,0.9642857142857143,0.5205647636586863,0.5121951219512195,0.21664994984954866
ndswiki,False,21.0,0.12529002320185614,0.9642857142857143,0.534683855125844,0.4970336189848385,0.2217659137577002
ndswiki,False,22.0,0.12872467222884387,0.9642857142857143,0.5488029465930019,0.4818721160184575,0.22712933753943218
ndswiki,False,23.0,0.13219094247246022,0.9642857142857143,0.5623081645181093,0.4673698088332235,0.232508073196986
ndswiki,False,24.0,0.13584905660377358,0.9642857142857143,0.5758133824432167,0.45286750164798945,0.23814773980154352
ndswiki,False,25.0,0.13953488372093023,0.9642857142857143,0.5887047268262738,0.43902439024390244,0.24379232505643342
ndswiki,False,26.0,0.142668428005284,0.9642857142857143,0.5991405770411296,0.4278180619644034,0.24856156501726123
ndswiki,False,27.0,0.145748987854251,0.9642857142857143,0.6089625537139349,0.41727092946605143,0.2532239155920281
ndswiki,False,28.0,0.14917127071823205,0.9642857142857143,0.6193984039287906,0.4060646011865524,0.25837320574162675
ndswiki,False,29.0,0.15428571428571428,0.9642857142857143,0.6341313689379988,0.3902439024390244,0.2660098522167487
ndswiki,False,30.0,0.15859030837004406,0.9642857142857143,0.6457949662369552,0.37771918259723136,0.2723833543505675
ndswiki,False,31.0,0.16411042944785276,0.9553571428571429,0.6623695518723143,0.3592617007251154,0.28010471204188486
ndswiki,False,32.0,0.1669266770670827,0.9553571428571429,0.669122160834868,0.35201054713249835,0.28419654714475434
ndswiki,False,33.0,0.17147435897435898,0.9553571428571429,0.6795580110497238,0.34080421885299933,0.2907608695652174
ndswiki,False,34.0,0.17398373983739837,0.9553571428571429,0.6850828729281768,0.3348714568226763,0.2943603851444292
ndswiki,False,35.0,0.17558528428093645,0.9375,0.6930632289748312,0.3249835201054713,0.29577464788732394
ndswiki,False,36.0,0.1794871794871795,0.9375,0.7010435850214856,0.31641397495056034,0.30129124820659975
ndswiki,False,37.0,0.1827768014059754,0.9285714285714286,0.7096378146101903,0.3065260382333553,0.30543318649045526
ndswiki,False,38.0,0.1867145421903052,0.9285714285714286,0.7170042971147943,0.2986156888595913,0.31091180866965623
ndswiki,False,39.0,0.1925925925925926,0.9285714285714286,0.7274401473296501,0.2874093605800923,0.31901840490797545
ndswiki,False,40.0,0.1958568738229755,0.9285714285714286,0.7329650092081031,0.2814765985497693,0.3234836702954899
ndswiki,False,41.0,0.19694072657743786,0.9196428571428571,0.7366482504604052,0.27686222808174027,0.32440944881889766
ndswiki,False,42.0,0.20275590551181102,0.9196428571428571,0.7458563535911602,0.26697429136453527,0.33225806451612905
ndswiki,False,43.0,0.206,0.9196428571428571,0.7507673419275629,0.26170072511535925,0.33660130718954245
ndswiki,False,44.0,0.21149897330595482,0.9196428571428571,0.7587476979742173,0.25313117996044826,0.343906510851419
ndswiki,False,45.0,0.21638655462184875,0.9196428571428571,0.7655003069367711,0.24588002636783124,0.35034013605442177
ndswiki,False,46.0,0.22637362637362637,0.9196428571428571,0.7783916513198281,0.23203691496374423,0.36331569664903
ndswiki,False,47.0,0.2288888888888889,0.9196428571428571,0.7814610190300798,0.22874093605800924,0.3665480427046264
ndswiki,False,48.0,0.23059360730593606,0.9017857142857143,0.7863720073664825,0.22214897824653923,0.3672727272727272
ndswiki,False,49.0,0.23598130841121495,0.9017857142857143,0.7925107427869859,0.21555702043506922,0.3740740740740741
ndswiki,False,50.0,0.24162679425837322,0.9017857142857143,0.7986494782074892,0.2089650626235992,0.3811320754716981
ndswiki,False,51.0,0.24514563106796117,0.9017857142857143,0.8023327194597912,0.2050098879367172,0.3854961832061069
ndswiki,False,52.0,0.25,0.9017857142857143,0.807243707796194,0.1997363216875412,0.39147286821705424
ndswiki,False,53.0,0.2544529262086514,0.8928571428571429,0.8127685696746471,0.1931443638760712,0.39603960396039606
ndswiki,False,54.0,0.2570694087403599,0.8928571428571429,0.8152240638428484,0.1905075807514832,0.3992015968063872
ndswiki,False,55.0,0.2591623036649215,0.8839285714285714,0.8182934315531001,0.1865524060646012,0.4008097165991903
ndswiki,False,56.0,0.26541554959785524,0.8839285714285714,0.8238182934315531,0.1806196440342782,0.40824742268041236
ndswiki,False,57.0,0.27049180327868855,0.8839285714285714,0.8281154082259055,0.17600527356624918,0.41422594142259417
ndswiki,False,58.0,0.27808988764044945,0.8839285714285714,0.8342541436464088,0.16941331575477916,0.42307692307692313
ndswiki,False,59.0,0.28448275862068967,0.8839285714285714,0.8391651319828115,0.16413974950560317,0.4304347826086956
ndswiki,False,60.0,0.28695652173913044,0.8839285714285714,0.8410067526089625,0.16216216216216217,0.43326039387308535
ndswiki,False,61.0,0.2911764705882353,0.8839285714285714,0.8440761203192142,0.15886618325642715,0.43805309734513276
ndswiki,False,62.0,0.29376854599406527,0.8839285714285714,0.8459177409453652,0.15688859591298615,0.4409799554565701
ndswiki,False,63.0,0.296969696969697,0.875,0.848987108655617,0.15293342122610415,0.4434389140271494
ndswiki,False,64.0,0.2996941896024465,0.875,0.850828729281768,0.15095583388266315,0.44646924829157175
ndswiki,False,65.0,0.3050314465408805,0.8660714285714286,0.8551258440761204,0.14568226763348716,0.45116279069767434
ndswiki,False,66.0,0.3108974358974359,0.8660714285714286,0.8588090853284224,0.14172709294660515,0.45754716981132076
ndswiki,False,67.0,0.3201320132013201,0.8660714285714286,0.8643339472068754,0.13579433091628212,0.4674698795180723
ndswiki,False,68.0,0.32550335570469796,0.8660714285714286,0.8674033149171271,0.13249835201054713,0.47317073170731705
ndswiki,False,69.0,0.3356401384083045,0.8660714285714286,0.8729281767955801,0.12656558998022413,0.4837905236907731
ndswiki,False,70.0,0.3416370106761566,0.8571428571428571,0.8766114180478821,0.12195121951219512,0.4885496183206108
ndswiki,False,71.0,0.35036496350364965,0.8571428571428571,0.8809085328422345,0.11733684904416612,0.49740932642487046
ndswiki,False,72.0,0.3609022556390977,0.8571428571428571,0.8858195211786372,0.11206328279499012,0.5079365079365078
ndswiki,False,73.0,0.366412213740458,0.8571428571428571,0.8882750153468385,0.1094264996704021,0.5133689839572193
ndswiki,False,74.0,0.37209302325581395,0.8571428571428571,0.8907305095150398,0.10678971654581411,0.518918918918919
ndswiki,False,75.0,0.3735408560311284,0.8571428571428571,0.8913443830570903,0.1061305207646671,0.5203252032520325
ndswiki,False,76.0,0.38866396761133604,0.8571428571428571,0.8974831184775937,0.0995385629531971,0.5348189415041783
ndswiki,False,77.0,0.39183673469387753,0.8571428571428571,0.8987108655616943,0.0982201713909031,0.5378151260504201
ndswiki,False,78.0,0.3884297520661157,0.8392857142857143,0.898096992019644,0.0975609756097561,0.5310734463276836
ndswiki,False,79.0,0.3907563025210084,0.8303571428571429,0.8993247391037447,0.0955833882663151,0.5314285714285715
ndswiki,False,80.0,0.3974358974358974,0.8303571428571429,0.901780233271946,0.09294660514172709,0.5375722543352601
ndswiki,False,81.0,0.4088888888888889,0.8214285714285714,0.9060773480662984,0.08767303889255108,0.5459940652818992
ndswiki,False,82.0,0.4186046511627907,0.8035714285714286,0.9097605893186004,0.08239947264337508,0.5504587155963302
ndswiki,False,83.0,0.41904761904761906,0.7857142857142857,0.9103744628606507,0.08042188529993408,0.546583850931677
ndswiki,False,84.0,0.4236453201970443,0.7678571428571429,0.9122160834868017,0.07712590639419907,0.546031746031746
ndswiki,False,85.0,0.4336734693877551,0.7589285714285714,0.9152854511970534,0.07317073170731707,0.551948051948052
ndswiki,False,86.0,0.43617021276595747,0.7321428571428571,0.9165131982811541,0.06987475280158208,0.5466666666666665
ndswiki,False,87.0,0.4444444444444444,0.7142857142857143,0.9189686924493554,0.06591957811470006,0.5479452054794521
ndswiki,False,88.0,0.44047619047619047,0.6607142857142857,0.9189686924493554,0.06196440342781806,0.5285714285714285
ndswiki,False,89.0,0.4563758389261745,0.6071428571428571,0.9232658072437078,0.053394858272907054,0.5210727969348659
ndswiki,False,90.0,0.4420289855072464,0.5446428571428571,0.9214241866175568,0.05075807514831905,0.488
ndswiki,False,91.0,0.43902439024390244,0.48214285714285715,0.9220380601596071,0.045484508899143045,0.4595744680851064
ndswiki,False,92.0,0.40217391304347827,0.33035714285714285,0.9201964395334561,0.03625576796308504,0.36274509803921573
ndswiki,False,93.0,0.38461538461538464,0.26785714285714285,0.9201964395334561,0.03164139749505603,0.31578947368421056
ndswiki,False,94.0,0.3384615384615385,0.19642857142857142,0.9183548189073051,0.028345418589321027,0.24858757062146894
ndswiki,False,95.0,0.36538461538461536,0.16964285714285715,0.9226519337016574,0.021753460777851022,0.23170731707317074
ndswiki,False,96.0,0.46153846153846156,0.16071428571428573,0.9294045426642111,0.013843111404087014,0.23841059602649012
ndswiki,False,97.0,0.5,0.09821428571428571,0.9312461632903621,0.007251153592617007,0.16417910447761194
ndswiki,False,98.0,0.6666666666666666,0.05357142857142857,0.9330877839165131,0.001977587343441002,0.09917355371900825
ndswiki,False,99.0,1.0,0.008928571428571428,0.9318600368324125,0.0,0.017699115044247787
