wiki_db,user_is_anonymous_or_bot,threshold,precision,recall,accuracy,fpr,F1
novwiki,True,0.0,0.3333333333333333,1.0,0.3333333333333333,1.0,0.5
novwiki,True,1.0,0.3333333333333333,1.0,0.3333333333333333,1.0,0.5
novwiki,True,2.0,0.3333333333333333,1.0,0.3333333333333333,1.0,0.5
novwiki,True,3.0,0.3333333333333333,1.0,0.3333333333333333,1.0,0.5
novwiki,True,4.0,0.3333333333333333,1.0,0.3333333333333333,1.0,0.5
novwiki,True,5.0,0.3333333333333333,1.0,0.3333333333333333,1.0,0.5
novwiki,True,6.0,0.3333333333333333,1.0,0.3333333333333333,1.0,0.5
novwiki,True,7.0,0.3333333333333333,1.0,0.3333333333333333,1.0,0.5
novwiki,True,8.0,0.34782608695652173,1.0,0.375,0.9375,0.5161290322580645
novwiki,True,9.0,0.34782608695652173,1.0,0.375,0.9375,0.5161290322580645
novwiki,True,10.0,0.34782608695652173,1.0,0.375,0.9375,0.5161290322580645
novwiki,True,11.0,0.34782608695652173,1.0,0.375,0.9375,0.5161290322580645
novwiki,True,12.0,0.34782608695652173,1.0,0.375,0.9375,0.5161290322580645
novwiki,True,13.0,0.34782608695652173,1.0,0.375,0.9375,0.5161290322580645
novwiki,True,14.0,0.34782608695652173,1.0,0.375,0.9375,0.5161290322580645
novwiki,True,15.0,0.34782608695652173,1.0,0.375,0.9375,0.5161290322580645
novwiki,True,16.0,0.34782608695652173,1.0,0.375,0.9375,0.5161290322580645
novwiki,True,17.0,0.34782608695652173,1.0,0.375,0.9375,0.5161290322580645
novwiki,True,18.0,0.34782608695652173,1.0,0.375,0.9375,0.5161290322580645
novwiki,True,19.0,0.34782608695652173,1.0,0.375,0.9375,0.5161290322580645
novwiki,True,20.0,0.34782608695652173,1.0,0.375,0.9375,0.5161290322580645
novwiki,True,21.0,0.34782608695652173,1.0,0.375,0.9375,0.5161290322580645
novwiki,True,22.0,0.36363636363636365,1.0,0.4166666666666667,0.875,0.5333333333333333
novwiki,True,23.0,0.38095238095238093,1.0,0.4583333333333333,0.8125,0.5517241379310345
novwiki,True,24.0,0.38095238095238093,1.0,0.4583333333333333,0.8125,0.5517241379310345
novwiki,True,25.0,0.4,1.0,0.5,0.75,0.5714285714285715
novwiki,True,26.0,0.4,1.0,0.5,0.75,0.5714285714285715
novwiki,True,27.0,0.4444444444444444,1.0,0.5833333333333334,0.625,0.6153846153846153
novwiki,True,28.0,0.4444444444444444,1.0,0.5833333333333334,0.625,0.6153846153846153
novwiki,True,29.0,0.4444444444444444,1.0,0.5833333333333334,0.625,0.6153846153846153
novwiki,True,30.0,0.47058823529411764,1.0,0.625,0.5625,0.6399999999999999
novwiki,True,31.0,0.47058823529411764,1.0,0.625,0.5625,0.6399999999999999
novwiki,True,32.0,0.47058823529411764,1.0,0.625,0.5625,0.6399999999999999
novwiki,True,33.0,0.5,1.0,0.6666666666666666,0.5,0.6666666666666666
novwiki,True,34.0,0.5,1.0,0.6666666666666666,0.5,0.6666666666666666
novwiki,True,35.0,0.5333333333333333,1.0,0.7083333333333334,0.4375,0.6956521739130436
novwiki,True,36.0,0.5333333333333333,1.0,0.7083333333333334,0.4375,0.6956521739130436
novwiki,True,37.0,0.5333333333333333,1.0,0.7083333333333334,0.4375,0.6956521739130436
novwiki,True,38.0,0.5333333333333333,1.0,0.7083333333333334,0.4375,0.6956521739130436
novwiki,True,39.0,0.5333333333333333,1.0,0.7083333333333334,0.4375,0.6956521739130436
novwiki,True,40.0,0.5333333333333333,1.0,0.7083333333333334,0.4375,0.6956521739130436
novwiki,True,41.0,0.5333333333333333,1.0,0.7083333333333334,0.4375,0.6956521739130436
novwiki,True,42.0,0.5333333333333333,1.0,0.7083333333333334,0.4375,0.6956521739130436
novwiki,True,43.0,0.5333333333333333,1.0,0.7083333333333334,0.4375,0.6956521739130436
novwiki,True,44.0,0.5333333333333333,1.0,0.7083333333333334,0.4375,0.6956521739130436
novwiki,True,45.0,0.5333333333333333,1.0,0.7083333333333334,0.4375,0.6956521739130436
novwiki,True,46.0,0.5333333333333333,1.0,0.7083333333333334,0.4375,0.6956521739130436
novwiki,True,47.0,0.5333333333333333,1.0,0.7083333333333334,0.4375,0.6956521739130436
novwiki,True,48.0,0.5333333333333333,1.0,0.7083333333333334,0.4375,0.6956521739130436
novwiki,True,49.0,0.5333333333333333,1.0,0.7083333333333334,0.4375,0.6956521739130436
novwiki,True,50.0,0.5333333333333333,1.0,0.7083333333333334,0.4375,0.6956521739130436
novwiki,True,51.0,0.5333333333333333,1.0,0.7083333333333334,0.4375,0.6956521739130436
novwiki,True,52.0,0.5714285714285714,1.0,0.75,0.375,0.7272727272727273
novwiki,True,53.0,0.5714285714285714,1.0,0.75,0.375,0.7272727272727273
novwiki,True,54.0,0.5714285714285714,1.0,0.75,0.375,0.7272727272727273
novwiki,True,55.0,0.5714285714285714,1.0,0.75,0.375,0.7272727272727273
novwiki,True,56.0,0.6153846153846154,1.0,0.7916666666666666,0.3125,0.761904761904762
novwiki,True,57.0,0.5833333333333334,0.875,0.75,0.3125,0.7000000000000001
novwiki,True,58.0,0.5833333333333334,0.875,0.75,0.3125,0.7000000000000001
novwiki,True,59.0,0.5833333333333334,0.875,0.75,0.3125,0.7000000000000001
novwiki,True,60.0,0.5833333333333334,0.875,0.75,0.3125,0.7000000000000001
novwiki,True,61.0,0.5833333333333334,0.875,0.75,0.3125,0.7000000000000001
novwiki,True,62.0,0.5833333333333334,0.875,0.75,0.3125,0.7000000000000001
novwiki,True,63.0,0.5833333333333334,0.875,0.75,0.3125,0.7000000000000001
novwiki,True,64.0,0.5833333333333334,0.875,0.75,0.3125,0.7000000000000001
novwiki,True,65.0,0.5833333333333334,0.875,0.75,0.3125,0.7000000000000001
novwiki,True,66.0,0.5833333333333334,0.875,0.75,0.3125,0.7000000000000001
novwiki,True,67.0,0.5833333333333334,0.875,0.75,0.3125,0.7000000000000001
novwiki,True,68.0,0.5833333333333334,0.875,0.75,0.3125,0.7000000000000001
novwiki,True,69.0,0.5833333333333334,0.875,0.75,0.3125,0.7000000000000001
novwiki,True,70.0,0.5833333333333334,0.875,0.75,0.3125,0.7000000000000001
novwiki,True,71.0,0.6363636363636364,0.875,0.7916666666666666,0.25,0.7368421052631579
novwiki,True,72.0,0.6363636363636364,0.875,0.7916666666666666,0.25,0.7368421052631579
novwiki,True,73.0,0.6363636363636364,0.875,0.7916666666666666,0.25,0.7368421052631579
novwiki,True,74.0,0.6363636363636364,0.875,0.7916666666666666,0.25,0.7368421052631579
novwiki,True,75.0,0.6363636363636364,0.875,0.7916666666666666,0.25,0.7368421052631579
novwiki,True,76.0,0.6363636363636364,0.875,0.7916666666666666,0.25,0.7368421052631579
novwiki,True,77.0,0.6363636363636364,0.875,0.7916666666666666,0.25,0.7368421052631579
novwiki,True,78.0,0.6363636363636364,0.875,0.7916666666666666,0.25,0.7368421052631579
novwiki,True,79.0,0.6363636363636364,0.875,0.7916666666666666,0.25,0.7368421052631579
novwiki,True,80.0,0.6363636363636364,0.875,0.7916666666666666,0.25,0.7368421052631579
novwiki,True,81.0,0.6666666666666666,0.75,0.7916666666666666,0.1875,0.7058823529411765
novwiki,True,82.0,0.6666666666666666,0.75,0.7916666666666666,0.1875,0.7058823529411765
novwiki,True,83.0,0.8571428571428571,0.75,0.875,0.0625,0.7999999999999999
novwiki,True,84.0,0.8571428571428571,0.75,0.875,0.0625,0.7999999999999999
novwiki,True,85.0,0.8333333333333334,0.625,0.8333333333333334,0.0625,0.7142857142857143
novwiki,True,86.0,1.0,0.625,0.875,0.0,0.7692307692307693
novwiki,True,87.0,1.0,0.5,0.8333333333333334,0.0,0.6666666666666666
novwiki,True,88.0,1.0,0.5,0.8333333333333334,0.0,0.6666666666666666
novwiki,True,89.0,1.0,0.375,0.7916666666666666,0.0,0.5454545454545454
novwiki,True,90.0,1.0,0.375,0.7916666666666666,0.0,0.5454545454545454
novwiki,True,91.0,1.0,0.375,0.7916666666666666,0.0,0.5454545454545454
novwiki,True,92.0,1.0,0.375,0.7916666666666666,0.0,0.5454545454545454
novwiki,True,93.0,1.0,0.375,0.7916666666666666,0.0,0.5454545454545454
novwiki,True,94.0,1.0,0.25,0.75,0.0,0.4
novwiki,True,95.0,1.0,0.25,0.75,0.0,0.4
novwiki,True,96.0,1.0,0.25,0.75,0.0,0.4
novwiki,True,97.0,1.0,0.125,0.7083333333333334,0.0,0.2222222222222222
novwiki,True,98.0,1.0,0.125,0.7083333333333334,0.0,0.2222222222222222
novwiki,True,99.0,1.0,0.0,0.6666666666666666,0.0,0.0
novwiki,False,0.0,0.04081632653061224,1.0,0.04081632653061224,1.0,0.07843137254901959
novwiki,False,1.0,0.04081632653061224,1.0,0.04081632653061224,1.0,0.07843137254901959
novwiki,False,2.0,0.04081632653061224,1.0,0.04081632653061224,1.0,0.07843137254901959
novwiki,False,3.0,0.0408997955010225,1.0,0.04285714285714286,0.997872340425532,0.07858546168958744
novwiki,False,4.0,0.04106776180698152,1.0,0.04693877551020408,0.9936170212765958,0.07889546351084813
novwiki,False,5.0,0.0411522633744856,1.0,0.04897959183673469,0.9914893617021276,0.07905138339920949
novwiki,False,6.0,0.0411522633744856,1.0,0.04897959183673469,0.9914893617021276,0.07905138339920949
novwiki,False,7.0,0.0411522633744856,1.0,0.04897959183673469,0.9914893617021276,0.07905138339920949
novwiki,False,8.0,0.04149377593360996,1.0,0.05714285714285714,0.9829787234042553,0.07968127490039839
novwiki,False,9.0,0.04201680672268908,1.0,0.06938775510204082,0.9702127659574468,0.08064516129032258
novwiki,False,10.0,0.0423728813559322,1.0,0.07755102040816327,0.9617021276595744,0.0813008130081301
novwiki,False,11.0,0.042826552462526764,1.0,0.08775510204081632,0.951063829787234,0.08213552361396302
novwiki,False,12.0,0.043010752688172046,1.0,0.09183673469387756,0.9468085106382979,0.08247422680412372
novwiki,False,13.0,0.043478260869565216,1.0,0.10204081632653061,0.9361702127659575,0.08333333333333333
novwiki,False,14.0,0.04405286343612335,1.0,0.11428571428571428,0.9234042553191489,0.08438818565400845
novwiki,False,15.0,0.04424778761061947,1.0,0.11836734693877551,0.9191489361702128,0.0847457627118644
novwiki,False,16.0,0.044543429844097995,1.0,0.12448979591836734,0.9127659574468086,0.08528784648187633
novwiki,False,17.0,0.04484304932735426,1.0,0.1306122448979592,0.9063829787234042,0.08583690987124463
novwiki,False,18.0,0.045454545454545456,1.0,0.14285714285714285,0.8936170212765957,0.08695652173913045
novwiki,False,19.0,0.046296296296296294,1.0,0.15918367346938775,0.8765957446808511,0.08849557522123894
novwiki,False,20.0,0.046620046620046623,1.0,0.1653061224489796,0.8702127659574468,0.089086859688196
novwiki,False,21.0,0.04739336492890995,1.0,0.17959183673469387,0.8553191489361702,0.09049773755656107
novwiki,False,22.0,0.047961630695443645,1.0,0.18979591836734694,0.8446808510638298,0.09153318077803205
novwiki,False,23.0,0.04830917874396135,1.0,0.19591836734693877,0.8382978723404255,0.09216589861751152
novwiki,False,24.0,0.04866180048661801,1.0,0.20204081632653062,0.8319148936170213,0.09280742459396753
novwiki,False,25.0,0.04962779156327544,1.0,0.21836734693877552,0.8148936170212766,0.09456264775413711
novwiki,False,26.0,0.050505050505050504,1.0,0.23265306122448978,0.8,0.09615384615384615
novwiki,False,27.0,0.05128205128205128,1.0,0.24489795918367346,0.7872340425531915,0.09756097560975609
novwiki,False,28.0,0.05141388174807198,1.0,0.24693877551020407,0.7851063829787234,0.09779951100244498
novwiki,False,29.0,0.05194805194805195,1.0,0.25510204081632654,0.776595744680851,0.09876543209876544
novwiki,False,30.0,0.05249343832020997,1.0,0.26326530612244897,0.7680851063829788,0.0997506234413965
novwiki,False,31.0,0.053475935828877004,1.0,0.27755102040816326,0.7531914893617021,0.10152284263959391
novwiki,False,32.0,0.05121293800539083,0.95,0.2795918367346939,0.7489361702127659,0.09718670076726343
novwiki,False,33.0,0.052486187845303865,0.95,0.2979591836734694,0.7297872340425532,0.09947643979057591
novwiki,False,34.0,0.05042016806722689,0.9,0.3040816326530612,0.7212765957446808,0.09549071618037136
novwiki,False,35.0,0.04899135446685879,0.85,0.32040816326530613,0.7021276595744681,0.09264305177111716
novwiki,False,36.0,0.049707602339181284,0.85,0.3306122448979592,0.6914893617021277,0.09392265193370165
novwiki,False,37.0,0.05014749262536873,0.85,0.336734693877551,0.6851063829787234,0.09470752089136489
novwiki,False,38.0,0.05105105105105105,0.85,0.3489795918367347,0.6723404255319149,0.0963172804532578
novwiki,False,39.0,0.05214723926380368,0.85,0.363265306122449,0.6574468085106383,0.0982658959537572
novwiki,False,40.0,0.05362776025236593,0.85,0.3816326530612245,0.6382978723404256,0.10089020771513353
novwiki,False,41.0,0.05519480519480519,0.85,0.4,0.6191489361702127,0.10365853658536583
novwiki,False,42.0,0.05704697986577181,0.85,0.4204081632653061,0.597872340425532,0.1069182389937107
novwiki,False,43.0,0.05944055944055944,0.85,0.4448979591836735,0.5723404255319149,0.1111111111111111
novwiki,False,44.0,0.061371841155234655,0.85,0.463265306122449,0.5531914893617021,0.11447811447811448
novwiki,False,45.0,0.06273062730627306,0.85,0.47551020408163264,0.5404255319148936,0.11683848797250858
novwiki,False,46.0,0.06439393939393939,0.85,0.4897959183673469,0.5255319148936171,0.11971830985915494
novwiki,False,47.0,0.06589147286821706,0.85,0.5020408163265306,0.5127659574468085,0.1223021582733813
novwiki,False,48.0,0.06589147286821706,0.85,0.5020408163265306,0.5127659574468085,0.1223021582733813
novwiki,False,49.0,0.06324110671936758,0.8,0.5081632653061224,0.5042553191489362,0.11721611721611722
novwiki,False,50.0,0.06504065040650407,0.8,0.5224489795918368,0.48936170212765956,0.12030075187969926
novwiki,False,51.0,0.06639004149377593,0.8,0.5326530612244897,0.4787234042553192,0.12260536398467434
novwiki,False,52.0,0.06926406926406926,0.8,0.5530612244897959,0.4574468085106383,0.12749003984063745
novwiki,False,53.0,0.07142857142857142,0.8,0.5673469387755102,0.4425531914893617,0.13114754098360656
novwiki,False,54.0,0.07547169811320754,0.8,0.5918367346938775,0.41702127659574467,0.13793103448275862
novwiki,False,55.0,0.08205128205128205,0.8,0.6265306122448979,0.38085106382978723,0.14883720930232558
novwiki,False,56.0,0.08465608465608465,0.8,0.6387755102040816,0.3680851063829787,0.15311004784688995
novwiki,False,57.0,0.07865168539325842,0.7,0.6530612244897959,0.34893617021276596,0.1414141414141414
novwiki,False,58.0,0.08284023668639054,0.7,0.6714285714285714,0.32978723404255317,0.14814814814814817
novwiki,False,59.0,0.08588957055214724,0.7,0.6836734693877551,0.3170212765957447,0.15300546448087435
novwiki,False,60.0,0.0880503144654088,0.7,0.6918367346938775,0.30851063829787234,0.1564245810055866
novwiki,False,61.0,0.08609271523178808,0.65,0.7040816326530612,0.2936170212765957,0.15204678362573099
novwiki,False,62.0,0.0896551724137931,0.65,0.7163265306122449,0.28085106382978725,0.1575757575757576
novwiki,False,63.0,0.0948905109489051,0.65,0.7326530612244898,0.26382978723404255,0.16560509554140126
novwiki,False,64.0,0.09923664122137404,0.65,0.7448979591836735,0.251063829787234,0.17218543046357618
novwiki,False,65.0,0.09448818897637795,0.6,0.7489795918367347,0.24468085106382978,0.163265306122449
novwiki,False,66.0,0.1,0.6,0.763265306122449,0.2297872340425532,0.17142857142857143
novwiki,False,67.0,0.10526315789473684,0.6,0.7755102040816326,0.2170212765957447,0.17910447761194026
novwiki,False,68.0,0.11214953271028037,0.6,0.789795918367347,0.20212765957446807,0.1889763779527559
novwiki,False,69.0,0.12121212121212122,0.6,0.8061224489795918,0.1851063829787234,0.20168067226890757
novwiki,False,70.0,0.125,0.6,0.8122448979591836,0.17872340425531916,0.20689655172413793
novwiki,False,71.0,0.13333333333333333,0.6,0.8244897959183674,0.16595744680851063,0.2181818181818182
novwiki,False,72.0,0.12048192771084337,0.5,0.8306122448979592,0.15531914893617021,0.19417475728155342
novwiki,False,73.0,0.1038961038961039,0.4,0.8346938775510204,0.14680851063829786,0.16494845360824742
novwiki,False,74.0,0.1095890410958904,0.4,0.8428571428571429,0.13829787234042554,0.17204301075268816
novwiki,False,75.0,0.12307692307692308,0.4,0.8591836734693877,0.12127659574468085,0.18823529411764708
novwiki,False,76.0,0.12903225806451613,0.4,0.8653061224489796,0.1148936170212766,0.1951219512195122
novwiki,False,77.0,0.15384615384615385,0.4,0.8857142857142857,0.09361702127659574,0.2222222222222222
novwiki,False,78.0,0.16666666666666666,0.4,0.8938775510204081,0.0851063829787234,0.23529411764705882
novwiki,False,79.0,0.17777777777777778,0.4,0.9,0.07872340425531915,0.24615384615384614
novwiki,False,80.0,0.1951219512195122,0.4,0.9081632653061225,0.07021276595744681,0.26229508196721313
novwiki,False,81.0,0.19444444444444445,0.35,0.9142857142857143,0.06170212765957447,0.25
novwiki,False,82.0,0.1935483870967742,0.3,0.9204081632653062,0.05319148936170213,0.23529411764705882
novwiki,False,83.0,0.21428571428571427,0.3,0.926530612244898,0.04680851063829787,0.25
novwiki,False,84.0,0.25,0.3,0.9346938775510204,0.03829787234042553,0.2727272727272727
novwiki,False,85.0,0.21739130434782608,0.25,0.9326530612244898,0.03829787234042553,0.23255813953488372
novwiki,False,86.0,0.29411764705882354,0.25,0.9448979591836735,0.02553191489361702,0.27027027027027023
novwiki,False,87.0,0.3333333333333333,0.2,0.9510204081632653,0.01702127659574468,0.25
novwiki,False,88.0,0.36363636363636365,0.2,0.9530612244897959,0.014893617021276596,0.25806451612903225
novwiki,False,89.0,0.3,0.15,0.9510204081632653,0.014893617021276596,0.2
novwiki,False,90.0,0.375,0.15,0.9551020408163265,0.010638297872340425,0.21428571428571425
novwiki,False,91.0,0.42857142857142855,0.15,0.9571428571428572,0.00851063829787234,0.2222222222222222
novwiki,False,92.0,0.6,0.15,0.9612244897959183,0.00425531914893617,0.24
novwiki,False,93.0,0.6,0.15,0.9612244897959183,0.00425531914893617,0.24
novwiki,False,94.0,0.6666666666666666,0.1,0.9612244897959183,0.002127659574468085,0.1739130434782609
novwiki,False,95.0,0.6666666666666666,0.1,0.9612244897959183,0.002127659574468085,0.1739130434782609
novwiki,False,96.0,0.6666666666666666,0.1,0.9612244897959183,0.002127659574468085,0.1739130434782609
novwiki,False,97.0,0.5,0.05,0.9591836734693877,0.002127659574468085,0.09090909090909091
novwiki,False,98.0,1.0,0.05,0.9612244897959183,0.0,0.09523809523809523
novwiki,False,99.0,1.0,0.0,0.9591836734693877,0.0,0.0
