wiki_db,user_is_anonymous_or_bot,threshold,precision,recall,accuracy,fpr,F1
pamwiki,True,0.0,0.21621621621621623,1.0,0.21621621621621623,1.0,0.35555555555555557
pamwiki,True,1.0,0.21621621621621623,1.0,0.21621621621621623,1.0,0.35555555555555557
pamwiki,True,2.0,0.21621621621621623,1.0,0.21621621621621623,1.0,0.35555555555555557
pamwiki,True,3.0,0.21621621621621623,1.0,0.21621621621621623,1.0,0.35555555555555557
pamwiki,True,4.0,0.21621621621621623,1.0,0.21621621621621623,1.0,0.35555555555555557
pamwiki,True,5.0,0.21621621621621623,1.0,0.21621621621621623,1.0,0.35555555555555557
pamwiki,True,6.0,0.21621621621621623,1.0,0.21621621621621623,1.0,0.35555555555555557
pamwiki,True,7.0,0.21621621621621623,1.0,0.21621621621621623,1.0,0.35555555555555557
pamwiki,True,8.0,0.21621621621621623,1.0,0.21621621621621623,1.0,0.35555555555555557
pamwiki,True,9.0,0.21621621621621623,1.0,0.21621621621621623,1.0,0.35555555555555557
pamwiki,True,10.0,0.21621621621621623,1.0,0.21621621621621623,1.0,0.35555555555555557
pamwiki,True,11.0,0.21621621621621623,1.0,0.21621621621621623,1.0,0.35555555555555557
pamwiki,True,12.0,0.21621621621621623,1.0,0.21621621621621623,1.0,0.35555555555555557
pamwiki,True,13.0,0.21621621621621623,1.0,0.21621621621621623,1.0,0.35555555555555557
pamwiki,True,14.0,0.21621621621621623,1.0,0.21621621621621623,1.0,0.35555555555555557
pamwiki,True,15.0,0.21621621621621623,1.0,0.21621621621621623,1.0,0.35555555555555557
pamwiki,True,16.0,0.21621621621621623,1.0,0.21621621621621623,1.0,0.35555555555555557
pamwiki,True,17.0,0.21621621621621623,1.0,0.21621621621621623,1.0,0.35555555555555557
pamwiki,True,18.0,0.21621621621621623,1.0,0.21621621621621623,1.0,0.35555555555555557
pamwiki,True,19.0,0.21621621621621623,1.0,0.21621621621621623,1.0,0.35555555555555557
pamwiki,True,20.0,0.21621621621621623,1.0,0.21621621621621623,1.0,0.35555555555555557
pamwiki,True,21.0,0.21621621621621623,1.0,0.21621621621621623,1.0,0.35555555555555557
pamwiki,True,22.0,0.21621621621621623,1.0,0.21621621621621623,1.0,0.35555555555555557
pamwiki,True,23.0,0.21621621621621623,1.0,0.21621621621621623,1.0,0.35555555555555557
pamwiki,True,24.0,0.21621621621621623,1.0,0.21621621621621623,1.0,0.35555555555555557
pamwiki,True,25.0,0.21621621621621623,1.0,0.21621621621621623,1.0,0.35555555555555557
pamwiki,True,26.0,0.21818181818181817,1.0,0.22522522522522523,0.9885057471264368,0.3582089552238806
pamwiki,True,27.0,0.21818181818181817,1.0,0.22522522522522523,0.9885057471264368,0.3582089552238806
pamwiki,True,28.0,0.21818181818181817,1.0,0.22522522522522523,0.9885057471264368,0.3582089552238806
pamwiki,True,29.0,0.21818181818181817,1.0,0.22522522522522523,0.9885057471264368,0.3582089552238806
pamwiki,True,30.0,0.21818181818181817,1.0,0.22522522522522523,0.9885057471264368,0.3582089552238806
pamwiki,True,31.0,0.21818181818181817,1.0,0.22522522522522523,0.9885057471264368,0.3582089552238806
pamwiki,True,32.0,0.21818181818181817,1.0,0.22522522522522523,0.9885057471264368,0.3582089552238806
pamwiki,True,33.0,0.21818181818181817,1.0,0.22522522522522523,0.9885057471264368,0.3582089552238806
pamwiki,True,34.0,0.21818181818181817,1.0,0.22522522522522523,0.9885057471264368,0.3582089552238806
pamwiki,True,35.0,0.21818181818181817,1.0,0.22522522522522523,0.9885057471264368,0.3582089552238806
pamwiki,True,36.0,0.21818181818181817,1.0,0.22522522522522523,0.9885057471264368,0.3582089552238806
pamwiki,True,37.0,0.21818181818181817,1.0,0.22522522522522523,0.9885057471264368,0.3582089552238806
pamwiki,True,38.0,0.22018348623853212,1.0,0.23423423423423423,0.9770114942528736,0.3609022556390978
pamwiki,True,39.0,0.22018348623853212,1.0,0.23423423423423423,0.9770114942528736,0.3609022556390978
pamwiki,True,40.0,0.22018348623853212,1.0,0.23423423423423423,0.9770114942528736,0.3609022556390978
pamwiki,True,41.0,0.22018348623853212,1.0,0.23423423423423423,0.9770114942528736,0.3609022556390978
pamwiki,True,42.0,0.22018348623853212,1.0,0.23423423423423423,0.9770114942528736,0.3609022556390978
pamwiki,True,43.0,0.22018348623853212,1.0,0.23423423423423423,0.9770114942528736,0.3609022556390978
pamwiki,True,44.0,0.22018348623853212,1.0,0.23423423423423423,0.9770114942528736,0.3609022556390978
pamwiki,True,45.0,0.22018348623853212,1.0,0.23423423423423423,0.9770114942528736,0.3609022556390978
pamwiki,True,46.0,0.22018348623853212,1.0,0.23423423423423423,0.9770114942528736,0.3609022556390978
pamwiki,True,47.0,0.2222222222222222,1.0,0.24324324324324326,0.9655172413793104,0.3636363636363636
pamwiki,True,48.0,0.2222222222222222,1.0,0.24324324324324326,0.9655172413793104,0.3636363636363636
pamwiki,True,49.0,0.2222222222222222,1.0,0.24324324324324326,0.9655172413793104,0.3636363636363636
pamwiki,True,50.0,0.22429906542056074,1.0,0.25225225225225223,0.9540229885057471,0.366412213740458
pamwiki,True,51.0,0.22429906542056074,1.0,0.25225225225225223,0.9540229885057471,0.366412213740458
pamwiki,True,52.0,0.22641509433962265,1.0,0.26126126126126126,0.9425287356321839,0.36923076923076925
pamwiki,True,53.0,0.22641509433962265,1.0,0.26126126126126126,0.9425287356321839,0.36923076923076925
pamwiki,True,54.0,0.22641509433962265,1.0,0.26126126126126126,0.9425287356321839,0.36923076923076925
pamwiki,True,55.0,0.22857142857142856,1.0,0.2702702702702703,0.9310344827586207,0.3720930232558139
pamwiki,True,56.0,0.22857142857142856,1.0,0.2702702702702703,0.9310344827586207,0.3720930232558139
pamwiki,True,57.0,0.23076923076923078,1.0,0.27927927927927926,0.9195402298850575,0.375
pamwiki,True,58.0,0.23076923076923078,1.0,0.27927927927927926,0.9195402298850575,0.375
pamwiki,True,59.0,0.23076923076923078,1.0,0.27927927927927926,0.9195402298850575,0.375
pamwiki,True,60.0,0.23076923076923078,1.0,0.27927927927927926,0.9195402298850575,0.375
pamwiki,True,61.0,0.23076923076923078,1.0,0.27927927927927926,0.9195402298850575,0.375
pamwiki,True,62.0,0.23300970873786409,1.0,0.2882882882882883,0.9080459770114943,0.37795275590551186
pamwiki,True,63.0,0.23300970873786409,1.0,0.2882882882882883,0.9080459770114943,0.37795275590551186
pamwiki,True,64.0,0.23529411764705882,1.0,0.2972972972972973,0.896551724137931,0.38095238095238093
pamwiki,True,65.0,0.23529411764705882,1.0,0.2972972972972973,0.896551724137931,0.38095238095238093
pamwiki,True,66.0,0.23529411764705882,1.0,0.2972972972972973,0.896551724137931,0.38095238095238093
pamwiki,True,67.0,0.23529411764705882,1.0,0.2972972972972973,0.896551724137931,0.38095238095238093
pamwiki,True,68.0,0.23529411764705882,1.0,0.2972972972972973,0.896551724137931,0.38095238095238093
pamwiki,True,69.0,0.23529411764705882,1.0,0.2972972972972973,0.896551724137931,0.38095238095238093
pamwiki,True,70.0,0.23529411764705882,1.0,0.2972972972972973,0.896551724137931,0.38095238095238093
pamwiki,True,71.0,0.2376237623762376,1.0,0.3063063063063063,0.8850574712643678,0.384
pamwiki,True,72.0,0.2376237623762376,1.0,0.3063063063063063,0.8850574712643678,0.384
pamwiki,True,73.0,0.2376237623762376,1.0,0.3063063063063063,0.8850574712643678,0.384
pamwiki,True,74.0,0.2376237623762376,1.0,0.3063063063063063,0.8850574712643678,0.384
pamwiki,True,75.0,0.2376237623762376,1.0,0.3063063063063063,0.8850574712643678,0.384
pamwiki,True,76.0,0.2376237623762376,1.0,0.3063063063063063,0.8850574712643678,0.384
pamwiki,True,77.0,0.2376237623762376,1.0,0.3063063063063063,0.8850574712643678,0.384
pamwiki,True,78.0,0.2376237623762376,1.0,0.3063063063063063,0.8850574712643678,0.384
pamwiki,True,79.0,0.2376237623762376,1.0,0.3063063063063063,0.8850574712643678,0.384
pamwiki,True,80.0,0.24,1.0,0.3153153153153153,0.8735632183908046,0.3870967741935484
pamwiki,True,81.0,0.24242424242424243,1.0,0.32432432432432434,0.8620689655172413,0.3902439024390244
pamwiki,True,82.0,0.24242424242424243,1.0,0.32432432432432434,0.8620689655172413,0.3902439024390244
pamwiki,True,83.0,0.24489795918367346,1.0,0.3333333333333333,0.8505747126436781,0.39344262295081966
pamwiki,True,84.0,0.23076923076923078,0.875,0.34234234234234234,0.8045977011494253,0.3652173913043478
pamwiki,True,85.0,0.20987654320987653,0.7083333333333334,0.36036036036036034,0.735632183908046,0.3238095238095238
pamwiki,True,86.0,0.2028985507246377,0.5833333333333334,0.4144144144144144,0.632183908045977,0.3010752688172043
pamwiki,True,87.0,0.1724137931034483,0.4166666666666667,0.44144144144144143,0.5517241379310345,0.2439024390243903
pamwiki,True,88.0,0.17307692307692307,0.375,0.4774774774774775,0.4942528735632184,0.23684210526315785
pamwiki,True,89.0,0.1875,0.25,0.6036036036036037,0.2988505747126437,0.21428571428571427
pamwiki,True,90.0,0.23809523809523808,0.20833333333333334,0.6846846846846847,0.1839080459770115,0.22222222222222224
pamwiki,True,91.0,0.26666666666666666,0.16666666666666666,0.7207207207207207,0.12643678160919541,0.2051282051282051
pamwiki,True,92.0,0.3333333333333333,0.16666666666666666,0.7477477477477478,0.09195402298850575,0.2222222222222222
pamwiki,True,93.0,0.4444444444444444,0.16666666666666666,0.7747747747747747,0.05747126436781609,0.24242424242424243
pamwiki,True,94.0,0.6666666666666666,0.16666666666666666,0.8018018018018018,0.022988505747126436,0.26666666666666666
pamwiki,True,95.0,0.3333333333333333,0.041666666666666664,0.7747747747747747,0.022988505747126436,0.07407407407407407
pamwiki,True,96.0,0.0,0.0,0.7747747747747747,0.011494252873563218,0.07407407407407407
pamwiki,True,97.0,0.0,0.0,0.7747747747747747,0.011494252873563218,0.07407407407407407
pamwiki,True,98.0,0.0,0.0,0.7837837837837838,0.0,0.07407407407407407
pamwiki,True,99.0,0.0,0.0,0.7837837837837838,0.0,0.07407407407407407
pamwiki,False,0.0,0.18352059925093633,1.0,0.18352059925093633,1.0,0.310126582278481
pamwiki,False,1.0,0.18352059925093633,1.0,0.18352059925093633,1.0,0.310126582278481
pamwiki,False,2.0,0.18352059925093633,1.0,0.18352059925093633,1.0,0.310126582278481
pamwiki,False,3.0,0.18352059925093633,1.0,0.18352059925093633,1.0,0.310126582278481
pamwiki,False,4.0,0.18352059925093633,1.0,0.18352059925093633,1.0,0.310126582278481
pamwiki,False,5.0,0.18352059925093633,1.0,0.18352059925093633,1.0,0.310126582278481
pamwiki,False,6.0,0.18352059925093633,1.0,0.18352059925093633,1.0,0.310126582278481
pamwiki,False,7.0,0.18352059925093633,1.0,0.18352059925093633,1.0,0.310126582278481
pamwiki,False,8.0,0.18352059925093633,1.0,0.18352059925093633,1.0,0.310126582278481
pamwiki,False,9.0,0.18352059925093633,1.0,0.18352059925093633,1.0,0.310126582278481
pamwiki,False,10.0,0.18421052631578946,1.0,0.18726591760299627,0.9954128440366973,0.3111111111111111
pamwiki,False,11.0,0.18490566037735848,1.0,0.19101123595505617,0.9908256880733946,0.31210191082802546
pamwiki,False,12.0,0.1856060606060606,1.0,0.1947565543071161,0.9862385321100917,0.31309904153354634
pamwiki,False,13.0,0.1856060606060606,1.0,0.1947565543071161,0.9862385321100917,0.31309904153354634
pamwiki,False,14.0,0.1856060606060606,1.0,0.1947565543071161,0.9862385321100917,0.31309904153354634
pamwiki,False,15.0,0.18773946360153257,1.0,0.20599250936329588,0.9724770642201835,0.3161290322580645
pamwiki,False,16.0,0.18846153846153846,1.0,0.20973782771535582,0.9678899082568807,0.31715210355987056
pamwiki,False,17.0,0.18846153846153846,1.0,0.20973782771535582,0.9678899082568807,0.31715210355987056
pamwiki,False,18.0,0.18846153846153846,1.0,0.20973782771535582,0.9678899082568807,0.31715210355987056
pamwiki,False,19.0,0.1891891891891892,1.0,0.21348314606741572,0.963302752293578,0.3181818181818182
pamwiki,False,20.0,0.1891891891891892,1.0,0.21348314606741572,0.963302752293578,0.3181818181818182
pamwiki,False,21.0,0.19140625,1.0,0.2247191011235955,0.9495412844036697,0.32131147540983607
pamwiki,False,22.0,0.19367588932806323,1.0,0.23595505617977527,0.9357798165137615,0.32450331125827814
pamwiki,False,23.0,0.1952191235059761,1.0,0.24344569288389514,0.926605504587156,0.32666666666666666
pamwiki,False,24.0,0.196,1.0,0.24719101123595505,0.9220183486238532,0.3277591973244147
pamwiki,False,25.0,0.196,1.0,0.24719101123595505,0.9220183486238532,0.3277591973244147
pamwiki,False,26.0,0.19678714859437751,1.0,0.250936329588015,0.9174311926605505,0.3288590604026846
pamwiki,False,27.0,0.19838056680161945,1.0,0.25842696629213485,0.908256880733945,0.3310810810810811
pamwiki,False,28.0,0.2,1.0,0.26591760299625467,0.8990825688073395,0.33333333333333337
pamwiki,False,29.0,0.2024793388429752,1.0,0.27715355805243447,0.8853211009174312,0.3367697594501718
pamwiki,False,30.0,0.2033195020746888,1.0,0.2808988764044944,0.8807339449541285,0.33793103448275863
pamwiki,False,31.0,0.2033195020746888,1.0,0.2808988764044944,0.8807339449541285,0.33793103448275863
pamwiki,False,32.0,0.2033195020746888,1.0,0.2808988764044944,0.8807339449541285,0.33793103448275863
pamwiki,False,33.0,0.20416666666666666,1.0,0.2846441947565543,0.8761467889908257,0.3391003460207613
pamwiki,False,34.0,0.20416666666666666,1.0,0.2846441947565543,0.8761467889908257,0.3391003460207613
pamwiki,False,35.0,0.20588235294117646,1.0,0.29213483146067415,0.8669724770642202,0.34146341463414637
pamwiki,False,36.0,0.2076271186440678,1.0,0.299625468164794,0.8577981651376146,0.343859649122807
pamwiki,False,37.0,0.20851063829787234,1.0,0.30337078651685395,0.8532110091743119,0.34507042253521125
pamwiki,False,38.0,0.2094017094017094,1.0,0.30711610486891383,0.8486238532110092,0.3462897526501767
pamwiki,False,39.0,0.2094017094017094,1.0,0.30711610486891383,0.8486238532110092,0.3462897526501767
pamwiki,False,40.0,0.2094017094017094,1.0,0.30711610486891383,0.8486238532110092,0.3462897526501767
pamwiki,False,41.0,0.21212121212121213,1.0,0.31835205992509363,0.8348623853211009,0.35
pamwiki,False,42.0,0.21397379912663755,1.0,0.3258426966292135,0.8256880733944955,0.3525179856115108
pamwiki,False,43.0,0.21397379912663755,1.0,0.3258426966292135,0.8256880733944955,0.3525179856115108
pamwiki,False,44.0,0.2149122807017544,1.0,0.3295880149812734,0.8211009174311926,0.3537906137184116
pamwiki,False,45.0,0.2149122807017544,1.0,0.3295880149812734,0.8211009174311926,0.3537906137184116
pamwiki,False,46.0,0.2168141592920354,1.0,0.33707865168539325,0.8119266055045872,0.3563636363636364
pamwiki,False,47.0,0.22171945701357465,1.0,0.35580524344569286,0.7889908256880734,0.36296296296296293
pamwiki,False,48.0,0.22477064220183487,1.0,0.36704119850187267,0.7752293577981652,0.36704119850187267
pamwiki,False,49.0,0.22897196261682243,1.0,0.38202247191011235,0.7568807339449541,0.37262357414448666
pamwiki,False,50.0,0.2300469483568075,1.0,0.3857677902621723,0.7522935779816514,0.37404580152671757
pamwiki,False,51.0,0.2300469483568075,1.0,0.3857677902621723,0.7522935779816514,0.37404580152671757
pamwiki,False,52.0,0.23113207547169812,1.0,0.3895131086142322,0.7477064220183486,0.37547892720306514
pamwiki,False,53.0,0.23113207547169812,1.0,0.3895131086142322,0.7477064220183486,0.37547892720306514
pamwiki,False,54.0,0.23113207547169812,1.0,0.3895131086142322,0.7477064220183486,0.37547892720306514
pamwiki,False,55.0,0.23333333333333334,1.0,0.3970037453183521,0.7385321100917431,0.37837837837837834
pamwiki,False,56.0,0.23444976076555024,1.0,0.40074906367041196,0.7339449541284404,0.3798449612403101
pamwiki,False,57.0,0.23557692307692307,1.0,0.4044943820224719,0.7293577981651376,0.38132295719844356
pamwiki,False,58.0,0.23557692307692307,1.0,0.4044943820224719,0.7293577981651376,0.38132295719844356
pamwiki,False,59.0,0.24019607843137256,1.0,0.41947565543071164,0.7110091743119266,0.38735177865612647
pamwiki,False,60.0,0.24019607843137256,1.0,0.41947565543071164,0.7110091743119266,0.38735177865612647
pamwiki,False,61.0,0.24378109452736318,1.0,0.4307116104868914,0.6972477064220184,0.392
pamwiki,False,62.0,0.24623115577889448,1.0,0.43820224719101125,0.6880733944954128,0.3951612903225806
pamwiki,False,63.0,0.25,1.0,0.449438202247191,0.6743119266055045,0.4
pamwiki,False,64.0,0.2538860103626943,1.0,0.4606741573033708,0.6605504587155964,0.40495867768595045
pamwiki,False,65.0,0.2552083333333333,1.0,0.46441947565543074,0.6559633027522935,0.4066390041493776
pamwiki,False,66.0,0.25654450261780104,1.0,0.4681647940074906,0.6513761467889908,0.4083333333333333
pamwiki,False,67.0,0.2578947368421053,1.0,0.47191011235955055,0.6467889908256881,0.4100418410041841
pamwiki,False,68.0,0.26344086021505375,1.0,0.4868913857677903,0.6284403669724771,0.41702127659574467
pamwiki,False,69.0,0.2648648648648649,1.0,0.49063670411985016,0.6238532110091743,0.4188034188034188
pamwiki,False,70.0,0.266304347826087,1.0,0.4943820224719101,0.6192660550458715,0.4206008583690988
pamwiki,False,71.0,0.2542372881355932,0.9183673469387755,0.49063670411985016,0.6055045871559633,0.3982300884955752
pamwiki,False,72.0,0.25,0.8775510204081632,0.4943820224719101,0.591743119266055,0.38914027149321273
pamwiki,False,73.0,0.24260355029585798,0.8367346938775511,0.49063670411985016,0.5871559633027523,0.3761467889908257
pamwiki,False,74.0,0.2469879518072289,0.8367346938775511,0.50187265917603,0.573394495412844,0.38139534883720927
pamwiki,False,75.0,0.25308641975308643,0.8367346938775511,0.5168539325842697,0.555045871559633,0.3886255924170616
pamwiki,False,76.0,0.2578616352201258,0.8367346938775511,0.5280898876404494,0.5412844036697247,0.3942307692307693
pamwiki,False,77.0,0.2549019607843137,0.7959183673469388,0.5355805243445693,0.5229357798165137,0.3861386138613861
pamwiki,False,78.0,0.2585034013605442,0.7755102040816326,0.550561797752809,0.5,0.3877551020408163
pamwiki,False,79.0,0.2605633802816901,0.7551020408163265,0.5617977528089888,0.481651376146789,0.38743455497382195
pamwiki,False,80.0,0.2642857142857143,0.7551020408163265,0.5692883895131086,0.4724770642201835,0.39153439153439157
pamwiki,False,81.0,0.26666666666666666,0.7346938775510204,0.5805243445692884,0.4541284403669725,0.391304347826087
pamwiki,False,82.0,0.2727272727272727,0.7346938775510204,0.5917602996254682,0.44036697247706424,0.3977900552486187
pamwiki,False,83.0,0.2755905511811024,0.7142857142857143,0.602996254681648,0.42201834862385323,0.3977272727272727
pamwiki,False,84.0,0.25892857142857145,0.5918367346938775,0.6142322097378277,0.38073394495412843,0.36024844720496896
pamwiki,False,85.0,0.24,0.4897959183673469,0.6217228464419475,0.3486238532110092,0.3221476510067114
pamwiki,False,86.0,0.24705882352941178,0.42857142857142855,0.6554307116104869,0.29357798165137616,0.3134328358208955
pamwiki,False,87.0,0.2222222222222222,0.32653061224489793,0.6666666666666666,0.25688073394495414,0.2644628099173553
pamwiki,False,88.0,0.21311475409836064,0.2653061224489796,0.6853932584269663,0.22018348623853212,0.2363636363636364
pamwiki,False,89.0,0.25,0.20408163265306123,0.7415730337078652,0.13761467889908258,0.2247191011235955
pamwiki,False,90.0,0.3103448275862069,0.1836734693877551,0.7752808988764045,0.09174311926605505,0.23076923076923075
pamwiki,False,91.0,0.35,0.14285714285714285,0.7940074906367042,0.05963302752293578,0.20289855072463767
pamwiki,False,92.0,0.375,0.12244897959183673,0.8014981273408239,0.045871559633027525,0.1846153846153846
pamwiki,False,93.0,0.4166666666666667,0.10204081632653061,0.8089887640449438,0.03211009174311927,0.16393442622950824
pamwiki,False,94.0,0.5714285714285714,0.08163265306122448,0.8202247191011236,0.013761467889908258,0.14285714285714285
pamwiki,False,95.0,0.25,0.02040816326530612,0.8089887640449438,0.013761467889908258,0.037735849056603765
pamwiki,False,96.0,0.0,0.0,0.8089887640449438,0.009174311926605505,0.037735849056603765
pamwiki,False,97.0,0.0,0.0,0.8089887640449438,0.009174311926605505,0.037735849056603765
pamwiki,False,98.0,0.0,0.0,0.8127340823970037,0.0045871559633027525,0.037735849056603765
pamwiki,False,99.0,0.0,0.0,0.8164794007490637,0.0,0.037735849056603765
