wiki_db,user_is_anonymous_or_bot,threshold,precision,recall,accuracy,fpr,F1
pcdwiki,True,0.0,0.28169014084507044,1.0,0.28169014084507044,1.0,0.43956043956043955
pcdwiki,True,1.0,0.28169014084507044,1.0,0.28169014084507044,1.0,0.43956043956043955
pcdwiki,True,2.0,0.28169014084507044,1.0,0.28169014084507044,1.0,0.43956043956043955
pcdwiki,True,3.0,0.28169014084507044,1.0,0.28169014084507044,1.0,0.43956043956043955
pcdwiki,True,4.0,0.28169014084507044,1.0,0.28169014084507044,1.0,0.43956043956043955
pcdwiki,True,5.0,0.2857142857142857,1.0,0.29577464788732394,0.9803921568627451,0.4444444444444445
pcdwiki,True,6.0,0.2857142857142857,1.0,0.29577464788732394,0.9803921568627451,0.4444444444444445
pcdwiki,True,7.0,0.2857142857142857,1.0,0.29577464788732394,0.9803921568627451,0.4444444444444445
pcdwiki,True,8.0,0.2857142857142857,1.0,0.29577464788732394,0.9803921568627451,0.4444444444444445
pcdwiki,True,9.0,0.2857142857142857,1.0,0.29577464788732394,0.9803921568627451,0.4444444444444445
pcdwiki,True,10.0,0.2857142857142857,1.0,0.29577464788732394,0.9803921568627451,0.4444444444444445
pcdwiki,True,11.0,0.2857142857142857,1.0,0.29577464788732394,0.9803921568627451,0.4444444444444445
pcdwiki,True,12.0,0.2857142857142857,1.0,0.29577464788732394,0.9803921568627451,0.4444444444444445
pcdwiki,True,13.0,0.2898550724637681,1.0,0.30985915492957744,0.9607843137254902,0.44943820224719105
pcdwiki,True,14.0,0.2898550724637681,1.0,0.30985915492957744,0.9607843137254902,0.44943820224719105
pcdwiki,True,15.0,0.2898550724637681,1.0,0.30985915492957744,0.9607843137254902,0.44943820224719105
pcdwiki,True,16.0,0.2898550724637681,1.0,0.30985915492957744,0.9607843137254902,0.44943820224719105
pcdwiki,True,17.0,0.2898550724637681,1.0,0.30985915492957744,0.9607843137254902,0.44943820224719105
pcdwiki,True,18.0,0.2898550724637681,1.0,0.30985915492957744,0.9607843137254902,0.44943820224719105
pcdwiki,True,19.0,0.2898550724637681,1.0,0.30985915492957744,0.9607843137254902,0.44943820224719105
pcdwiki,True,20.0,0.2898550724637681,1.0,0.30985915492957744,0.9607843137254902,0.44943820224719105
pcdwiki,True,21.0,0.2898550724637681,1.0,0.30985915492957744,0.9607843137254902,0.44943820224719105
pcdwiki,True,22.0,0.2898550724637681,1.0,0.30985915492957744,0.9607843137254902,0.44943820224719105
pcdwiki,True,23.0,0.2898550724637681,1.0,0.30985915492957744,0.9607843137254902,0.44943820224719105
pcdwiki,True,24.0,0.29411764705882354,1.0,0.323943661971831,0.9411764705882353,0.45454545454545453
pcdwiki,True,25.0,0.29411764705882354,1.0,0.323943661971831,0.9411764705882353,0.45454545454545453
pcdwiki,True,26.0,0.29411764705882354,1.0,0.323943661971831,0.9411764705882353,0.45454545454545453
pcdwiki,True,27.0,0.29411764705882354,1.0,0.323943661971831,0.9411764705882353,0.45454545454545453
pcdwiki,True,28.0,0.29411764705882354,1.0,0.323943661971831,0.9411764705882353,0.45454545454545453
pcdwiki,True,29.0,0.29411764705882354,1.0,0.323943661971831,0.9411764705882353,0.45454545454545453
pcdwiki,True,30.0,0.29411764705882354,1.0,0.323943661971831,0.9411764705882353,0.45454545454545453
pcdwiki,True,31.0,0.29411764705882354,1.0,0.323943661971831,0.9411764705882353,0.45454545454545453
pcdwiki,True,32.0,0.29850746268656714,1.0,0.3380281690140845,0.9215686274509803,0.45977011494252873
pcdwiki,True,33.0,0.29850746268656714,1.0,0.3380281690140845,0.9215686274509803,0.45977011494252873
pcdwiki,True,34.0,0.29850746268656714,1.0,0.3380281690140845,0.9215686274509803,0.45977011494252873
pcdwiki,True,35.0,0.29850746268656714,1.0,0.3380281690140845,0.9215686274509803,0.45977011494252873
pcdwiki,True,36.0,0.29850746268656714,1.0,0.3380281690140845,0.9215686274509803,0.45977011494252873
pcdwiki,True,37.0,0.29850746268656714,1.0,0.3380281690140845,0.9215686274509803,0.45977011494252873
pcdwiki,True,38.0,0.29850746268656714,1.0,0.3380281690140845,0.9215686274509803,0.45977011494252873
pcdwiki,True,39.0,0.29850746268656714,1.0,0.3380281690140845,0.9215686274509803,0.45977011494252873
pcdwiki,True,40.0,0.29850746268656714,1.0,0.3380281690140845,0.9215686274509803,0.45977011494252873
pcdwiki,True,41.0,0.30303030303030304,1.0,0.352112676056338,0.9019607843137255,0.4651162790697675
pcdwiki,True,42.0,0.3125,1.0,0.38028169014084506,0.8627450980392157,0.47619047619047616
pcdwiki,True,43.0,0.3125,1.0,0.38028169014084506,0.8627450980392157,0.47619047619047616
pcdwiki,True,44.0,0.3125,1.0,0.38028169014084506,0.8627450980392157,0.47619047619047616
pcdwiki,True,45.0,0.3125,1.0,0.38028169014084506,0.8627450980392157,0.47619047619047616
pcdwiki,True,46.0,0.3125,1.0,0.38028169014084506,0.8627450980392157,0.47619047619047616
pcdwiki,True,47.0,0.3125,1.0,0.38028169014084506,0.8627450980392157,0.47619047619047616
pcdwiki,True,48.0,0.3125,1.0,0.38028169014084506,0.8627450980392157,0.47619047619047616
pcdwiki,True,49.0,0.3125,1.0,0.38028169014084506,0.8627450980392157,0.47619047619047616
pcdwiki,True,50.0,0.3125,1.0,0.38028169014084506,0.8627450980392157,0.47619047619047616
pcdwiki,True,51.0,0.3125,1.0,0.38028169014084506,0.8627450980392157,0.47619047619047616
pcdwiki,True,52.0,0.3125,1.0,0.38028169014084506,0.8627450980392157,0.47619047619047616
pcdwiki,True,53.0,0.3125,1.0,0.38028169014084506,0.8627450980392157,0.47619047619047616
pcdwiki,True,54.0,0.3125,1.0,0.38028169014084506,0.8627450980392157,0.47619047619047616
pcdwiki,True,55.0,0.3125,1.0,0.38028169014084506,0.8627450980392157,0.47619047619047616
pcdwiki,True,56.0,0.3125,1.0,0.38028169014084506,0.8627450980392157,0.47619047619047616
pcdwiki,True,57.0,0.31746031746031744,1.0,0.39436619718309857,0.8431372549019608,0.4819277108433735
pcdwiki,True,58.0,0.31746031746031744,1.0,0.39436619718309857,0.8431372549019608,0.4819277108433735
pcdwiki,True,59.0,0.31746031746031744,1.0,0.39436619718309857,0.8431372549019608,0.4819277108433735
pcdwiki,True,60.0,0.31746031746031744,1.0,0.39436619718309857,0.8431372549019608,0.4819277108433735
pcdwiki,True,61.0,0.31746031746031744,1.0,0.39436619718309857,0.8431372549019608,0.4819277108433735
pcdwiki,True,62.0,0.31746031746031744,1.0,0.39436619718309857,0.8431372549019608,0.4819277108433735
pcdwiki,True,63.0,0.3225806451612903,1.0,0.4084507042253521,0.8235294117647058,0.4878048780487805
pcdwiki,True,64.0,0.3225806451612903,1.0,0.4084507042253521,0.8235294117647058,0.4878048780487805
pcdwiki,True,65.0,0.3225806451612903,1.0,0.4084507042253521,0.8235294117647058,0.4878048780487805
pcdwiki,True,66.0,0.3225806451612903,1.0,0.4084507042253521,0.8235294117647058,0.4878048780487805
pcdwiki,True,67.0,0.3225806451612903,1.0,0.4084507042253521,0.8235294117647058,0.4878048780487805
pcdwiki,True,68.0,0.3225806451612903,1.0,0.4084507042253521,0.8235294117647058,0.4878048780487805
pcdwiki,True,69.0,0.3225806451612903,1.0,0.4084507042253521,0.8235294117647058,0.4878048780487805
pcdwiki,True,70.0,0.3050847457627119,0.9,0.39436619718309857,0.803921568627451,0.45569620253164556
pcdwiki,True,71.0,0.2807017543859649,0.8,0.36619718309859156,0.803921568627451,0.41558441558441556
pcdwiki,True,72.0,0.26785714285714285,0.75,0.352112676056338,0.803921568627451,0.3947368421052632
pcdwiki,True,73.0,0.26785714285714285,0.75,0.352112676056338,0.803921568627451,0.3947368421052632
pcdwiki,True,74.0,0.26785714285714285,0.75,0.352112676056338,0.803921568627451,0.3947368421052632
pcdwiki,True,75.0,0.26785714285714285,0.75,0.352112676056338,0.803921568627451,0.3947368421052632
pcdwiki,True,76.0,0.2545454545454545,0.7,0.3380281690140845,0.803921568627451,0.3733333333333333
pcdwiki,True,77.0,0.2545454545454545,0.7,0.3380281690140845,0.803921568627451,0.3733333333333333
pcdwiki,True,78.0,0.2545454545454545,0.7,0.3380281690140845,0.803921568627451,0.3733333333333333
pcdwiki,True,79.0,0.2545454545454545,0.7,0.3380281690140845,0.803921568627451,0.3733333333333333
pcdwiki,True,80.0,0.2549019607843137,0.65,0.36619718309859156,0.7450980392156863,0.36619718309859156
pcdwiki,True,81.0,0.3023255813953488,0.65,0.4788732394366197,0.5882352941176471,0.4126984126984127
pcdwiki,True,82.0,0.3170731707317073,0.65,0.5070422535211268,0.5490196078431373,0.42622950819672134
pcdwiki,True,83.0,0.2894736842105263,0.55,0.49295774647887325,0.5294117647058824,0.37931034482758624
pcdwiki,True,84.0,0.2894736842105263,0.55,0.49295774647887325,0.5294117647058824,0.37931034482758624
pcdwiki,True,85.0,0.2857142857142857,0.5,0.5070422535211268,0.49019607843137253,0.36363636363636365
pcdwiki,True,86.0,0.2962962962962963,0.4,0.5633802816901409,0.37254901960784315,0.3404255319148936
pcdwiki,True,87.0,0.3076923076923077,0.4,0.5774647887323944,0.35294117647058826,0.34782608695652173
pcdwiki,True,88.0,0.30434782608695654,0.35,0.5915492957746479,0.3137254901960784,0.3255813953488372
pcdwiki,True,89.0,0.35,0.35,0.6338028169014085,0.2549019607843137,0.35
pcdwiki,True,90.0,0.42857142857142855,0.3,0.6901408450704225,0.1568627450980392,0.3529411764705882
pcdwiki,True,91.0,0.5,0.25,0.7183098591549296,0.09803921568627451,0.3333333333333333
pcdwiki,True,92.0,0.625,0.25,0.7464788732394366,0.058823529411764705,0.35714285714285715
pcdwiki,True,93.0,1.0,0.25,0.7887323943661971,0.0,0.4
pcdwiki,True,94.0,1.0,0.1,0.7464788732394366,0.0,0.18181818181818182
pcdwiki,True,95.0,1.0,0.0,0.7183098591549296,0.0,0.0
pcdwiki,True,96.0,1.0,0.0,0.7183098591549296,0.0,0.0
pcdwiki,True,97.0,1.0,0.0,0.7183098591549296,0.0,0.0
pcdwiki,True,98.0,1.0,0.0,0.7183098591549296,0.0,0.0
pcdwiki,True,99.0,1.0,0.0,0.7183098591549296,0.0,0.0
pcdwiki,False,0.0,0.0645879732739421,1.0,0.0645879732739421,1.0,0.12133891213389122
pcdwiki,False,1.0,0.0645879732739421,1.0,0.0645879732739421,1.0,0.12133891213389122
pcdwiki,False,2.0,0.0654627539503386,1.0,0.0779510022271715,0.9857142857142858,0.1228813559322034
pcdwiki,False,3.0,0.06651376146788991,1.0,0.0935412026726058,0.969047619047619,0.12473118279569893
pcdwiki,False,4.0,0.06823529411764706,1.0,0.11804008908685969,0.9428571428571428,0.1277533039647577
pcdwiki,False,5.0,0.07125307125307126,1.0,0.15812917594654788,0.9,0.13302752293577982
pcdwiki,False,6.0,0.07455012853470437,1.0,0.19821826280623608,0.8571428571428571,0.13875598086124402
pcdwiki,False,7.0,0.07754010695187166,1.0,0.23162583518930957,0.8214285714285714,0.14392059553349876
pcdwiki,False,8.0,0.08238636363636363,1.0,0.2806236080178174,0.7690476190476191,0.15223097112860892
pcdwiki,False,9.0,0.08708708708708708,1.0,0.32293986636971045,0.7238095238095238,0.16022099447513813
pcdwiki,False,10.0,0.090625,1.0,0.3518930957683742,0.6928571428571428,0.166189111747851
pcdwiki,False,11.0,0.09477124183006536,1.0,0.3830734966592428,0.6595238095238095,0.17313432835820894
pcdwiki,False,12.0,0.1039426523297491,1.0,0.44320712694877507,0.5952380952380952,0.18831168831168832
pcdwiki,False,13.0,0.10861423220973783,1.0,0.46993318485523383,0.5666666666666667,0.19594594594594594
pcdwiki,False,14.0,0.1141732283464567,1.0,0.49888641425389757,0.5357142857142857,0.2049469964664311
pcdwiki,False,15.0,0.11885245901639344,1.0,0.5211581291759465,0.5119047619047619,0.21245421245421242
pcdwiki,False,16.0,0.12184873949579832,1.0,0.534521158129176,0.4976190476190476,0.21722846441947566
pcdwiki,False,17.0,0.12554112554112554,1.0,0.5501113585746102,0.48095238095238096,0.22307692307692306
pcdwiki,False,18.0,0.13063063063063063,1.0,0.5701559020044543,0.4595238095238095,0.23107569721115537
pcdwiki,False,19.0,0.1336405529953917,1.0,0.5812917594654788,0.44761904761904764,0.23577235772357724
pcdwiki,False,20.0,0.1380952380952381,1.0,0.5968819599109132,0.430952380952381,0.24267782426778245
pcdwiki,False,21.0,0.14285714285714285,1.0,0.6124721603563474,0.4142857142857143,0.25
pcdwiki,False,22.0,0.14646464646464646,1.0,0.623608017817372,0.4023809523809524,0.2555066079295154
pcdwiki,False,23.0,0.14871794871794872,1.0,0.6302895322939867,0.3952380952380952,0.25892857142857145
pcdwiki,False,24.0,0.15343915343915343,1.0,0.643652561247216,0.38095238095238093,0.2660550458715596
pcdwiki,False,25.0,0.16111111111111112,1.0,0.6636971046770601,0.3595238095238095,0.27751196172248804
pcdwiki,False,26.0,0.1638418079096045,1.0,0.6703786191536748,0.3523809523809524,0.2815533980582524
pcdwiki,False,27.0,0.17058823529411765,1.0,0.6859688195991092,0.3357142857142857,0.2914572864321608
pcdwiki,False,28.0,0.1746987951807229,1.0,0.6948775055679287,0.3261904761904762,0.29743589743589743
pcdwiki,False,29.0,0.17575757575757575,1.0,0.6971046770601337,0.3238095238095238,0.29896907216494845
pcdwiki,False,30.0,0.17575757575757575,1.0,0.6971046770601337,0.3238095238095238,0.29896907216494845
pcdwiki,False,31.0,0.18012422360248448,1.0,0.7060133630289532,0.3142857142857143,0.30526315789473685
pcdwiki,False,32.0,0.18471337579617833,1.0,0.7149220489977728,0.3047619047619048,0.3118279569892473
pcdwiki,False,33.0,0.18471337579617833,1.0,0.7149220489977728,0.3047619047619048,0.3118279569892473
pcdwiki,False,34.0,0.1858974358974359,1.0,0.7171492204899778,0.30238095238095236,0.31351351351351353
pcdwiki,False,35.0,0.18831168831168832,1.0,0.7216035634743875,0.2976190476190476,0.31693989071038253
pcdwiki,False,36.0,0.18831168831168832,1.0,0.7216035634743875,0.2976190476190476,0.31693989071038253
pcdwiki,False,37.0,0.1895424836601307,1.0,0.7238307349665924,0.29523809523809524,0.31868131868131866
pcdwiki,False,38.0,0.1895424836601307,1.0,0.7238307349665924,0.29523809523809524,0.31868131868131866
pcdwiki,False,39.0,0.18666666666666668,0.9655172413793104,0.7260579064587973,0.2904761904761905,0.3128491620111732
pcdwiki,False,40.0,0.18791946308724833,0.9655172413793104,0.7282850779510023,0.28809523809523807,0.3146067415730337
pcdwiki,False,41.0,0.19444444444444445,0.9655172413793104,0.7394209354120267,0.2761904761904762,0.32369942196531787
pcdwiki,False,42.0,0.19858156028368795,0.9655172413793104,0.7461024498886414,0.26904761904761904,0.3294117647058824
pcdwiki,False,43.0,0.2014388489208633,0.9655172413793104,0.7505567928730512,0.2642857142857143,0.33333333333333337
pcdwiki,False,44.0,0.20437956204379562,0.9655172413793104,0.755011135857461,0.25952380952380955,0.3373493975903614
pcdwiki,False,45.0,0.20588235294117646,0.9655172413793104,0.7572383073496659,0.2571428571428571,0.33939393939393936
pcdwiki,False,46.0,0.21052631578947367,0.9655172413793104,0.7639198218262806,0.25,0.34567901234567905
pcdwiki,False,47.0,0.21212121212121213,0.9655172413793104,0.7661469933184856,0.24761904761904763,0.3478260869565218
pcdwiki,False,48.0,0.21374045801526717,0.9655172413793104,0.7683741648106904,0.24523809523809523,0.35
pcdwiki,False,49.0,0.2153846153846154,0.9655172413793104,0.7706013363028953,0.24285714285714285,0.35220125786163525
pcdwiki,False,50.0,0.21875,0.9655172413793104,0.7750556792873051,0.23809523809523808,0.35668789808917195
pcdwiki,False,51.0,0.2222222222222222,0.9655172413793104,0.779510022271715,0.23333333333333334,0.36129032258064514
pcdwiki,False,52.0,0.224,0.9655172413793104,0.7817371937639198,0.23095238095238096,0.36363636363636365
pcdwiki,False,53.0,0.21774193548387097,0.9310344827586207,0.779510022271715,0.23095238095238096,0.35294117647058826
pcdwiki,False,54.0,0.21951219512195122,0.9310344827586207,0.7817371937639198,0.22857142857142856,0.3552631578947368
pcdwiki,False,55.0,0.225,0.9310344827586207,0.7884187082405345,0.22142857142857142,0.36241610738255037
pcdwiki,False,56.0,0.226890756302521,0.9310344827586207,0.7906458797327395,0.21904761904761905,0.36486486486486486
pcdwiki,False,57.0,0.23275862068965517,0.9310344827586207,0.7973273942093542,0.2119047619047619,0.3724137931034483
pcdwiki,False,58.0,0.23008849557522124,0.896551724137931,0.799554565701559,0.20714285714285716,0.36619718309859156
pcdwiki,False,59.0,0.23214285714285715,0.896551724137931,0.8017817371937639,0.20476190476190476,0.3687943262411348
pcdwiki,False,60.0,0.23423423423423423,0.896551724137931,0.8040089086859689,0.20238095238095238,0.37142857142857144
pcdwiki,False,61.0,0.23423423423423423,0.896551724137931,0.8040089086859689,0.20238095238095238,0.37142857142857144
pcdwiki,False,62.0,0.24299065420560748,0.896551724137931,0.8129175946547884,0.19285714285714287,0.3823529411764706
pcdwiki,False,63.0,0.24528301886792453,0.896551724137931,0.8151447661469933,0.19047619047619047,0.3851851851851852
pcdwiki,False,64.0,0.25,0.896551724137931,0.8195991091314031,0.18571428571428572,0.39097744360902253
pcdwiki,False,65.0,0.2549019607843137,0.896551724137931,0.8240534521158129,0.18095238095238095,0.3969465648854962
pcdwiki,False,66.0,0.25252525252525254,0.8620689655172413,0.8262806236080178,0.1761904761904762,0.390625
pcdwiki,False,67.0,0.25773195876288657,0.8620689655172413,0.8307349665924276,0.17142857142857143,0.3968253968253968
pcdwiki,False,68.0,0.25773195876288657,0.8620689655172413,0.8307349665924276,0.17142857142857143,0.3968253968253968
pcdwiki,False,69.0,0.2631578947368421,0.8620689655172413,0.8351893095768375,0.16666666666666666,0.4032258064516129
pcdwiki,False,70.0,0.25,0.7931034482758621,0.8329621380846325,0.16428571428571428,0.38016528925619836
pcdwiki,False,71.0,0.23333333333333334,0.7241379310344828,0.8285077951002228,0.16428571428571428,0.35294117647058826
pcdwiki,False,72.0,0.23255813953488372,0.6896551724137931,0.8329621380846325,0.15714285714285714,0.34782608695652173
pcdwiki,False,73.0,0.23255813953488372,0.6896551724137931,0.8329621380846325,0.15714285714285714,0.34782608695652173
pcdwiki,False,74.0,0.23529411764705882,0.6896551724137931,0.8351893095768375,0.15476190476190477,0.3508771929824561
pcdwiki,False,75.0,0.23809523809523808,0.6896551724137931,0.8374164810690423,0.1523809523809524,0.3539823008849557
pcdwiki,False,76.0,0.2345679012345679,0.6551724137931034,0.8396436525612472,0.14761904761904762,0.34545454545454546
pcdwiki,False,77.0,0.2375,0.6551724137931034,0.8418708240534521,0.14523809523809525,0.34862385321100914
pcdwiki,False,78.0,0.23684210526315788,0.6206896551724138,0.8463251670378619,0.1380952380952381,0.34285714285714286
pcdwiki,False,79.0,0.24,0.6206896551724138,0.8485523385300668,0.1357142857142857,0.34615384615384615
pcdwiki,False,80.0,0.2537313432835821,0.5862068965517241,0.8619153674832962,0.11904761904761904,0.3541666666666667
pcdwiki,False,81.0,0.30357142857142855,0.5862068965517241,0.8864142538975501,0.09285714285714286,0.39999999999999997
pcdwiki,False,82.0,0.3018867924528302,0.5517241379310345,0.888641425389755,0.0880952380952381,0.3902439024390244
pcdwiki,False,83.0,0.2916666666666667,0.4827586206896552,0.89086859688196,0.08095238095238096,0.3636363636363637
pcdwiki,False,84.0,0.28888888888888886,0.4482758620689655,0.8930957683741648,0.0761904761904762,0.35135135135135137
pcdwiki,False,85.0,0.3,0.41379310344827586,0.8997772828507795,0.06666666666666667,0.34782608695652173
pcdwiki,False,86.0,0.3225806451612903,0.3448275862068966,0.910913140311804,0.05,0.33333333333333337
pcdwiki,False,87.0,0.3103448275862069,0.3103448275862069,0.910913140311804,0.047619047619047616,0.3103448275862069
pcdwiki,False,88.0,0.3076923076923077,0.27586206896551724,0.9131403118040089,0.04285714285714286,0.29090909090909095
pcdwiki,False,89.0,0.34782608695652173,0.27586206896551724,0.9198218262806236,0.03571428571428571,0.3076923076923077
pcdwiki,False,90.0,0.4375,0.2413793103448276,0.9309576837416481,0.02142857142857143,0.3111111111111111
pcdwiki,False,91.0,0.5,0.20689655172413793,0.9354120267260579,0.014285714285714285,0.2926829268292683
pcdwiki,False,92.0,0.5555555555555556,0.1724137931034483,0.9376391982182628,0.009523809523809525,0.26315789473684215
pcdwiki,False,93.0,0.8333333333333334,0.1724137931034483,0.9443207126948775,0.002380952380952381,0.28571428571428575
pcdwiki,False,94.0,0.6666666666666666,0.06896551724137931,0.9376391982182628,0.002380952380952381,0.125
pcdwiki,False,95.0,0.6666666666666666,0.0,0.9354120267260579,0.0,0.0
pcdwiki,False,96.0,0.6666666666666666,0.0,0.9354120267260579,0.0,0.0
pcdwiki,False,97.0,0.6666666666666666,0.0,0.9354120267260579,0.0,0.0
pcdwiki,False,98.0,0.6666666666666666,0.0,0.9354120267260579,0.0,0.0
pcdwiki,False,99.0,0.6666666666666666,0.0,0.9354120267260579,0.0,0.0
