wiki_db,user_is_anonymous_or_bot,threshold,precision,recall,accuracy,fpr,F1
plwiki,True,0.0,0.13629775722714715,1.0,0.13629775722714715,1.0,0.23989796047780299
plwiki,True,1.0,0.1363737486095662,0.9999848954006495,0.13686596477936666,0.9993397420465137,0.24001522663210462
plwiki,True,2.0,0.14551474378461254,0.9977645192961256,0.20112282753253813,0.9245923443447833,0.25398772298470274
plwiki,True,3.0,0.1584426665620533,0.9760743146288045,0.290123482206457,0.818123961643065,0.27263023777781525
plwiki,True,4.0,0.17686246437984593,0.9740351937164867,0.37858681017338564,0.7153787663902482,0.2993667830349848
plwiki,True,5.0,0.19681465941687717,0.9721018049996224,0.4554945258555024,0.6260294184247723,0.327352538001999
plwiki,True,6.0,0.2158515850240929,0.9702741484782116,0.5155227715352722,0.5562399143809903,0.35314167282842635
plwiki,True,7.0,0.23180574481235564,0.9687032701457594,0.558185688581087,0.5065966205280633,0.3740929559719079
plwiki,True,8.0,0.24683966428541138,0.9671021826146061,0.5933239730060238,0.465660627411908,0.3932959040762673
plwiki,True,9.0,0.26262352448310705,0.9658182916698135,0.625734449435704,0.42793296355709803,0.4129566422004722
plwiki,True,10.0,0.27585044887802096,0.9644286685295672,0.6500767903684702,0.399529953543583,0.4289971142637341
plwiki,True,11.0,0.28655110096114944,0.9627822672003625,0.668205905241097,0.3782801352932904,0.4416536461491025
plwiki,True,12.0,0.2964885225890915,0.9612264934672607,0.6838460239882406,0.3599263943480012,0.45319109541239977
plwiki,True,13.0,0.3055412649950718,0.9598670795257156,0.6971741967892156,0.3442804260928223,0.46353258689230104
plwiki,True,14.0,0.3140104272395542,0.9579487954082018,0.709032441357275,0.3302481568791966,0.4729804307618876
plwiki,True,15.0,0.32129844487868425,0.9536892983913602,0.71910989051711,0.31790824559688985,0.4806617006132074
plwiki,True,16.0,0.3276314829673937,0.9497923117589306,0.7274888931893325,0.30759201302400524,0.4872022345243307
plwiki,True,17.0,0.33164344630112397,0.9377086322785289,0.7339409311192454,0.29821491992286664,0.4899900156671152
plwiki,True,18.0,0.33669136125511745,0.9329053696850691,0.7403538533118678,0.29003201178453186,0.494804643375019
plwiki,True,19.0,0.3416020901168757,0.9301865418019787,0.7461265126467355,0.28291934126755225,0.4996957181457469
plwiki,True,20.0,0.34625889030921103,0.9287667094630315,0.751289789969078,0.2767172069896766,0.5044506247282452
plwiki,True,21.0,0.3506439385289887,0.9277698059058983,0.7559775022748889,0.27113242581632435,0.5089382998380126
plwiki,True,22.0,0.354819311939867,0.9269088437429197,0.7603172903911162,0.26597192592716185,0.5131901904622526
plwiki,True,23.0,0.3583796450506361,0.9263197643682501,0.7639179969448551,0.26171004426350253,0.5168121755545069
plwiki,True,24.0,0.3613395831490817,0.9256853711955291,0.7668702057487782,0.2581918466485354,0.519782876044273
plwiki,True,25.0,0.36389235430404565,0.9252171286156635,0.7693674367663226,0.25522664486464713,0.522344213017247
plwiki,True,26.0,0.36628000885384576,0.9248093044331999,0.7716670303743993,0.2524998033527756,0.524733892117036
plwiki,True,27.0,0.368593836590126,0.9242655388565818,0.7738801576158341,0.24985162073066958,0.5270156792999651
plwiki,True,28.0,0.3706378878863715,0.9238879238728193,0.7758009461890978,0.2475681293247492,0.5290398470813116
plwiki,True,29.0,0.3725112708663336,0.9235556226871082,0.7775405671370162,0.24550154576636402,0.5308906205908528
plwiki,True,30.0,0.37428734146983716,0.9231931123026962,0.7791772519341703,0.2435493751385469,0.5326315239082884
plwiki,True,31.0,0.3760269799558129,0.9229061249150367,0.7807583512099115,0.24167347979777515,0.5343425333193409
plwiki,True,32.0,0.3774951487510351,0.9226493467260781,0.7820821101087417,0.24010030200246466,0.5357799130774189
plwiki,True,33.0,0.3788521661456007,0.9224983007325731,0.7832885217957005,0.23867967478124485,0.5371196897275002
plwiki,True,34.0,0.3800312439705983,0.9222868363416661,0.7843364118104822,0.2374330505585973,0.5382675999224246
plwiki,True,35.0,0.38117389946924757,0.9220602673514086,0.7853472448109886,0.2362269475821926,0.5393739921804246
plwiki,True,36.0,0.3822494175413984,0.9218790121592024,0.7862901399519906,0.23510665430371389,0.5404187308797422
plwiki,True,37.0,0.38332076894082173,0.9216373385695944,0.7872289176469619,0.23398159381979486,0.5414468575992191
plwiki,True,38.0,0.38435800656580615,0.9213503511819349,0.788136814496704,0.23288513656851786,0.5424310600873253
plwiki,True,39.0,0.3854934331112769,0.9212597235858319,0.7891064730369046,0.231748158070998,0.5435450020719802
plwiki,True,40.0,0.38691684857099345,0.9210029453968733,0.7903252370619552,0.23029654401441602,0.5449134706899557
plwiki,True,41.0,0.3882863202409991,0.9208670040027188,0.7914801806735319,0.2289378904639206,0.5462462704620595
plwiki,True,42.0,0.3895040862880913,0.9207310626085643,0.7925013072891147,0.22773417109023605,0.5474261800416697
plwiki,True,43.0,0.3905862446884193,0.9205044936183068,0.793411262861872,0.22664486464711953,0.5484538680298067
plwiki,True,44.0,0.3914996433551604,0.9202326108299977,0.7941812252695898,0.2257104923808139,0.5493052988432167
plwiki,True,45.0,0.39253583213033616,0.9200060418397402,0.7950438302129955,0.22467600880026126,0.5502839099619196
plwiki,True,46.0,0.3932212801952643,0.9198247866475342,0.7956140964882302,0.22398714761413285,0.5509245856553521
plwiki,True,47.0,0.3938098318240621,0.9196133222566272,0.7961061312888841,0.2233840961259305,0.5514639614139173
plwiki,True,48.0,0.39442579608341216,0.9193716486670191,0.7966208120427062,0.22275005780236595,0.5520240519129525
plwiki,True,49.0,0.39500025965932695,0.9190997658787101,0.7971025532282836,0.22214938991688377,0.5525373093669553
plwiki,True,50.0,0.39562991536945363,0.918646627898195,0.7976398799352737,0.22145576152531504,0.5530709492024808
plwiki,True,51.0,0.3961891604814378,0.9183294313118344,0.7981092687827595,0.22086224444799338,0.5535595596871558
plwiki,True,52.0,0.39707016191210487,0.9179065025300204,0.7988401154531867,0.21994932460616923,0.5543418274032959
plwiki,True,53.0,0.397896019336709,0.9175137829469073,0.799521552771247,0.21909837843506946,0.5550742913536927
plwiki,True,54.0,0.3989394905086372,0.9170757495657428,0.8003738640995763,0.2180424424300353,0.556008351801315
plwiki,True,55.0,0.40005273740070535,0.9166377161845782,0.8012755847802725,0.2169292999597171,0.5570078017439193
plwiki,True,56.0,0.4011973275120725,0.9160788460086097,0.8022040688601674,0.2157661018322754,0.5580126509488211
plwiki,True,57.0,0.40245570696204214,0.9154142436371875,0.8032210780297198,0.21448372356882534,0.5591047681428829
plwiki,True,58.0,0.4039080996365334,0.9147949550638169,0.8043760216412963,0.21304879473128455,0.5603886190145733
plwiki,True,59.0,0.40475505575884885,0.9138886791027868,0.8050801049125249,0.21209058643777726,0.5610326026482697
plwiki,True,60.0,0.4057696696333884,0.9131334491352617,0.8058974179495942,0.2110251160218624,0.5618636467138496
plwiki,True,61.0,0.40668197335021106,0.9123178007703345,0.8066364995120826,0.21004068809843326,0.5625826642573721
plwiki,True,62.0,0.4075850838845683,0.9111547466203459,0.8073858746896475,0.2089895192988394,0.5632241860638824
plwiki,True,63.0,0.4086486266420584,0.9096744958839966,0.8082690668632061,0.2077333606653112,0.563954658888197
plwiki,True,64.0,0.4096691765186876,0.9081036175515445,0.8091193194685201,0.20650103805898462,0.564622464312547
plwiki,True,65.0,0.41063188882042856,0.9059889736424741,0.8099531022897117,0.2052019745764934,0.5651254269226239
plwiki,True,66.0,0.41185095442311265,0.9037081791405484,0.8109762876283099,0.2036574000138249,0.5658325294596077
plwiki,True,67.0,0.413245234929078,0.901231024847066,0.8121271137938559,0.20193405524714383,0.566658277497875
plwiki,True,68.0,0.4145678185925864,0.8980288497847595,0.8132552940062339,0.2001225171798166,0.5672631513665399
plwiki,True,69.0,0.4159416320826926,0.8946907333282985,0.814414355063841,0.19825377264720534,0.5678772074473185
plwiki,True,70.0,0.41734340595152963,0.8903557133147043,0.8156331190888916,0.19615858585617818,0.5683021123569507
plwiki,True,71.0,0.4187756852374656,0.885023789743977,0.8169095273583702,0.19383934040945527,0.5685328934601203
plwiki,True,72.0,0.42016315333525844,0.8791027867985801,0.8181674071207111,0.19144858688112734,0.5685773598730004
plwiki,True,73.0,0.4218643931707531,0.8729703194622762,0.8196270417385504,0.18879086984814067,0.5688372276136296
plwiki,True,74.0,0.4237677774163981,0.8659315761649422,0.821239021859521,0.18581375005065157,0.5690533974559405
plwiki,True,75.0,0.4257831831201356,0.857714674118269,0.8229477619622101,0.18253867991314152,0.5690706565583176
plwiki,True,76.0,0.4276692668657444,0.8479873121365455,0.8246070927125323,0.17908245596889874,0.5685826703869311
plwiki,True,77.0,0.4299605006867759,0.8368854316139265,0.8265402336238877,0.17509230501533848,0.5680685709598704
plwiki,True,78.0,0.4325214217708664,0.8234272335926289,0.8286833642828026,0.17048718455997502,0.5671408879294649
plwiki,True,79.0,0.43526016260162603,0.8086549354278377,0.830915020031375,0.1655721957509898,0.5659152770804154
plwiki,True,80.0,0.43817332363830874,0.7918888301487803,0.8332434357616657,0.1602305420550946,0.564174029076587
plwiki,True,81.0,0.4409778591413077,0.7713465750320972,0.8355594991538648,0.15430728929547854,0.5611480750951876
plwiki,True,82.0,0.4452711788435679,0.7502454497394456,0.8385652347561854,0.14749733632396023,0.5588591038226772
plwiki,True,83.0,0.449846430444228,0.725624952798127,0.841649201833087,0.1400414270152765,0.5553853535032399
plwiki,True,84.0,0.45542815417102483,0.6971376784230798,0.8451037390527404,0.1315462669205998,0.5509379457704405
plwiki,True,85.0,0.4621347832008129,0.6663242957480553,0.8488197340953354,0.12238131446155606,0.5457559599658547
plwiki,True,86.0,0.4697529685341002,0.6316139264406012,0.8526160193355266,0.1125084319946226,0.538789604566363
plwiki,True,87.0,0.4780413625304136,0.593535231477985,0.8562702526876629,0.10226847470878334,0.5295643677773659
plwiki,True,88.0,0.48563788034006095,0.5513480854920323,0.8592574597828458,0.09215246476439279,0.5164110689830796
plwiki,True,89.0,0.4962563686037067,0.5075749565742769,0.8626584702041018,0.081307072387631,0.5018518518518519
plwiki,True,90.0,0.5075944307507828,0.4603579790046069,0.8655797981627956,0.07047359802447006,0.48282362632575304
plwiki,True,91.0,0.5213440405748098,0.40989351257457896,0.868276725312823,0.05938746177297138,0.45894957592362395
plwiki,True,92.0,0.5363518522729857,0.35624197568159505,0.8702839802527288,0.04859689225877344,0.4281253970847175
plwiki,True,93.0,0.5547715990852808,0.30047579487954085,0.8717889067769045,0.038054217427472926,0.3898180535551571
plwiki,True,94.0,0.5786294595549276,0.247428441960577,0.8728676776369154,0.028433996848877204,0.34663280960694076
plwiki,True,95.0,0.6127476232847844,0.19762857790197114,0.8736149940914649,0.01971001089306443,0.2988647525069097
plwiki,True,96.0,0.6582022325217051,0.15229967525111396,0.8736808732279542,0.012480543842796633,0.2473627398066827
plwiki,True,97.0,0.7209950248756218,0.10944792689373914,0.8728470904067624,0.006683622027349458,0.1900465543243066
plwiki,True,98.0,0.8246053138236427,0.06469299901820104,0.8706442567804042,0.0021714620780725236,0.11997366909900697
plwiki,True,99.0,0.9422982885085575,0.029106562948417795,0.8674264727075089,0.00028126512097975605,0.05646886446886447
plwiki,False,0.0,0.07607419195932344,1.0,0.07607419195932344,1.0,0.14139209457445867
plwiki,False,1.0,0.07611588995584981,0.9999901739215878,0.07663034012496889,0.9993972506539224,0.1414640147289715
plwiki,False,2.0,0.07812093973002521,0.9984573056892994,0.10354148274782045,0.9701440854107959,0.1449043268942819
plwiki,False,3.0,0.08032303077934784,0.9841603615996856,0.14156288099700023,0.9278149001256469,0.14852414529439242
plwiki,False,4.0,0.08408305109406788,0.9823621892502702,0.18459783535771765,0.8810884763224685,0.15490717577761542
plwiki,False,5.0,0.08846518416318119,0.9803380170973764,0.2300569678114299,0.8317196641108476,0.16228578492729434
plwiki,False,6.0,0.09297305879990474,0.9781173233762406,0.27241093967362173,0.785695503975314,0.16980557557561826
plwiki,False,7.0,0.09740710730408612,0.9757001080868626,0.31036281940209587,0.7444197141916322,0.17713071678564932
plwiki,False,8.0,0.10201099680152999,0.972762110641643,0.346497499949543,0.7050678679582493,0.18465745350361953
plwiki,False,9.0,0.10685104660651015,0.9701680259408471,0.38080974873913587,0.6677168259300341,0.1925007116369209
plwiki,False,10.0,0.11152279839551524,0.966827159280731,0.411515257072762,0.6342080075857421,0.1999782530712456
plwiki,False,11.0,0.1161557574888649,0.9632504667387246,0.4396186797012647,0.6034961080191553,0.20731228911636918
plwiki,False,12.0,0.12075497820086356,0.9598899479217844,0.46525232606727746,0.575475140432507,0.21452280380830244
plwiki,False,13.0,0.12546234402133905,0.9562444728308932,0.48959726351182153,0.5488255287406261,0.22182105381924858
plwiki,False,14.0,0.13024160925904524,0.9522649110739904,0.512592943645895,0.5236087614674074,0.22914321924091818
plwiki,False,15.0,0.13489150685699078,0.9462022206937212,0.5342632868207088,0.49965493611261463,0.23612132803687902
plwiki,False,16.0,0.13948718098242688,0.940149356391864,0.5542248199059183,0.4775514298913514,0.24293135492520032
plwiki,False,17.0,0.1434734707999733,0.9290065834725361,0.5726838559307147,0.45665504048129335,0.24855995856676777
plwiki,False,18.0,0.14807336149751854,0.9223150240738921,0.5904058461338358,0.4369228877276188,0.2551789384399569
plwiki,False,19.0,0.1528270056015986,0.9168418983983492,0.6070364703129754,0.41847228526144353,0.2619842484311606
plwiki,False,20.0,0.1578049464320609,0.912538076053847,0.6228530550399807,0.4009990267013915,0.2690782659085147
plwiki,False,21.0,0.1628750173976008,0.9084111231207626,0.6378466301831477,0.3844311057497433,0.2762240112821325
plwiki,False,22.0,0.16814026702040383,0.9042252137172054,0.6523902037191661,0.3683453842749573,0.28355382863763323
plwiki,False,23.0,0.1733833567423706,0.9000294782352363,0.6659642555201817,0.3533082039444888,0.2907551074825095
plwiki,False,24.0,0.17878046101460873,0.8956273951066129,0.679089053225024,0.3387402781384835,0.29806311947966163
plwiki,False,25.0,0.18418520428256482,0.8915200943303527,0.6913437481545823,0.32513836940525226,0.3052970193750715
plwiki,False,26.0,0.1896826130045521,0.8876780976712194,0.7029720288868141,0.312236297161091,0.31257330883650447
plwiki,False,27.0,0.19515472825402616,0.8832760145425961,0.7140008058168315,0.29993697426300747,0.3196783692281431
plwiki,False,28.0,0.20070903379010177,0.8795126265107596,0.7243829857531883,0.28839007672311473,0.32683316019418357
plwiki,False,29.0,0.2063706425078585,0.8754053257344994,0.7344175730860169,0.2771910747789447,0.33400253810436975
plwiki,False,30.0,0.21215231178126892,0.8713962857423603,0.7440395343604632,0.26644676428778896,0.3412283250061084
plwiki,False,31.0,0.21805471815602978,0.86710228947627,0.7533423084484437,0.25602445948755786,0.34847629239706035
plwiki,False,32.0,0.22401167567346897,0.8626903802692345,0.762213768703659,0.2460592733189159,0.35566826549131453
plwiki,False,33.0,0.23013851612070577,0.8585634273361501,0.7707495965309511,0.23648081760319353,0.3629799953057201
plwiki,False,34.0,0.23618535419382877,0.8544168222462415,0.7787203060608937,0.2275123927692732,0.37007213840359204
plwiki,False,35.0,0.24235483211572548,0.8504470865677508,0.7863680908494939,0.2189080447215743,0.37721376100206805
plwiki,False,36.0,0.24842480612998524,0.8461236120664243,0.7935569038992415,0.21077133307928864,0.3840818565814886
plwiki,False,37.0,0.2545293568877718,0.8418001375650978,0.8004055994552141,0.20300274352084907,0.39087308829433876
plwiki,False,38.0,0.2605883108227914,0.8375749238478923,0.8068461540186563,0.19568399105827414,0.3975041737005568
plwiki,False,39.0,0.2665376069692237,0.833369362287511,0.8128643648810374,0.18882397534633816,0.40389647807338164
plwiki,False,40.0,0.27254727158795067,0.8291146703350692,0.8186493523191154,0.18221234090855767,0.41024007934578616
plwiki,False,41.0,0.27865735917665874,0.8252824997543481,0.8241869136243593,0.1759032947331034,0.4166369029902574
plwiki,False,42.0,0.2845966069841789,0.821381546624742,0.8293380117553576,0.1700068689153667,0.4227251694728831
plwiki,False,43.0,0.2903117736971042,0.8174314631030756,0.8340944240913817,0.16453358122917178,0.4284566496018788
plwiki,False,44.0,0.2957552143840146,0.8129999017392159,0.8385024963129021,0.15939767136487532,0.4337278028962715
plwiki,False,45.0,0.3009314772029363,0.8088631227277193,0.8425158827394483,0.1547132167154934,0.438662026996062
plwiki,False,46.0,0.30602207921310104,0.8046182568536897,0.8463266936916801,0.15023911754259497,0.44340358249041567
plwiki,False,47.0,0.31092372849021327,0.8007271298024958,0.8498399952757306,0.14611615020351892,0.447919529489364
plwiki,False,48.0,0.31572125321614436,0.7970030460843077,0.8531477313415654,0.14222942824572432,0.4522787912244164
plwiki,False,49.0,0.3204215707679178,0.7931512233467624,0.8562932575257536,0.13850775443101676,0.4564457073384509
plwiki,False,50.0,0.32501486644471506,0.7894664439422227,0.8592563910319613,0.1349972451523176,0.4604623306807729
plwiki,False,51.0,0.32955608391262603,0.7858602731649799,0.8620864675845603,0.1316372209452566,0.46437374256425445
plwiki,False,52.0,0.3339836375078666,0.7822049719956765,0.8647677894530686,0.12843415428603328,0.46809949429613074
plwiki,False,53.0,0.33823811902109185,0.7785791490616095,0.8672726987313991,0.12542445285326978,0.47159934648886565
plwiki,False,54.0,0.3423124183176807,0.7746781959320035,0.8696303483475896,0.12255148248022052,0.47481503118196355
plwiki,False,55.0,0.3464420302006019,0.7714454161344207,0.8719005391796665,0.1198281881192845,0.4781538911287867
plwiki,False,56.0,0.35041976105908945,0.7677901149651174,0.8740608458983699,0.11718903594894187,0.4812134723513799
plwiki,False,57.0,0.354387803933186,0.7640562051685172,0.8761606042280716,0.1146089451239196,0.4841944673630463
plwiki,False,58.0,0.35828889382661183,0.7605286430185713,0.8781587010651284,0.11215587664431236,0.4871017073953567
plwiki,False,59.0,0.3617001287122201,0.7565883855753169,0.8799108667913017,0.10993500824836186,0.4894231013704202
plwiki,False,60.0,0.3650925198256769,0.7531983885231404,0.8815800587992133,0.10784925279307575,0.49179886117571575
plwiki,False,61.0,0.36822749254336434,0.7496904785300187,0.8831072237218123,0.10590750993322831,0.49387638849330673
plwiki,False,62.0,0.3713666559048262,0.7459663948118306,0.8846127108261267,0.10397143049005544,0.495871925172112
plwiki,False,63.0,0.37467265801690275,0.742291441485703,0.8861480983694543,0.1020070339635098,0.49798611706230184
plwiki,False,64.0,0.3777735329305197,0.7384494448265697,0.8875743493103837,0.10014700611568095,0.4998403745876344
plwiki,False,65.0,0.38078997542797133,0.7339589269922374,0.888966214746448,0.09827079707735337,0.5014298756746596
plwiki,False,66.0,0.38392894094276375,0.7292424093544266,0.8903820005337229,0.09635008976515429,0.503026359489484
plwiki,False,67.0,0.38690794930754613,0.7241721528937801,0.8917200451795634,0.09448439850065089,0.5043524081956667
plwiki,False,68.0,0.39000932960149276,0.7188365923160067,0.8930812626656391,0.09257178178370118,0.5056662461767095
plwiki,False,69.0,0.3933611306655114,0.7137859880121843,0.8944843407663333,0.09063732045957817,0.5072056975282782
plwiki,False,70.0,0.3965590332259752,0.7077626019455635,0.8958365881207051,0.08867777829018214,0.5083114271096135
plwiki,False,71.0,0.39991819765910835,0.7013559988208706,0.8972209784470161,0.08665189323974133,0.5093827275030419
plwiki,False,72.0,0.40340532888878744,0.6944580917755724,0.898625551569661,0.0845637106058804,0.5103514510806381
plwiki,False,73.0,0.4068901303538175,0.6870394025744325,0.9000054568301199,0.08245934678152075,0.5110924308322063
plwiki,False,74.0,0.41064968546360703,0.679276800628869,0.9014384353698273,0.08026922264751785,0.5118598512474409
plwiki,False,75.0,0.41457889206736753,0.670728112410337,0.9028990718156219,0.07798443854909737,0.5124259155690848
plwiki,False,76.0,0.41823844633154705,0.6610690773312371,0.904263279345599,0.07571259940307588,0.5123368414639717
plwiki,False,77.0,0.4221251633882743,0.6505256951950477,0.9056663574462932,0.07332587380451341,0.5120086618588194
plwiki,False,78.0,0.42610184614173435,0.638193966787855,0.9070858807884447,0.07077410006286393,0.5110151221891768
plwiki,False,79.0,0.430243328578093,0.6252923258327602,0.9085009190647442,0.06818025522591774,0.5097465925976361
plwiki,False,80.0,0.4344633912915913,0.6111132946840916,0.9099002596105618,0.06549822290075348,0.5078658658576917
plwiki,False,81.0,0.43829805747101436,0.593956961776555,0.9112039187515371,0.06267460515872535,0.5043912167321003
plwiki,False,82.0,0.443745368199761,0.5765942812223641,0.9128043397497184,0.05951280053527378,0.5015213155105809
plwiki,False,83.0,0.4491743206586399,0.5564606465559595,0.9143457073808486,0.056186756828260125,0.4970945542642463
plwiki,False,84.0,0.45573943839272224,0.5336051881694016,0.9160410622728968,0.05246993737070217,0.49160812572421786
plwiki,False,85.0,0.4632726947660126,0.5092266876289673,0.9177835103563908,0.048576742936708085,0.4851639478549863
plwiki,False,86.0,0.4716207128446537,0.48237201532868235,0.9195095131984276,0.04449746481197861,0.47693578159914507
plwiki,False,87.0,0.4805018862418975,0.45306082342537096,0.9211286219709921,0.040331617318080944,0.46637805470140803
plwiki,False,88.0,0.4890540108660914,0.42101798172349414,0.9224920819899938,0.036217549633779204,0.4524928451489582
plwiki,False,89.0,0.5003614320317553,0.3876879237496315,0.9239684161662703,0.0318753271634454,0.4368768097086196
plwiki,False,90.0,0.5131710808876163,0.3522157806819298,0.9253012282352836,0.02751206914546324,0.4177252068523482
plwiki,False,91.0,0.5275910479808407,0.3138744227178933,0.9264232422092538,0.023140720532231717,0.3935927055416936
plwiki,False,92.0,0.5434421909465342,0.2735580229930235,0.9272529793918699,0.018923093228738117,0.36392394721534127
plwiki,False,93.0,0.5625970798384592,0.23133536405620517,0.9278420180404299,0.014809025544436381,0.32785812264564784
plwiki,False,94.0,0.5872402126631223,0.19101896433133536,0.9282434314341821,0.011054989348731354,0.2882690511143734
plwiki,False,95.0,0.6222523636653768,0.15326717107202514,0.9285073028084735,0.007660984641623038,0.24595346783667227
plwiki,False,96.0,0.6683690462973243,0.11830598408175297,0.9284602096170277,0.004833321601970222,0.201028517999065
plwiki,False,97.0,0.7301441018766756,0.08563427336150142,0.928032633339139,0.002605980729820235,0.15329006384887342
plwiki,False,98.0,0.8299115603284902,0.0516360420556156,0.9270489088956049,0.0008713571083565331,0.09722299309911012
plwiki,False,99.0,0.9464710547184774,0.023454849169696375,0.9256092027571194,0.0001092230358664178,0.04577532313120853
