wiki_db,user_is_anonymous_or_bot,threshold,precision,recall,accuracy,fpr,F1
stwiki,True,0.0,0.07692307692307693,1.0,0.07692307692307693,1.0,0.14285714285714288
stwiki,True,1.0,0.07692307692307693,1.0,0.07692307692307693,1.0,0.14285714285714288
stwiki,True,2.0,0.07692307692307693,1.0,0.07692307692307693,1.0,0.14285714285714288
stwiki,True,3.0,0.07692307692307693,1.0,0.07692307692307693,1.0,0.14285714285714288
stwiki,True,4.0,0.07692307692307693,1.0,0.07692307692307693,1.0,0.14285714285714288
stwiki,True,5.0,0.07692307692307693,1.0,0.07692307692307693,1.0,0.14285714285714288
stwiki,True,6.0,0.07692307692307693,1.0,0.07692307692307693,1.0,0.14285714285714288
stwiki,True,7.0,0.08,1.0,0.11538461538461539,0.9583333333333334,0.14814814814814814
stwiki,True,8.0,0.08,1.0,0.11538461538461539,0.9583333333333334,0.14814814814814814
stwiki,True,9.0,0.08,1.0,0.11538461538461539,0.9583333333333334,0.14814814814814814
stwiki,True,10.0,0.08,1.0,0.11538461538461539,0.9583333333333334,0.14814814814814814
stwiki,True,11.0,0.08333333333333333,1.0,0.15384615384615385,0.9166666666666666,0.15384615384615385
stwiki,True,12.0,0.08695652173913043,1.0,0.19230769230769232,0.875,0.16
stwiki,True,13.0,0.08695652173913043,1.0,0.19230769230769232,0.875,0.16
stwiki,True,14.0,0.09090909090909091,1.0,0.23076923076923078,0.8333333333333334,0.16666666666666669
stwiki,True,15.0,0.09523809523809523,1.0,0.2692307692307692,0.7916666666666666,0.17391304347826084
stwiki,True,16.0,0.09523809523809523,1.0,0.2692307692307692,0.7916666666666666,0.17391304347826084
stwiki,True,17.0,0.09523809523809523,1.0,0.2692307692307692,0.7916666666666666,0.17391304347826084
stwiki,True,18.0,0.09523809523809523,1.0,0.2692307692307692,0.7916666666666666,0.17391304347826084
stwiki,True,19.0,0.09523809523809523,1.0,0.2692307692307692,0.7916666666666666,0.17391304347826084
stwiki,True,20.0,0.09523809523809523,1.0,0.2692307692307692,0.7916666666666666,0.17391304347826084
stwiki,True,21.0,0.09523809523809523,1.0,0.2692307692307692,0.7916666666666666,0.17391304347826084
stwiki,True,22.0,0.09523809523809523,1.0,0.2692307692307692,0.7916666666666666,0.17391304347826084
stwiki,True,23.0,0.09523809523809523,1.0,0.2692307692307692,0.7916666666666666,0.17391304347826084
stwiki,True,24.0,0.09523809523809523,1.0,0.2692307692307692,0.7916666666666666,0.17391304347826084
stwiki,True,25.0,0.1,1.0,0.3076923076923077,0.75,0.18181818181818182
stwiki,True,26.0,0.1,1.0,0.3076923076923077,0.75,0.18181818181818182
stwiki,True,27.0,0.1,1.0,0.3076923076923077,0.75,0.18181818181818182
stwiki,True,28.0,0.1,1.0,0.3076923076923077,0.75,0.18181818181818182
stwiki,True,29.0,0.1,1.0,0.3076923076923077,0.75,0.18181818181818182
stwiki,True,30.0,0.1,1.0,0.3076923076923077,0.75,0.18181818181818182
stwiki,True,31.0,0.1,1.0,0.3076923076923077,0.75,0.18181818181818182
stwiki,True,32.0,0.1,1.0,0.3076923076923077,0.75,0.18181818181818182
stwiki,True,33.0,0.1,1.0,0.3076923076923077,0.75,0.18181818181818182
stwiki,True,34.0,0.1,1.0,0.3076923076923077,0.75,0.18181818181818182
stwiki,True,35.0,0.10526315789473684,1.0,0.34615384615384615,0.7083333333333334,0.1904761904761905
stwiki,True,36.0,0.1111111111111111,1.0,0.38461538461538464,0.6666666666666666,0.19999999999999998
stwiki,True,37.0,0.1111111111111111,1.0,0.38461538461538464,0.6666666666666666,0.19999999999999998
stwiki,True,38.0,0.11764705882352941,1.0,0.4230769230769231,0.625,0.21052631578947367
stwiki,True,39.0,0.11764705882352941,1.0,0.4230769230769231,0.625,0.21052631578947367
stwiki,True,40.0,0.13333333333333333,1.0,0.5,0.5416666666666666,0.23529411764705882
stwiki,True,41.0,0.15384615384615385,1.0,0.5769230769230769,0.4583333333333333,0.2666666666666667
stwiki,True,42.0,0.15384615384615385,1.0,0.5769230769230769,0.4583333333333333,0.2666666666666667
stwiki,True,43.0,0.15384615384615385,1.0,0.5769230769230769,0.4583333333333333,0.2666666666666667
stwiki,True,44.0,0.15384615384615385,1.0,0.5769230769230769,0.4583333333333333,0.2666666666666667
stwiki,True,45.0,0.15384615384615385,1.0,0.5769230769230769,0.4583333333333333,0.2666666666666667
stwiki,True,46.0,0.15384615384615385,1.0,0.5769230769230769,0.4583333333333333,0.2666666666666667
stwiki,True,47.0,0.15384615384615385,1.0,0.5769230769230769,0.4583333333333333,0.2666666666666667
stwiki,True,48.0,0.15384615384615385,1.0,0.5769230769230769,0.4583333333333333,0.2666666666666667
stwiki,True,49.0,0.16666666666666666,1.0,0.6153846153846154,0.4166666666666667,0.2857142857142857
stwiki,True,50.0,0.16666666666666666,1.0,0.6153846153846154,0.4166666666666667,0.2857142857142857
stwiki,True,51.0,0.16666666666666666,1.0,0.6153846153846154,0.4166666666666667,0.2857142857142857
stwiki,True,52.0,0.18181818181818182,1.0,0.6538461538461539,0.375,0.3076923076923077
stwiki,True,53.0,0.18181818181818182,1.0,0.6538461538461539,0.375,0.3076923076923077
stwiki,True,54.0,0.2222222222222222,1.0,0.7307692307692307,0.2916666666666667,0.3636363636363636
stwiki,True,55.0,0.25,1.0,0.7692307692307693,0.25,0.4
stwiki,True,56.0,0.25,1.0,0.7692307692307693,0.25,0.4
stwiki,True,57.0,0.25,1.0,0.7692307692307693,0.25,0.4
stwiki,True,58.0,0.25,1.0,0.7692307692307693,0.25,0.4
stwiki,True,59.0,0.2857142857142857,1.0,0.8076923076923077,0.20833333333333334,0.4444444444444445
stwiki,True,60.0,0.2857142857142857,1.0,0.8076923076923077,0.20833333333333334,0.4444444444444445
stwiki,True,61.0,0.3333333333333333,1.0,0.8461538461538461,0.16666666666666666,0.5
stwiki,True,62.0,0.3333333333333333,1.0,0.8461538461538461,0.16666666666666666,0.5
stwiki,True,63.0,0.3333333333333333,1.0,0.8461538461538461,0.16666666666666666,0.5
stwiki,True,64.0,0.3333333333333333,1.0,0.8461538461538461,0.16666666666666666,0.5
stwiki,True,65.0,0.3333333333333333,1.0,0.8461538461538461,0.16666666666666666,0.5
stwiki,True,66.0,0.3333333333333333,1.0,0.8461538461538461,0.16666666666666666,0.5
stwiki,True,67.0,0.3333333333333333,1.0,0.8461538461538461,0.16666666666666666,0.5
stwiki,True,68.0,0.3333333333333333,1.0,0.8461538461538461,0.16666666666666666,0.5
stwiki,True,69.0,0.3333333333333333,1.0,0.8461538461538461,0.16666666666666666,0.5
stwiki,True,70.0,0.3333333333333333,1.0,0.8461538461538461,0.16666666666666666,0.5
stwiki,True,71.0,0.3333333333333333,1.0,0.8461538461538461,0.16666666666666666,0.5
stwiki,True,72.0,0.3333333333333333,1.0,0.8461538461538461,0.16666666666666666,0.5
stwiki,True,73.0,0.3333333333333333,1.0,0.8461538461538461,0.16666666666666666,0.5
stwiki,True,74.0,0.2,0.5,0.8076923076923077,0.16666666666666666,0.28571428571428575
stwiki,True,75.0,0.2,0.5,0.8076923076923077,0.16666666666666666,0.28571428571428575
stwiki,True,76.0,0.2,0.5,0.8076923076923077,0.16666666666666666,0.28571428571428575
stwiki,True,77.0,0.2,0.5,0.8076923076923077,0.16666666666666666,0.28571428571428575
stwiki,True,78.0,0.2,0.5,0.8076923076923077,0.16666666666666666,0.28571428571428575
stwiki,True,79.0,0.2,0.5,0.8076923076923077,0.16666666666666666,0.28571428571428575
stwiki,True,80.0,0.2,0.5,0.8076923076923077,0.16666666666666666,0.28571428571428575
stwiki,True,81.0,0.2,0.5,0.8076923076923077,0.16666666666666666,0.28571428571428575
stwiki,True,82.0,0.3333333333333333,0.5,0.8846153846153846,0.08333333333333333,0.4
stwiki,True,83.0,0.3333333333333333,0.5,0.8846153846153846,0.08333333333333333,0.4
stwiki,True,84.0,0.5,0.5,0.9230769230769231,0.041666666666666664,0.5
stwiki,True,85.0,0.5,0.5,0.9230769230769231,0.041666666666666664,0.5
stwiki,True,86.0,0.5,0.5,0.9230769230769231,0.041666666666666664,0.5
stwiki,True,87.0,0.5,0.5,0.9230769230769231,0.041666666666666664,0.5
stwiki,True,88.0,0.5,0.5,0.9230769230769231,0.041666666666666664,0.5
stwiki,True,89.0,0.5,0.5,0.9230769230769231,0.041666666666666664,0.5
stwiki,True,90.0,0.5,0.5,0.9230769230769231,0.041666666666666664,0.5
stwiki,True,91.0,0.5,0.5,0.9230769230769231,0.041666666666666664,0.5
stwiki,True,92.0,0.0,0.0,0.8846153846153846,0.041666666666666664,0.5
stwiki,True,93.0,0.0,0.0,0.8846153846153846,0.041666666666666664,0.5
stwiki,True,94.0,0.0,0.0,0.9230769230769231,0.0,0.5
stwiki,True,95.0,0.0,0.0,0.9230769230769231,0.0,0.5
stwiki,True,96.0,0.0,0.0,0.9230769230769231,0.0,0.5
stwiki,True,97.0,0.0,0.0,0.9230769230769231,0.0,0.5
stwiki,True,98.0,0.0,0.0,0.9230769230769231,0.0,0.5
stwiki,True,99.0,0.0,0.0,0.9230769230769231,0.0,0.5
stwiki,False,0.0,0.025925925925925925,1.0,0.025925925925925925,1.0,0.05054151624548736
stwiki,False,1.0,0.025925925925925925,1.0,0.025925925925925925,1.0,0.05054151624548736
stwiki,False,2.0,0.025925925925925925,1.0,0.025925925925925925,1.0,0.05054151624548736
stwiki,False,3.0,0.026022304832713755,1.0,0.02962962962962963,0.9961977186311787,0.050724637681159424
stwiki,False,4.0,0.026022304832713755,1.0,0.02962962962962963,0.9961977186311787,0.050724637681159424
stwiki,False,5.0,0.02631578947368421,1.0,0.040740740740740744,0.9847908745247148,0.05128205128205127
stwiki,False,6.0,0.026717557251908396,1.0,0.05555555555555555,0.9695817490494296,0.0520446096654275
stwiki,False,7.0,0.026923076923076925,1.0,0.06296296296296296,0.9619771863117871,0.05243445692883896
stwiki,False,8.0,0.02702702702702703,1.0,0.06666666666666667,0.9581749049429658,0.052631578947368425
stwiki,False,9.0,0.02702702702702703,1.0,0.06666666666666667,0.9581749049429658,0.052631578947368425
stwiki,False,10.0,0.027131782945736434,1.0,0.07037037037037037,0.9543726235741445,0.05283018867924528
stwiki,False,11.0,0.027450980392156862,1.0,0.08148148148148149,0.9429657794676806,0.0534351145038168
stwiki,False,12.0,0.027777777777777776,1.0,0.09259259259259259,0.9315589353612167,0.05405405405405406
stwiki,False,13.0,0.027888446215139442,1.0,0.0962962962962963,0.9277566539923955,0.05426356589147287
stwiki,False,14.0,0.028455284552845527,1.0,0.11481481481481481,0.908745247148289,0.05533596837944663
stwiki,False,15.0,0.02880658436213992,1.0,0.1259259259259259,0.8973384030418251,0.056
stwiki,False,16.0,0.02880658436213992,1.0,0.1259259259259259,0.8973384030418251,0.056
stwiki,False,17.0,0.029166666666666667,1.0,0.13703703703703704,0.8859315589353612,0.056680161943319846
stwiki,False,18.0,0.029411764705882353,1.0,0.14444444444444443,0.8783269961977186,0.05714285714285715
stwiki,False,19.0,0.029661016949152543,1.0,0.15185185185185185,0.870722433460076,0.057613168724279844
stwiki,False,20.0,0.03017241379310345,1.0,0.16666666666666666,0.8555133079847909,0.05857740585774059
stwiki,False,21.0,0.03070175438596491,1.0,0.1814814814814815,0.8403041825095057,0.05957446808510638
stwiki,False,22.0,0.03139013452914798,1.0,0.2,0.8212927756653993,0.0608695652173913
stwiki,False,23.0,0.031818181818181815,1.0,0.2111111111111111,0.8098859315589354,0.06167400881057269
stwiki,False,24.0,0.03225806451612903,1.0,0.2222222222222222,0.7984790874524715,0.0625
stwiki,False,25.0,0.028846153846153848,0.8571428571428571,0.24814814814814815,0.7680608365019012,0.05581395348837209
stwiki,False,26.0,0.029556650246305417,0.8571428571428571,0.26666666666666666,0.7490494296577946,0.05714285714285714
stwiki,False,27.0,0.03,0.8571428571428571,0.2777777777777778,0.7376425855513308,0.05797101449275362
stwiki,False,28.0,0.025510204081632654,0.7142857142857143,0.2851851851851852,0.7262357414448669,0.04926108374384237
stwiki,False,29.0,0.02577319587628866,0.7142857142857143,0.29259259259259257,0.7186311787072244,0.04975124378109452
stwiki,False,30.0,0.02617801047120419,0.7142857142857143,0.3037037037037037,0.7072243346007605,0.05050505050505051
stwiki,False,31.0,0.026595744680851064,0.7142857142857143,0.3148148148148148,0.6958174904942965,0.05128205128205128
stwiki,False,32.0,0.02702702702702703,0.7142857142857143,0.32592592592592595,0.6844106463878327,0.052083333333333336
stwiki,False,33.0,0.027932960893854747,0.7142857142857143,0.34814814814814815,0.6615969581749049,0.053763440860215055
stwiki,False,34.0,0.028089887640449437,0.7142857142857143,0.35185185185185186,0.6577946768060836,0.05405405405405406
stwiki,False,35.0,0.02824858757062147,0.7142857142857143,0.35555555555555557,0.6539923954372624,0.05434782608695652
stwiki,False,36.0,0.028901734104046242,0.7142857142857143,0.37037037037037035,0.6387832699619772,0.05555555555555555
stwiki,False,37.0,0.029411764705882353,0.7142857142857143,0.3814814814814815,0.6273764258555133,0.05649717514124294
stwiki,False,38.0,0.030120481927710843,0.7142857142857143,0.3962962962962963,0.6121673003802282,0.05780346820809248
stwiki,False,39.0,0.03067484662576687,0.7142857142857143,0.4074074074074074,0.6007604562737643,0.058823529411764705
stwiki,False,40.0,0.03184713375796178,0.7142857142857143,0.42962962962962964,0.5779467680608364,0.06097560975609756
stwiki,False,41.0,0.03225806451612903,0.7142857142857143,0.43703703703703706,0.5703422053231939,0.0617283950617284
stwiki,False,42.0,0.03289473684210526,0.7142857142857143,0.44814814814814813,0.55893536121673,0.06289308176100628
stwiki,False,43.0,0.033112582781456956,0.7142857142857143,0.45185185185185184,0.5551330798479087,0.06329113924050632
stwiki,False,44.0,0.033112582781456956,0.7142857142857143,0.45185185185185184,0.5551330798479087,0.06329113924050632
stwiki,False,45.0,0.033112582781456956,0.7142857142857143,0.45185185185185184,0.5551330798479087,0.06329113924050632
stwiki,False,46.0,0.03355704697986577,0.7142857142857143,0.45925925925925926,0.5475285171102662,0.06410256410256411
stwiki,False,47.0,0.033783783783783786,0.7142857142857143,0.46296296296296297,0.5437262357414449,0.06451612903225806
stwiki,False,48.0,0.034013605442176874,0.7142857142857143,0.4666666666666667,0.5399239543726235,0.06493506493506493
stwiki,False,49.0,0.034482758620689655,0.7142857142857143,0.4740740740740741,0.532319391634981,0.06578947368421054
stwiki,False,50.0,0.034482758620689655,0.7142857142857143,0.4740740740740741,0.532319391634981,0.06578947368421054
stwiki,False,51.0,0.034722222222222224,0.7142857142857143,0.4777777777777778,0.5285171102661597,0.06622516556291391
stwiki,False,52.0,0.03546099290780142,0.7142857142857143,0.4888888888888889,0.5171102661596958,0.06756756756756757
stwiki,False,53.0,0.03676470588235294,0.7142857142857143,0.5074074074074074,0.49809885931558934,0.06993006993006994
stwiki,False,54.0,0.03787878787878788,0.7142857142857143,0.5222222222222223,0.4828897338403042,0.07194244604316546
stwiki,False,55.0,0.03875968992248062,0.7142857142857143,0.5333333333333333,0.4714828897338403,0.07352941176470588
stwiki,False,56.0,0.03875968992248062,0.7142857142857143,0.5333333333333333,0.4714828897338403,0.07352941176470588
stwiki,False,57.0,0.03968253968253968,0.7142857142857143,0.5444444444444444,0.4600760456273764,0.07518796992481203
stwiki,False,58.0,0.04032258064516129,0.7142857142857143,0.5518518518518518,0.4524714828897338,0.07633587786259542
stwiki,False,59.0,0.041666666666666664,0.7142857142857143,0.5666666666666667,0.4372623574144487,0.07874015748031496
stwiki,False,60.0,0.04310344827586207,0.7142857142857143,0.5814814814814815,0.4220532319391635,0.0813008130081301
stwiki,False,61.0,0.044642857142857144,0.7142857142857143,0.5962962962962963,0.4068441064638783,0.08403361344537816
stwiki,False,62.0,0.045871559633027525,0.7142857142857143,0.6074074074074074,0.39543726235741444,0.08620689655172413
stwiki,False,63.0,0.045871559633027525,0.7142857142857143,0.6074074074074074,0.39543726235741444,0.08620689655172413
stwiki,False,64.0,0.04716981132075472,0.7142857142857143,0.6185185185185185,0.3840304182509506,0.08849557522123895
stwiki,False,65.0,0.04854368932038835,0.7142857142857143,0.6296296296296297,0.3726235741444867,0.09090909090909091
stwiki,False,66.0,0.05,0.7142857142857143,0.6407407407407407,0.3612167300380228,0.09345794392523366
stwiki,False,67.0,0.05154639175257732,0.7142857142857143,0.6518518518518519,0.34980988593155893,0.09615384615384615
stwiki,False,68.0,0.052083333333333336,0.7142857142857143,0.6555555555555556,0.34600760456273766,0.0970873786407767
stwiki,False,69.0,0.054945054945054944,0.7142857142857143,0.674074074074074,0.3269961977186312,0.1020408163265306
stwiki,False,70.0,0.05747126436781609,0.7142857142857143,0.6888888888888889,0.311787072243346,0.10638297872340424
stwiki,False,71.0,0.060240963855421686,0.7142857142857143,0.7037037037037037,0.2965779467680608,0.1111111111111111
stwiki,False,72.0,0.0625,0.7142857142857143,0.7148148148148148,0.28517110266159695,0.11494252873563218
stwiki,False,73.0,0.0625,0.7142857142857143,0.7148148148148148,0.28517110266159695,0.11494252873563218
stwiki,False,74.0,0.043478260869565216,0.42857142857142855,0.7407407407407407,0.2509505703422053,0.07894736842105261
stwiki,False,75.0,0.04838709677419355,0.42857142857142855,0.7666666666666667,0.22433460076045628,0.08695652173913042
stwiki,False,76.0,0.05357142857142857,0.42857142857142855,0.7888888888888889,0.20152091254752852,0.09523809523809523
stwiki,False,77.0,0.05660377358490566,0.42857142857142855,0.8,0.19011406844106463,0.1
stwiki,False,78.0,0.06818181818181818,0.42857142857142855,0.8333333333333334,0.155893536121673,0.1176470588235294
stwiki,False,79.0,0.08333333333333333,0.42857142857142855,0.8629629629629629,0.12547528517110265,0.13953488372093023
stwiki,False,80.0,0.08823529411764706,0.42857142857142855,0.8703703703703703,0.11787072243346007,0.14634146341463417
stwiki,False,81.0,0.0967741935483871,0.42857142857142855,0.8814814814814815,0.10646387832699619,0.15789473684210525
stwiki,False,82.0,0.11538461538461539,0.42857142857142855,0.9,0.08745247148288973,0.18181818181818182
stwiki,False,83.0,0.08695652173913043,0.2857142857142857,0.9037037037037037,0.07984790874524715,0.13333333333333333
stwiki,False,84.0,0.1,0.2857142857142857,0.9148148148148149,0.06844106463878327,0.14814814814814817
stwiki,False,85.0,0.058823529411764705,0.14285714285714285,0.9185185185185185,0.060836501901140684,0.08333333333333333
stwiki,False,86.0,0.0625,0.14285714285714285,0.9222222222222223,0.057034220532319393,0.08695652173913043
stwiki,False,87.0,0.06666666666666667,0.14285714285714285,0.9259259259259259,0.053231939163498096,0.09090909090909091
stwiki,False,88.0,0.09090909090909091,0.14285714285714285,0.9407407407407408,0.03802281368821293,0.1111111111111111
stwiki,False,89.0,0.1,0.14285714285714285,0.9444444444444444,0.034220532319391636,0.11764705882352941
stwiki,False,90.0,0.16666666666666666,0.14285714285714285,0.9592592592592593,0.019011406844106463,0.15384615384615383
stwiki,False,91.0,0.2,0.14285714285714285,0.9629629629629629,0.015209125475285171,0.16666666666666666
stwiki,False,92.0,0.0,0.0,0.9629629629629629,0.011406844106463879,0.16666666666666666
stwiki,False,93.0,0.0,0.0,0.9666666666666667,0.0076045627376425855,0.16666666666666666
stwiki,False,94.0,0.0,0.0,0.9703703703703703,0.0038022813688212928,0.16666666666666666
stwiki,False,95.0,0.0,0.0,0.9703703703703703,0.0038022813688212928,0.16666666666666666
stwiki,False,96.0,0.0,0.0,0.9703703703703703,0.0038022813688212928,0.16666666666666666
stwiki,False,97.0,0.0,0.0,0.9740740740740741,0.0,0.16666666666666666
stwiki,False,98.0,0.0,0.0,0.9740740740740741,0.0,0.16666666666666666
stwiki,False,99.0,0.0,0.0,0.9740740740740741,0.0,0.16666666666666666
