wiki_db,user_is_anonymous_or_bot,threshold,precision,recall,accuracy,fpr,F1
warwiki,True,0.0,0.43591654247391953,1.0,0.43591654247391953,1.0,0.6071613907628438
warwiki,True,1.0,0.43591654247391953,1.0,0.43591654247391953,1.0,0.6071613907628438
warwiki,True,2.0,0.43591654247391953,1.0,0.43591654247391953,1.0,0.6071613907628438
warwiki,True,3.0,0.436241610738255,1.0,0.4366616989567809,0.9986789960369881,0.6074766355140186
warwiki,True,4.0,0.436241610738255,1.0,0.4366616989567809,0.9986789960369881,0.6074766355140186
warwiki,True,5.0,0.43820224719101125,1.0,0.44113263785394935,0.9907529722589168,0.609375
warwiki,True,6.0,0.44150943396226416,1.0,0.4485842026825633,0.9775429326287979,0.6125654450261779
warwiki,True,7.0,0.4513888888888889,1.0,0.470193740685544,0.9392338177014531,0.6220095693779905
warwiki,True,8.0,0.46281645569620256,1.0,0.4940387481371088,0.8969616908850726,0.6327744726879394
warwiki,True,9.0,0.4721549636803874,1.0,0.5126676602086438,0.8639365918097754,0.6414473684210525
warwiki,True,10.0,0.4936708860759494,1.0,0.5529061102831595,0.7926023778071334,0.6610169491525424
warwiki,True,11.0,0.5078125,1.0,0.5774962742175856,0.7490092470277411,0.6735751295336787
warwiki,True,12.0,0.5181576616474757,1.0,0.5946348733233979,0.7186261558784677,0.6826137689614936
warwiki,True,13.0,0.527027027027027,1.0,0.6087928464977646,0.6935270805812418,0.6902654867256637
warwiki,True,14.0,0.5327868852459017,1.0,0.6177347242921013,0.6776750330250991,0.6951871657754011
warwiki,True,15.0,0.5396678966789668,1.0,0.6281669150521609,0.6591809775429326,0.701018573996405
warwiki,True,16.0,0.5452003727865797,1.0,0.6363636363636364,0.6446499339498019,0.7056694813027745
warwiki,True,17.0,0.5492957746478874,1.0,0.6423248882265276,0.6340819022457067,0.7090909090909091
warwiki,True,18.0,0.5524079320113314,1.0,0.646795827123696,0.6261558784676354,0.7116788321167884
warwiki,True,19.0,0.5534531693472091,1.0,0.6482861400894188,0.6235138705416117,0.7125456760048722
warwiki,True,20.0,0.5555555555555556,1.0,0.6512667660208644,0.618229854689564,0.7142857142857143
warwiki,True,21.0,0.5555555555555556,1.0,0.6512667660208644,0.618229854689564,0.7142857142857143
warwiki,True,22.0,0.5560836501901141,1.0,0.6520119225037257,0.6169088507265522,0.7147220525351252
warwiki,True,23.0,0.5560836501901141,1.0,0.6520119225037257,0.6169088507265522,0.7147220525351252
warwiki,True,24.0,0.5571428571428572,1.0,0.6535022354694486,0.6142668428005285,0.7155963302752294
warwiki,True,25.0,0.5587392550143266,1.0,0.6557377049180327,0.6103038309114928,0.7169117647058824
warwiki,True,26.0,0.5592734225621415,1.0,0.6564828614008942,0.6089828269484808,0.7173513182096873
warwiki,True,27.0,0.5608820709491851,1.0,0.6587183308494784,0.6050198150594451,0.7186732186732187
warwiki,True,28.0,0.5619596541786743,1.0,0.6602086438152012,0.6023778071334214,0.7195571955719557
warwiki,True,29.0,0.563041385948027,1.0,0.6616989567809239,0.5997357992073976,0.7204433497536946
warwiki,True,30.0,0.5635838150289018,1.0,0.6624441132637854,0.5984147952443857,0.7208872458410351
warwiki,True,31.0,0.5646718146718147,1.0,0.6639344262295082,0.5957727873183619,0.7217766810610735
warwiki,True,32.0,0.5657640232108317,1.0,0.665424739195231,0.5931307793923382,0.7226683137739346
warwiki,True,33.0,0.5668604651162791,1.0,0.6669150521609538,0.5904887714663144,0.7235621521335808
warwiki,True,34.0,0.5685131195335277,1.0,0.669150521609538,0.5865257595772787,0.7249070631970259
warwiki,True,35.0,0.5707317073170731,1.0,0.6721311475409836,0.5812417437252312,0.7267080745341614
warwiki,True,36.0,0.5769230769230769,1.0,0.680327868852459,0.5667107001321003,0.7317073170731707
warwiki,True,37.0,0.5780632411067194,1.0,0.6818181818181818,0.5640686922060766,0.7326236693800877
warwiki,True,38.0,0.5803571428571429,1.0,0.6847988077496274,0.5587846763540291,0.7344632768361583
warwiki,True,39.0,0.5832502492522432,1.0,0.6885245901639344,0.5521796565389696,0.7367758186397984
warwiki,True,40.0,0.585,1.0,0.6907600596125186,0.5482166446499339,0.7381703470031545
warwiki,True,41.0,0.5873493975903614,1.0,0.6937406855439643,0.5429326287978864,0.7400379506641366
warwiki,True,42.0,0.5909090909090909,1.0,0.6982116244411326,0.535006605019815,0.7428571428571429
warwiki,True,43.0,0.5933062880324543,1.0,0.7011922503725783,0.5297225891677675,0.7447485677912157
warwiki,True,44.0,0.6,1.0,0.7093889716840537,0.5151915455746368,0.7499999999999999
warwiki,True,45.0,0.6043388429752066,1.0,0.7146050670640834,0.5059445178335535,0.7533805537669027
warwiki,True,46.0,0.6074766355140186,1.0,0.7183308494783904,0.49933949801849403,0.7558139534883721
warwiki,True,47.0,0.609375,1.0,0.7205663189269746,0.4953764861294584,0.7572815533980582
warwiki,True,48.0,0.6136842105263158,0.9965811965811966,0.7250372578241431,0.4848084544253633,0.7596091205211727
warwiki,True,49.0,0.6169312169312169,0.9965811965811966,0.7287630402384501,0.47820343461030385,0.7620915032679738
warwiki,True,50.0,0.6204690831556503,0.9948717948717949,0.732488822652757,0.4702774108322325,0.7642810242941563
warwiki,True,51.0,0.6240601503759399,0.9931623931623932,0.736214605067064,0.4623513870541612,0.766490765171504
warwiki,True,52.0,0.6263498920086393,0.9914529914529915,0.7384500745156483,0.4570673712021136,0.7677035076108538
warwiki,True,53.0,0.6279826464208242,0.9897435897435898,0.7399403874813711,0.45310435931307796,0.7684140676841407
warwiki,True,54.0,0.6279826464208242,0.9897435897435898,0.7399403874813711,0.45310435931307796,0.7684140676841407
warwiki,True,55.0,0.6293478260869565,0.9897435897435898,0.7414307004470939,0.45046235138705415,0.7694352159468438
warwiki,True,56.0,0.6300326441784548,0.9897435897435898,0.7421758569299552,0.44914134742404227,0.7699468085106382
warwiki,True,57.0,0.631004366812227,0.9880341880341881,0.7429210134128167,0.4464993394980185,0.7701532311792137
warwiki,True,58.0,0.6330777656078861,0.9880341880341881,0.7451564828614009,0.4425363276089828,0.7716955941255006
warwiki,True,59.0,0.6344676180021954,0.9880341880341881,0.7466467958271237,0.43989431968295906,0.7727272727272727
warwiki,True,60.0,0.6343612334801763,0.9846153846153847,0.7459016393442623,0.4385733157199472,0.7716008037508373
warwiki,True,61.0,0.6357615894039735,0.9846153846153847,0.7473919523099851,0.43593130779392336,0.7726358148893361
warwiki,True,62.0,0.6357615894039735,0.9846153846153847,0.7473919523099851,0.43593130779392336,0.7726358148893361
warwiki,True,63.0,0.63646408839779,0.9846153846153847,0.7481371087928465,0.4346103038309115,0.7731543624161072
warwiki,True,64.0,0.63646408839779,0.9846153846153847,0.7481371087928465,0.4346103038309115,0.7731543624161072
warwiki,True,65.0,0.63646408839779,0.9846153846153847,0.7481371087928465,0.4346103038309115,0.7731543624161072
warwiki,True,66.0,0.6374722838137472,0.9829059829059829,0.7488822652757079,0.4319682959048877,0.7733691997310019
warwiki,True,67.0,0.6381798002219756,0.9829059829059829,0.7496274217585693,0.43064729194187584,0.7738896366083445
warwiki,True,68.0,0.6388888888888888,0.9829059829059829,0.7503725782414307,0.42932628797886396,0.7744107744107743
warwiki,True,69.0,0.6403118040089086,0.9829059829059829,0.7518628912071535,0.42668428005284015,0.7754551584625758
warwiki,True,70.0,0.6417410714285714,0.9829059829059829,0.7533532041728763,0.4240422721268164,0.7765023632680621
warwiki,True,71.0,0.6438969764837627,0.9829059829059829,0.7555886736214605,0.4200792602377807,0.7780784844384304
warwiki,True,72.0,0.6482525366403608,0.9829059829059829,0.7600596125186289,0.41215323645970936,0.78125
warwiki,True,73.0,0.6474576271186441,0.9794871794871794,0.7585692995529061,0.41215323645970936,0.7795918367346939
warwiki,True,74.0,0.6489241223103058,0.9794871794871794,0.7600596125186289,0.4095112285336856,0.7806539509536785
warwiki,True,75.0,0.6496018202502845,0.976068376068376,0.7600596125186289,0.40686922060766184,0.7800546448087432
warwiki,True,76.0,0.6529209621993127,0.9743589743589743,0.7630402384500745,0.4002642007926024,0.7818930041152263
warwiki,True,77.0,0.6544202066590127,0.9743589743589743,0.7645305514157973,0.39762219286657857,0.782967032967033
warwiki,True,78.0,0.6544202066590127,0.9743589743589743,0.7645305514157973,0.39762219286657857,0.782967032967033
warwiki,True,79.0,0.6559263521288837,0.9743589743589743,0.7660208643815202,0.3949801849405548,0.7840440165061897
warwiki,True,80.0,0.65625,0.9692307692307692,0.7652757078986587,0.39233817701453105,0.7826086956521738
warwiki,True,81.0,0.6569767441860465,0.9658119658119658,0.7652757078986587,0.38969616908850724,0.7820069204152249
warwiki,True,82.0,0.6623529411764706,0.9623931623931624,0.7697466467958272,0.37912813738441214,0.7846689895470383
warwiki,True,83.0,0.6686674669867947,0.9521367521367521,0.7734724292101341,0.36459709379128136,0.7856135401974612
warwiki,True,84.0,0.6735941320293398,0.9418803418803419,0.7757078986587184,0.3527080581241744,0.7854597291518176
warwiki,True,85.0,0.6777777777777778,0.9384615384615385,0.7786885245901639,0.34478203434610305,0.7870967741935484
warwiki,True,86.0,0.6811955168119551,0.935042735042735,0.7809239940387481,0.3381770145310436,0.7881844380403459
warwiki,True,87.0,0.6846057571964956,0.935042735042735,0.7839046199701938,0.332892998678996,0.7904624277456648
warwiki,True,88.0,0.687012987012987,0.9042735042735043,0.7786885245901639,0.31836195508586523,0.7808118081180812
warwiki,True,89.0,0.6924101198402131,0.8888888888888888,0.7794336810730254,0.3051519154557464,0.778443113772455
warwiki,True,90.0,0.6964285714285714,0.8666666666666667,0.7771982116244411,0.2919418758256275,0.7722772277227722
warwiki,True,91.0,0.6929577464788732,0.841025641025641,0.7682563338301043,0.28797886393659183,0.7598455598455597
warwiki,True,92.0,0.6818181818181818,0.7692307692307693,0.7429210134128167,0.2774108322324967,0.7228915662650602
warwiki,True,93.0,0.8205128205128205,0.2188034188034188,0.6385991058122206,0.036988110964332896,0.3454790823211876
warwiki,True,94.0,0.8583333333333333,0.17606837606837608,0.6281669150521609,0.022457067371202115,0.2921985815602837
warwiki,True,95.0,0.92,0.15726495726495726,0.6266766020864382,0.010568031704095112,0.26861313868613135
warwiki,True,96.0,0.9263157894736842,0.15042735042735042,0.624441132637854,0.009247027741083224,0.2588235294117647
warwiki,True,97.0,0.9555555555555556,0.147008547008547,0.6251862891207154,0.005284015852047556,0.2548148148148148
warwiki,True,98.0,0.9651162790697675,0.14188034188034188,0.6236959761549925,0.003963011889035667,0.24739195230998506
warwiki,True,99.0,1.0,0.11965811965811966,0.6162444113263785,0.0,0.21374045801526717
warwiki,False,0.0,0.3229946524064171,1.0,0.3229946524064171,1.0,0.48827809215844786
warwiki,False,1.0,0.3229946524064171,1.0,0.3229946524064171,1.0,0.48827809215844786
warwiki,False,2.0,0.323167469234885,1.0,0.3235294117647059,0.9992101105845181,0.48847553578649416
warwiki,False,3.0,0.3236870310825295,1.0,0.3251336898395722,0.9968404423380727,0.4890688259109312
warwiki,False,4.0,0.32386058981233246,1.0,0.325668449197861,0.9960505529225908,0.4892669096800324
warwiki,False,5.0,0.3256064690026954,1.0,0.33101604278074864,0.9881516587677726,0.49125660837738916
warwiki,False,6.0,0.3282608695652174,1.0,0.3390374331550802,0.976303317535545,0.49427168576104746
warwiki,False,7.0,0.3346260387811634,1.0,0.35775401069518714,0.9486571879936809,0.5014528850145288
warwiki,False,8.0,0.34085778781038373,1.0,0.3754010695187166,0.9225908372827805,0.5084175084175083
warwiki,False,9.0,0.3461318051575931,1.0,0.38983957219251336,0.9012638230647709,0.5142613878246062
warwiki,False,10.0,0.3578199052132701,1.0,0.4203208556149733,0.8562401263823065,0.5270506108202443
warwiki,False,11.0,0.3658388855239249,1.0,0.44010695187165777,0.8270142180094787,0.5356984478935698
warwiki,False,12.0,0.3723797780517879,1.0,0.4556149732620321,0.8041074249605056,0.5426774483378257
warwiki,False,13.0,0.37797246558197745,1.0,0.46844919786096256,0.7851500789889415,0.5485921889191644
warwiki,False,14.0,0.38300570703868103,1.0,0.47967914438502673,0.768562401263823,0.5538743695552499
warwiki,False,15.0,0.38817480719794345,1.0,0.4909090909090909,0.7519747235387045,0.5592592592592592
warwiki,False,16.0,0.39195327709279687,1.0,0.49893048128342243,0.7401263823064771,0.5631701631701631
warwiki,False,17.0,0.39554682383759004,1.0,0.5064171122994653,0.7290679304897314,0.5668700140778977
warwiki,False,18.0,0.39920687376074027,1.0,0.513903743315508,0.7180094786729858,0.5706188001889467
warwiki,False,19.0,0.40132890365448504,1.0,0.5181818181818182,0.7116903633491312,0.5727833096254149
warwiki,False,20.0,0.4040133779264214,1.0,0.5235294117647059,0.7037914691943128,0.5755121486422106
warwiki,False,21.0,0.407557354925776,1.0,0.5304812834224599,0.693522906793049,0.5790987535953979
warwiki,False,22.0,0.4097693351424695,1.0,0.5347593582887701,0.6872037914691943,0.5813282001924928
warwiki,False,23.0,0.4111640571817563,1.0,0.5374331550802139,0.6832543443917851,0.5827303424987941
warwiki,False,24.0,0.41426611796982166,1.0,0.5433155080213904,0.674565560821485,0.585838991270611
warwiki,False,25.0,0.416551724137931,1.0,0.5475935828877005,0.6682464454976303,0.5881207400194741
warwiki,False,26.0,0.4182825484764543,1.0,0.5508021390374331,0.6635071090047393,0.58984375
warwiki,False,27.0,0.42032011134307584,1.0,0.5545454545454546,0.6579778830963665,0.5918667319941205
warwiki,False,28.0,0.42267319804058784,1.0,0.5588235294117647,0.6516587677725119,0.5941957697983277
warwiki,False,29.0,0.42595204513399154,1.0,0.5647058823529412,0.6429699842022117,0.5974282888229476
warwiki,False,30.0,0.4289772727272727,1.0,0.5700534759358289,0.6350710900473934,0.6003976143141153
warwiki,False,31.0,0.43421998562185476,1.0,0.5791443850267379,0.6216429699842022,0.6055137844611529
warwiki,False,32.0,0.43768115942028984,1.0,0.5850267379679145,0.6129541864139021,0.6088709677419355
warwiki,False,33.0,0.4399126001456664,1.0,0.5887700534759358,0.6074249605055292,0.6110268082953971
warwiki,False,34.0,0.443791329904482,1.0,0.5951871657754011,0.5979462875197472,0.6147582697201018
warwiki,False,35.0,0.44707623982235384,1.0,0.6005347593582888,0.590047393364929,0.6179028132992328
warwiki,False,36.0,0.45379413974455296,1.0,0.6112299465240641,0.5742496050552922,0.6242894056847544
warwiki,False,37.0,0.4565381708238851,1.0,0.6155080213903743,0.5679304897314376,0.6268811624286456
warwiki,False,38.0,0.4603658536585366,1.0,0.6213903743315508,0.5592417061611374,0.6304801670146137
warwiki,False,39.0,0.4635456638526477,1.0,0.6262032085561497,0.5521327014218009,0.6334556895647614
warwiki,False,40.0,0.4671307037896365,1.0,0.6315508021390375,0.5442338072669827,0.6367949393779653
warwiki,False,41.0,0.46967340590979784,1.0,0.6352941176470588,0.5387045813586098,0.6391534391534391
warwiki,False,42.0,0.4748427672955975,1.0,0.6427807486631016,0.5276461295418642,0.6439232409381663
warwiki,False,43.0,0.4789515488482923,0.9983443708609272,0.6486631016042781,0.5181674565560821,0.6473429951690821
warwiki,False,44.0,0.48589846897663175,0.9983443708609272,0.658288770053476,0.5039494470774092,0.6536585365853659
warwiki,False,45.0,0.4902439024390244,0.9983443708609272,0.6641711229946524,0.495260663507109,0.6575790621592148
warwiki,False,46.0,0.49507389162561577,0.9983443708609272,0.6705882352941176,0.48578199052132703,0.6619099890230516
warwiki,False,47.0,0.49793559042113955,0.9983443708609272,0.674331550802139,0.4802527646129542,0.6644628099173554
warwiki,False,48.0,0.502928870292887,0.9950331125827815,0.6807486631016043,0.46919431279620855,0.6681489716509172
warwiki,False,49.0,0.5054667788057191,0.9950331125827815,0.6839572192513369,0.46445497630331756,0.6703848298940324
warwiki,False,50.0,0.5080440304826418,0.9933774834437086,0.6871657754010695,0.4589257503949447,0.672268907563025
warwiki,False,51.0,0.5106564364876386,0.9917218543046358,0.6903743315508022,0.45339652448657186,0.6741699493528418
warwiki,False,52.0,0.5137457044673539,0.9900662251655629,0.6941176470588235,0.4470774091627172,0.6764705882352942
warwiki,False,53.0,0.5150992234685073,0.9884105960264901,0.6957219251336898,0.4439178515007899,0.6772546795235393
warwiki,False,54.0,0.5164359861591695,0.9884105960264901,0.6973262032085561,0.4415481832543444,0.6784090909090909
warwiki,False,55.0,0.5195822454308094,0.9884105960264901,0.7010695187165775,0.43601895734597157,0.6811180832857957
warwiki,False,56.0,0.5223097112860893,0.9884105960264901,0.7042780748663101,0.4312796208530806,0.683457355466514
warwiki,False,57.0,0.5241864555848724,0.9867549668874173,0.7064171122994652,0.4273301737756714,0.684663986214819
warwiki,False,58.0,0.5274336283185841,0.9867549668874173,0.7101604278074867,0.4218009478672986,0.6874279123414072
warwiki,False,59.0,0.5316681534344335,0.9867549668874173,0.7149732620320856,0.4146919431279621,0.6910144927536231
warwiki,False,60.0,0.5336927223719676,0.9834437086092715,0.7171122994652407,0.4099526066350711,0.6919044845661037
warwiki,False,61.0,0.5356176735798016,0.9834437086092715,0.7192513368983957,0.4067930489731438,0.6935201401050789
warwiki,False,62.0,0.5385312783318223,0.9834437086092715,0.7224598930481283,0.4020537124802528,0.6959578207381371
warwiki,False,63.0,0.54049135577798,0.9834437086092715,0.7245989304812834,0.3988941548183254,0.6975924838520259
warwiki,False,64.0,0.541970802919708,0.9834437086092715,0.7262032085561497,0.39652448657187994,0.6988235294117647
warwiki,False,65.0,0.5454545454545454,0.9834437086092715,0.7299465240641712,0.3909952606635071,0.7017129356172475
warwiki,False,66.0,0.5512104283054003,0.9801324503311258,0.7358288770053476,0.3807266982622433,0.7056019070321811
warwiki,False,67.0,0.5532710280373832,0.9801324503311258,0.7379679144385026,0.37756714060031593,0.7072879330943846
warwiki,False,68.0,0.5584905660377358,0.9801324503311258,0.7433155080213903,0.3696682464454976,0.7115384615384615
warwiki,False,69.0,0.5643469971401335,0.9801324503311258,0.7491978609625668,0.3609794628751975,0.7162734422262552
warwiki,False,70.0,0.5675934803451582,0.9801324503311258,0.7524064171122995,0.35624012638230645,0.718882817243473
warwiki,False,71.0,0.574757281553398,0.9801324503311258,0.7593582887700535,0.3459715639810427,0.7246022031823744
warwiki,False,72.0,0.581532416502947,0.9801324503311258,0.7657754010695187,0.33649289099526064,0.7299630086313194
warwiki,False,73.0,0.5835806132542037,0.9768211920529801,0.767379679144385,0.3325434439178515,0.7306501547987616
warwiki,False,74.0,0.5876494023904383,0.9768211920529801,0.7711229946524064,0.32701421800947866,0.7338308457711443
warwiki,False,75.0,0.5899497487437186,0.9718543046357616,0.7727272727272727,0.3222748815165877,0.734208880550344
warwiki,False,76.0,0.5945121951219512,0.9685430463576159,0.7764705882352941,0.31516587677725116,0.7367758186397985
warwiki,False,77.0,0.5977482088024565,0.9668874172185431,0.779144385026738,0.3104265402843602,0.7387729285262492
warwiki,False,78.0,0.5997942386831275,0.9652317880794702,0.7807486631016043,0.30726698262243285,0.7398477157360406
warwiki,False,79.0,0.6047717842323651,0.9652317880794702,0.7850267379679144,0.3009478672985782,0.7436224489795917
warwiki,False,80.0,0.608604407135362,0.9602649006622517,0.7877005347593583,0.29462875197472355,0.7450224791265254
warwiki,False,81.0,0.613588110403397,0.956953642384106,0.7914438502673797,0.28751974723538704,0.7477360931435963
warwiki,False,82.0,0.6202804746494067,0.9519867549668874,0.7962566844919786,0.27804107424960506,0.7511430437622469
warwiki,False,83.0,0.6290143964562569,0.9403973509933775,0.8016042780748663,0.2646129541864139,0.7538155275381553
warwiki,False,84.0,0.6382252559726962,0.9288079470198676,0.8069518716577541,0.25118483412322273,0.7565745111260958
warwiki,False,85.0,0.6458333333333334,0.9238410596026491,0.8117647058823529,0.24170616113744076,0.7602179836512262
warwiki,False,86.0,0.6537102473498233,0.9188741721854304,0.8165775401069518,0.23222748815165878,0.7639366827253957
warwiki,False,87.0,0.6642599277978339,0.9139072847682119,0.8229946524064171,0.22037914691943128,0.7693379790940768
warwiki,False,88.0,0.6691823899371069,0.8807947019867549,0.820855614973262,0.20774091627172195,0.760543245175125
warwiki,False,89.0,0.6779220779220779,0.8642384105960265,0.8235294117647058,0.19589257503949448,0.7598253275109171
warwiki,False,90.0,0.6855600539811066,0.8410596026490066,0.8240641711229947,0.18404423380726698,0.7553903345724907
warwiki,False,91.0,0.682825484764543,0.8162251655629139,0.8181818181818182,0.18088467614533965,0.7435897435897437
warwiki,False,92.0,0.6721311475409836,0.7466887417218543,0.8005347593582888,0.17377567140600317,0.7074509803921568
warwiki,False,93.0,0.7771084337349398,0.21357615894039736,0.7262032085561497,0.029225908372827805,0.33506493506493507
warwiki,False,94.0,0.8125,0.17218543046357615,0.7197860962566844,0.018957345971563982,0.28415300546448086
warwiki,False,95.0,0.8761904761904762,0.152317880794702,0.7192513368983957,0.010268562401263823,0.25952045133991536
warwiki,False,96.0,0.9072164948453608,0.1456953642384106,0.7192513368983957,0.0071090047393364926,0.25106990014265335
warwiki,False,97.0,0.945054945054945,0.1423841059602649,0.7203208556149733,0.0039494470774091624,0.2474820143884892
warwiki,False,98.0,0.9651162790697675,0.13741721854304637,0.7197860962566844,0.002369668246445498,0.24057971014492754
warwiki,False,99.0,1.0,0.11589403973509933,0.7144385026737968,0.0,0.20771513353115725
