wiki_db,user_is_anonymous_or_bot,threshold,precision,recall,accuracy,fpr,F1
wowiki,True,0.0,0.2682926829268293,1.0,0.2682926829268293,1.0,0.4230769230769231
wowiki,True,1.0,0.2682926829268293,1.0,0.2682926829268293,1.0,0.4230769230769231
wowiki,True,2.0,0.2682926829268293,1.0,0.2682926829268293,1.0,0.4230769230769231
wowiki,True,3.0,0.2682926829268293,1.0,0.2682926829268293,1.0,0.4230769230769231
wowiki,True,4.0,0.2682926829268293,1.0,0.2682926829268293,1.0,0.4230769230769231
wowiki,True,5.0,0.2682926829268293,1.0,0.2682926829268293,1.0,0.4230769230769231
wowiki,True,6.0,0.2682926829268293,1.0,0.2682926829268293,1.0,0.4230769230769231
wowiki,True,7.0,0.2682926829268293,1.0,0.2682926829268293,1.0,0.4230769230769231
wowiki,True,8.0,0.2682926829268293,1.0,0.2682926829268293,1.0,0.4230769230769231
wowiki,True,9.0,0.2682926829268293,1.0,0.2682926829268293,1.0,0.4230769230769231
wowiki,True,10.0,0.2682926829268293,1.0,0.2682926829268293,1.0,0.4230769230769231
wowiki,True,11.0,0.2682926829268293,1.0,0.2682926829268293,1.0,0.4230769230769231
wowiki,True,12.0,0.2682926829268293,1.0,0.2682926829268293,1.0,0.4230769230769231
wowiki,True,13.0,0.2682926829268293,1.0,0.2682926829268293,1.0,0.4230769230769231
wowiki,True,14.0,0.2682926829268293,1.0,0.2682926829268293,1.0,0.4230769230769231
wowiki,True,15.0,0.2682926829268293,1.0,0.2682926829268293,1.0,0.4230769230769231
wowiki,True,16.0,0.2682926829268293,1.0,0.2682926829268293,1.0,0.4230769230769231
wowiki,True,17.0,0.2682926829268293,1.0,0.2682926829268293,1.0,0.4230769230769231
wowiki,True,18.0,0.2682926829268293,1.0,0.2682926829268293,1.0,0.4230769230769231
wowiki,True,19.0,0.2682926829268293,1.0,0.2682926829268293,1.0,0.4230769230769231
wowiki,True,20.0,0.2682926829268293,1.0,0.2682926829268293,1.0,0.4230769230769231
wowiki,True,21.0,0.2682926829268293,1.0,0.2682926829268293,1.0,0.4230769230769231
wowiki,True,22.0,0.2682926829268293,1.0,0.2682926829268293,1.0,0.4230769230769231
wowiki,True,23.0,0.2682926829268293,1.0,0.2682926829268293,1.0,0.4230769230769231
wowiki,True,24.0,0.2682926829268293,1.0,0.2682926829268293,1.0,0.4230769230769231
wowiki,True,25.0,0.2682926829268293,1.0,0.2682926829268293,1.0,0.4230769230769231
wowiki,True,26.0,0.2682926829268293,1.0,0.2682926829268293,1.0,0.4230769230769231
wowiki,True,27.0,0.2682926829268293,1.0,0.2682926829268293,1.0,0.4230769230769231
wowiki,True,28.0,0.2682926829268293,1.0,0.2682926829268293,1.0,0.4230769230769231
wowiki,True,29.0,0.2682926829268293,1.0,0.2682926829268293,1.0,0.4230769230769231
wowiki,True,30.0,0.275,1.0,0.2926829268292683,0.9666666666666667,0.4313725490196079
wowiki,True,31.0,0.275,1.0,0.2926829268292683,0.9666666666666667,0.4313725490196079
wowiki,True,32.0,0.275,1.0,0.2926829268292683,0.9666666666666667,0.4313725490196079
wowiki,True,33.0,0.2894736842105263,1.0,0.34146341463414637,0.9,0.4489795918367347
wowiki,True,34.0,0.2972972972972973,1.0,0.36585365853658536,0.8666666666666667,0.4583333333333333
wowiki,True,35.0,0.2972972972972973,1.0,0.36585365853658536,0.8666666666666667,0.4583333333333333
wowiki,True,36.0,0.2972972972972973,1.0,0.36585365853658536,0.8666666666666667,0.4583333333333333
wowiki,True,37.0,0.3142857142857143,1.0,0.4146341463414634,0.8,0.4782608695652174
wowiki,True,38.0,0.3142857142857143,1.0,0.4146341463414634,0.8,0.4782608695652174
wowiki,True,39.0,0.3142857142857143,1.0,0.4146341463414634,0.8,0.4782608695652174
wowiki,True,40.0,0.3235294117647059,1.0,0.43902439024390244,0.7666666666666667,0.48888888888888893
wowiki,True,41.0,0.3235294117647059,1.0,0.43902439024390244,0.7666666666666667,0.48888888888888893
wowiki,True,42.0,0.3333333333333333,1.0,0.4634146341463415,0.7333333333333333,0.5
wowiki,True,43.0,0.3333333333333333,1.0,0.4634146341463415,0.7333333333333333,0.5
wowiki,True,44.0,0.3333333333333333,1.0,0.4634146341463415,0.7333333333333333,0.5
wowiki,True,45.0,0.3333333333333333,1.0,0.4634146341463415,0.7333333333333333,0.5
wowiki,True,46.0,0.3333333333333333,1.0,0.4634146341463415,0.7333333333333333,0.5
wowiki,True,47.0,0.3333333333333333,1.0,0.4634146341463415,0.7333333333333333,0.5
wowiki,True,48.0,0.3333333333333333,1.0,0.4634146341463415,0.7333333333333333,0.5
wowiki,True,49.0,0.3333333333333333,1.0,0.4634146341463415,0.7333333333333333,0.5
wowiki,True,50.0,0.3333333333333333,1.0,0.4634146341463415,0.7333333333333333,0.5
wowiki,True,51.0,0.3333333333333333,1.0,0.4634146341463415,0.7333333333333333,0.5
wowiki,True,52.0,0.3333333333333333,1.0,0.4634146341463415,0.7333333333333333,0.5
wowiki,True,53.0,0.3333333333333333,1.0,0.4634146341463415,0.7333333333333333,0.5
wowiki,True,54.0,0.3333333333333333,1.0,0.4634146341463415,0.7333333333333333,0.5
wowiki,True,55.0,0.3333333333333333,1.0,0.4634146341463415,0.7333333333333333,0.5
wowiki,True,56.0,0.3333333333333333,1.0,0.4634146341463415,0.7333333333333333,0.5
wowiki,True,57.0,0.3333333333333333,1.0,0.4634146341463415,0.7333333333333333,0.5
wowiki,True,58.0,0.3333333333333333,1.0,0.4634146341463415,0.7333333333333333,0.5
wowiki,True,59.0,0.3333333333333333,1.0,0.4634146341463415,0.7333333333333333,0.5
wowiki,True,60.0,0.3333333333333333,1.0,0.4634146341463415,0.7333333333333333,0.5
wowiki,True,61.0,0.3333333333333333,1.0,0.4634146341463415,0.7333333333333333,0.5
wowiki,True,62.0,0.3333333333333333,1.0,0.4634146341463415,0.7333333333333333,0.5
wowiki,True,63.0,0.3333333333333333,1.0,0.4634146341463415,0.7333333333333333,0.5
wowiki,True,64.0,0.34375,1.0,0.4878048780487805,0.7,0.5116279069767442
wowiki,True,65.0,0.3548387096774194,1.0,0.5121951219512195,0.6666666666666666,0.5238095238095238
wowiki,True,66.0,0.36666666666666664,1.0,0.5365853658536586,0.6333333333333333,0.5365853658536585
wowiki,True,67.0,0.36666666666666664,1.0,0.5365853658536586,0.6333333333333333,0.5365853658536585
wowiki,True,68.0,0.36666666666666664,1.0,0.5365853658536586,0.6333333333333333,0.5365853658536585
wowiki,True,69.0,0.36666666666666664,1.0,0.5365853658536586,0.6333333333333333,0.5365853658536585
wowiki,True,70.0,0.36666666666666664,1.0,0.5365853658536586,0.6333333333333333,0.5365853658536585
wowiki,True,71.0,0.36666666666666664,1.0,0.5365853658536586,0.6333333333333333,0.5365853658536585
wowiki,True,72.0,0.36666666666666664,1.0,0.5365853658536586,0.6333333333333333,0.5365853658536585
wowiki,True,73.0,0.36666666666666664,1.0,0.5365853658536586,0.6333333333333333,0.5365853658536585
wowiki,True,74.0,0.36666666666666664,1.0,0.5365853658536586,0.6333333333333333,0.5365853658536585
wowiki,True,75.0,0.39285714285714285,1.0,0.5853658536585366,0.5666666666666667,0.5641025641025641
wowiki,True,76.0,0.39285714285714285,1.0,0.5853658536585366,0.5666666666666667,0.5641025641025641
wowiki,True,77.0,0.39285714285714285,1.0,0.5853658536585366,0.5666666666666667,0.5641025641025641
wowiki,True,78.0,0.4074074074074074,1.0,0.6097560975609756,0.5333333333333333,0.5789473684210525
wowiki,True,79.0,0.44,1.0,0.6585365853658537,0.4666666666666667,0.6111111111111112
wowiki,True,80.0,0.42857142857142855,0.8181818181818182,0.6585365853658537,0.4,0.5625
wowiki,True,81.0,0.42857142857142855,0.8181818181818182,0.6585365853658537,0.4,0.5625
wowiki,True,82.0,0.45,0.8181818181818182,0.6829268292682927,0.36666666666666664,0.5806451612903226
wowiki,True,83.0,0.45,0.8181818181818182,0.6829268292682927,0.36666666666666664,0.5806451612903226
wowiki,True,84.0,0.45,0.8181818181818182,0.6829268292682927,0.36666666666666664,0.5806451612903226
wowiki,True,85.0,0.4444444444444444,0.7272727272727273,0.6829268292682927,0.3333333333333333,0.5517241379310345
wowiki,True,86.0,0.47058823529411764,0.7272727272727273,0.7073170731707317,0.3,0.5714285714285714
wowiki,True,87.0,0.5,0.7272727272727273,0.7317073170731707,0.26666666666666666,0.5925925925925926
wowiki,True,88.0,0.5,0.7272727272727273,0.7317073170731707,0.26666666666666666,0.5925925925925926
wowiki,True,89.0,0.4666666666666667,0.6363636363636364,0.7073170731707317,0.26666666666666666,0.5384615384615385
wowiki,True,90.0,0.5,0.6363636363636364,0.7317073170731707,0.23333333333333334,0.56
wowiki,True,91.0,0.5384615384615384,0.6363636363636364,0.7560975609756098,0.2,0.5833333333333334
wowiki,True,92.0,0.5833333333333334,0.6363636363636364,0.7804878048780488,0.16666666666666666,0.6086956521739131
wowiki,True,93.0,0.5555555555555556,0.45454545454545453,0.7560975609756098,0.13333333333333333,0.5
wowiki,True,94.0,0.5,0.2727272727272727,0.7317073170731707,0.1,0.3529411764705882
wowiki,True,95.0,0.5,0.18181818181818182,0.7317073170731707,0.06666666666666667,0.26666666666666666
wowiki,True,96.0,0.0,0.0,0.6829268292682927,0.06666666666666667,0.26666666666666666
wowiki,True,97.0,0.0,0.0,0.7317073170731707,0.0,0.26666666666666666
wowiki,True,98.0,0.0,0.0,0.7317073170731707,0.0,0.26666666666666666
wowiki,True,99.0,0.0,0.0,0.7317073170731707,0.0,0.26666666666666666
wowiki,False,0.0,0.07878787878787878,1.0,0.07878787878787878,1.0,0.14606741573033705
wowiki,False,1.0,0.07878787878787878,1.0,0.07878787878787878,1.0,0.14606741573033705
wowiki,False,2.0,0.07878787878787878,1.0,0.07878787878787878,1.0,0.14606741573033705
wowiki,False,3.0,0.07878787878787878,1.0,0.07878787878787878,1.0,0.14606741573033705
wowiki,False,4.0,0.07878787878787878,1.0,0.07878787878787878,1.0,0.14606741573033705
wowiki,False,5.0,0.07878787878787878,1.0,0.07878787878787878,1.0,0.14606741573033705
wowiki,False,6.0,0.07878787878787878,1.0,0.07878787878787878,1.0,0.14606741573033705
wowiki,False,7.0,0.07878787878787878,1.0,0.07878787878787878,1.0,0.14606741573033705
wowiki,False,8.0,0.07926829268292683,1.0,0.08484848484848485,0.993421052631579,0.14689265536723162
wowiki,False,9.0,0.07926829268292683,1.0,0.08484848484848485,0.993421052631579,0.14689265536723162
wowiki,False,10.0,0.07926829268292683,1.0,0.08484848484848485,0.993421052631579,0.14689265536723162
wowiki,False,11.0,0.07975460122699386,1.0,0.09090909090909091,0.9868421052631579,0.14772727272727273
wowiki,False,12.0,0.07975460122699386,1.0,0.09090909090909091,0.9868421052631579,0.14772727272727273
wowiki,False,13.0,0.07975460122699386,1.0,0.09090909090909091,0.9868421052631579,0.14772727272727273
wowiki,False,14.0,0.07975460122699386,1.0,0.09090909090909091,0.9868421052631579,0.14772727272727273
wowiki,False,15.0,0.07975460122699386,1.0,0.09090909090909091,0.9868421052631579,0.14772727272727273
wowiki,False,16.0,0.08024691358024691,1.0,0.09696969696969697,0.9802631578947368,0.14857142857142858
wowiki,False,17.0,0.08176100628930817,1.0,0.11515151515151516,0.9605263157894737,0.1511627906976744
wowiki,False,18.0,0.08333333333333333,1.0,0.13333333333333333,0.9407894736842105,0.15384615384615385
wowiki,False,19.0,0.08387096774193549,1.0,0.1393939393939394,0.9342105263157895,0.15476190476190477
wowiki,False,20.0,0.08496732026143791,1.0,0.15151515151515152,0.9210526315789473,0.1566265060240964
wowiki,False,21.0,0.08496732026143791,1.0,0.15151515151515152,0.9210526315789473,0.1566265060240964
wowiki,False,22.0,0.087248322147651,1.0,0.17575757575757575,0.8947368421052632,0.16049382716049382
wowiki,False,23.0,0.08904109589041095,1.0,0.19393939393939394,0.875,0.16352201257861634
wowiki,False,24.0,0.09027777777777778,1.0,0.20606060606060606,0.8618421052631579,0.1656050955414013
wowiki,False,25.0,0.09027777777777778,1.0,0.20606060606060606,0.8618421052631579,0.1656050955414013
wowiki,False,26.0,0.09154929577464789,1.0,0.21818181818181817,0.8486842105263158,0.16774193548387095
wowiki,False,27.0,0.09285714285714286,1.0,0.23030303030303031,0.8355263157894737,0.1699346405228758
wowiki,False,28.0,0.09285714285714286,1.0,0.23030303030303031,0.8355263157894737,0.1699346405228758
wowiki,False,29.0,0.09352517985611511,1.0,0.23636363636363636,0.8289473684210527,0.17105263157894735
wowiki,False,30.0,0.09558823529411764,1.0,0.2545454545454545,0.8092105263157895,0.17449664429530198
wowiki,False,31.0,0.09701492537313433,1.0,0.26666666666666666,0.7960526315789473,0.17687074829931973
wowiki,False,32.0,0.09848484848484848,1.0,0.2787878787878788,0.7828947368421053,0.1793103448275862
wowiki,False,33.0,0.1015625,1.0,0.30303030303030304,0.756578947368421,0.18439716312056736
wowiki,False,34.0,0.10483870967741936,1.0,0.32727272727272727,0.7302631578947368,0.18978102189781024
wowiki,False,35.0,0.10655737704918032,1.0,0.3393939393939394,0.7171052631578947,0.1925925925925926
wowiki,False,36.0,0.10833333333333334,1.0,0.3515151515151515,0.7039473684210527,0.19548872180451127
wowiki,False,37.0,0.11016949152542373,1.0,0.36363636363636365,0.6907894736842105,0.1984732824427481
wowiki,False,38.0,0.11304347826086956,1.0,0.38181818181818183,0.6710526315789473,0.203125
wowiki,False,39.0,0.11607142857142858,1.0,0.4,0.6513157894736842,0.208
wowiki,False,40.0,0.12149532710280374,1.0,0.4303030303030303,0.618421052631579,0.21666666666666667
wowiki,False,41.0,0.12149532710280374,1.0,0.4303030303030303,0.618421052631579,0.21666666666666667
wowiki,False,42.0,0.125,1.0,0.4484848484848485,0.5986842105263158,0.2222222222222222
wowiki,False,43.0,0.12745098039215685,1.0,0.46060606060606063,0.5855263157894737,0.22608695652173913
wowiki,False,44.0,0.13,1.0,0.4727272727272727,0.5723684210526315,0.23008849557522126
wowiki,False,45.0,0.13,1.0,0.4727272727272727,0.5723684210526315,0.23008849557522126
wowiki,False,46.0,0.13131313131313133,1.0,0.47878787878787876,0.5657894736842105,0.23214285714285718
wowiki,False,47.0,0.13131313131313133,1.0,0.47878787878787876,0.5657894736842105,0.23214285714285718
wowiki,False,48.0,0.1326530612244898,1.0,0.48484848484848486,0.5592105263157895,0.23423423423423423
wowiki,False,49.0,0.1326530612244898,1.0,0.48484848484848486,0.5592105263157895,0.23423423423423423
wowiki,False,50.0,0.1326530612244898,1.0,0.48484848484848486,0.5592105263157895,0.23423423423423423
wowiki,False,51.0,0.13541666666666666,1.0,0.49696969696969695,0.5460526315789473,0.23853211009174308
wowiki,False,52.0,0.13829787234042554,1.0,0.509090909090909,0.5328947368421053,0.24299065420560748
wowiki,False,53.0,0.13978494623655913,1.0,0.5151515151515151,0.5263157894736842,0.24528301886792453
wowiki,False,54.0,0.13978494623655913,1.0,0.5151515151515151,0.5263157894736842,0.24528301886792453
wowiki,False,55.0,0.13978494623655913,1.0,0.5151515151515151,0.5263157894736842,0.24528301886792453
wowiki,False,56.0,0.14130434782608695,1.0,0.5212121212121212,0.5197368421052632,0.2476190476190476
wowiki,False,57.0,0.14285714285714285,1.0,0.5272727272727272,0.5131578947368421,0.25
wowiki,False,58.0,0.14606741573033707,1.0,0.5393939393939394,0.5,0.25490196078431376
wowiki,False,59.0,0.14942528735632185,1.0,0.5515151515151515,0.4868421052631579,0.26000000000000006
wowiki,False,60.0,0.14942528735632185,1.0,0.5515151515151515,0.4868421052631579,0.26000000000000006
wowiki,False,61.0,0.1511627906976744,1.0,0.5575757575757576,0.48026315789473684,0.2626262626262626
wowiki,False,62.0,0.15476190476190477,1.0,0.5696969696969697,0.46710526315789475,0.2680412371134021
wowiki,False,63.0,0.1566265060240964,1.0,0.5757575757575758,0.4605263157894737,0.27083333333333337
wowiki,False,64.0,0.16455696202531644,1.0,0.6,0.4342105263157895,0.2826086956521739
wowiki,False,65.0,0.16883116883116883,1.0,0.6121212121212121,0.42105263157894735,0.2888888888888889
wowiki,False,66.0,0.17333333333333334,1.0,0.6242424242424243,0.40789473684210525,0.29545454545454547
wowiki,False,67.0,0.1780821917808219,1.0,0.6363636363636364,0.39473684210526316,0.3023255813953488
wowiki,False,68.0,0.18309859154929578,1.0,0.6484848484848484,0.3815789473684211,0.30952380952380953
wowiki,False,69.0,0.18840579710144928,1.0,0.6606060606060606,0.3684210526315789,0.3170731707317073
wowiki,False,70.0,0.18840579710144928,1.0,0.6606060606060606,0.3684210526315789,0.3170731707317073
wowiki,False,71.0,0.18840579710144928,1.0,0.6606060606060606,0.3684210526315789,0.3170731707317073
wowiki,False,72.0,0.2,1.0,0.6848484848484848,0.34210526315789475,0.33333333333333337
wowiki,False,73.0,0.2,1.0,0.6848484848484848,0.34210526315789475,0.33333333333333337
wowiki,False,74.0,0.203125,1.0,0.6909090909090909,0.3355263157894737,0.33766233766233766
wowiki,False,75.0,0.21666666666666667,1.0,0.7151515151515152,0.3092105263157895,0.3561643835616438
wowiki,False,76.0,0.21666666666666667,1.0,0.7151515151515152,0.3092105263157895,0.3561643835616438
wowiki,False,77.0,0.22033898305084745,1.0,0.7212121212121212,0.3026315789473684,0.3611111111111111
wowiki,False,78.0,0.22807017543859648,1.0,0.7333333333333333,0.2894736842105263,0.3714285714285714
wowiki,False,79.0,0.23636363636363636,1.0,0.7454545454545455,0.27631578947368424,0.3823529411764706
wowiki,False,80.0,0.22,0.8461538461538461,0.7515151515151515,0.2565789473684211,0.3492063492063492
wowiki,False,81.0,0.22448979591836735,0.8461538461538461,0.7575757575757576,0.25,0.3548387096774194
wowiki,False,82.0,0.23404255319148937,0.8461538461538461,0.7696969696969697,0.23684210526315788,0.36666666666666675
wowiki,False,83.0,0.2558139534883721,0.8461538461538461,0.793939393939394,0.21052631578947367,0.3928571428571428
wowiki,False,84.0,0.2558139534883721,0.8461538461538461,0.793939393939394,0.21052631578947367,0.3928571428571428
wowiki,False,85.0,0.24390243902439024,0.7692307692307693,0.793939393939394,0.20394736842105263,0.37037037037037035
wowiki,False,86.0,0.2631578947368421,0.7692307692307693,0.8121212121212121,0.18421052631578946,0.392156862745098
wowiki,False,87.0,0.30303030303030304,0.7692307692307693,0.8424242424242424,0.1513157894736842,0.43478260869565216
wowiki,False,88.0,0.3125,0.7692307692307693,0.8484848484848485,0.14473684210526316,0.4444444444444445
wowiki,False,89.0,0.32142857142857145,0.6923076923076923,0.8606060606060606,0.125,0.4390243902439025
wowiki,False,90.0,0.36,0.6923076923076923,0.8787878787878788,0.10526315789473684,0.47368421052631576
wowiki,False,91.0,0.375,0.6923076923076923,0.8848484848484849,0.09868421052631579,0.48648648648648646
wowiki,False,92.0,0.4090909090909091,0.6923076923076923,0.896969696969697,0.08552631578947369,0.5142857142857142
wowiki,False,93.0,0.35294117647058826,0.46153846153846156,0.8909090909090909,0.07236842105263158,0.4000000000000001
wowiki,False,94.0,0.3076923076923077,0.3076923076923077,0.8909090909090909,0.05921052631578947,0.3076923076923077
wowiki,False,95.0,0.3,0.23076923076923078,0.896969696969697,0.046052631578947366,0.2608695652173913
wowiki,False,96.0,0.14285714285714285,0.07692307692307693,0.8909090909090909,0.039473684210526314,0.1
wowiki,False,97.0,0.0,0.0,0.9030303030303031,0.019736842105263157,0.1
wowiki,False,98.0,0.0,0.0,0.9090909090909091,0.013157894736842105,0.1
wowiki,False,99.0,0.0,0.0,0.9212121212121213,0.0,0.1
