wiki_db,user_is_bot,threshold,precision,recall,accuracy,fpr,F1
awawiki,True,0.0,0.3333333333333333,1.0,0.3333333333333333,1.0,0.5
awawiki,True,1.0,0.3333333333333333,1.0,0.3333333333333333,1.0,0.5
awawiki,True,2.0,0.3333333333333333,1.0,0.3333333333333333,1.0,0.5
awawiki,True,3.0,0.3333333333333333,1.0,0.3333333333333333,1.0,0.5
awawiki,True,4.0,0.3333333333333333,1.0,0.3333333333333333,1.0,0.5
awawiki,True,5.0,0.3333333333333333,1.0,0.3333333333333333,1.0,0.5
awawiki,True,6.0,0.3333333333333333,1.0,0.3333333333333333,1.0,0.5
awawiki,True,7.0,0.3333333333333333,1.0,0.3333333333333333,1.0,0.5
awawiki,True,8.0,0.3333333333333333,1.0,0.3333333333333333,1.0,0.5
awawiki,True,9.0,0.3333333333333333,1.0,0.3333333333333333,1.0,0.5
awawiki,True,10.0,0.3333333333333333,1.0,0.3333333333333333,1.0,0.5
awawiki,True,11.0,0.3333333333333333,1.0,0.3333333333333333,1.0,0.5
awawiki,True,12.0,0.3333333333333333,1.0,0.3333333333333333,1.0,0.5
awawiki,True,13.0,0.3333333333333333,1.0,0.3333333333333333,1.0,0.5
awawiki,True,14.0,0.3333333333333333,1.0,0.3333333333333333,1.0,0.5
awawiki,True,15.0,0.3333333333333333,1.0,0.3333333333333333,1.0,0.5
awawiki,True,16.0,0.3333333333333333,1.0,0.3333333333333333,1.0,0.5
awawiki,True,17.0,0.3333333333333333,1.0,0.3333333333333333,1.0,0.5
awawiki,True,18.0,0.3333333333333333,1.0,0.3333333333333333,1.0,0.5
awawiki,True,19.0,0.3333333333333333,1.0,0.3333333333333333,1.0,0.5
awawiki,True,20.0,0.3333333333333333,1.0,0.3333333333333333,1.0,0.5
awawiki,True,21.0,0.3333333333333333,1.0,0.3333333333333333,1.0,0.5
awawiki,True,22.0,0.3333333333333333,1.0,0.3333333333333333,1.0,0.5
awawiki,True,23.0,0.3333333333333333,1.0,0.3333333333333333,1.0,0.5
awawiki,True,24.0,0.3333333333333333,1.0,0.3333333333333333,1.0,0.5
awawiki,True,25.0,0.3333333333333333,1.0,0.3333333333333333,1.0,0.5
awawiki,True,26.0,0.3333333333333333,1.0,0.3333333333333333,1.0,0.5
awawiki,True,27.0,0.3333333333333333,1.0,0.3333333333333333,1.0,0.5
awawiki,True,28.0,0.3333333333333333,1.0,0.3333333333333333,1.0,0.5
awawiki,True,29.0,0.3333333333333333,1.0,0.3333333333333333,1.0,0.5
awawiki,True,30.0,0.3333333333333333,1.0,0.3333333333333333,1.0,0.5
awawiki,True,31.0,0.3333333333333333,1.0,0.3333333333333333,1.0,0.5
awawiki,True,32.0,0.3333333333333333,1.0,0.3333333333333333,1.0,0.5
awawiki,True,33.0,0.3333333333333333,1.0,0.3333333333333333,1.0,0.5
awawiki,True,34.0,0.3333333333333333,1.0,0.3333333333333333,1.0,0.5
awawiki,True,35.0,0.3333333333333333,1.0,0.3333333333333333,1.0,0.5
awawiki,True,36.0,0.3333333333333333,1.0,0.3333333333333333,1.0,0.5
awawiki,True,37.0,0.3448275862068966,1.0,0.36666666666666664,0.95,0.5128205128205129
awawiki,True,38.0,0.3448275862068966,1.0,0.36666666666666664,0.95,0.5128205128205129
awawiki,True,39.0,0.35714285714285715,1.0,0.4,0.9,0.5263157894736842
awawiki,True,40.0,0.35714285714285715,1.0,0.4,0.9,0.5263157894736842
awawiki,True,41.0,0.35714285714285715,1.0,0.4,0.9,0.5263157894736842
awawiki,True,42.0,0.37037037037037035,1.0,0.43333333333333335,0.85,0.5405405405405406
awawiki,True,43.0,0.37037037037037035,1.0,0.43333333333333335,0.85,0.5405405405405406
awawiki,True,44.0,0.37037037037037035,1.0,0.43333333333333335,0.85,0.5405405405405406
awawiki,True,45.0,0.37037037037037035,1.0,0.43333333333333335,0.85,0.5405405405405406
awawiki,True,46.0,0.37037037037037035,1.0,0.43333333333333335,0.85,0.5405405405405406
awawiki,True,47.0,0.37037037037037035,1.0,0.43333333333333335,0.85,0.5405405405405406
awawiki,True,48.0,0.37037037037037035,1.0,0.43333333333333335,0.85,0.5405405405405406
awawiki,True,49.0,0.37037037037037035,1.0,0.43333333333333335,0.85,0.5405405405405406
awawiki,True,50.0,0.37037037037037035,1.0,0.43333333333333335,0.85,0.5405405405405406
awawiki,True,51.0,0.37037037037037035,1.0,0.43333333333333335,0.85,0.5405405405405406
awawiki,True,52.0,0.37037037037037035,1.0,0.43333333333333335,0.85,0.5405405405405406
awawiki,True,53.0,0.37037037037037035,1.0,0.43333333333333335,0.85,0.5405405405405406
awawiki,True,54.0,0.37037037037037035,1.0,0.43333333333333335,0.85,0.5405405405405406
awawiki,True,55.0,0.37037037037037035,1.0,0.43333333333333335,0.85,0.5405405405405406
awawiki,True,56.0,0.38461538461538464,1.0,0.4666666666666667,0.8,0.5555555555555556
awawiki,True,57.0,0.38461538461538464,1.0,0.4666666666666667,0.8,0.5555555555555556
awawiki,True,58.0,0.38461538461538464,1.0,0.4666666666666667,0.8,0.5555555555555556
awawiki,True,59.0,0.38461538461538464,1.0,0.4666666666666667,0.8,0.5555555555555556
awawiki,True,60.0,0.38461538461538464,1.0,0.4666666666666667,0.8,0.5555555555555556
awawiki,True,61.0,0.38461538461538464,1.0,0.4666666666666667,0.8,0.5555555555555556
awawiki,True,62.0,0.4166666666666667,1.0,0.5333333333333333,0.7,0.5882352941176471
awawiki,True,63.0,0.4166666666666667,1.0,0.5333333333333333,0.7,0.5882352941176471
awawiki,True,64.0,0.43478260869565216,1.0,0.5666666666666667,0.65,0.6060606060606061
awawiki,True,65.0,0.45454545454545453,1.0,0.6,0.6,0.625
awawiki,True,66.0,0.47619047619047616,1.0,0.6333333333333333,0.55,0.6451612903225806
awawiki,True,67.0,0.5,1.0,0.6666666666666666,0.5,0.6666666666666666
awawiki,True,68.0,0.5,1.0,0.6666666666666666,0.5,0.6666666666666666
awawiki,True,69.0,0.5,1.0,0.6666666666666666,0.5,0.6666666666666666
awawiki,True,70.0,0.5,1.0,0.6666666666666666,0.5,0.6666666666666666
awawiki,True,71.0,0.5,1.0,0.6666666666666666,0.5,0.6666666666666666
awawiki,True,72.0,0.5,1.0,0.6666666666666666,0.5,0.6666666666666666
awawiki,True,73.0,0.47368421052631576,0.9,0.6333333333333333,0.5,0.6206896551724138
awawiki,True,74.0,0.47368421052631576,0.9,0.6333333333333333,0.5,0.6206896551724138
awawiki,True,75.0,0.47368421052631576,0.9,0.6333333333333333,0.5,0.6206896551724138
awawiki,True,76.0,0.5,0.9,0.6666666666666666,0.45,0.6428571428571429
awawiki,True,77.0,0.5,0.9,0.6666666666666666,0.45,0.6428571428571429
awawiki,True,78.0,0.5,0.9,0.6666666666666666,0.45,0.6428571428571429
awawiki,True,79.0,0.5,0.9,0.6666666666666666,0.45,0.6428571428571429
awawiki,True,80.0,0.5,0.9,0.6666666666666666,0.45,0.6428571428571429
awawiki,True,81.0,0.5625,0.9,0.7333333333333333,0.35,0.6923076923076923
awawiki,True,82.0,0.5625,0.9,0.7333333333333333,0.35,0.6923076923076923
awawiki,True,83.0,0.46153846153846156,0.6,0.6333333333333333,0.35,0.5217391304347826
awawiki,True,84.0,0.5,0.6,0.6666666666666666,0.3,0.5454545454545454
awawiki,True,85.0,0.2857142857142857,0.2,0.5666666666666667,0.25,0.23529411764705882
awawiki,True,86.0,0.2,0.1,0.5666666666666667,0.2,0.13333333333333333
awawiki,True,87.0,0.0,0.0,0.5333333333333333,0.2,0.13333333333333333
awawiki,True,88.0,0.0,0.0,0.5666666666666667,0.15,0.13333333333333333
awawiki,True,89.0,0.0,0.0,0.5666666666666667,0.15,0.13333333333333333
awawiki,True,90.0,0.0,0.0,0.5666666666666667,0.15,0.13333333333333333
awawiki,True,91.0,0.0,0.0,0.5666666666666667,0.15,0.13333333333333333
awawiki,True,92.0,0.0,0.0,0.6333333333333333,0.05,0.13333333333333333
awawiki,True,93.0,0.0,0.0,0.6333333333333333,0.05,0.13333333333333333
awawiki,True,94.0,0.0,0.0,0.6333333333333333,0.05,0.13333333333333333
awawiki,True,95.0,0.0,0.0,0.6666666666666666,0.0,0.13333333333333333
awawiki,True,96.0,0.0,0.0,0.6666666666666666,0.0,0.13333333333333333
awawiki,True,97.0,0.0,0.0,0.6666666666666666,0.0,0.13333333333333333
awawiki,True,98.0,0.0,0.0,0.6666666666666666,0.0,0.13333333333333333
awawiki,True,99.0,0.0,0.0,0.6666666666666666,0.0,0.13333333333333333
awawiki,False,0.0,0.13488843813387424,1.0,0.13488843813387424,1.0,0.23771224307417338
awawiki,False,1.0,0.13488843813387424,1.0,0.13488843813387424,1.0,0.23771224307417338
awawiki,False,2.0,0.13488843813387424,1.0,0.13488843813387424,1.0,0.23771224307417338
awawiki,False,3.0,0.13488843813387424,1.0,0.13488843813387424,1.0,0.23771224307417338
awawiki,False,4.0,0.13488843813387424,1.0,0.13488843813387424,1.0,0.23771224307417338
awawiki,False,5.0,0.13488843813387424,1.0,0.13488843813387424,1.0,0.23771224307417338
awawiki,False,6.0,0.13488843813387424,1.0,0.13488843813387424,1.0,0.23771224307417338
awawiki,False,7.0,0.13488843813387424,1.0,0.13488843813387424,1.0,0.23771224307417338
awawiki,False,8.0,0.13488843813387424,1.0,0.13488843813387424,1.0,0.23771224307417338
awawiki,False,9.0,0.13488843813387424,1.0,0.13488843813387424,1.0,0.23771224307417338
awawiki,False,10.0,0.13488843813387424,1.0,0.13488843813387424,1.0,0.23771224307417338
awawiki,False,11.0,0.13488843813387424,1.0,0.13488843813387424,1.0,0.23771224307417338
awawiki,False,12.0,0.13488843813387424,1.0,0.13488843813387424,1.0,0.23771224307417338
awawiki,False,13.0,0.13488843813387424,1.0,0.13488843813387424,1.0,0.23771224307417338
awawiki,False,14.0,0.13488843813387424,1.0,0.13488843813387424,1.0,0.23771224307417338
awawiki,False,15.0,0.13488843813387424,1.0,0.13488843813387424,1.0,0.23771224307417338
awawiki,False,16.0,0.13488843813387424,1.0,0.13488843813387424,1.0,0.23771224307417338
awawiki,False,17.0,0.13488843813387424,1.0,0.13488843813387424,1.0,0.23771224307417338
awawiki,False,18.0,0.13488843813387424,1.0,0.13488843813387424,1.0,0.23771224307417338
awawiki,False,19.0,0.13488843813387424,1.0,0.13488843813387424,1.0,0.23771224307417338
awawiki,False,20.0,0.13488843813387424,1.0,0.13488843813387424,1.0,0.23771224307417338
awawiki,False,21.0,0.13488843813387424,1.0,0.13488843813387424,1.0,0.23771224307417338
awawiki,False,22.0,0.13488843813387424,1.0,0.13488843813387424,1.0,0.23771224307417338
awawiki,False,23.0,0.13488843813387424,1.0,0.13488843813387424,1.0,0.23771224307417338
awawiki,False,24.0,0.13488843813387424,1.0,0.13488843813387424,1.0,0.23771224307417338
awawiki,False,25.0,0.13488843813387424,1.0,0.13488843813387424,1.0,0.23771224307417338
awawiki,False,26.0,0.13488843813387424,1.0,0.13488843813387424,1.0,0.23771224307417338
awawiki,False,27.0,0.13488843813387424,1.0,0.13488843813387424,1.0,0.23771224307417338
awawiki,False,28.0,0.13488843813387424,1.0,0.13488843813387424,1.0,0.23771224307417338
awawiki,False,29.0,0.13488843813387424,1.0,0.13488843813387424,1.0,0.23771224307417338
awawiki,False,30.0,0.13488843813387424,1.0,0.13488843813387424,1.0,0.23771224307417338
awawiki,False,31.0,0.13488843813387424,1.0,0.13488843813387424,1.0,0.23771224307417338
awawiki,False,32.0,0.13488843813387424,1.0,0.13488843813387424,1.0,0.23771224307417338
awawiki,False,33.0,0.13488843813387424,1.0,0.13488843813387424,1.0,0.23771224307417338
awawiki,False,34.0,0.13488843813387424,1.0,0.13488843813387424,1.0,0.23771224307417338
awawiki,False,35.0,0.13488843813387424,1.0,0.13488843813387424,1.0,0.23771224307417338
awawiki,False,36.0,0.13488843813387424,1.0,0.13488843813387424,1.0,0.23771224307417338
awawiki,False,37.0,0.13725490196078433,1.0,0.15212981744421908,0.9800703399765534,0.24137931034482762
awawiki,False,38.0,0.1453551912568306,1.0,0.20689655172413793,0.9167643610785463,0.2538167938931298
awawiki,False,39.0,0.16140776699029127,1.0,0.29918864097363085,0.8100820633059789,0.2779519331243469
awawiki,False,40.0,0.16140776699029127,1.0,0.29918864097363085,0.8100820633059789,0.2779519331243469
awawiki,False,41.0,0.16140776699029127,1.0,0.29918864097363085,0.8100820633059789,0.2779519331243469
awawiki,False,42.0,0.1646039603960396,1.0,0.3154158215010142,0.7913247362250879,0.2826780021253985
awawiki,False,43.0,0.1646039603960396,1.0,0.3154158215010142,0.7913247362250879,0.2826780021253985
awawiki,False,44.0,0.1646039603960396,1.0,0.3154158215010142,0.7913247362250879,0.2826780021253985
awawiki,False,45.0,0.1646039603960396,1.0,0.3154158215010142,0.7913247362250879,0.2826780021253985
awawiki,False,46.0,0.1646039603960396,1.0,0.3154158215010142,0.7913247362250879,0.2826780021253985
awawiki,False,47.0,0.1646039603960396,1.0,0.3154158215010142,0.7913247362250879,0.2826780021253985
awawiki,False,48.0,0.1646039603960396,1.0,0.3154158215010142,0.7913247362250879,0.2826780021253985
awawiki,False,49.0,0.17250324254215305,1.0,0.35294117647058826,0.7479484173505275,0.2942477876106194
awawiki,False,50.0,0.17250324254215305,1.0,0.35294117647058826,0.7479484173505275,0.2942477876106194
awawiki,False,51.0,0.17250324254215305,1.0,0.35294117647058826,0.7479484173505275,0.2942477876106194
awawiki,False,52.0,0.17250324254215305,1.0,0.35294117647058826,0.7479484173505275,0.2942477876106194
awawiki,False,53.0,0.17250324254215305,1.0,0.35294117647058826,0.7479484173505275,0.2942477876106194
awawiki,False,54.0,0.17250324254215305,1.0,0.35294117647058826,0.7479484173505275,0.2942477876106194
awawiki,False,55.0,0.17250324254215305,1.0,0.35294117647058826,0.7479484173505275,0.2942477876106194
awawiki,False,56.0,0.17662682602921648,1.0,0.3711967545638945,0.7268464243845252,0.3002257336343115
awawiki,False,57.0,0.17662682602921648,1.0,0.3711967545638945,0.7268464243845252,0.3002257336343115
awawiki,False,58.0,0.17662682602921648,1.0,0.3711967545638945,0.7268464243845252,0.3002257336343115
awawiki,False,59.0,0.18095238095238095,1.0,0.3894523326572008,0.7057444314185228,0.3064516129032258
awawiki,False,60.0,0.18095238095238095,1.0,0.3894523326572008,0.7057444314185228,0.3064516129032258
awawiki,False,61.0,0.18095238095238095,1.0,0.3894523326572008,0.7057444314185228,0.3064516129032258
awawiki,False,62.0,0.19444444444444445,1.0,0.4411764705882353,0.6459554513481829,0.32558139534883723
awawiki,False,63.0,0.19444444444444445,1.0,0.4411764705882353,0.6459554513481829,0.32558139534883723
awawiki,False,64.0,0.1996996996996997,1.0,0.4594320486815416,0.6248534583821805,0.33291614518147683
awawiki,False,65.0,0.2049306625577812,1.0,0.4766734279918864,0.6049237983587339,0.340153452685422
awawiki,False,66.0,0.21044303797468356,1.0,0.49391480730223125,0.5849941383352872,0.34771241830065364
awawiki,False,67.0,0.21661237785016288,1.0,0.5121703853955375,0.5638921453692849,0.35609103078982596
awawiki,False,68.0,0.21661237785016288,1.0,0.5121703853955375,0.5638921453692849,0.35609103078982596
awawiki,False,69.0,0.21661237785016288,1.0,0.5121703853955375,0.5638921453692849,0.35609103078982596
awawiki,False,70.0,0.21661237785016288,1.0,0.5121703853955375,0.5638921453692849,0.35609103078982596
awawiki,False,71.0,0.2231543624161074,1.0,0.5304259634888439,0.5427901524032825,0.36488340192043894
awawiki,False,72.0,0.2301038062283737,1.0,0.5486815415821501,0.5216881594372802,0.3741209563994374
awawiki,False,73.0,0.20677361853832443,0.8721804511278195,0.5314401622718052,0.5216881594372802,0.3342939481268012
awawiki,False,74.0,0.2136279926335175,0.8721804511278195,0.5496957403651116,0.5005861664712778,0.3431952662721893
awawiki,False,75.0,0.22924901185770752,0.8721804511278195,0.5872210953346856,0.45720984759671746,0.36306729264475746
awawiki,False,76.0,0.23721881390593047,0.8721804511278195,0.6044624746450304,0.4372801875732708,0.37299035369774924
awawiki,False,77.0,0.23721881390593047,0.8721804511278195,0.6044624746450304,0.4372801875732708,0.37299035369774924
awawiki,False,78.0,0.23721881390593047,0.8721804511278195,0.6044624746450304,0.4372801875732708,0.37299035369774924
awawiki,False,79.0,0.24628450106157113,0.8721804511278195,0.6227180527383367,0.41617819460726846,0.3841059602649007
awawiki,False,80.0,0.24628450106157113,0.8721804511278195,0.6227180527383367,0.41617819460726846,0.3841059602649007
awawiki,False,81.0,0.27684964200477324,0.8721804511278195,0.6754563894523327,0.3552168815943728,0.42028985507246375
awawiki,False,82.0,0.31868131868131866,0.8721804511278195,0.731237322515213,0.29073856975381007,0.4668008048289738
awawiki,False,83.0,0.20512820512820512,0.48120300751879697,0.678498985801217,0.29073856975381007,0.2876404494382023
awawiki,False,84.0,0.23104693140794225,0.48120300751879697,0.7139959432048681,0.24970691676436108,0.3121951219512195
awawiki,False,85.0,0.14832535885167464,0.23308270676691728,0.716024340770791,0.20867526377491208,0.18128654970760233
awawiki,False,86.0,0.10218978102189781,0.10526315789473684,0.7545638945233266,0.14419695193434937,0.10370370370370371
awawiki,False,87.0,0.0,0.0,0.7778904665314401,0.10082063305978899,0.10370370370370371
awawiki,False,88.0,0.0,0.0,0.7941176470588235,0.08206330597889801,0.10370370370370371
awawiki,False,89.0,0.0,0.0,0.7941176470588235,0.08206330597889801,0.10370370370370371
awawiki,False,90.0,0.0,0.0,0.7941176470588235,0.08206330597889801,0.10370370370370371
awawiki,False,91.0,0.0,0.0,0.7941176470588235,0.08206330597889801,0.10370370370370371
awawiki,False,92.0,0.0,0.0,0.8296146044624746,0.041031652989449004,0.10370370370370371
awawiki,False,93.0,0.0,0.0,0.8296146044624746,0.041031652989449004,0.10370370370370371
awawiki,False,94.0,0.0,0.0,0.8296146044624746,0.041031652989449004,0.10370370370370371
awawiki,False,95.0,0.0,0.0,0.8651115618661258,0.0,0.10370370370370371
awawiki,False,96.0,0.0,0.0,0.8651115618661258,0.0,0.10370370370370371
awawiki,False,97.0,0.0,0.0,0.8651115618661258,0.0,0.10370370370370371
awawiki,False,98.0,0.0,0.0,0.8651115618661258,0.0,0.10370370370370371
awawiki,False,99.0,0.0,0.0,0.8651115618661258,0.0,0.10370370370370371
