wiki_db,user_is_bot,threshold,precision,recall,accuracy,fpr,F1
azbwiki,True,0.0,0.028220173232746577,1.0,0.028220173232746577,1.0,0.05489130434782609
azbwiki,True,1.0,0.028220173232746577,1.0,0.028220173232746577,1.0,0.05489130434782609
azbwiki,True,2.0,0.028220173232746577,1.0,0.028220173232746577,1.0,0.05489130434782609
azbwiki,True,3.0,0.028259653049804143,1.0,0.029617211511595416,0.9985623921794134,0.05496598639455783
azbwiki,True,4.0,0.028370786516853933,1.0,0.03352891869237217,0.9945370902817712,0.055176181371210054
azbwiki,True,5.0,0.028595696489241224,1.0,0.041352333053925674,0.9864864864864865,0.05560143132397467
azbwiki,True,6.0,0.028997990238300315,1.0,0.05504330818664432,0.9723979298447384,0.05636160714285714
azbwiki,True,7.0,0.02944640753828033,0.9900990099009901,0.07879295892707461,0.9476710753306498,0.057191878753217046
azbwiki,True,8.0,0.030534351145038167,0.9900990099009901,0.11260128527521654,0.9128809660724554,0.059241706161137435
azbwiki,True,9.0,0.032131147540983604,0.9702970297029703,0.17435037720033528,0.8487636572742956,0.062202475404633445
azbwiki,True,10.0,0.03552011598405219,0.9702970297029703,0.25565800502933783,0.7650948821161587,0.06853146853146853
azbwiki,True,11.0,0.03787582975400234,0.9603960396039604,0.3104219055602124,0.7084531339850488,0.07287753568745303
azbwiki,True,12.0,0.03996669442131557,0.9504950495049505,0.35428890751606595,0.6630247268545141,0.07670795045944866
azbwiki,True,13.0,0.04209127159946832,0.9405940594059405,0.39424420229114276,0.6216216216216216,0.08057675996607294
azbwiki,True,14.0,0.043233082706766915,0.9108910891089109,0.42861134395082423,0.5853939045428407,0.08254822790489008
azbwiki,True,15.0,0.04529616724738676,0.900990099009901,0.4613020396758871,0.5514663599769982,0.08625592417061612
azbwiki,True,16.0,0.048250265111346766,0.900990099009901,0.4956691813355686,0.5161012075905693,0.09159536990437846
azbwiki,True,17.0,0.050335570469798654,0.8910891089108911,0.5224923162894664,0.48821161587119033,0.09528851244044467
azbwiki,True,18.0,0.05313432835820896,0.8811881188118812,0.5535065660799106,0.45600920069005174,0.10022522522522523
azbwiki,True,19.0,0.05625790139064475,0.8811881188118812,0.579491478066499,0.42926969522714203,0.10576351752822341
azbwiki,True,20.0,0.0587440918298447,0.8613861386138614,0.6065940206761665,0.40080506037952845,0.10998735777496839
azbwiki,True,21.0,0.06099290780141844,0.8514851485148515,0.6258731489242805,0.38067855089131686,0.11383189940436797
azbwiki,True,22.0,0.06384558277654045,0.8514851485148515,0.643475831237776,0.3625646923519264,0.11878453038674032
azbwiki,True,23.0,0.06651017214397496,0.8415841584158416,0.6621961441743504,0.3430132259919494,0.12327773749093547
azbwiki,True,24.0,0.0689935064935065,0.8415841584158416,0.6750488963397597,0.32978723404255317,0.1275318829707427
azbwiki,True,25.0,0.07221750212404418,0.8415841584158416,0.690416317407097,0.3139735480161012,0.13302034428794993
azbwiki,True,26.0,0.07404103479036575,0.8217821782178217,0.7049455155071249,0.29844738355376654,0.1358428805237316
azbwiki,True,27.0,0.07728119180633147,0.8217821782178217,0.718077675328304,0.284933870040253,0.14127659574468082
azbwiki,True,28.0,0.07953443258971872,0.8118811881188119,0.7295333892148644,0.27285796434732607,0.14487632508833923
azbwiki,True,29.0,0.08308004052684904,0.8118811881188119,0.7418273260687342,0.2602070155261645,0.15073529411764708
azbwiki,True,30.0,0.0864461045891142,0.801980198019802,0.7552388935456832,0.24611845888441633,0.15606936416184974
azbwiki,True,31.0,0.08980044345898004,0.801980198019802,0.765018161497625,0.23605520414031053,0.16151545363908273
azbwiki,True,32.0,0.09237875288683603,0.7920792079207921,0.7745180217937971,0.2259919493962047,0.1654601861427094
azbwiki,True,33.0,0.09603841536614646,0.7920792079207921,0.7837384744341995,0.21650373778033352,0.17130620985010708
azbwiki,True,34.0,0.09725685785536159,0.7722772277227723,0.7912824811399832,0.20816561242093157,0.17275747508305644
azbwiki,True,35.0,0.09921671018276762,0.7524752475247525,0.8002235261246158,0.19838987924094306,0.17531718569780852
azbwiki,True,36.0,0.10204081632653061,0.7425742574257426,0.808326348141939,0.18976423231742381,0.17942583732057416
azbwiki,True,37.0,0.10437235543018336,0.7326732673267327,0.8150321318804136,0.1825761932144911,0.18271604938271607
azbwiki,True,38.0,0.10911808669656203,0.7227722772277227,0.8256496227996647,0.17136285221391603,0.18961038961038965
azbwiki,True,39.0,0.1119751166407465,0.7128712871287128,0.8323554065381391,0.16417481311098334,0.19354838709677416
azbwiki,True,40.0,0.11419249592169657,0.693069306930693,0.8396200055881531,0.15612420931569868,0.19607843137254902
azbwiki,True,41.0,0.11505922165820642,0.6732673267326733,0.8446493433920089,0.1503737780333525,0.19653179190751446
azbwiki,True,42.0,0.11867364746945899,0.6732673267326733,0.8496786811958648,0.14519838987924094,0.20178041543026706
azbwiki,True,43.0,0.12252252252252252,0.6732673267326733,0.8547080189997206,0.14002300172512938,0.2073170731707317
azbwiki,True,44.0,0.12781954887218044,0.6732673267326733,0.8611343950824253,0.13341000575043127,0.2148499210110585
azbwiki,True,45.0,0.13178294573643412,0.6732673267326733,0.8656049175747416,0.12880966072455435,0.22042139384116693
azbwiki,True,46.0,0.13793103448275862,0.6732673267326733,0.8720312936574462,0.12219666474985624,0.22895622895622897
azbwiki,True,47.0,0.14166666666666666,0.6732673267326733,0.8756635931824532,0.11845888441633122,0.23407917383820995
azbwiki,True,48.0,0.1468682505399568,0.6732673267326733,0.8804135233305392,0.11357101782633698,0.24113475177304966
azbwiki,True,49.0,0.1511111111111111,0.6732673267326733,0.8840458228555462,0.10983323749281196,0.24682395644283123
azbwiki,True,50.0,0.15632183908045977,0.6732673267326733,0.8882369376920928,0.10552041403105233,0.25373134328358204
azbwiki,True,51.0,0.15876777251184834,0.6633663366336634,0.8913104219055602,0.10207015526164462,0.25621414913957935
azbwiki,True,52.0,0.16105769230769232,0.6633663366336634,0.8929868678401788,0.10034502587694077,0.25918762088974856
azbwiki,True,53.0,0.16834170854271358,0.6633663366336634,0.8980162056440346,0.09516963772282921,0.26853707414829664
azbwiki,True,54.0,0.17223650385604114,0.6633663366336634,0.9005308745459626,0.09258194364577343,0.27346938775510204
azbwiki,True,55.0,0.1763157894736842,0.6633663366336634,0.9030455434478905,0.08999424956871765,0.2785862785862786
azbwiki,True,56.0,0.1783783783783784,0.6534653465346535,0.9052808046940486,0.08740655549166187,0.2802547770700637
azbwiki,True,57.0,0.18333333333333332,0.6534653465346535,0.9080748812517463,0.08453133985048879,0.2863340563991323
azbwiki,True,58.0,0.18571428571428572,0.6435643564356436,0.9103101424979044,0.08194364577343301,0.28824833702882485
azbwiki,True,59.0,0.19117647058823528,0.6435643564356436,0.9131042190556021,0.07906843013225992,0.2947845804988662
azbwiki,True,60.0,0.19756838905775076,0.6435643564356436,0.9161777032690696,0.07590569292696953,0.3023255813953489
azbwiki,True,61.0,0.20440251572327045,0.6435643564356436,0.919251187482537,0.07274295572167913,0.31026252983293556
azbwiki,True,62.0,0.21103896103896103,0.6435643564356436,0.9220452640402347,0.06986774008050604,0.31784841075794623
azbwiki,True,63.0,0.21739130434782608,0.6435643564356436,0.9245599329421627,0.06728004600345026,0.325
azbwiki,True,64.0,0.22569444444444445,0.6435643564356436,0.9276334171556301,0.06411730879815986,0.3341902313624679
azbwiki,True,65.0,0.22968197879858657,0.6435643564356436,0.9290304554344789,0.06267970097757332,0.3385416666666667
azbwiki,True,66.0,0.23465703971119134,0.6435643564356436,0.9307069013690975,0.06095457159286947,0.34391534391534395
azbwiki,True,67.0,0.24253731343283583,0.6435643564356436,0.9332215702710255,0.05836687751581369,0.3523035230352304
azbwiki,True,68.0,0.25,0.6435643564356436,0.9354568315171836,0.056066705002875215,0.3601108033240997
azbwiki,True,69.0,0.256,0.6336633663366337,0.9376920927633418,0.053479010925819435,0.3646723646723647
azbwiki,True,70.0,0.2603305785123967,0.6237623762376238,0.9393685386979603,0.05146635997699828,0.3673469387755102
azbwiki,True,71.0,0.26495726495726496,0.6138613861386139,0.9410449846325789,0.04945370902817711,0.3701492537313432
azbwiki,True,72.0,0.26576576576576577,0.5841584158415841,0.9427214305671976,0.04686601495112133,0.3653250773993808
azbwiki,True,73.0,0.26976744186046514,0.5742574257425742,0.9441184688460463,0.04514088556641748,0.3670886075949368
azbwiki,True,74.0,0.2766990291262136,0.5643564356435643,0.9460743224364347,0.04284071305347901,0.3713355048859935
azbwiki,True,75.0,0.2878787878787879,0.5643564356435643,0.9483095836825929,0.04054054054054054,0.38127090301003347
azbwiki,True,76.0,0.30319148936170215,0.5643564356435643,0.9511036602402906,0.037665324899367456,0.3944636678200692
azbwiki,True,77.0,0.30337078651685395,0.5346534653465347,0.9522212908633697,0.03565267395054629,0.3870967741935484
azbwiki,True,78.0,0.31952662721893493,0.5346534653465347,0.9547359597652976,0.03306497987349051,0.4
azbwiki,True,79.0,0.32727272727272727,0.5346534653465347,0.9558535903883767,0.031914893617021274,0.40601503759398494
azbwiki,True,80.0,0.34415584415584416,0.5247524752475248,0.9583682592903046,0.02903967797584819,0.415686274509804
azbwiki,True,81.0,0.35172413793103446,0.504950495049505,0.9597652975691534,0.02702702702702703,0.4146341463414634
azbwiki,True,82.0,0.34306569343065696,0.46534653465346537,0.9597652975691534,0.025876940770557792,0.3949579831932773
azbwiki,True,83.0,0.36220472440944884,0.45544554455445546,0.9620005588153115,0.023289246693502012,0.4035087719298246
azbwiki,True,84.0,0.358974358974359,0.4158415841584158,0.9625593741268511,0.02156411730879816,0.38532110091743116
azbwiki,True,85.0,0.38095238095238093,0.39603960396039606,0.9647946353730092,0.01868890166762507,0.38834951456310685
azbwiki,True,86.0,0.3655913978494624,0.33663366336633666,0.9647946353730092,0.01696377228292122,0.3505154639175258
azbwiki,True,87.0,0.3902439024390244,0.31683168316831684,0.9667504889633975,0.01437607820586544,0.3497267759562842
azbwiki,True,88.0,0.39436619718309857,0.27722772277227725,0.967588711930707,0.012363427257044278,0.32558139534883723
azbwiki,True,89.0,0.45161290322580644,0.27722772277227725,0.9701033808326348,0.0097757331799885,0.3435582822085889
azbwiki,True,90.0,0.49056603773584906,0.25742574257425743,0.9715004191114837,0.007763082231167337,0.33766233766233766
azbwiki,True,91.0,0.46808510638297873,0.21782178217821782,0.9709416037999441,0.00718803910293272,0.2972972972972973
azbwiki,True,92.0,0.5,0.16831683168316833,0.9717798267672534,0.00488786658999425,0.2518518518518518
azbwiki,True,93.0,0.5714285714285714,0.15841584158415842,0.9728974573903325,0.0034502587694077054,0.24806201550387594
azbwiki,True,94.0,0.625,0.1485148514851485,0.9734562727018721,0.002587694077055779,0.24
azbwiki,True,95.0,0.6666666666666666,0.13861386138613863,0.9737356803576418,0.0020126509488211618,0.2295081967213115
azbwiki,True,96.0,0.75,0.0891089108910891,0.9734562727018721,0.0008625646923519264,0.15929203539823011
azbwiki,True,97.0,0.8571428571428571,0.0594059405940594,0.9731768650461022,0.0002875215641173088,0.11111111111111112
azbwiki,True,98.0,1.0,0.039603960396039604,0.9728974573903325,0.0,0.07619047619047618
azbwiki,True,99.0,1.0,0.0297029702970297,0.9726180497345627,0.0,0.05769230769230769
azbwiki,False,0.0,0.022210690192008303,1.0,0.022210690192008303,1.0,0.04345618844552747
azbwiki,False,1.0,0.022210690192008303,1.0,0.022210690192008303,1.0,0.04345618844552747
azbwiki,False,2.0,0.022229147190194247,1.0,0.02304099636741048,0.9991508332448784,0.043491515089929884
azbwiki,False,3.0,0.022291666666666668,1.0,0.02584327970939284,0.9962848954463432,0.04361116771958427
azbwiki,False,4.0,0.02250736222128734,1.0,0.0353918007265179,0.9865194777624456,0.04402386340259207
azbwiki,False,5.0,0.022875467664350616,1.0,0.05127140633108459,0.9702791635707462,0.0447277667467865
azbwiki,False,6.0,0.023076923076923078,0.9953271028037384,0.0640373637778931,0.9571170788663624,0.04510800508259213
azbwiki,False,7.0,0.023140495867768594,0.9813084112149533,0.07950181629475869,0.9409829105190531,0.0452147701582517
azbwiki,False,8.0,0.02324014819804648,0.9672897196261683,0.09631551634665282,0.9234688461946715,0.04538975989474839
azbwiki,False,9.0,0.02344288669271432,0.9532710280373832,0.11696938245978204,0.9020273856278527,0.045760430686406464
azbwiki,False,10.0,0.02381233054343982,0.9439252336448598,0.1392838609237156,0.8789937373951809,0.04645279981602851
azbwiki,False,11.0,0.024482338611449453,0.9392523364485982,0.16741048261546446,0.8501220677210487,0.04772079772079773
azbwiki,False,12.0,0.02511415525114155,0.9252336448598131,0.20062272963155164,0.8158369599830166,0.048900963200790314
azbwiki,False,13.0,0.025654450261780103,0.9158878504672897,0.225531914893617,0.7901496656405902,0.0499108734402852
azbwiki,False,14.0,0.02633374266612089,0.9018691588785047,0.2571873378308251,0.757456745568411,0.05117327323346149
azbwiki,False,15.0,0.027223489167616875,0.8925233644859814,0.2892579138557343,0.7244453879630612,0.052835408022130013
azbwiki,False,16.0,0.028304682868998222,0.8925233644859814,0.3170731707317073,0.6959983016664898,0.05486929043378339
azbwiki,False,17.0,0.028900845503458877,0.8785046728971962,0.3416709911779969,0.6705232990128437,0.055960708438755766
azbwiki,False,18.0,0.029529770502327073,0.8598130841121495,0.36927867151011934,0.6418639210274918,0.057098525989138865
azbwiki,False,19.0,0.030764086273198463,0.8598130841121495,0.39522573949143747,0.6153274599299438,0.05940274414850686
azbwiki,False,20.0,0.03154409201812478,0.8457943925233645,0.419823559937727,0.5898524572762976,0.06081989247311828
azbwiki,False,21.0,0.031920649233543735,0.8271028037383178,0.43902439024390244,0.5697908926865514,0.06146900503559646
azbwiki,False,22.0,0.03314606741573034,0.8271028037383178,0.46030098598858327,0.5480309945865619,0.06373784659704718
azbwiki,False,23.0,0.03413498836307215,0.822429906542056,0.47919045147898287,0.5286063050631568,0.06554934823091248
azbwiki,False,24.0,0.035161744022503515,0.8177570093457944,0.4975609756097561,0.5097123447617026,0.06742438836447698
azbwiki,False,25.0,0.03627594883623401,0.8084112149532711,0.5187337830825117,0.487846300817323,0.0694360826811158
azbwiki,False,26.0,0.03714223290364868,0.794392523364486,0.5380384016606123,0.4677847362275767,0.0709663953245669
azbwiki,False,27.0,0.038314176245210725,0.794392523364486,0.5525687597301505,0.4529243180129498,0.07310255858955063
azbwiki,False,28.0,0.039550666978703485,0.7897196261682243,0.5693824597820446,0.43562254537734846,0.07532872743481167
azbwiki,False,29.0,0.04081632653061224,0.7850467289719626,0.5854696419304618,0.4190637936524785,0.07759815242494225
azbwiki,False,30.0,0.04154078549848943,0.7710280373831776,0.5997924234561495,0.4040972295934614,0.07883420926899189
azbwiki,False,31.0,0.042003652491521,0.7523364485981309,0.6133886870783601,0.3897675406007855,0.07956510995799357
azbwiki,False,32.0,0.04173441734417344,0.719626168224299,0.6267773741567203,0.3753317057637193,0.07889344262295082
azbwiki,False,33.0,0.04179610279582039,0.6915887850467289,0.6409963674104826,0.3601528500159219,0.07882822902796272
azbwiki,False,34.0,0.0418863503222027,0.6682242990654206,0.6531395952257395,0.34720305700031845,0.07883131201764058
azbwiki,False,35.0,0.04199877375843041,0.6401869158878505,0.6676699532952777,0.3317057637193504,0.07882623705408516
azbwiki,False,36.0,0.04235668789808917,0.6214953271028038,0.6795018162947587,0.31918055408130774,0.07930828861061419
azbwiki,False,37.0,0.04356435643564356,0.616822429906542,0.6907109496626881,0.3076106570427768,0.0813810110974106
azbwiki,False,38.0,0.04492455418381344,0.6121495327102804,0.7023352361183186,0.29561617662668505,0.08370607028753993
azbwiki,False,39.0,0.04616477272727273,0.6074766355140186,0.7125064867669954,0.285107738032056,0.0858085808580858
azbwiki,False,40.0,0.04763676963155936,0.5981308411214953,0.7254800207576544,0.27162721579450166,0.08824543260944502
azbwiki,False,41.0,0.048524844720496896,0.5841121495327103,0.736377789309808,0.2601634646003609,0.08960573476702509
azbwiki,False,42.0,0.05068937550689376,0.5841121495327103,0.7477944992215879,0.24848742171743976,0.09328358208955223
azbwiki,False,43.0,0.05269814502529511,0.5841121495327103,0.7575505967825635,0.2385097123447617,0.09667440061871617
azbwiki,False,44.0,0.054481546572934976,0.5794392523364486,0.7673066943435392,0.22842585712769345,0.09959839357429719
azbwiki,False,45.0,0.055835240274599546,0.5700934579439252,0.7763362740010379,0.21897887697696636,0.10170904543559817
azbwiki,False,46.0,0.0585693710993759,0.5700934579439252,0.7869226777374156,0.20815200084916677,0.10622551153678711
azbwiki,False,47.0,0.05991943605236657,0.5560747663551402,0.7963674104826155,0.19817429147648868,0.10818181818181818
azbwiki,False,48.0,0.0625986322987901,0.5560747663551402,0.8051894135962636,0.18915189470332236,0.11252955082742315
azbwiki,False,49.0,0.06534870950027458,0.5560747663551402,0.8134924753502855,0.180660227152107,0.11695331695331695
azbwiki,False,50.0,0.0677382319173364,0.5514018691588785,0.8214841722885314,0.172380851289672,0.12065439672801637
azbwiki,False,51.0,0.0689035350509287,0.5373831775700935,0.8284379865075246,0.16495064218235855,0.12214551248008496
azbwiki,False,52.0,0.07076350093109869,0.5327102803738317,0.8342501297353399,0.15890032905211762,0.12493150684931505
azbwiki,False,53.0,0.07296416938110749,0.5233644859813084,0.8417228853139596,0.1510455365672434,0.12807318467695827
azbwiki,False,54.0,0.07639836289222374,0.5233644859813084,0.8488842760768033,0.14372147330432014,0.13333333333333333
azbwiki,False,55.0,0.07889125799573561,0.5186915887850467,0.8548002075765438,0.13756501432968898,0.13695249845774216
azbwiki,False,56.0,0.08068097705403404,0.5093457943925234,0.860197197716658,0.13183313873261862,0.13929712460063895
azbwiki,False,57.0,0.0843000773395205,0.5093457943925234,0.8662169174883239,0.12567667975798746,0.14465826144658261
azbwiki,False,58.0,0.08804523424878836,0.5093457943925234,0.8719252724442138,0.1198386583165269,0.15013774104683195
azbwiki,False,59.0,0.09151973131821999,0.5093457943925234,0.8768033212247016,0.11484980363018787,0.15516014234875444
azbwiki,False,60.0,0.09536307961504811,0.5093457943925234,0.8817851582771147,0.10975480309945866,0.1606484893146647
azbwiki,False,61.0,0.09852670349907919,0.5,0.8872859366891541,0.10391678165799809,0.1646153846153846
azbwiki,False,62.0,0.1017274472168906,0.4953271028037383,0.8916450441100155,0.09935251034921982,0.16878980891719747
azbwiki,False,63.0,0.1065989847715736,0.49065420560747663,0.8973533990659055,0.09340834306336906,0.17514595496246874
azbwiki,False,64.0,0.11217948717948718,0.49065420560747663,0.9024390243902439,0.08820719668824965,0.1826086956521739
azbwiki,False,65.0,0.1167964404894327,0.49065420560747663,0.906279190451479,0.08427980044581254,0.18867924528301885
azbwiki,False,66.0,0.12064965197215777,0.48598130841121495,0.9099117799688635,0.08045855004776563,0.1933085501858736
azbwiki,False,67.0,0.12515337423312883,0.4766355140186916,0.9143746756616502,0.07568198705020698,0.19825072886297376
azbwiki,False,68.0,0.12857142857142856,0.46261682242990654,0.9184224182667359,0.07122386158581892,0.20121951219512194
azbwiki,False,69.0,0.13150684931506848,0.4485981308411215,0.9219512195121952,0.06729646534338181,0.20338983050847456
azbwiki,False,70.0,0.13722627737226278,0.4392523364485981,0.9262065386611313,0.06273219403460355,0.20912124582869857
azbwiki,False,71.0,0.1419753086419753,0.42990654205607476,0.9296315516346653,0.05901708948094682,0.21345707656612528
azbwiki,False,72.0,0.14566284779050737,0.4158878504672897,0.9328489880643487,0.05540813077168029,0.21575757575757576
azbwiki,False,73.0,0.14904679376083188,0.40186915887850466,0.9357550596782563,0.052117609595584334,0.21744627054361565
azbwiki,False,74.0,0.15427509293680297,0.3878504672897196,0.9391800726517904,0.048296359197537414,0.22074468085106383
azbwiki,False,75.0,0.16338582677165353,0.3878504672897196,0.9422937208095485,0.04511198386583165,0.22991689750692523
azbwiki,False,76.0,0.1740041928721174,0.3878504672897196,0.945511157239232,0.041821462689735696,0.2402315484804631
azbwiki,False,77.0,0.18243243243243243,0.37850467289719625,0.9485210171250649,0.03853094151363974,0.24620060790273557
azbwiki,False,78.0,0.1956521739130435,0.37850467289719625,0.951634665282823,0.03534656618193398,0.25796178343949044
azbwiki,False,79.0,0.2077922077922078,0.37383177570093457,0.9544369486248054,0.0323744825390086,0.26711185308848084
azbwiki,False,80.0,0.21937321937321938,0.3598130841121495,0.957343020238713,0.029083961362912643,0.27256637168141595
azbwiki,False,81.0,0.2222222222222222,0.34579439252336447,0.9585884795018162,0.02749177369705976,0.2705667276051188
azbwiki,False,82.0,0.2379421221864952,0.34579439252336447,0.9608718214841723,0.025156565120475535,0.28190476190476194
azbwiki,False,83.0,0.2422145328719723,0.32710280373831774,0.9623248572911262,0.023245939921452075,0.2783300198807157
azbwiki,False,84.0,0.2529182879377432,0.3037383177570093,0.9646081992734821,0.020380002122916886,0.2760084925690021
azbwiki,False,85.0,0.25,0.27102803738317754,0.9657498702646601,0.01846937692389343,0.26008968609865474
azbwiki,False,86.0,0.26635514018691586,0.26635514018691586,0.9674104826154645,0.016664897569260165,0.26635514018691586
azbwiki,False,87.0,0.2857142857142857,0.2523364485981308,0.9693824597820446,0.014329688992675936,0.2679900744416873
azbwiki,False,88.0,0.296969696969697,0.22897196261682243,0.9708354955889984,0.012312917949262286,0.25857519788918204
azbwiki,False,89.0,0.32450331125827814,0.22897196261682243,0.9722885313959523,0.010826876127799596,0.2684931506849315
azbwiki,False,90.0,0.3382352941176471,0.21495327102803738,0.9732226258432797,0.009553125995117292,0.26285714285714284
azbwiki,False,91.0,0.3793103448275862,0.205607476635514,0.9748832381940841,0.007642500796093833,0.26666666666666666
azbwiki,False,92.0,0.42045454545454547,0.17289719626168223,0.9763362740010378,0.005413438063899798,0.24503311258278146
azbwiki,False,93.0,0.4605263157894737,0.16355140186915887,0.9771665801764401,0.0043519796199978774,0.2413793103448276
azbwiki,False,94.0,0.5,0.1542056074766355,0.9777893098079917,0.00350281286487634,0.2357142857142857
azbwiki,False,95.0,0.5686274509803921,0.13551401869158877,0.9785158277114686,0.0023352085765842266,0.2188679245283019
azbwiki,False,96.0,0.7428571428571429,0.12149532710280374,0.9795537104307214,0.0009553125995117292,0.20883534136546184
azbwiki,False,97.0,0.92,0.10747663551401869,0.9799688635184224,0.00021229168878038424,0.19246861924686193
azbwiki,False,98.0,0.9473684210526315,0.08411214953271028,0.9795537104307214,0.00010614584439019212,0.15450643776824033
azbwiki,False,99.0,1.0,0.03271028037383177,0.9785158277114686,0.0,0.06334841628959276
