wiki_db,user_is_bot,threshold,precision,recall,accuracy,fpr,F1
bnwiki,True,0.0,0.059628574712937296,1.0,0.059628574712937296,1.0,0.11254618105988923
bnwiki,True,1.0,0.05963504908379053,1.0,0.05973714125145287,0.9998845493008441,0.11255771340397575
bnwiki,True,2.0,0.06001915573354246,1.0,0.06613618075690036,0.9930797492682463,0.11324164362295637
bnwiki,True,3.0,0.061694793441226574,0.9929313483988433,0.09910847713077797,0.9575684724514258,0.11617139384370555
bnwiki,True,4.0,0.06354061936238332,0.9543750669379887,0.15857100890245615,0.891890607066941,0.1191485378865876
bnwiki,True,5.0,0.06568780183829256,0.9031808932205205,0.2282132502267125,0.8145861771557023,0.12246854055781058
bnwiki,True,6.0,0.06757407548221935,0.8565920531219878,0.28665397928294994,0.7494855652669967,0.1252662573612329
bnwiki,True,7.0,0.07161904761904762,0.8456677733747456,0.33713741969269284,0.6951082859645906,0.13205448752790858
bnwiki,True,8.0,0.07552537926644613,0.8387062225554247,0.37822027512038114,0.6509789540166656,0.13857233861834656
bnwiki,True,9.0,0.07903874548139096,0.8313162686087608,0.41234848581610106,0.614218093161923,0.14435290398170017
bnwiki,True,10.0,0.08245856205793287,0.8253186248259612,0.44198076456388186,0.5823265353245183,0.14993676427668062
bnwiki,True,11.0,0.08538823002908928,0.8173931669701189,0.4670468624270369,0.5551684561525035,0.15462382365752605
bnwiki,True,12.0,0.08791605524887616,0.8085038020777552,0.4884280842476339,0.5318677885758137,0.15858743947144524
bnwiki,True,13.0,0.09029703449862563,0.7986505301488701,0.5082191255923263,0.5101970132225007,0.16224978241949523
bnwiki,True,14.0,0.09290147156938028,0.7904037699475206,0.5273140638371246,0.48936834885126557,0.16626115166261152
bnwiki,True,15.0,0.0953625081645983,0.781835707400664,0.5447421864023604,0.4702918186201604,0.16999080186757018
bnwiki,True,16.0,0.09804319859164466,0.7754096604905216,0.5612506865236995,0.4523290480750294,0.17407612223798416
bnwiki,True,17.0,0.10074553659015106,0.7699475206169005,0.5764819332507376,0.43578564200775555,0.1781770865605056
bnwiki,True,18.0,0.10330237208560954,0.763521473706758,0.590704149796278,0.42025412736249484,0.18198294787358962
bnwiki,True,19.0,0.10586333842147795,0.7576309307057941,0.6039811988300359,0.4057616690096367,0.18576924591972058
bnwiki,True,20.0,0.10876818982296783,0.7540966049052158,0.6168942306464179,0.3918057168469735,0.19011488976792534
bnwiki,True,21.0,0.1115859979268001,0.7493841705044447,0.6292899748381081,0.3783251499161285,0.194247799894506
bnwiki,True,22.0,0.11464884264594515,0.7458498447038664,0.6414047232830521,0.3652180999531406,0.1987471282409852
bnwiki,True,23.0,0.11760518018781571,0.743065224376138,0.6522358320667238,0.3535236232504126,0.20307034874361565
bnwiki,True,24.0,0.12071857961694393,0.7398522009210667,0.6631563485879963,0.3417069046309313,0.2075689968600231
bnwiki,True,25.0,0.1237983798379838,0.7365320766841598,0.6734510109460616,0.3305489341183981,0.21196849908302123
bnwiki,True,26.0,0.12696264714060618,0.73353325479276,0.683343338484922,0.3198391839672935,0.2164596567744382
bnwiki,True,27.0,0.13026607538802662,0.7298918282103459,0.6933123012274405,0.30900719189943565,0.22107602225358056
bnwiki,True,28.0,0.13342917913975105,0.7256077969369177,0.702636251005837,0.2988203655033311,0.2254088134014273
bnwiki,True,29.0,0.13679504115435423,0.7208953625361465,0.7121070849245782,0.2884501762320967,0.2299545625362987
bnwiki,True,30.0,0.14064337308919872,0.7173610367355682,0.7217822793864075,0.27793737139131675,0.23517845543442004
bnwiki,True,31.0,0.1440856022700197,0.7124344007711256,0.7304995338025111,0.26835496336138104,0.23969443643701355
bnwiki,True,32.0,0.14753768394686229,0.7065438577701617,0.7390762903452416,0.25886084116021163,0.24410279180773714
bnwiki,True,33.0,0.15189405320452076,0.703866338224269,0.7479979053044333,0.2492037297367045,0.24986693027146223
bnwiki,True,34.0,0.1556771741987907,0.697654492877798,0.7563511425031612,0.23992692649865194,0.25455255959359124
bnwiki,True,35.0,0.15971194633520766,0.6935846631680411,0.7641360019414252,0.23139036597871632,0.2596371654806054
bnwiki,True,36.0,0.16394692694829952,0.6908000428403127,0.7715057540265413,0.22337672921378074,0.265001335278046
bnwiki,True,37.0,0.16731262766458913,0.6842668951483346,0.778109154075077,0.2159403459446244,0.2688803316288955
bnwiki,True,38.0,0.17048799589510924,0.6761272357288208,0.784527352381439,0.20859903972183172,0.2723116076435319
bnwiki,True,39.0,0.17436624416277519,0.6718432044553925,0.7907411901447128,0.20171953629566244,0.27687418621587623
bnwiki,True,40.0,0.17810950942966214,0.6695940880368426,0.7960545642650045,0.19592662768507765,0.2813744683723756
bnwiki,True,41.0,0.18216929514000643,0.6668094677091143,0.8016297753311279,0.18982132306501232,0.28616077584225763
bnwiki,True,42.0,0.18564237775647172,0.6635964442540431,0.8063619991570128,0.18458529429741458,0.2901224451572121
bnwiki,True,43.0,0.18916932124479294,0.661454428617329,0.8107557508334078,0.17977711223845325,0.29420030963439325
bnwiki,True,44.0,0.19324171686746988,0.6596337153261219,0.8154943609262642,0.17462257808202433,0.29891528549588686
bnwiki,True,45.0,0.1970519284498539,0.6571703973439006,0.8198817263356878,0.16980081358786817,0.3031920150212472
bnwiki,True,46.0,0.200815226323921,0.6542786762343366,0.8241222076047667,0.16510808222806267,0.30730922078575384
bnwiki,True,47.0,0.20469843834141088,0.6513869551247724,0.8283052124711021,0.1604764718266338,0.311506056493124
bnwiki,True,48.0,0.20891824938067713,0.6503159473064153,0.8323157881292069,0.15614367499949067,0.31624176453738184
bnwiki,True,49.0,0.2126655395886165,0.6466745207240013,0.8361730933799957,0.1518108781723475,0.3200720930848949
bnwiki,True,50.0,0.21598357703666354,0.6422833886687372,0.8396472226124941,0.14783801587786674,0.32326226989731294
bnwiki,True,51.0,0.21971312982714233,0.639820070686516,0.8430319441073915,0.14408247254650286,0.32710050099926086
bnwiki,True,52.0,0.2230110434978589,0.6358573417585949,0.8461867599913147,0.14047633600228185,0.330209405155872
bnwiki,True,53.0,0.22650852141870106,0.6320017136125093,0.8493671209431239,0.13684982580526864,0.3334934584192828
bnwiki,True,54.0,0.22985670660089264,0.6287886901574381,0.8522409410803009,0.13359004135851515,0.33664955990710743
bnwiki,True,55.0,0.23278033180091945,0.6236478526293242,0.8549934221450194,0.13033704812935912,0.3390195621797857
bnwiki,True,56.0,0.2358124923503733,0.6190425190103888,0.8576628817391082,0.1272062968169563,0.3415268258095013
bnwiki,True,57.0,0.23915845494989812,0.616043697118989,0.860242933595596,0.1242724908148782,0.34455492991493947
bnwiki,True,58.0,0.2429032806391297,0.6121880689729035,0.8630975949318586,0.12099233271533254,0.34780492257141987
bnwiki,True,59.0,0.2470378114654121,0.6073685337902966,0.8662013206800097,0.11738619617111151,0.35122162697798287
bnwiki,True,60.0,0.24980008884940028,0.6022276962621828,0.8684365141200363,0.11468329156734511,0.35312588312870913
bnwiki,True,61.0,0.25344615804558485,0.5966584556067259,0.8711506775829256,0.11144388077338387,0.3557698448176768
bnwiki,True,62.0,0.25731321035960497,0.5916247188604477,0.873826523443986,0.10827917337299404,0.3586430774224963
bnwiki,True,63.0,0.2610334462522067,0.5859483774231552,0.8764001890335024,0.10518237814857825,0.3611697913916029
bnwiki,True,64.0,0.2651830792608206,0.579415229731177,0.8791846014330783,0.10180714300266895,0.3638442396933217
bnwiki,True,65.0,0.26964591949964695,0.5725607796936918,0.8820392627693409,0.098336830810396,0.3666289476391318
bnwiki,True,66.0,0.2739186739186739,0.5663489343472208,0.8846257008928001,0.09519249706279839,0.3692479575448642
bnwiki,True,67.0,0.277393248855287,0.5579950733640355,0.8869694608713423,0.09217040523195404,0.3705679433834773
bnwiki,True,68.0,0.2817873179279378,0.5511406233265503,0.889472877524172,0.08907361000753825,0.3729120620312331
bnwiki,True,69.0,0.28601240834743374,0.5431080646888722,0.8919124315072867,0.08597002356552506,0.37469981896774673
bnwiki,True,70.0,0.2911636045494313,0.5346471029238513,0.8946393675041191,0.08253366746123912,0.3770107997885356
bnwiki,True,71.0,0.29546003380825886,0.5241512263039521,0.8970980802881484,0.07925350936169345,0.37790046716342995
bnwiki,True,72.0,0.30108470750517274,0.514297954375067,0.8998505613528668,0.07570170255825166,0.3798149173455667
bnwiki,True,73.0,0.30560271646859083,0.5012316589911107,0.902347591738725,0.07221780793078392,0.3797006206644761
bnwiki,True,74.0,0.31124923160986273,0.4880582628253186,0.9050745277355574,0.06848263825221224,0.38009842355492535
bnwiki,True,75.0,0.31628273000429247,0.4734925564956624,0.9075715581214157,0.06490366657838084,0.37924083208235043
bnwiki,True,76.0,0.32204410325882443,0.45828424547499197,0.9101707687788181,0.06117528811740657,0.37827086280056577
bnwiki,True,77.0,0.3291169451073986,0.44307593445432153,0.9129360223774795,0.05727033799889982,0.37768749714703065
bnwiki,True,78.0,0.3352816603134265,0.4239048945057299,0.9155352330348818,0.05329068448682164,0.3744205846182953
bnwiki,True,79.0,0.34142585379110424,0.40366284673878117,0.9180131046198255,0.04937215193312009,0.36994503337259516
bnwiki,True,80.0,0.3480754276827372,0.3835278997536682,0.9204079547341397,0.04554869642578218,0.36494267515923573
bnwiki,True,81.0,0.35597826086956524,0.3647852629324194,0.9227708735135963,0.04184748283519752,0.36032795556731023
bnwiki,True,82.0,0.3656462585034014,0.34540002142015636,0.9252359725645971,0.03799686245747,0.3552348956325384
bnwiki,True,83.0,0.3720014761963341,0.32387276427117917,0.9270816037193619,0.03466916583474251,0.3462727585022329
bnwiki,True,84.0,0.3799490001342102,0.30320231337688763,0.9289463936750412,0.031375425300002036,0.33726471289015963
bnwiki,True,85.0,0.3906597479614529,0.282210560137089,0.9309516815040936,0.02791190432532649,0.32769556025369984
bnwiki,True,86.0,0.3984592689722996,0.2603620006426047,0.9324588405093687,0.02492376858246915,0.3149371680269465
bnwiki,True,87.0,0.40449233016800584,0.2372282317660919,0.933691390034869,0.02214616058513131,0.29906163505029365
bnwiki,True,88.0,0.4152191894127378,0.21505836992610047,0.9351346863704291,0.019205563365455793,0.28335567628589575
bnwiki,True,89.0,0.42370091699976486,0.19299560886794473,0.9362267380225563,0.016645274331234847,0.2651949963208241
bnwiki,True,90.0,0.44111291193949215,0.1748955767377102,0.9375870128874868,0.014051029209026886,0.25047933123705807
bnwiki,True,91.0,0.46649649010848754,0.15658134304380422,0.9390303092230468,0.011354915822857881,0.23446395637879883
bnwiki,True,92.0,0.4915057915057915,0.1363392952768555,0.9400904295403165,0.008944033575779801,0.2134652469187557
bnwiki,True,93.0,0.5294117647058824,0.11374103030952126,0.9411250047897002,0.006410909411948469,0.18725204972229567
bnwiki,True,94.0,0.585219707057257,0.0941415872335868,0.9420063096317679,0.004230928563182093,0.16219208414060338
bnwiki,True,95.0,0.6467391304347826,0.07646995823069508,0.9424405757858302,0.002648574862987185,0.1367685087635284
bnwiki,True,96.0,0.722875816993464,0.059226732355146194,0.9425491423243457,0.001439738130649444,0.10948327063947734
bnwiki,True,97.0,0.7933070866141733,0.043161615079790085,0.9422745328445711,0.000713077847727319,0.08186896901980702
bnwiki,True,98.0,0.8544303797468354,0.028917211095640997,0.9418019490886798,0.0003123960094805398,0.05594115818916399
bnwiki,True,99.0,0.8541666666666666,0.01317339616579201,0.9410228245181561,0.0001426155695454638,0.025946630102309885
bnwiki,False,0.0,0.05584228824273072,1.0,0.05584228824273072,1.0,0.10577770726662346
bnwiki,False,1.0,0.05584617135199034,1.0,0.05591182048040455,0.9999263552722093,0.10578467369063886
bnwiki,False,2.0,0.05624421949445151,0.9998585052494553,0.06311314791403287,0.9922907359953671,0.10649771071517922
bnwiki,False,3.0,0.05759915513174092,0.9970569091886691,0.0888685208596713,0.9648463586866467,0.10890685130519451
bnwiki,False,4.0,0.05936080087146416,0.9823131561819056,0.1297787610619469,0.920644458317921,0.11195613610707951
bnwiki,False,5.0,0.0615041623572467,0.9625887879559668,0.17768805309734514,0.8687349676883757,0.11562078828802036
bnwiki,False,6.0,0.06401833753728409,0.9444774598862382,0.22578697850821744,0.8167200311985847,0.11990903081168086
bnwiki,False,7.0,0.06731943656934054,0.9374027223590005,0.27126422250316057,0.7681345957825003,0.1256176596624156
bnwiki,False,8.0,0.07061147283629719,0.9317429323372103,0.31136061946902654,0.7253319452417974,0.13127440836807075
bnwiki,False,9.0,0.07371900305069012,0.9259133486147664,0.346186788874842,0.6881011878559844,0.13656502584672278
bnwiki,False,10.0,0.07665033735201067,0.9201120638424315,0.37658817951959545,0.6555585868915732,0.1415119591402389
bnwiki,False,11.0,0.07917949121375119,0.9114525851090924,0.40314001264222504,0.6269241777315081,0.14570162561721203
bnwiki,False,12.0,0.08161835582044064,0.9033590853779325,0.4269816687737042,0.6011937140877343,0.14971039981240472
bnwiki,False,13.0,0.08388525661112911,0.8939072360415429,0.4489206700379267,0.5773980982922792,0.1533774056261365
bnwiki,False,14.0,0.08621540208407401,0.8852760562583128,0.46963021491782553,0.5549531937542576,0.15712836276696202
bnwiki,False,15.0,0.08854456953888455,0.8766731754251917,0.4891782553729456,0.5337401646629164,0.16084380824805428
bnwiki,False,16.0,0.09117707242861083,0.8700512210996972,0.5084576485461442,0.512928834086797,0.1650569874751032
bnwiki,False,17.0,0.09372438375173846,0.8639103489260549,0.5259134007585335,0.49407745751619764,0.16910302499875368
bnwiki,False,18.0,0.09616295142916156,0.8563828281970739,0.542496839443742,0.4760679740837508,0.17290990538007953
bnwiki,False,19.0,0.09856259462015651,0.8493363896199451,0.5578097345132743,0.4594326343221254,0.17662809995174256
bnwiki,False,20.0,0.10126586574356886,0.8444123723009876,0.572820796460177,0.4432425104148709,0.18084406827940858
bnwiki,False,21.0,0.10398694988686394,0.8388374791295243,0.5873767383059418,0.42749592861817387,0.18503583110689406
bnwiki,False,22.0,0.10650999029224684,0.8321023290035939,0.6008264854614412,0.41285234399452353,0.18884732101282894
bnwiki,False,23.0,0.10943305855014762,0.8276027959362707,0.6142730720606827,0.39834433261976054,0.19330552783084032
bnwiki,False,24.0,0.11245042022004531,0.8231598607691655,0.6273151074589127,0.3842681471488611,0.19787014771556166
bnwiki,False,25.0,0.1153059230336653,0.8181509465998812,0.6393046776232617,0.37127320018143384,0.20212535393435174
bnwiki,False,26.0,0.11835312604122532,0.814217392534737,0.6509228824273072,0.3587351852750714,0.20666570894986352
bnwiki,False,27.0,0.12142035542841136,0.8095480657667601,0.6622534766118837,0.3464582744036032,0.21116852439654538
bnwiki,False,28.0,0.12436188191203383,0.803831677844752,0.6729883059418458,0.33475043642869934,0.21539908168178873
bnwiki,False,29.0,0.12759024328514032,0.7989076605257945,0.6837262958280658,0.3230861157929445,0.22003897116134064
bnwiki,False,30.0,0.13097847166081766,0.7931912726037864,0.6945701643489254,0.3112627894949143,0.22483094964986725
bnwiki,False,31.0,0.13431797428724654,0.7867391119789455,0.7049399494310998,0.29989806900176247,0.2294607042044273
bnwiki,False,32.0,0.1380994071591165,0.7811642188074822,0.7155278128950695,0.2883542579205742,0.23470593736980386
bnwiki,False,33.0,0.14189797332947104,0.7762967993887426,0.7253555625790139,0.2776573612089786,0.2399380737255039
bnwiki,False,34.0,0.14575585533039742,0.7708351020177151,0.7349241466498103,0.2671998098627028,0.24515565795750116
bnwiki,False,35.0,0.1494746499969601,0.7653168067464697,0.743716814159292,0.2575607192411915,0.2501017275182185
bnwiki,False,36.0,0.1534783675378989,0.7612417579307807,0.7522029077117572,0.2483316958539692,0.2554533109218161
bnwiki,False,37.0,0.15718626342566422,0.7554121742083368,0.7601564475347661,0.23956295201543862,0.2602248965446649
bnwiki,False,38.0,0.16103761822218168,0.7492713020346945,0.7680183312262958,0.23087287413613897,0.26509872241579563
bnwiki,False,39.0,0.16498107237697046,0.7436964088632312,0.7754930467762327,0.22262633836739681,0.2700536407916641
bnwiki,False,40.0,0.16853780341450195,0.739196875795908,0.7817936156763591,0.21568699651693912,0.2744912595955297
bnwiki,False,41.0,0.17271324839747854,0.7350369301298921,0.7885951327433628,0.208237162803387,0.2797038632386593
bnwiki,False,42.0,0.17612686103583156,0.7301412117610436,0.7942067003792668,0.20200414084219442,0.28379567503354824
bnwiki,False,43.0,0.1796142672127131,0.7260661629453548,0.7995132743362832,0.19614269000758205,0.28798644083016245
bnwiki,False,44.0,0.1834351819272004,0.7228966805331523,0.8048261694058154,0.1903281039997456,0.29261838759192654
bnwiki,False,45.0,0.1871096051856217,0.7188499306675722,0.809903603034134,0.1847110197618932,0.2969309806717827
bnwiki,False,46.0,0.1907255048616305,0.7144069955004669,0.814775600505689,0.17928808980639804,0.3010733452593917
bnwiki,False,47.0,0.1942794671794315,0.7090867928799841,0.8195369785082175,0.17393043585962645,0.30499479645306765
bnwiki,False,48.0,0.19796724385921693,0.7049834451141863,0.8240328697850822,0.1689259418574874,0.3091279098625106
bnwiki,False,49.0,0.20160508412433292,0.7002292214958825,0.8284070796460177,0.16401183002127329,0.31307252391315354
bnwiki,False,50.0,0.20528302517078384,0.6956164926281235,0.8326216814159292,0.15927513502928214,0.31701261937464126
bnwiki,False,51.0,0.20890170640286168,0.6908056711096018,0.8366482300884955,0.15472589934439454,0.3207942651010901
bnwiki,False,52.0,0.2123723986856517,0.6858816537906444,0.8404108723135272,0.15044948390109514,0.32432323935180846
bnwiki,False,53.0,0.21581938175475193,0.6792596994651499,0.8442651706700379,0.14597556668781164,0.3275630309440142
bnwiki,False,54.0,0.21964764281701554,0.6749299600984804,0.8479456384323641,0.1418213345428922,0.33143413007226236
bnwiki,False,55.0,0.2229213440748637,0.6687324900246201,0.8513258533501896,0.1378746466308374,0.33437807319782376
bnwiki,False,56.0,0.22614352549974867,0.6620539377989076,0.854615992414665,0.13399490847131956,0.3371304642298741
bnwiki,False,57.0,0.22956790245640427,0.6564224467272264,0.8577955120101137,0.13029426089983814,0.3401696742167049
bnwiki,False,58.0,0.23334414334069764,0.6515833262585958,0.8609971554993678,0.12661704574174468,0.34362850810754336
bnwiki,False,59.0,0.23727879556655368,0.6458103404363698,0.8642967762326169,0.12278082492137589,0.34704786526251763
bnwiki,False,60.0,0.24014302589151743,0.6385941081585873,0.8669816687737042,0.11951032950994454,0.3490325274929238
bnwiki,False,61.0,0.24274524349799267,0.6296799388742678,0.8696286346396966,0.11617957932122994,0.35040668971110467
bnwiki,False,62.0,0.24670249692083754,0.6235107677505165,0.872659608091024,0.11260446253575536,0.3535263584362239
bnwiki,False,63.0,0.2509489957899096,0.617369895576874,0.8757285082174463,0.10899084964257201,0.35684667664450276
bnwiki,False,64.0,0.25406958187041173,0.608201035741574,0.8784070796460177,0.10561156088326809,0.3584150490294176
bnwiki,False,65.0,0.25784472374648676,0.5997113507088887,0.8812547408343868,0.10209335138744993,0.3606350935112231
bnwiki,False,66.0,0.26188896538774487,0.592042335229363,0.884039190897598,0.09869063021475807,0.36314245543385815
bnwiki,False,67.0,0.2657422933058171,0.5830432690947166,0.8867556890012642,0.0952812140668125,0.3650845685629989
bnwiki,False,68.0,0.26902000425622474,0.572374564903642,0.8892714917825537,0.0919856124981798,0.36601188914323973
bnwiki,False,69.0,0.27281697089294527,0.5633754987689956,0.89176201011378,0.08881554171555393,0.36761487964989054
bnwiki,False,70.0,0.2771109976166156,0.5527633924781391,0.8945022123893805,0.08528561601304181,0.36915662650602415
bnwiki,False,71.0,0.280433312755387,0.5399156691286753,0.8969453223767383,0.08193812838619295,0.36913641156610655
bnwiki,False,72.0,0.2853287122943152,0.5265302657271416,0.8999146649810367,0.0780014829370187,0.3700992580510413
bnwiki,False,73.0,0.2888279031177203,0.5122675948722303,0.9023277496839444,0.07460210925195368,0.36938710961014587
bnwiki,False,74.0,0.293954760792687,0.4986840988199338,0.9051185208596713,0.07084288064700241,0.36987983418166553
bnwiki,False,75.0,0.2980551707205864,0.48096895605173046,0.9077623261694058,0.06699494361993964,0.36803811173668255
bnwiki,False,76.0,0.3021313470260703,0.4637348954353793,0.9102386219974715,0.06335287708192809,0.36588333798492884
bnwiki,False,77.0,0.30729369594015427,0.4463876390185924,0.9128934892541087,0.05951498251774587,0.3640055844650336
bnwiki,False,78.0,0.31296192783056953,0.42779522879701165,0.9156036662452591,0.05554486219230312,0.36147776183644187
bnwiki,False,79.0,0.3179377251331462,0.4071369952174774,0.9181194690265486,0.051658429057531596,0.3570506775202264
bnwiki,False,80.0,0.32428008918829165,0.38687494693946856,0.9207443109987358,0.04767994001302173,0.3528227627588877
bnwiki,False,81.0,0.33028954368733376,0.36542434275688374,0.9231874209860935,0.04382363426689184,0.34696975803742963
bnwiki,False,82.0,0.33835813464623554,0.3461810566827971,0.9256874209860936,0.04003762576092578,0.34222489544138424
bnwiki,False,83.0,0.34613299602457537,0.32523983360217334,0.9280104298356511,0.03633865193325779,0.33536131658423424
bnwiki,False,84.0,0.3559221574632026,0.3058833517276509,0.9303286978508217,0.032738428990581846,0.3290110492192494
bnwiki,False,85.0,0.3651975848729166,0.2858476950505136,0.932373577749684,0.029387593876106136,0.3206870277477935
bnwiki,False,86.0,0.37421547071756944,0.2649064719698899,0.9342130214917825,0.02620078565534602,0.31021341463414637
bnwiki,False,87.0,0.38451601407635083,0.24427653734046467,0.9359639696586599,0.023126118270085344,0.29875748451181944
bnwiki,False,88.0,0.3941624237535918,0.22126949090188755,0.9375221238938053,0.020115053149734795,0.2834306013702106
bnwiki,False,89.0,0.40638879398701744,0.20196960692758298,0.9389617572692794,0.01744877925494968,0.26983496852492483
bnwiki,False,90.0,0.42017026850032746,0.18156606389902935,0.9403049936788875,0.0148193277240599,0.25356176023079813
bnwiki,False,91.0,0.4375967791886033,0.15994566601579083,0.9416103034134008,0.012158075060715057,0.2342652270325161
bnwiki,False,92.0,0.4605867466491705,0.139061040835385,0.9428286978508218,0.009632395646257593,0.21362430987262532
bnwiki,False,93.0,0.4994585489110817,0.11746894190225543,0.9441434892541087,0.006962774263845627,0.1902034457478006
bnwiki,False,94.0,0.5432321575061526,0.09369782381073662,0.9449905183312263,0.004659702776573612,0.15982815215292526
bnwiki,False,95.0,0.599907063197026,0.07306788918131138,0.9455167509481669,0.0028821868467168677,0.13026916576272043
bnwiki,False,96.0,0.6783384826639204,0.05591872541528709,0.9457996207332491,0.0015682979531786907,0.1033202614379085
bnwiki,False,97.0,0.7504132231404959,0.0385431700483912,0.9455941845764855,0.0007582059474812666,0.0733204134366925
bnwiki,False,98.0,0.8360160965794768,0.023516427540538246,0.9452133375474083,0.00027282024158818203,0.045746057086234894
bnwiki,False,99.0,0.910941475826972,0.010131024139004442,0.9446681415929203,5.8581033469855035e-05,0.02003918275958578
