wiki_db,user_is_bot,threshold,precision,recall,accuracy,fpr,F1
bowiki,True,0.0,0.06703397612488522,1.0,0.06703397612488522,1.0,0.12564543889845095
bowiki,True,1.0,0.06703397612488522,1.0,0.06703397612488522,1.0,0.12564543889845095
bowiki,True,2.0,0.06703397612488522,1.0,0.06703397612488522,1.0,0.12564543889845095
bowiki,True,3.0,0.06703397612488522,1.0,0.06703397612488522,1.0,0.12564543889845095
bowiki,True,4.0,0.06703397612488522,1.0,0.06703397612488522,1.0,0.12564543889845095
bowiki,True,5.0,0.06703397612488522,1.0,0.06703397612488522,1.0,0.12564543889845095
bowiki,True,6.0,0.06703397612488522,1.0,0.06703397612488522,1.0,0.12564543889845095
bowiki,True,7.0,0.06746765249537892,1.0,0.07346189164370982,0.9931102362204725,0.12640692640692638
bowiki,True,8.0,0.06746765249537892,1.0,0.07346189164370982,0.9931102362204725,0.12640692640692638
bowiki,True,9.0,0.06746765249537892,1.0,0.07346189164370982,0.9931102362204725,0.12640692640692638
bowiki,True,10.0,0.06746765249537892,1.0,0.07346189164370982,0.9931102362204725,0.12640692640692638
bowiki,True,11.0,0.06746765249537892,1.0,0.07346189164370982,0.9931102362204725,0.12640692640692638
bowiki,True,12.0,0.06746765249537892,1.0,0.07346189164370982,0.9931102362204725,0.12640692640692638
bowiki,True,13.0,0.06746765249537892,1.0,0.07346189164370982,0.9931102362204725,0.12640692640692638
bowiki,True,14.0,0.06746765249537892,1.0,0.07346189164370982,0.9931102362204725,0.12640692640692638
bowiki,True,15.0,0.06841611996251172,1.0,0.08723599632690542,0.9783464566929134,0.1280701754385965
bowiki,True,16.0,0.06919431279620854,1.0,0.09825528007346189,0.9665354330708661,0.1294326241134752
bowiki,True,17.0,0.07025986525505294,1.0,0.11294765840220386,0.9507874015748031,0.13129496402877697
bowiki,True,18.0,0.0712890625,1.0,0.12672176308539945,0.9360236220472441,0.13309024612579762
bowiki,True,19.0,0.07170923379174853,1.0,0.1322314049586777,0.9301181102362205,0.13382218148487626
bowiki,True,20.0,0.0722057368941642,1.0,0.1386593204775023,0.9232283464566929,0.13468634686346864
bowiki,True,21.0,0.0722057368941642,1.0,0.1386593204775023,0.9232283464566929,0.13468634686346864
bowiki,True,22.0,0.07270916334661355,1.0,0.14508723599632692,0.9163385826771654,0.13556174558960077
bowiki,True,23.0,0.07533539731682147,1.0,0.17722681359044995,0.8818897637795275,0.14011516314779274
bowiki,True,24.0,0.07533539731682147,1.0,0.17722681359044995,0.8818897637795275,0.14011516314779274
bowiki,True,25.0,0.07612095933263817,1.0,0.18640955004591367,0.8720472440944882,0.14147286821705427
bowiki,True,26.0,0.07612095933263817,1.0,0.18640955004591367,0.8720472440944882,0.14147286821705427
bowiki,True,27.0,0.07724867724867725,1.0,0.1992653810835629,0.8582677165354331,0.14341846758349705
bowiki,True,28.0,0.0790899241603467,1.0,0.2194674012855831,0.8366141732283464,0.14658634538152612
bowiki,True,29.0,0.07978142076502732,1.0,0.22681359044995408,0.8287401574803149,0.14777327935222673
bowiki,True,30.0,0.08039647577092511,1.0,0.23324150596877868,0.8218503937007874,0.1488277268093782
bowiki,True,31.0,0.08165548098434004,1.0,0.2460973370064279,0.8080708661417323,0.15098241985522234
bowiki,True,32.0,0.08381171067738231,1.0,0.26721763085399447,0.7854330708661418,0.15466101694915252
bowiki,True,33.0,0.08381171067738231,1.0,0.26721763085399447,0.7854330708661418,0.15466101694915252
bowiki,True,34.0,0.08449074074074074,1.0,0.2736455463728191,0.7785433070866141,0.15581643543223053
bowiki,True,35.0,0.08508158508158509,1.0,0.27915518824609736,0.7726377952755905,0.15682062298603652
bowiki,True,36.0,0.08732057416267942,1.0,0.29935720844811753,0.7509842519685039,0.1606160616061606
bowiki,True,37.0,0.08732057416267942,1.0,0.29935720844811753,0.7509842519685039,0.1606160616061606
bowiki,True,38.0,0.08957055214723926,1.0,0.3186409550045914,0.7303149606299213,0.16441441441441443
bowiki,True,39.0,0.09034653465346534,1.0,0.325068870523416,0.7234251968503937,0.16572077185017026
bowiki,True,40.0,0.09193954659949623,1.0,0.3379247015610652,0.7096456692913385,0.16839677047289503
bowiki,True,41.0,0.09263959390862944,1.0,0.3434343434343434,0.7037401574803149,0.16957026713124274
bowiki,True,42.0,0.09263959390862944,1.0,0.3434343434343434,0.7037401574803149,0.16957026713124274
bowiki,True,43.0,0.09346991037131883,1.0,0.349862258953168,0.6968503937007874,0.17096018735363
bowiki,True,44.0,0.09431524547803617,1.0,0.3562901744719926,0.6899606299212598,0.17237308146399052
bowiki,True,45.0,0.09605263157894736,1.0,0.3691460055096419,0.6761811023622047,0.17527010804321727
bowiki,True,46.0,0.09605263157894736,1.0,0.3691460055096419,0.6761811023622047,0.17527010804321727
bowiki,True,47.0,0.09785522788203753,1.0,0.3820018365472911,0.6624015748031497,0.17826617826617827
bowiki,True,48.0,0.1006896551724138,1.0,0.40128558310376494,0.6417322834645669,0.1829573934837093
bowiki,True,49.0,0.10167130919220056,1.0,0.40771349862258954,0.6348425196850394,0.18457648546144123
bowiki,True,50.0,0.10167130919220056,1.0,0.40771349862258954,0.6348425196850394,0.18457648546144123
bowiki,True,51.0,0.10167130919220056,1.0,0.40771349862258954,0.6348425196850394,0.18457648546144123
bowiki,True,52.0,0.10369318181818182,1.0,0.42056932966023874,0.6210629921259843,0.1879021879021879
bowiki,True,53.0,0.10458452722063037,1.0,0.426078971533517,0.6151574803149606,0.18936446173800262
bowiki,True,54.0,0.10564399421128799,1.0,0.4325068870523416,0.6082677165354331,0.1910994764397906
bowiki,True,55.0,0.1067251461988304,1.0,0.4389348025711662,0.6013779527559056,0.1928665785997358
bowiki,True,56.0,0.1067251461988304,1.0,0.4389348025711662,0.6013779527559056,0.1928665785997358
bowiki,True,57.0,0.10798816568047337,1.0,0.4462809917355372,0.593503937007874,0.19492656875834447
bowiki,True,58.0,0.1092814371257485,1.0,0.45362718089990817,0.5856299212598425,0.1970310391363023
bowiki,True,59.0,0.1092814371257485,1.0,0.45362718089990817,0.5856299212598425,0.1970310391363023
bowiki,True,60.0,0.1140625,1.0,0.4793388429752066,0.5580708661417323,0.20476858345021037
bowiki,True,61.0,0.11624203821656051,1.0,0.4903581267217631,0.5462598425196851,0.20827389443651925
bowiki,True,62.0,0.119281045751634,1.0,0.5050505050505051,0.530511811023622,0.21313868613138687
bowiki,True,63.0,0.119281045751634,1.0,0.5050505050505051,0.530511811023622,0.21313868613138687
bowiki,True,64.0,0.12227805695142378,1.0,0.5188246097337006,0.515748031496063,0.21791044776119403
bowiki,True,65.0,0.11607142857142858,0.8904109589041096,0.5381083562901745,0.48720472440944884,0.20537124802527645
bowiki,True,66.0,0.11926605504587157,0.8904109589041096,0.55188246097337,0.47244094488188976,0.2103559870550162
bowiki,True,67.0,0.1262135922330097,0.8904109589041096,0.5794306703397613,0.44291338582677164,0.22108843537414966
bowiki,True,68.0,0.13626834381551362,0.8904109589041096,0.6143250688705234,0.40551181102362205,0.23636363636363633
bowiki,True,69.0,0.13626834381551362,0.8904109589041096,0.6143250688705234,0.40551181102362205,0.23636363636363633
bowiki,True,70.0,0.13626834381551362,0.8904109589041096,0.6143250688705234,0.40551181102362205,0.23636363636363633
bowiki,True,71.0,0.13626834381551362,0.8904109589041096,0.6143250688705234,0.40551181102362205,0.23636363636363633
bowiki,True,72.0,0.1447661469933185,0.8904109589041096,0.6400367309458218,0.3779527559055118,0.24904214559386972
bowiki,True,73.0,0.1447661469933185,0.8904109589041096,0.6400367309458218,0.3779527559055118,0.24904214559386972
bowiki,True,74.0,0.14942528735632185,0.8904109589041096,0.6528925619834711,0.3641732283464567,0.25590551181102367
bowiki,True,75.0,0.15186915887850466,0.8904109589041096,0.6593204775022957,0.3572834645669291,0.25948103792415167
bowiki,True,76.0,0.15186915887850466,0.8904109589041096,0.6593204775022957,0.3572834645669291,0.25948103792415167
bowiki,True,77.0,0.15186915887850466,0.8904109589041096,0.6593204775022957,0.3572834645669291,0.25948103792415167
bowiki,True,78.0,0.15186915887850466,0.8904109589041096,0.6593204775022957,0.3572834645669291,0.25948103792415167
bowiki,True,79.0,0.1566265060240964,0.8904109589041096,0.6712580348943985,0.34448818897637795,0.26639344262295084
bowiki,True,80.0,0.15892420537897312,0.8904109589041096,0.6767676767676768,0.33858267716535434,0.2697095435684647
bowiki,True,81.0,0.16129032258064516,0.8904109589041096,0.682277318640955,0.33267716535433073,0.27310924369747897
bowiki,True,82.0,0.1742627345844504,0.8904109589041096,0.7098255280073462,0.3031496062992126,0.2914798206278027
bowiki,True,83.0,0.17759562841530055,0.8904109589041096,0.7162534435261708,0.296259842519685,0.296127562642369
bowiki,True,84.0,0.18518518518518517,0.8904109589041096,0.7300275482093664,0.281496062992126,0.30660377358490565
bowiki,True,85.0,0.20123839009287925,0.8904109589041096,0.7557392102846648,0.25393700787401574,0.32828282828282823
bowiki,True,86.0,0.1861198738170347,0.8082191780821918,0.7502295684113865,0.25393700787401574,0.30256410256410254
bowiki,True,87.0,0.1881918819188192,0.6986301369863014,0.7777777777777778,0.21653543307086615,0.29651162790697677
bowiki,True,88.0,0.17408906882591094,0.589041095890411,0.7851239669421488,0.20078740157480315,0.26875
bowiki,True,89.0,0.15151515151515152,0.4794520547945205,0.7851239669421488,0.19291338582677164,0.23026315789473686
bowiki,True,90.0,0.135678391959799,0.3698630136986301,0.7998163452708907,0.16929133858267717,0.1985294117647059
bowiki,True,91.0,0.11834319526627218,0.273972602739726,0.8145087235996327,0.1466535433070866,0.16528925619834708
bowiki,True,92.0,0.14388489208633093,0.273972602739726,0.8420569329660239,0.1171259842519685,0.18867924528301888
bowiki,True,93.0,0.12264150943396226,0.1780821917808219,0.859504132231405,0.09153543307086615,0.14525139664804468
bowiki,True,94.0,0.16883116883116883,0.1780821917808219,0.8861340679522498,0.06299212598425197,0.1733333333333333
bowiki,True,95.0,0.14285714285714285,0.0958904109589041,0.9008264462809917,0.04133858267716536,0.11475409836065574
bowiki,True,96.0,0.16666666666666666,0.0958904109589041,0.9072543617998163,0.0344488188976378,0.1217391304347826
bowiki,True,97.0,0.4666666666666667,0.0958904109589041,0.9320477502295684,0.007874015748031496,0.15909090909090906
bowiki,True,98.0,0.0,0.0,0.9256198347107438,0.007874015748031496,0.15909090909090906
bowiki,True,99.0,0.0,0.0,0.9329660238751147,0.0,0.15909090909090906
bowiki,False,0.0,0.059033989266547404,1.0,0.059033989266547404,1.0,0.11148648648648647
bowiki,False,1.0,0.059033989266547404,1.0,0.059033989266547404,1.0,0.11148648648648647
bowiki,False,2.0,0.059033989266547404,1.0,0.059033989266547404,1.0,0.11148648648648647
bowiki,False,3.0,0.059033989266547404,1.0,0.059033989266547404,1.0,0.11148648648648647
bowiki,False,4.0,0.059033989266547404,1.0,0.059033989266547404,1.0,0.11148648648648647
bowiki,False,5.0,0.059033989266547404,1.0,0.059033989266547404,1.0,0.11148648648648647
bowiki,False,6.0,0.059033989266547404,1.0,0.059033989266547404,1.0,0.11148648648648647
bowiki,False,7.0,0.05943268797838811,1.0,0.06574239713774598,0.9928707224334601,0.11219719507012324
bowiki,False,8.0,0.05943268797838811,1.0,0.06574239713774598,0.9928707224334601,0.11219719507012324
bowiki,False,9.0,0.05943268797838811,1.0,0.06574239713774598,0.9928707224334601,0.11219719507012324
bowiki,False,10.0,0.05943268797838811,1.0,0.06574239713774598,0.9928707224334601,0.11219719507012324
bowiki,False,11.0,0.05943268797838811,1.0,0.06574239713774598,0.9928707224334601,0.11219719507012324
bowiki,False,12.0,0.05943268797838811,1.0,0.06574239713774598,0.9928707224334601,0.11219719507012324
bowiki,False,13.0,0.05943268797838811,1.0,0.06574239713774598,0.9928707224334601,0.11219719507012324
bowiki,False,14.0,0.05943268797838811,1.0,0.06574239713774598,0.9928707224334601,0.11219719507012324
bowiki,False,15.0,0.060191518467852256,1.0,0.07826475849731664,0.9795627376425855,0.11354838709677419
bowiki,False,16.0,0.06102635228848821,1.0,0.09168157423971378,0.9653041825095057,0.1150326797385621
bowiki,False,17.0,0.061826697892271666,1.0,0.10420393559928444,0.9519961977186312,0.1164534627260697
bowiki,False,18.0,0.06264831514000949,1.0,0.1167262969588551,0.9386882129277566,0.11790978115230012
bowiki,False,19.0,0.06312769010043041,1.0,0.12388193202146691,0.9310836501901141,0.11875843454790821
bowiki,False,20.0,0.06358381502890173,1.0,0.13059033989266547,0.9239543726235742,0.11956521739130435
bowiki,False,21.0,0.06358381502890173,1.0,0.13059033989266547,0.9239543726235742,0.11956521739130435
bowiki,False,22.0,0.06404657933042213,1.0,0.13729874776386405,0.9168250950570342,0.12038303693570451
bowiki,False,23.0,0.06666666666666667,1.0,0.1735241502683363,0.8783269961977186,0.125
bowiki,False,24.0,0.06666666666666667,1.0,0.1735241502683363,0.8783269961977186,0.125
bowiki,False,25.0,0.0670391061452514,1.0,0.17844364937388194,0.8730988593155894,0.1256544502617801
bowiki,False,26.0,0.0670391061452514,1.0,0.17844364937388194,0.8730988593155894,0.1256544502617801
bowiki,False,27.0,0.06804123711340206,1.0,0.19141323792486584,0.8593155893536122,0.1274131274131274
bowiki,False,28.0,0.06958355297838692,1.0,0.21064400715563505,0.8388783269961977,0.13011335633316906
bowiki,False,29.0,0.07010090281465746,1.0,0.2169051878354204,0.8322243346007605,0.13101736972704714
bowiki,False,30.0,0.07066381156316917,1.0,0.22361359570661896,0.8250950570342205,0.132
bowiki,False,31.0,0.07181719260065289,1.0,0.2370304114490161,0.8108365019011406,0.13401015228426397
bowiki,False,32.0,0.07357859531772576,1.0,0.2567084078711986,0.7899239543726235,0.1370716510903427
bowiki,False,33.0,0.07357859531772576,1.0,0.2567084078711986,0.7899239543726235,0.1370716510903427
bowiki,False,34.0,0.07424071991001124,1.0,0.2638640429338104,0.782319391634981,0.1382198952879581
bowiki,False,35.0,0.07491486946651532,1.0,0.2710196779964222,0.7747148288973384,0.13938753959873282
bowiki,False,36.0,0.07678883071553229,1.0,0.2902504472271914,0.754277566539924,0.1426256077795786
bowiki,False,37.0,0.07678883071553229,1.0,0.2902504472271914,0.754277566539924,0.1426256077795786
bowiki,False,38.0,0.07880597014925374,1.0,0.3099284436493739,0.7333650190114068,0.14609850581073602
bowiki,False,39.0,0.07951807228915662,1.0,0.31663685152057247,0.7262357414448669,0.14732142857142858
bowiki,False,40.0,0.08098159509202454,1.0,0.3300536672629696,0.7119771863117871,0.14982973893303067
bowiki,False,41.0,0.08178438661710037,1.0,0.3372093023255814,0.7043726235741445,0.15120274914089346
bowiki,False,42.0,0.08178438661710037,1.0,0.3372093023255814,0.7043726235741445,0.15120274914089346
bowiki,False,43.0,0.0825,1.0,0.3434704830053667,0.6977186311787072,0.15242494226327946
bowiki,False,44.0,0.0832282471626734,1.0,0.34973166368515207,0.69106463878327,0.15366705471478465
bowiki,False,45.0,0.08477842003853564,1.0,0.362701252236136,0.6772813688212928,0.15630550621669628
bowiki,False,46.0,0.08477842003853564,1.0,0.362701252236136,0.6772813688212928,0.15630550621669628
bowiki,False,47.0,0.08644400785854617,1.0,0.3761180679785331,0.6630228136882129,0.15913200723327306
bowiki,False,48.0,0.0891891891891892,1.0,0.39713774597495527,0.6406844106463878,0.16377171215880895
bowiki,False,49.0,0.09022556390977443,1.0,0.40474060822898034,0.6326045627376425,0.16551724137931034
bowiki,False,50.0,0.09022556390977443,1.0,0.40474060822898034,0.6326045627376425,0.16551724137931034
bowiki,False,51.0,0.09022556390977443,1.0,0.40474060822898034,0.6326045627376425,0.16551724137931034
bowiki,False,52.0,0.09230769230769231,1.0,0.41949910554561715,0.6169201520912547,0.16901408450704225
bowiki,False,53.0,0.09328621908127209,1.0,0.42620751341681573,0.6097908745247148,0.1706528765352295
bowiki,False,54.0,0.09428571428571429,1.0,0.4329159212880143,0.6026615969581749,0.17232375979112272
bowiki,False,55.0,0.09523809523809523,1.0,0.43917710196779963,0.5960076045627376,0.17391304347826084
bowiki,False,56.0,0.09523809523809523,1.0,0.43917710196779963,0.5960076045627376,0.17391304347826084
bowiki,False,57.0,0.09620991253644315,1.0,0.44543828264758495,0.5893536121673004,0.17553191489361702
bowiki,False,58.0,0.09734513274336283,1.0,0.4525939177101968,0.5817490494296578,0.1774193548387097
bowiki,False,59.0,0.09734513274336283,1.0,0.4525939177101968,0.5817490494296578,0.1774193548387097
bowiki,False,60.0,0.10208816705336426,1.0,0.4807692307692308,0.5518060836501901,0.18526315789473685
bowiki,False,61.0,0.1045958795562599,1.0,0.49463327370304117,0.5370722433460076,0.18938307030129126
bowiki,False,62.0,0.1073170731707317,1.0,0.5089445438282647,0.5218631178707225,0.1938325991189427
bowiki,False,63.0,0.1073170731707317,1.0,0.5089445438282647,0.5218631178707225,0.1938325991189427
bowiki,False,64.0,0.11,1.0,0.5223613595706619,0.5076045627376425,0.19819819819819817
bowiki,False,65.0,0.10606060606060606,0.9015151515151515,0.5456171735241503,0.4767110266159696,0.189792663476874
bowiki,False,66.0,0.10887465690759378,0.9015151515151515,0.5585867620751341,0.4629277566539924,0.19428571428571428
bowiki,False,67.0,0.11531007751937984,0.9015151515151515,0.5858676207513417,0.43393536121673004,0.20446735395189
bowiki,False,68.0,0.12408759124087591,0.9015151515151515,0.618515205724508,0.39923954372623577,0.21814848762603115
bowiki,False,69.0,0.12408759124087591,0.9015151515151515,0.618515205724508,0.39923954372623577,0.21814848762603115
bowiki,False,70.0,0.12408759124087591,0.9015151515151515,0.618515205724508,0.39923954372623577,0.21814848762603115
bowiki,False,71.0,0.12408759124087591,0.9015151515151515,0.618515205724508,0.39923954372623577,0.21814848762603115
bowiki,False,72.0,0.1322222222222222,0.9015151515151515,0.644901610017889,0.37119771863117873,0.2306201550387597
bowiki,False,73.0,0.1322222222222222,0.9015151515151515,0.644901610017889,0.37119771863117873,0.2306201550387597
bowiki,False,74.0,0.13709677419354838,0.9015151515151515,0.6592128801431127,0.35598859315589354,0.238
bowiki,False,75.0,0.1395076201641266,0.9015151515151515,0.6659212880143113,0.3488593155893536,0.24162436548223346
bowiki,False,76.0,0.1395076201641266,0.9015151515151515,0.6659212880143113,0.3488593155893536,0.24162436548223346
bowiki,False,77.0,0.1395076201641266,0.9015151515151515,0.6659212880143113,0.3488593155893536,0.24162436548223346
bowiki,False,78.0,0.1395076201641266,0.9015151515151515,0.6659212880143113,0.3488593155893536,0.24162436548223346
bowiki,False,79.0,0.14476885644768855,0.9015151515151515,0.6797853309481217,0.3341254752851711,0.2494758909853249
bowiki,False,80.0,0.1480099502487562,0.9015151515151515,0.6878354203935599,0.3255703422053232,0.2542735042735042
bowiki,False,81.0,0.15082382762991128,0.9015151515151515,0.6945438282647585,0.31844106463878324,0.25841476655808904
bowiki,False,82.0,0.16212534059945505,0.9015151515151515,0.7191413237924866,0.29230038022813687,0.2748267898383372
bowiki,False,83.0,0.16527777777777777,0.9015151515151515,0.725402504472272,0.28564638783269963,0.2793427230046948
bowiki,False,84.0,0.1717171717171717,0.9015151515151515,0.7374776386404294,0.27281368821292773,0.2884848484848485
bowiki,False,85.0,0.18681318681318682,0.9015151515151515,0.7625223613595706,0.2461977186311787,0.30949284785435627
bowiki,False,86.0,0.16720257234726688,0.7878787878787878,0.7558139534883721,0.2461977186311787,0.2758620689655172
bowiki,False,87.0,0.16791044776119404,0.6818181818181818,0.7817531305903399,0.21197718631178708,0.2694610778443114
bowiki,False,88.0,0.15524193548387097,0.5833333333333334,0.7880143112701252,0.1991444866920152,0.2452229299363057
bowiki,False,89.0,0.13859275053304904,0.49242424242424243,0.789355992844365,0.1920152091254753,0.21630615640599002
bowiki,False,90.0,0.1341772151898734,0.4015151515151515,0.8117173524150268,0.16254752851711027,0.2011385199240987
bowiki,False,91.0,0.11730205278592376,0.30303030303030304,0.8242397137745975,0.14306083650190113,0.16913319238900637
bowiki,False,92.0,0.13986013986013987,0.30303030303030304,0.8488372093023255,0.11692015209125475,0.19138755980861247
bowiki,False,93.0,0.1267605633802817,0.20454545454545456,0.8698568872987478,0.08840304182509506,0.1565217391304348
bowiki,False,94.0,0.17197452229299362,0.20454545454545456,0.894901610017889,0.06178707224334601,0.18685121107266436
bowiki,False,95.0,0.12745098039215685,0.09848484848484848,0.9069767441860465,0.04230038022813688,0.1111111111111111
bowiki,False,96.0,0.14942528735632185,0.09848484848484848,0.9136851520572451,0.03517110266159696,0.11872146118721462
bowiki,False,97.0,0.5,0.09848484848484848,0.9409660107334525,0.006178707224334601,0.16455696202531644
bowiki,False,98.0,0.0,0.0,0.9351520572450805,0.006178707224334601,0.16455696202531644
bowiki,False,99.0,0.0,0.0,0.9409660107334525,0.0,0.16455696202531644
