wiki_db,user_is_bot,threshold,precision,recall,accuracy,fpr,F1
bugwiki,True,0.0,0.007454545454545454,1.0,0.007454545454545454,1.0,0.014798772784695904
bugwiki,True,1.0,0.007454545454545454,1.0,0.007454545454545454,1.0,0.014798772784695904
bugwiki,True,2.0,0.007454545454545454,1.0,0.007454545454545454,1.0,0.014798772784695904
bugwiki,True,3.0,0.007454545454545454,1.0,0.007454545454545454,1.0,0.014798772784695904
bugwiki,True,4.0,0.007454545454545454,1.0,0.007454545454545454,1.0,0.014798772784695904
bugwiki,True,5.0,0.007465404224326293,1.0,0.00890909090909091,0.9985345301337242,0.014820169889752394
bugwiki,True,6.0,0.007549254280979562,1.0,0.02,0.9873603224033706,0.014985380116959063
bugwiki,True,7.0,0.007753403933434191,1.0,0.046,0.9611650485436893,0.015387502345655847
bugwiki,True,8.0,0.009265536723163843,1.0,0.2029090909090909,0.8030774867191793,0.018360949395432157
bugwiki,True,9.0,0.0109508547008547,1.0,0.3267272727272727,0.6783293643524455,0.02166446499339498
bugwiki,True,10.0,0.01374916163648558,1.0,0.4652727272727273,0.5387433595896685,0.02712537214687397
bugwiki,True,11.0,0.03419516263552961,1.0,0.7894545454545454,0.21212676314343287,0.06612903225806452
bugwiki,True,12.0,0.035964912280701755,1.0,0.8001818181818182,0.20131892287964828,0.06943268416596104
bugwiki,True,13.0,0.03667262969588551,1.0,0.8041818181818182,0.19728888074738962,0.07075064710957722
bugwiki,True,14.0,0.037753222836095765,1.0,0.81,0.19142700128228612,0.07275953859804792
bugwiki,True,15.0,0.03789279112754159,1.0,0.8107272727272727,0.19069426634914818,0.0730186999109528
bugwiki,True,16.0,0.040117416829745595,1.0,0.8216363636363636,0.17970324235207913,0.07714016933207903
bugwiki,True,17.0,0.0435244161358811,1.0,0.8361818181818181,0.1650485436893204,0.08341810783316377
bugwiki,True,18.0,0.04525386313465784,1.0,0.8427272727272728,0.15845392929107896,0.08658922914466738
bugwiki,True,19.0,0.046067415730337076,1.0,0.8456363636363636,0.1555229895585272,0.08807733619763694
bugwiki,True,20.0,0.04691075514874142,1.0,0.8485454545454545,0.15259204982597546,0.08961748633879782
bugwiki,True,21.0,0.047126436781609195,1.0,0.8492727272727273,0.15185931489283752,0.09001097694840834
bugwiki,True,22.0,0.05012224938875306,1.0,0.8587272727272727,0.14233376076204432,0.09545983701979047
bugwiki,True,23.0,0.05112219451371571,1.0,0.8616363636363636,0.13940282102949259,0.09727164887307237
bugwiki,True,24.0,0.054376657824933686,1.0,0.8703636363636363,0.13061000183183732,0.10314465408805032
bugwiki,True,25.0,0.05466666666666667,1.0,0.8710909090909091,0.12987726689869938,0.10366624525916562
bugwiki,True,26.0,0.0560875512995896,1.0,0.8745454545454545,0.1263967759662942,0.10621761658031088
bugwiki,True,27.0,0.0560875512995896,1.0,0.8745454545454545,0.1263967759662942,0.10621761658031088
bugwiki,True,28.0,0.05639614855570839,1.0,0.8752727272727273,0.12566404103315626,0.10677083333333334
bugwiki,True,29.0,0.056708160442600276,1.0,0.876,0.12493130610001832,0.10732984293193717
bugwiki,True,30.0,0.07592592592592592,1.0,0.9092727272727272,0.09140868290895768,0.14113597246127366
bugwiki,True,31.0,0.07765151515151515,1.0,0.9114545454545454,0.08921047810954387,0.14411247803163446
bugwiki,True,32.0,0.07884615384615384,1.0,0.9129090909090909,0.087745008243268,0.14616755793226383
bugwiki,True,33.0,0.080078125,1.0,0.9143636363636364,0.08627953837699212,0.14828209764918626
bugwiki,True,34.0,0.080078125,1.0,0.9143636363636364,0.08627953837699212,0.14828209764918626
bugwiki,True,35.0,0.080078125,1.0,0.9143636363636364,0.08627953837699212,0.14828209764918626
bugwiki,True,36.0,0.074,0.9024390243902439,0.9150909090909091,0.08481406851071625,0.1367837338262477
bugwiki,True,37.0,0.07459677419354839,0.9024390243902439,0.9158181818181819,0.08408133357757831,0.1378026070763501
bugwiki,True,38.0,0.07581967213114754,0.9024390243902439,0.9172727272727272,0.08261586371130243,0.13988657844990546
bugwiki,True,39.0,0.07644628099173553,0.9024390243902439,0.918,0.0818831287781645,0.14095238095238094
bugwiki,True,40.0,0.06875,0.8048780487804879,0.9172727272727272,0.0818831287781645,0.126679462571977
bugwiki,True,41.0,0.06918238993710692,0.8048780487804879,0.9178181818181819,0.08133357757831104,0.1274131274131274
bugwiki,True,42.0,0.07036247334754797,0.8048780487804879,0.9192727272727272,0.07986810771203517,0.12941176470588234
bugwiki,True,43.0,0.07096774193548387,0.8048780487804879,0.92,0.07913537277889723,0.13043478260869565
bugwiki,True,44.0,0.07158351409978309,0.8048780487804879,0.9207272727272727,0.0784026378457593,0.13147410358565736
bugwiki,True,45.0,0.07158351409978309,0.8048780487804879,0.9207272727272727,0.0784026378457593,0.13147410358565736
bugwiki,True,46.0,0.07236842105263158,0.8048780487804879,0.9216363636363636,0.07748671917933687,0.13279678068410464
bugwiki,True,47.0,0.07236842105263158,0.8048780487804879,0.9216363636363636,0.07748671917933687,0.13279678068410464
bugwiki,True,48.0,0.07236842105263158,0.8048780487804879,0.9216363636363636,0.07748671917933687,0.13279678068410464
bugwiki,True,49.0,0.07236842105263158,0.8048780487804879,0.9216363636363636,0.07748671917933687,0.13279678068410464
bugwiki,True,50.0,0.07300884955752213,0.8048780487804879,0.9223636363636364,0.07675398424619893,0.13387423935091278
bugwiki,True,51.0,0.07432432432432433,0.8048780487804879,0.9238181818181819,0.07528851437992307,0.1360824742268041
bugwiki,True,52.0,0.07432432432432433,0.8048780487804879,0.9238181818181819,0.07528851437992307,0.1360824742268041
bugwiki,True,53.0,0.075,0.8048780487804879,0.9245454545454546,0.07455577944678513,0.13721413721413722
bugwiki,True,54.0,0.07568807339449542,0.8048780487804879,0.9252727272727272,0.07382304451364718,0.13836477987421383
bugwiki,True,55.0,0.07568807339449542,0.8048780487804879,0.9252727272727272,0.07382304451364718,0.13836477987421383
bugwiki,True,56.0,0.06542056074766354,0.6829268292682927,0.9249090909090909,0.07327349331379374,0.11940298507462686
bugwiki,True,57.0,0.06619385342789598,0.6829268292682927,0.9258181818181819,0.07235757464737132,0.12068965517241378
bugwiki,True,58.0,0.06682577565632458,0.6829268292682927,0.9265454545454546,0.07162483971423338,0.12173913043478261
bugwiki,True,59.0,0.07017543859649122,0.6829268292682927,0.9301818181818182,0.06796116504854369,0.12727272727272726
bugwiki,True,60.0,0.06266318537859007,0.5853658536585366,0.9316363636363636,0.06576296024912988,0.11320754716981131
bugwiki,True,61.0,0.064,0.5853658536585366,0.9330909090909091,0.064297490382854,0.11538461538461539
bugwiki,True,62.0,0.06611570247933884,0.5853658536585366,0.9352727272727273,0.06209928558344019,0.11881188118811882
bugwiki,True,63.0,0.069164265129683,0.5853658536585366,0.9381818181818182,0.05916834585088844,0.12371134020618559
bugwiki,True,64.0,0.07164179104477612,0.5853658536585366,0.9403636363636364,0.05697014105147463,0.12765957446808512
bugwiki,True,65.0,0.07523510971786834,0.5853658536585366,0.9432727272727273,0.054039201318922876,0.13333333333333333
bugwiki,True,66.0,0.0802675585284281,0.5853658536585366,0.9469090909090909,0.050375526653233194,0.1411764705882353
bugwiki,True,67.0,0.08362369337979095,0.5853658536585366,0.9490909090909091,0.04817732185381938,0.14634146341463417
bugwiki,True,68.0,0.08856088560885608,0.5853658536585366,0.952,0.04524638212126763,0.15384615384615383
bugwiki,True,69.0,0.09302325581395349,0.5853658536585366,0.9543636363636364,0.042864993588569336,0.16053511705685616
bugwiki,True,70.0,0.09561752988047809,0.5853658536585366,0.9556363636363636,0.04158270745557795,0.1643835616438356
bugwiki,True,71.0,0.09876543209876543,0.5853658536585366,0.9570909090909091,0.04011723758930207,0.16901408450704222
bugwiki,True,72.0,0.100418410041841,0.5853658536585366,0.9578181818181818,0.03938450265616413,0.17142857142857143
bugwiki,True,73.0,0.10344827586206896,0.5853658536585366,0.9590909090909091,0.03810221652317274,0.1758241758241758
bugwiki,True,74.0,0.10909090909090909,0.5853658536585366,0.9612727272727273,0.03590401172375893,0.1839080459770115
bugwiki,True,75.0,0.11764705882352941,0.5853658536585366,0.9641818181818181,0.03297307199120718,0.19591836734693877
bugwiki,True,76.0,0.12,0.5853658536585366,0.9649090909090909,0.032240337058069245,0.1991701244813278
bugwiki,True,77.0,0.125,0.5853658536585366,0.9663636363636363,0.03077486719179337,0.20600858369098712
bugwiki,True,78.0,0.13333333333333333,0.5853658536585366,0.9685454545454546,0.028576662392379555,0.2171945701357466
bugwiki,True,79.0,0.13636363636363635,0.5853658536585366,0.9692727272727273,0.027843927459241618,0.2211981566820276
bugwiki,True,80.0,0.14634146341463414,0.5853658536585366,0.9714545454545455,0.025645722659827806,0.2341463414634146
bugwiki,True,81.0,0.13513513513513514,0.4878048780487805,0.972909090909091,0.023447517860413995,0.21164021164021166
bugwiki,True,82.0,0.14388489208633093,0.4878048780487805,0.9745454545454545,0.021798864260853635,0.2222222222222222
bugwiki,True,83.0,0.15267175572519084,0.4878048780487805,0.976,0.02033339439457776,0.2325581395348837
bugwiki,True,84.0,0.16666666666666666,0.4878048780487805,0.978,0.018318373328448434,0.24844720496894412
bugwiki,True,85.0,0.18518518518518517,0.4878048780487805,0.9801818181818182,0.016120168529034622,0.2684563758389262
bugwiki,True,86.0,0.16666666666666666,0.3902439024390244,0.980909090909091,0.014654698662758746,0.23357664233576642
bugwiki,True,87.0,0.1927710843373494,0.3902439024390244,0.9832727272727273,0.012273310130060451,0.25806451612903225
bugwiki,True,88.0,0.24615384615384617,0.3902439024390244,0.9865454545454545,0.008976002930939732,0.30188679245283023
bugwiki,True,89.0,0.23076923076923078,0.2926829268292683,0.9874545454545455,0.007327349331379373,0.25806451612903225
bugwiki,True,90.0,0.2727272727272727,0.2926829268292683,0.988909090909091,0.005861879465103499,0.28235294117647053
bugwiki,True,91.0,0.3333333333333333,0.2926829268292683,0.9903636363636363,0.004396409598827624,0.3116883116883117
bugwiki,True,92.0,0.3333333333333333,0.2926829268292683,0.9903636363636363,0.004396409598827624,0.3116883116883117
bugwiki,True,93.0,0.3333333333333333,0.1951219512195122,0.9910909090909091,0.0029309397325517493,0.24615384615384614
bugwiki,True,94.0,0.3333333333333333,0.1951219512195122,0.9910909090909091,0.0029309397325517493,0.24615384615384614
bugwiki,True,95.0,0.4,0.1951219512195122,0.9918181818181818,0.002198204799413812,0.26229508196721313
bugwiki,True,96.0,0.5,0.1951219512195122,0.9925454545454545,0.0014654698662758747,0.28070175438596495
bugwiki,True,97.0,0.3333333333333333,0.0975609756097561,0.9918181818181818,0.0014654698662758747,0.15094339622641506
bugwiki,True,98.0,0.0,0.0,0.9918181818181818,0.0007327349331379373,0.15094339622641506
bugwiki,True,99.0,0.0,0.0,0.9925454545454545,0.0,0.15094339622641506
bugwiki,False,0.0,0.0064142099420254105,1.0,0.0064142099420254105,1.0,0.012746660129917882
bugwiki,False,1.0,0.0064142099420254105,1.0,0.0064142099420254105,1.0,0.012746660129917882
bugwiki,False,2.0,0.0064142099420254105,1.0,0.0064142099420254105,1.0,0.012746660129917882
bugwiki,False,3.0,0.0064142099420254105,1.0,0.0064142099420254105,1.0,0.012746660129917882
bugwiki,False,4.0,0.0064142099420254105,1.0,0.0064142099420254105,1.0,0.012746660129917882
bugwiki,False,5.0,0.006424511984185817,1.0,0.008017762427531763,0.9983860955927994,0.012767002209673459
bugwiki,False,6.0,0.0065040650406504065,1.0,0.0202294313556186,0.9860955927995034,0.012924071082390952
bugwiki,False,7.0,0.006683804627249357,1.0,0.04674972246206981,0.9594040968342644,0.01327885597548519
bugwiki,False,8.0,0.007973014412756822,1.0,0.20192426298260763,0.803227808814401,0.015819896562214785
bugwiki,False,9.0,0.00954653937947494,1.0,0.3345257185148637,0.6697703289882061,0.018912529550827426
bugwiki,False,10.0,0.011932078935291418,1.0,0.4688540767238189,0.5345747982619491,0.023582766439909295
bugwiki,False,11.0,0.028017241379310345,1.0,0.7774762550881954,0.2239602731222843,0.05450733752620546
bugwiki,False,12.0,0.029528676888131742,1.0,0.7891945232515111,0.2121663563004345,0.057363485934914506
bugwiki,False,13.0,0.03004043905257077,1.0,0.7928950289872949,0.20844196151458722,0.05832865956253505
bugwiki,False,14.0,0.030878859857482184,1.0,0.7986924879733563,0.20260707635009312,0.05990783410138248
bugwiki,False,15.0,0.03098927294398093,1.0,0.7994325891205132,0.20186219739292366,0.06011560693641619
bugwiki,False,16.0,0.0327455919395466,1.0,0.8105341063278648,0.19068901303538174,0.06341463414634146
bugwiki,False,17.0,0.03537414965986395,1.0,0.8250894288886148,0.1760397268777157,0.06833114323258871
bugwiki,False,18.0,0.036645525017618044,1.0,0.8313802886394474,0.16970825574177528,0.07070020394289599
bugwiki,False,19.0,0.03730272596843615,1.0,0.8344640434192673,0.16660459342023587,0.07192254495159059
bugwiki,False,20.0,0.03795620437956204,1.0,0.8374244480078944,0.16362507759155803,0.07313642756680731
bugwiki,False,21.0,0.03812316715542522,1.0,0.8381645491550512,0.16288019863438857,0.07344632768361582
bugwiki,False,22.0,0.040656763096168884,1.0,0.8486493154064388,0.15232774674115457,0.07813673929376408
bugwiki,False,23.0,0.04146730462519936,1.0,0.8517330701862588,0.14922408441961516,0.07963246554364471
bugwiki,False,24.0,0.0443307757885763,1.0,0.8617244356728753,0.13916821849782743,0.08489795918367347
bugwiki,False,25.0,0.044558697514995714,1.0,0.8624645368200321,0.13842333954065797,0.08531583264971289
bugwiki,False,26.0,0.04597701149425287,1.0,0.8669051437029728,0.13395406579764121,0.08791208791208792
bugwiki,False,27.0,0.04597701149425287,1.0,0.8669051437029728,0.13395406579764121,0.08791208791208792
bugwiki,False,28.0,0.046263345195729534,1.0,0.8677685950413223,0.13308504034761018,0.08843537414965986
bugwiki,False,29.0,0.046511627906976744,1.0,0.8685086961884791,0.13234016139044072,0.08888888888888888
bugwiki,False,30.0,0.06565656565656566,1.0,0.9087208585173308,0.09186840471756673,0.12322274881516587
bugwiki,False,31.0,0.06709677419354838,1.0,0.9108178117676082,0.08975791433891993,0.12575574365175332
bugwiki,False,32.0,0.06815203145478375,1.0,0.9122980140619218,0.08826815642458101,0.1276073619631902
bugwiki,False,33.0,0.0692410119840213,1.0,0.9137782163562354,0.08677839851024209,0.1295143212951432
bugwiki,False,34.0,0.0692410119840213,1.0,0.9137782163562354,0.08677839851024209,0.1295143212951432
bugwiki,False,35.0,0.0692410119840213,1.0,0.9137782163562354,0.08677839851024209,0.1295143212951432
bugwiki,False,36.0,0.06155950752393981,0.8653846153846154,0.9145183175033921,0.08516449410304158,0.11494252873563218
bugwiki,False,37.0,0.06206896551724138,0.8653846153846154,0.9152584186505489,0.08441961514587212,0.11583011583011582
bugwiki,False,38.0,0.06329113924050633,0.8653846153846154,0.9169853213272481,0.08268156424581005,0.1179554390563565
bugwiki,False,39.0,0.06382978723404255,0.8653846153846154,0.9177254224744048,0.08193668528864059,0.11889035667107001
bugwiki,False,40.0,0.055793991416309016,0.75,0.9169853213272481,0.08193668528864059,0.10386151797603195
bugwiki,False,41.0,0.05635838150289017,0.75,0.9178487726655976,0.08106765983860956,0.10483870967741934
bugwiki,False,42.0,0.05743740795287187,0.75,0.919452325151104,0.07945375543140906,0.106703146374829
bugwiki,False,43.0,0.05803571428571429,0.75,0.9203157764894535,0.07858472998137803,0.10773480662983424
bugwiki,False,44.0,0.058646616541353384,0.75,0.9211792278278031,0.07771570453134699,0.10878661087866108
bugwiki,False,45.0,0.058646616541353384,0.75,0.9211792278278031,0.07771570453134699,0.10878661087866108
bugwiki,False,46.0,0.05909090909090909,0.75,0.9217959787837671,0.07709497206703911,0.10955056179775281
bugwiki,False,47.0,0.05909090909090909,0.75,0.9217959787837671,0.07709497206703911,0.10955056179775281
bugwiki,False,48.0,0.05909090909090909,0.75,0.9217959787837671,0.07709497206703911,0.10955056179775281
bugwiki,False,49.0,0.05909090909090909,0.75,0.9217959787837671,0.07709497206703911,0.10955056179775281
bugwiki,False,50.0,0.05963302752293578,0.75,0.9225360799309239,0.07635009310986965,0.1104815864022663
bugwiki,False,51.0,0.060842433697347896,0.75,0.9241396324164303,0.07473618870266915,0.11255411255411256
bugwiki,False,52.0,0.060842433697347896,0.75,0.9241396324164303,0.07473618870266915,0.11255411255411256
bugwiki,False,53.0,0.06132075471698113,0.75,0.9247563833723942,0.07411545623836127,0.11337209302325582
bugwiki,False,54.0,0.06190476190476191,0.75,0.925496484519551,0.07337057728119181,0.11436950146627567
bugwiki,False,55.0,0.06190476190476191,0.75,0.925496484519551,0.07337057728119181,0.11436950146627567
bugwiki,False,56.0,0.05663430420711974,0.6730769230769231,0.9259898852843222,0.0723774053382992,0.1044776119402985
bugwiki,False,57.0,0.057096247960848286,0.6730769230769231,0.9266066362402862,0.0717566728739913,0.10526315789473682
bugwiki,False,58.0,0.05747126436781609,0.6730769230769231,0.9271000370050574,0.071260086902545,0.10590015128593039
bugwiki,False,59.0,0.060658578856152515,0.6730769230769231,0.9310472431232268,0.06728739913097455,0.11128775834658186
bugwiki,False,60.0,0.05263157894736842,0.5576923076923077,0.932774145799926,0.06480446927374302,0.09618573797678276
bugwiki,False,61.0,0.053604436229205174,0.5576923076923077,0.934007647711854,0.06356300434512725,0.09780775716694771
bugwiki,False,62.0,0.055133079847908745,0.5576923076923077,0.9358579005797459,0.0617008069522036,0.10034602076124567
bugwiki,False,63.0,0.05788423153692615,0.5576923076923077,0.9389416553595658,0.058597144630664184,0.10488245931283907
bugwiki,False,64.0,0.059670781893004114,0.5576923076923077,0.9407919082274577,0.056734947237740536,0.10780669144981414
bugwiki,False,65.0,0.0625,0.5576923076923077,0.9435056124336992,0.054003724394785846,0.1124031007751938
bugwiki,False,66.0,0.06666666666666667,0.5576923076923077,0.9470827679782904,0.050403476101800126,0.11909650924024641
bugwiki,False,67.0,0.06937799043062201,0.5576923076923077,0.9491797212285679,0.04829298572315332,0.12340425531914895
bugwiki,False,68.0,0.0737913486005089,0.5576923076923077,0.9522634760083878,0.045189323401613905,0.1303370786516854
bugwiki,False,69.0,0.07712765957446809,0.5576923076923077,0.9543604292586654,0.043078833022967104,0.13551401869158877
bugwiki,False,70.0,0.07988980716253444,0.5576923076923077,0.9559639817441717,0.0414649286157666,0.13975903614457832
bugwiki,False,71.0,0.08262108262108261,0.5576923076923077,0.9574441840384853,0.039975170701427684,0.14392059553349876
bugwiki,False,72.0,0.08430232558139535,0.5576923076923077,0.9583076353768348,0.03910614525139665,0.14646464646464644
bugwiki,False,73.0,0.08787878787878788,0.5576923076923077,0.960034538053534,0.03736809435133458,0.1518324607329843
bugwiki,False,74.0,0.09235668789808917,0.5576923076923077,0.9620081411126187,0.035381750465549346,0.15846994535519127
bugwiki,False,75.0,0.10034602076124567,0.5576923076923077,0.9650918958924386,0.03227808814400993,0.17008797653958943
bugwiki,False,76.0,0.10247349823321555,0.5576923076923077,0.9658319970395954,0.03153320918684047,0.17313432835820897
bugwiki,False,77.0,0.10740740740740741,0.5576923076923077,0.9674355495251018,0.029919304779639975,0.18012422360248448
bugwiki,False,78.0,0.11462450592885376,0.5576923076923077,0.9695325027753793,0.02780881440099317,0.1901639344262295
bugwiki,False,79.0,0.11740890688259109,0.5576923076923077,0.9702726039225361,0.02706393544382371,0.19397993311036787
bugwiki,False,80.0,0.125,0.5576923076923077,0.972122856790428,0.025201738050900063,0.20422535211267606
bugwiki,False,81.0,0.11057692307692307,0.4423076923076923,0.9736030590847415,0.022967101179391682,0.1769230769230769
bugwiki,False,82.0,0.116751269035533,0.4423076923076923,0.9749599111878623,0.02160148975791434,0.18473895582329317
bugwiki,False,83.0,0.12365591397849462,0.4423076923076923,0.976316763290983,0.020235878336436995,0.19327731092436973
bugwiki,False,84.0,0.13609467455621302,0.4423076923076923,0.9784137165412606,0.018125387957790194,0.20814479638009048
bugwiki,False,85.0,0.152317880794702,0.4423076923076923,0.9806340199827309,0.015890751086281813,0.22660098522167488
bugwiki,False,86.0,0.12686567164179105,0.3269230769230769,0.981250770938695,0.01452513966480447,0.1827956989247312
bugwiki,False,87.0,0.14655172413793102,0.3269230769230769,0.9834710743801653,0.012290502793296089,0.20238095238095238
bugwiki,False,88.0,0.2,0.3269230769230769,0.987294930307142,0.008441961514587213,0.24817518248175183
bugwiki,False,89.0,0.18571428571428572,0.25,0.9881583816454915,0.00707635009310987,0.21311475409836067
bugwiki,False,90.0,0.23214285714285715,0.25,0.9898852843221907,0.005338299193047796,0.24074074074074076
bugwiki,False,91.0,0.28888888888888886,0.25,0.9912421364253114,0.003972687771570453,0.26804123711340205
bugwiki,False,92.0,0.28888888888888886,0.25,0.9912421364253114,0.003972687771570453,0.26804123711340205
bugwiki,False,93.0,0.3,0.17307692307692307,0.992105587763661,0.0026070763500931097,0.21951219512195122
bugwiki,False,94.0,0.3,0.17307692307692307,0.992105587763661,0.0026070763500931097,0.21951219512195122
bugwiki,False,95.0,0.36,0.17307692307692307,0.992722338719625,0.0019863438857852266,0.2337662337662338
bugwiki,False,96.0,0.45,0.17307692307692307,0.993339089675589,0.0013656114214773433,0.25
bugwiki,False,97.0,0.35294117647058826,0.11538461538461539,0.9929690391020106,0.0013656114214773433,0.1739130434782609
bugwiki,False,98.0,0.0,0.0,0.9929690391020106,0.0006207324643078833,0.1739130434782609
bugwiki,False,99.0,0.0,0.0,0.9935857900579745,0.0,0.1739130434782609
