wiki_db,user_is_bot,threshold,precision,recall,accuracy,fpr,F1
bxrwiki,True,0.0,0.029677886355410785,1.0,0.029677886355410785,1.0,0.057644991212653776
bxrwiki,True,1.0,0.029677886355410785,1.0,0.029677886355410785,1.0,0.057644991212653776
bxrwiki,True,2.0,0.02974247370330069,1.0,0.031849439015562794,0.9977620290936218,0.057766819302571326
bxrwiki,True,3.0,0.030113845023870732,1.0,0.04415490408975751,0.9850801939574786,0.05846702317290553
bxrwiki,True,4.0,0.030517305545217716,1.0,0.05718422005066956,0.9716523685192092,0.05922715781870712
bxrwiki,True,5.0,0.03121431290445375,1.0,0.07889974665218964,0.949272659455427,0.060538944259874494
bxrwiki,True,6.0,0.032270759543486814,1.0,0.1100253347810351,0.917195076464006,0.06252382767823103
bxrwiki,True,7.0,0.033620336203362036,1.0,0.14694173000361926,0.8791495710555762,0.0650535501785006
bxrwiki,True,8.0,0.034613761080624736,1.0,0.17227651103872602,0.8530399104811638,0.06691146470828233
bxrwiki,True,9.0,0.03590192644483362,1.0,0.20304017372421282,0.8213353226408057,0.06931530008453084
bxrwiki,True,10.0,0.037425832952989506,1.0,0.23669923995656894,0.7866467735919433,0.07215134183897932
bxrwiki,True,11.0,0.038497652582159626,1.0,0.2587766920014477,0.7638940693770981,0.07414104882459313
bxrwiki,True,12.0,0.03986387943607195,1.0,0.2851972493666305,0.7366654233494965,0.0766713417484806
bxrwiki,True,13.0,0.04154002026342452,1.0,0.3152370611653999,0.7057068258112644,0.07976653696498054
bxrwiki,True,14.0,0.04279749478079332,1.0,0.33622873688020266,0.6840731070496083,0.08208208208208206
bxrwiki,True,15.0,0.04373333333333333,1.0,0.35106768005790806,0.6687803058560239,0.08380173735309146
bxrwiki,True,16.0,0.04537908135030437,1.0,0.3756786102062975,0.6434166355837374,0.08681842244573848
bxrwiki,True,17.0,0.04660529344073648,0.9878048780487805,0.3999276149113283,0.6180529653114509,0.08901098901098903
bxrwiki,True,18.0,0.04835820895522388,0.9878048780487805,0.4227289178429244,0.5945542707944796,0.09220261809903244
bxrwiki,True,19.0,0.0508582326764145,0.975609756097561,0.45892146217879115,0.556881760537113,0.09667673716012085
bxrwiki,True,20.0,0.05309139784946237,0.9634146341463414,0.4889612739775606,0.5255501678478179,0.10063694267515924
bxrwiki,True,21.0,0.054558506819813356,0.926829268292683,0.5211726384364821,0.49123461395001866,0.10305084745762713
bxrwiki,True,22.0,0.055964653902798235,0.926829268292683,0.5338400289540355,0.4781797836628124,0.10555555555555556
bxrwiki,True,23.0,0.05714285714285714,0.926829268292683,0.5439739413680782,0.4677359194330474,0.10764872521246459
bxrwiki,True,24.0,0.05864197530864197,0.926829268292683,0.5562794064422729,0.45505408429690414,0.11030478955007256
bxrwiki,True,25.0,0.06003159557661927,0.926829268292683,0.567137169743033,0.44386422976501305,0.11275964391691395
bxrwiki,True,26.0,0.05925324675324675,0.8902439024390244,0.5772710821570757,0.43230138008205893,0.1111111111111111
bxrwiki,True,27.0,0.062180579216354344,0.8902439024390244,0.5982627578718784,0.41066766132040283,0.11624203821656051
bxrwiki,True,28.0,0.06397896581945661,0.8902439024390244,0.6102062975027145,0.39835882133532263,0.11937857726901063
bxrwiki,True,29.0,0.06563354603463993,0.8780487804878049,0.6254071661237784,0.3823200298396121,0.12213740458015268
bxrwiki,True,30.0,0.06768350810295519,0.8658536585365854,0.6420557365182772,0.3647892577396494,0.125552608311229
bxrwiki,True,31.0,0.07164480322906155,0.8658536585365854,0.66304741223308,0.3431555389779933,0.13233923578751164
bxrwiki,True,32.0,0.0770065075921909,0.8658536585365854,0.6880202678248281,0.31741887355464377,0.14143426294820718
bxrwiki,True,33.0,0.08198614318706697,0.8658536585365854,0.7082880926529135,0.29653114509511375,0.14978902953586495
bxrwiki,True,34.0,0.0885286783042394,0.8658536585365854,0.7314513210278683,0.2726594554270794,0.1606334841628959
bxrwiki,True,35.0,0.09615384615384616,0.8536585365853658,0.7575099529496924,0.2454308093994778,0.1728395061728395
bxrwiki,True,36.0,0.10641627543035993,0.8292682926829268,0.7882736156351792,0.21298023125699367,0.18862690707350901
bxrwiki,True,37.0,0.11703958691910499,0.8292682926829268,0.8092652913499819,0.19134651249533757,0.20512820512820512
bxrwiki,True,38.0,0.1261595547309833,0.8292682926829268,0.824466159971046,0.17568071615069003,0.21900161030595816
bxrwiki,True,39.0,0.13346613545816732,0.8170731707317073,0.8371335504885994,0.16225289071242074,0.22945205479452055
bxrwiki,True,40.0,0.13580246913580246,0.8048780487804879,0.8422005066956207,0.1566579634464752,0.23239436619718312
bxrwiki,True,41.0,0.13882863340563992,0.7804878048780488,0.8498009410061528,0.14807907497202535,0.23572744014732966
bxrwiki,True,42.0,0.14849187935034802,0.7804878048780488,0.8606587043069128,0.13688922044013427,0.24951267056530213
bxrwiki,True,43.0,0.15571776155717762,0.7804878048780488,0.8678972131740862,0.12942931741887356,0.25963488843813387
bxrwiki,True,44.0,0.16161616161616163,0.7804878048780488,0.8733260948244662,0.123834390152928,0.2677824267782427
bxrwiki,True,45.0,0.164021164021164,0.7560975609756098,0.8783930510314875,0.11786646773591944,0.26956521739130435
bxrwiki,True,46.0,0.17086834733893558,0.7439024390243902,0.8852696344553022,0.1104065647146587,0.27790432801822323
bxrwiki,True,47.0,0.18154761904761904,0.7439024390243902,0.8928700687658342,0.10257366654233495,0.291866028708134
bxrwiki,True,48.0,0.18541033434650456,0.7439024390243902,0.8954035468693449,0.0999627004848937,0.2968369829683698
bxrwiki,True,49.0,0.1942675159235669,0.7439024390243902,0.9008324285197249,0.09436777321894815,0.30808080808080807
bxrwiki,True,50.0,0.20677966101694914,0.7439024390243902,0.9077090119435396,0.08728086534875047,0.3236074270557029
bxrwiki,True,51.0,0.21328671328671328,0.7439024390243902,0.9109663409337676,0.08392390898918314,0.33152173913043476
bxrwiki,True,52.0,0.21863799283154123,0.7439024390243902,0.9134998190372783,0.08131294293174189,0.3379501385041552
bxrwiki,True,53.0,0.22344322344322345,0.7439024390243902,0.9156713716974303,0.07907497202536368,0.34366197183098596
bxrwiki,True,54.0,0.23921568627450981,0.7439024390243902,0.9221860296778863,0.07236105930622902,0.3620178041543026
bxrwiki,True,55.0,0.25738396624472576,0.7439024390243902,0.9287006876583423,0.06564714658709436,0.3824451410658308
bxrwiki,True,56.0,0.2597402597402597,0.7317073170731707,0.930148389431777,0.06378217083177919,0.3833865814696485
bxrwiki,True,57.0,0.2764976958525346,0.7317073170731707,0.9352153456387984,0.05856023871689668,0.40133779264214053
bxrwiki,True,58.0,0.28708133971291866,0.7317073170731707,0.9381107491856677,0.05557627750839239,0.4123711340206186
bxrwiki,True,59.0,0.29850746268656714,0.7317073170731707,0.9410061527325371,0.0525923162998881,0.4240282685512367
bxrwiki,True,60.0,0.31088082901554404,0.7317073170731707,0.9439015562794064,0.04960835509138381,0.43636363636363634
bxrwiki,True,61.0,0.3157894736842105,0.7317073170731707,0.9449873326094824,0.0484893696381947,0.4411764705882353
bxrwiki,True,62.0,0.32786885245901637,0.7317073170731707,0.9475208107129931,0.04587840358075345,0.45283018867924524
bxrwiki,True,63.0,0.3409090909090909,0.7317073170731707,0.9500542888165038,0.0432674375233122,0.46511627906976744
bxrwiki,True,64.0,0.3448275862068966,0.7317073170731707,0.9507781397032211,0.04252144722118612,0.46875
bxrwiki,True,65.0,0.3488372093023256,0.7317073170731707,0.9515019905899385,0.04177545691906005,0.4724409448818898
bxrwiki,True,66.0,0.35542168674698793,0.7195121951219512,0.9529496923633731,0.03991048116374487,0.4758064516129032
bxrwiki,True,67.0,0.36419753086419754,0.7195121951219512,0.9543973941368078,0.038418500559492724,0.4836065573770492
bxrwiki,True,68.0,0.38064516129032255,0.7195121951219512,0.9569308722403185,0.03580753450205147,0.4978902953586498
bxrwiki,True,69.0,0.3933333333333333,0.7195121951219512,0.9587404994571118,0.033942558746736295,0.5086206896551724
bxrwiki,True,70.0,0.4041095890410959,0.7195121951219512,0.9601882012305465,0.03245057814248415,0.5175438596491229
bxrwiki,True,71.0,0.40559440559440557,0.7073170731707317,0.9605501266739052,0.031704587840358074,0.5155555555555555
bxrwiki,True,72.0,0.4264705882352941,0.7073170731707317,0.9630836047774158,0.02909362178291682,0.5321100917431193
bxrwiki,True,73.0,0.4566929133858268,0.7073170731707317,0.9663409337676439,0.025736665423349497,0.5550239234449761
bxrwiki,True,74.0,0.46774193548387094,0.7073170731707317,0.9674267100977199,0.02461767997016039,0.5631067961165048
bxrwiki,True,75.0,0.4715447154471545,0.7073170731707317,0.9677886355410785,0.02424468481909735,0.5658536585365854
bxrwiki,True,76.0,0.4789915966386555,0.6951219512195121,0.9685124864277959,0.023125699365908244,0.5671641791044776
bxrwiki,True,77.0,0.4956521739130435,0.6951219512195121,0.9699601882012305,0.0216337187616561,0.5786802030456853
bxrwiki,True,78.0,0.504424778761062,0.6951219512195121,0.9706840390879479,0.020887728459530026,0.5846153846153846
bxrwiki,True,79.0,0.504424778761062,0.6951219512195121,0.9706840390879479,0.020887728459530026,0.5846153846153846
bxrwiki,True,80.0,0.5188679245283019,0.6707317073170732,0.9717698154180239,0.019022752704214847,0.5851063829787234
bxrwiki,True,81.0,0.5242718446601942,0.6585365853658537,0.9721317408613825,0.018276762402088774,0.5837837837837838
bxrwiki,True,82.0,0.5208333333333334,0.6097560975609756,0.9717698154180239,0.017157776948899663,0.5617977528089888
bxrwiki,True,83.0,0.5263157894736842,0.6097560975609756,0.9721317408613825,0.01678478179783663,0.5649717514124293
bxrwiki,True,84.0,0.5555555555555556,0.6097560975609756,0.9739413680781759,0.014919806042521447,0.5813953488372093
bxrwiki,True,85.0,0.5517241379310345,0.5853658536585366,0.9735794426348172,0.01454681089145841,0.5680473372781065
bxrwiki,True,86.0,0.5662650602409639,0.573170731707317,0.9743032935215346,0.013427825438269302,0.5696969696969697
bxrwiki,True,87.0,0.6231884057971014,0.524390243902439,0.9764748461816866,0.00969787392763894,0.5695364238410596
bxrwiki,True,88.0,0.6190476190476191,0.47560975609756095,0.9757509952949692,0.008951883625512868,0.5379310344827587
bxrwiki,True,89.0,0.6111111111111112,0.4024390243902439,0.9746652189648932,0.007832898172323759,0.48529411764705893
bxrwiki,True,90.0,0.6808510638297872,0.3902439024390244,0.9764748461816866,0.005594927265945543,0.49612403100775193
bxrwiki,True,91.0,0.7428571428571429,0.3170731707317073,0.9764748461816866,0.0033569563595673255,0.4444444444444444
bxrwiki,True,92.0,0.78125,0.3048780487804878,0.9768367716250452,0.0026109660574412533,0.43859649122807015
bxrwiki,True,93.0,0.7777777777777778,0.25609756097560976,0.9757509952949692,0.002237970906378217,0.38532110091743116
bxrwiki,True,94.0,0.7,0.17073170731707318,0.9732175171914585,0.002237970906378217,0.2745098039215686
bxrwiki,True,95.0,0.6666666666666666,0.0975609756097561,0.9717698154180239,0.0014919806042521448,0.1702127659574468
bxrwiki,True,96.0,0.8,0.04878048780487805,0.9714078899746652,0.0003729951510630362,0.09195402298850576
bxrwiki,True,97.0,1.0,0.024390243902439025,0.9710459645313065,0.0,0.047619047619047616
bxrwiki,True,98.0,1.0,0.0,0.9703221136445892,0.0,0.0
bxrwiki,True,99.0,1.0,0.0,0.9703221136445892,0.0,0.0
bxrwiki,False,0.0,0.02376047246257382,1.0,0.02376047246257382,1.0,0.04641803058760397
bxrwiki,False,1.0,0.02376047246257382,1.0,0.02376047246257382,1.0,0.04641803058760397
bxrwiki,False,2.0,0.023778434471857603,1.0,0.024515863205603627,0.9992262239729882,0.04645230583338927
bxrwiki,False,3.0,0.023984472480244004,1.0,0.033099848921851395,0.9904333145751266,0.046845383157324665
bxrwiki,False,4.0,0.024212736179146255,1.0,0.042439225381128966,0.9808666291502532,0.047280677780814434
bxrwiki,False,5.0,0.024682551005849623,1.0,0.06111797829968411,0.9617332583005065,0.048175995544416594
bxrwiki,False,6.0,0.025935087324788247,1.0,0.10760884493888202,0.9141108610016883,0.05055892452692336
bxrwiki,False,7.0,0.026855013970816518,1.0,0.13899189671748385,0.8819639842431064,0.05230536659108088
bxrwiki,False,8.0,0.02777331834965484,1.0,0.16824612003845626,0.8519977490151941,0.05404561074664167
bxrwiki,False,9.0,0.029065860215053762,1.0,0.20629034473286637,0.8130275745638716,0.05648979591836734
bxrwiki,False,10.0,0.03045238514346066,1.0,0.24351050679851668,0.7749015194147439,0.05910488554834302
bxrwiki,False,11.0,0.03126976954360596,1.0,0.26390605686032137,0.7540095666854248,0.06064323897993164
bxrwiki,False,12.0,0.03235459135964092,1.0,0.2893833264661448,0.7279122115925718,0.06268115942028986
bxrwiki,False,13.0,0.033680521756059574,1.0,0.31829419035846723,0.698297692740574,0.06516621150767492
bxrwiki,False,14.0,0.034967155128852956,1.0,0.3442521631644005,0.6717079347214406,0.06757152621814276
bxrwiki,False,15.0,0.036124451868866155,1.0,0.36602115094080484,0.6494091164884637,0.06972994760177348
bxrwiki,False,16.0,0.03760869565217391,1.0,0.3919791237467381,0.6228193584693303,0.07249109574690969
bxrwiki,False,17.0,0.03871920063585784,0.9855491329479769,0.41828045598132124,0.5955261676983681,0.0745110892603518
bxrwiki,False,18.0,0.04041242000474046,0.9855491329479769,0.44362038181568464,0.5695694991558807,0.07764116575591985
bxrwiki,False,19.0,0.04213306502326751,0.9682080924855492,0.47623952753742615,0.5357343837929094,0.08075207906472219
bxrwiki,False,20.0,0.0439297124600639,0.953757225433526,0.5056997665155886,0.5052054023635341,0.08399083736319674
bxrwiki,False,21.0,0.04597376956705683,0.9421965317919075,0.5340612553220712,0.47587225661226784,0.08766975931155035
bxrwiki,False,22.0,0.04707581227436823,0.9421965317919075,0.5454607883532482,0.4641952729319077,0.0896712969330216
bxrwiki,False,23.0,0.04802592810842664,0.9421965317919075,0.5548688366982557,0.4545582442318514,0.09139332772638072
bxrwiki,False,24.0,0.04940891179145195,0.9421965317919075,0.5679164949869523,0.44119302194710186,0.09389400921658986
bxrwiki,False,25.0,0.050810473815461346,0.9421965317919075,0.5804147781898091,0.4283905458638154,0.09642117716651878
bxrwiki,False,26.0,0.04969443550981023,0.8930635838150289,0.5916769674495261,0.4156584130557119,0.09414990859232177
bxrwiki,False,27.0,0.05234626461121464,0.8930635838150289,0.6133086114544706,0.3935002813731007,0.09889582333173308
bxrwiki,False,28.0,0.05414403364289469,0.8930635838150289,0.626768301057547,0.3797129994372538,0.10209813315711218
bxrwiki,False,29.0,0.055789281141393816,0.8815028901734104,0.6427001785469029,0.36311198649409115,0.10493720970239119
bxrwiki,False,30.0,0.05738494126709032,0.861271676300578,0.6605548688366982,0.34433033202025887,0.1076006499368117
bxrwiki,False,31.0,0.06107808977249436,0.861271676300578,0.6821178409559127,0.3222425436128306,0.11406698564593301
bxrwiki,False,32.0,0.06543697848045674,0.861271676300578,0.7044362038181569,0.29938097917839057,0.12163265306122449
bxrwiki,False,33.0,0.07000234907211651,0.861271676300578,0.7248317538799616,0.2784890264490715,0.12948077340864653
bxrwiki,False,34.0,0.0761758691206544,0.861271676300578,0.7485235544568054,0.25422059651097356,0.13997181775481446
bxrwiki,False,35.0,0.08448673587081891,0.846820809248555,0.7783271528636176,0.22333989870568374,0.15364446775039328
bxrwiki,False,36.0,0.09479305740987984,0.8208092485549133,0.8095041889850295,0.19077096229600451,0.16995810891681626
bxrwiki,False,37.0,0.10593062290190228,0.8208092485549133,0.831135832989974,0.16861283061339336,0.18764453254046912
bxrwiki,False,38.0,0.11740388590326581,0.8208092485549133,0.8491278670512292,0.1501828925154755,0.2054249547920434
bxrwiki,False,39.0,0.125,0.8034682080924855,0.861694822139816,0.13688801350590885,0.21634241245136188
bxrwiki,False,40.0,0.12950664136622392,0.7890173410404624,0.8689740420271941,0.12907990996060775,0.22249388753056237
bxrwiki,False,41.0,0.13505154639175257,0.7572254335260116,0.8790001373437715,0.11803601575689364,0.22922134733158353
bxrwiki,False,42.0,0.14793901750423488,0.7572254335260116,0.8906056860321384,0.10614800225098481,0.24752007557864902
bxrwiki,False,43.0,0.15716856628674264,0.7572254335260116,0.8977475621480566,0.09883230163196398,0.26030799801291604
bxrwiki,False,44.0,0.16303671437461106,0.7572254335260116,0.9018678752918555,0.09461170512099043,0.268305171530978
bxrwiki,False,45.0,0.165359477124183,0.7312138728323699,0.9059195165499244,0.08982836240855374,0.2697228144989339
bxrwiki,False,46.0,0.1724376731301939,0.7196531791907514,0.911275923636863,0.08406021384355655,0.2782122905027933
bxrwiki,False,47.0,0.18030412744388125,0.7196531791907514,0.915602252437852,0.07962858750703433,0.28836132020845395
bxrwiki,False,48.0,0.1836283185840708,0.7196531791907514,0.9173190495811014,0.07787000562746202,0.2925969447708578
bxrwiki,False,49.0,0.19183359013867488,0.7196531791907514,0.9213020189534404,0.07379009566685425,0.3029197080291971
bxrwiki,False,50.0,0.2056151940545004,0.7196531791907514,0.9272764730119489,0.0676702307259426,0.3198458574181118
bxrwiki,False,51.0,0.21173469387755103,0.7196531791907514,0.9296799890124983,0.06520821609454136,0.3272010512483574
bxrwiki,False,52.0,0.21765734265734266,0.7196531791907514,0.9318774893558577,0.0629572312886888,0.33422818791946307
bxrwiki,False,53.0,0.22232142857142856,0.7196531791907514,0.9335256146133772,0.06126899268429938,0.33969986357435195
bxrwiki,False,54.0,0.23358348968105067,0.7196531791907514,0.9372338964427963,0.057470455824423186,0.3526912181303116
bxrwiki,False,55.0,0.24825523429710866,0.7196531791907514,0.9415602252437852,0.05303882948790096,0.36916234247590807
bxrwiki,False,56.0,0.2512873326467559,0.7052023121387283,0.9430710067298448,0.05113956105796286,0.37053910402429757
bxrwiki,False,57.0,0.2646420824295011,0.7052023121387283,0.9464359291306139,0.04769274057400113,0.38485804416403785
bxrwiki,False,58.0,0.27415730337078653,0.7052023121387283,0.9486334294739733,0.045441755768148566,0.39482200647249194
bxrwiki,False,59.0,0.2850467289719626,0.7052023121387283,0.9509682735887928,0.04305008441193022,0.4059900166389351
bxrwiki,False,60.0,0.2911694510739857,0.7052023121387283,0.9522043675319324,0.04178390545863815,0.4121621621621621
bxrwiki,False,61.0,0.2975609756097561,0.7052023121387283,0.9534404614750721,0.04051772650534609,0.41852487135506
bxrwiki,False,62.0,0.3116219667943806,0.7052023121387283,0.9559813212470815,0.037915025323579064,0.4322409211691763
bxrwiki,False,63.0,0.3257676902536716,0.7052023121387283,0.9583161653619008,0.03552335396736072,0.44566210045662097
bxrwiki,False,64.0,0.3310719131614654,0.7052023121387283,0.9591402279906607,0.03467923466516601,0.45060018467220675
bxrwiki,False,65.0,0.33748271092669435,0.7052023121387283,0.9601016343908804,0.033694428812605516,0.45650140318054266
bxrwiki,False,66.0,0.3444767441860465,0.684971098265896,0.96154374399121,0.031724817107484524,0.4584139264990329
bxrwiki,False,67.0,0.35479041916167664,0.684971098265896,0.9629171817058096,0.030317951603826675,0.4674556213017751
bxrwiki,False,68.0,0.3662420382165605,0.6647398843930635,0.9647026507347892,0.027996623522791222,0.4722792607802875
bxrwiki,False,69.0,0.3826955074875208,0.6647398843930635,0.9665567916494987,0.026097355092853124,0.4857444561774023
bxrwiki,False,70.0,0.3904923599320883,0.6647398843930635,0.9673808542782585,0.025253235790658413,0.4919786096256684
bxrwiki,False,71.0,0.38648180242634317,0.6445086705202312,0.9672435105067985,0.02490151941474395,0.4832069339111592
bxrwiki,False,72.0,0.4121996303142329,0.6445086705202312,0.9697156983930779,0.02236916150815982,0.5028184892897408
bxrwiki,False,73.0,0.43984220907297833,0.6445086705202312,0.9720505425078972,0.019977490151941474,0.5228604923798359
bxrwiki,False,74.0,0.451417004048583,0.6445086705202312,0.972943277022387,0.019063027574563872,0.530952380952381
bxrwiki,False,75.0,0.45114345114345117,0.6271676300578035,0.973011948908117,0.018570624648283626,0.5247883917775091
bxrwiki,False,76.0,0.4649122807017544,0.6127167630057804,0.9740420271940667,0.017163759144625774,0.5286783042394014
bxrwiki,False,77.0,0.48291571753986334,0.6127167630057804,0.9752094492514765,0.0159679234665166,0.540127388535032
bxrwiki,False,78.0,0.4964871194379391,0.6127167630057804,0.9760335118802362,0.01512380416432189,0.5485122897800776
bxrwiki,False,79.0,0.4964871194379391,0.6127167630057804,0.9760335118802362,0.01512380416432189,0.5485122897800776
bxrwiki,False,80.0,0.5111111111111111,0.5982658959537572,0.976857574508996,0.013927968486212718,0.5512649800266312
bxrwiki,False,81.0,0.5231958762886598,0.5867052023121387,0.9774756214805659,0.013013505908835115,0.5531335149863761
bxrwiki,False,82.0,0.5243243243243243,0.5606936416184971,0.9774756214805659,0.012380416432189083,0.5418994413407822
bxrwiki,False,83.0,0.5315068493150685,0.5606936416184971,0.9778189809092158,0.01202870005627462,0.5457102672292546
bxrwiki,False,84.0,0.5480225988700564,0.5606936416184971,0.9785743716522456,0.011254924029262802,0.5542857142857143
bxrwiki,False,85.0,0.5483870967741935,0.5404624277456648,0.9785056997665156,0.010832864378165448,0.544395924308588
bxrwiki,False,86.0,0.556923076923077,0.523121387283237,0.9787803873094355,0.010129431626336522,0.5394932935916543
bxrwiki,False,87.0,0.5905797101449275,0.47109826589595377,0.9796731218239253,0.007948790095666854,0.5241157556270096
bxrwiki,False,88.0,0.5846774193548387,0.4190751445086705,0.9791237467380854,0.0072453573438379295,0.4882154882154882
bxrwiki,False,89.0,0.5794392523364486,0.3583815028901734,0.9785743716522456,0.006330894766460327,0.44285714285714284
bxrwiki,False,90.0,0.6519337016574586,0.34104046242774566,0.9800164812525752,0.004431626336522229,0.4478178368121442
bxrwiki,False,91.0,0.7338709677419355,0.2630057803468208,0.9802224969097652,0.002321328081035453,0.38723404255319144
bxrwiki,False,92.0,0.7678571428571429,0.24855491329479767,0.9803598406812251,0.0018289251547552053,0.3755458515283843
bxrwiki,False,93.0,0.7857142857142857,0.22254335260115607,0.9800851531383051,0.0014772087788407428,0.34684684684684686
bxrwiki,False,94.0,0.7341772151898734,0.1676300578034682,0.9787803873094355,0.0014772087788407428,0.27294117647058824
bxrwiki,False,95.0,0.7021276595744681,0.0953757225433526,0.9775442933662959,0.0009848058525604951,0.1679389312977099
bxrwiki,False,96.0,0.8571428571428571,0.05202312138728324,0.977269605823376,0.00021102982554867754,0.09809264305177112
bxrwiki,False,97.0,1.0,0.028901734104046242,0.976926246394726,0.0,0.056179775280898875
bxrwiki,False,98.0,1.0,0.0,0.9762395275374262,0.0,0.0
bxrwiki,False,99.0,1.0,0.0,0.9762395275374262,0.0,0.0
