wiki_db,user_is_bot,threshold,precision,recall,accuracy,fpr,F1
cywiki,True,0.0,0.0015044141649588828,1.0,0.0015044141649588828,1.0,0.0030043086054957497
cywiki,True,1.0,0.0014975410584536714,0.9948006932409013,0.002122345113130902,0.9993733043312505,0.002990580193397799
cywiki,True,2.0,0.001474678120613424,0.9722703639514731,0.00954533840193149,0.9919051809453182,0.0029448896191328587
cywiki,True,3.0,0.0017776173912462368,0.9220103986135182,0.22096376369486204,0.7800924898357796,0.00354839355152841
cywiki,True,4.0,0.0026928266572465993,0.8058925476603119,0.550688588875157,0.4496959220390588,0.005367717507993859
cywiki,True,5.0,0.003905749775899603,0.634315424610052,0.756078928293937,0.24373761296842236,0.007763695179508936
cywiki,True,6.0,0.007616219193830384,0.5511265164644714,0.8912910845861427,0.1081963959776583,0.015024805102764
cywiki,True,7.0,0.011681200567836138,0.49913344887348354,0.9357143229614797,0.06362788900175213,0.022828154724159798
cywiki,True,8.0,0.0174429748897834,0.4731369150779896,0.9591122652774953,0.04015552497512802,0.03364555089967956
cywiki,True,9.0,0.019548503189923114,0.41421143847487,0.9678649833914762,0.03130083742208737,0.03733499960946653
cywiki,True,10.0,0.021362977283711938,0.3830155979202773,0.9726754584943343,0.026436112293418912,0.04046877861197582
cywiki,True,11.0,0.022732288677996027,0.35701906412478335,0.9759424098785519,0.02312507017685874,0.04274302313517999
cywiki,True,12.0,0.025203761755485894,0.3483535528596187,0.9787504758329031,0.020299717203579478,0.047006548175865304
cywiki,True,13.0,0.02910882221227049,0.3379549393414211,0.9820461075564872,0.016983452623113057,0.05360087960417812
cywiki,True,14.0,0.03167126847490661,0.3379549393414211,0.9834592660961886,0.015568164904520303,0.05791505791505792
cywiki,True,15.0,0.03259543315321597,0.3240901213171577,0.9845126167420177,0.01449233733983356,0.05923344947735192
cywiki,True,16.0,0.03597678916827853,0.3223570190641248,0.9859857432640312,0.01301438005436585,0.06472942404732905
cywiki,True,17.0,0.03739094308267553,0.3119584055459272,0.9868826556951332,0.012100448870772742,0.0667779632721202
cywiki,True,18.0,0.03922872340425532,0.30675909878682844,0.9876544175544535,0.011319690516788916,0.06956179996069954
cywiki,True,19.0,0.040758959943780745,0.30155979202772965,0.9882723485026256,0.010692994848039357,0.07181180354931903
cywiki,True,20.0,0.04283604135893648,0.30155979202772965,0.988812060343434,0.010152469833742862,0.07501616727743048
cywiki,True,21.0,0.04417463187806768,0.29636048526863085,0.9892944115055092,0.009661558226555707,0.07688848920863309
cywiki,True,22.0,0.044760117930849636,0.28942807625649913,0.9896385755779088,0.009306430680930957,0.07753017641597028
cywiki,True,23.0,0.044734648513475965,0.27902946273830154,0.989951452007363,0.008977415454837438,0.07710727969348659
cywiki,True,24.0,0.045089029293509476,0.2720970537261698,0.9902356480974506,0.00868234624413452,0.0773589554077359
cywiki,True,25.0,0.04488703923900119,0.2616984402079723,0.9905120222768018,0.008389888265384726,0.07663029687896475
cywiki,True,26.0,0.046087225487163624,0.2582322357019064,0.9908431498313075,0.008053039343431838,0.07821522309711285
cywiki,True,27.0,0.04746734628862695,0.2582322357019064,0.9910882363677133,0.00780758353983826,0.08019375672766414
cywiki,True,28.0,0.04882098970441714,0.25476603119584057,0.9914115420114825,0.007478568313744742,0.08193979933110368
cywiki,True,29.0,0.05019037729318103,0.2512998266897747,0.9917192038337792,0.007165220479369962,0.08366993652625504
cywiki,True,30.0,0.05144694533762058,0.24956672443674177,0.9919486465487123,0.006932820835542,0.08530805687203792
cywiki,True,31.0,0.05274806344522316,0.24783362218370883,0.9921728746564877,0.006705643655620285,0.08698296836982967
cywiki,True,32.0,0.054747320061255746,0.24783362218370883,0.9924309977107875,0.006447131692261092,0.08968328629664472
cywiki,True,33.0,0.05632685442284808,0.24610051993067592,0.9926630477292994,0.0062121208164800075,0.09167204648160103
cywiki,True,34.0,0.057971014492753624,0.24263431542461006,0.9929289926943353,0.005940552693355198,0.09358288770053477
cywiki,True,35.0,0.05981067125645439,0.24090121317157712,0.9931610427128472,0.005705541817574113,0.09582902447431921
cywiki,True,36.0,0.06157965194109773,0.2391681109185442,0.9933722343027288,0.005491420797418014,0.09794180269694819
cywiki,True,37.0,0.06427573358174196,0.2391681109185442,0.9936173208391346,0.0052459649938244365,0.1013215859030837
cywiki,True,38.0,0.06615161757605022,0.23743500866551126,0.9938102613039647,0.005050122597340199,0.10347432024169186
cywiki,True,39.0,0.06860290435653481,0.23743500866551126,0.9940032017687948,0.004856891432809085,0.10644910644910645
cywiki,True,40.0,0.06962351727694688,0.2339688041594454,0.9941439961620492,0.004710662443434188,0.10731319554848968
cywiki,True,41.0,0.0712372790573112,0.23050259965337955,0.9943212928054065,0.004527876206715567,0.10883797054009821
cywiki,True,42.0,0.07376594564614532,0.23050259965337955,0.9944881602344487,0.004360757361715684,0.11176470588235295
cywiki,True,43.0,0.07568807339449542,0.22876949740034663,0.9946367765384395,0.00420930590843454,0.1137440758293839
cywiki,True,44.0,0.07778432527990571,0.22876949740034663,0.9947593198066423,0.0040865780066377515,0.11609498680738786
cywiki,True,45.0,0.07978075517661389,0.2270363951473137,0.994897506896318,0.0039455714811691,0.11807120324470483
cywiki,True,46.0,0.08213166144200627,0.2270363951473137,0.9950200501645209,0.003822843579372312,0.12062615101289136
cywiki,True,47.0,0.08425145819831498,0.22530329289428075,0.99515041534346,0.0036896707497630307,0.12264150943396228
cywiki,True,48.0,0.08718980549966465,0.22530329289428075,0.995285995129557,0.0035538866882006263,0.12572533849129594
cywiki,True,49.0,0.09002770083102493,0.22530329289428075,0.9954085383977598,0.0034311587864038376,0.12864918357248883
cywiki,True,50.0,0.09292351679771266,0.22530329289428075,0.9955258670588051,0.0033136533485132952,0.13157894736842105
cywiki,True,51.0,0.0959409594095941,0.22530329289428075,0.9956405884162717,0.003198759142575876,0.13457556935817805
cywiki,True,52.0,0.0995405819295559,0.22530329289428075,0.9957683462916321,0.0030708087768728408,0.13807753584705257
cywiki,True,53.0,0.10094637223974763,0.2218370883882149,0.9958569946133108,0.002976804426560407,0.13875338753387534
cywiki,True,54.0,0.10387469084913438,0.21837088388214904,0.9959899670958289,0.0028384091330448794,0.14078212290502795
cywiki,True,55.0,0.10741687979539642,0.21837088388214904,0.9960942592389802,0.0027339598549199528,0.144
cywiki,True,56.0,0.11140583554376658,0.21837088388214904,0.9962037659892892,0.0026242881128887797,0.14754098360655737
cywiki,True,57.0,0.11538461538461539,0.21837088388214904,0.9963054508288618,0.0025224500667169764,0.15098861593768725
cywiki,True,58.0,0.11842105263157894,0.21837088388214904,0.9963784553290678,0.002449335572029528,0.15356489945155394
cywiki,True,59.0,0.12100677637947725,0.21663778162911612,0.9964540671328526,0.002370998613435833,0.15527950310559008
cywiki,True,60.0,0.12375249500998003,0.21490467937608318,0.9965296789366374,0.002292661654842138,0.1570614312856238
cywiki,True,61.0,0.12678936605316973,0.21490467937608318,0.9965922542225282,0.0022299920879671822,0.1594855305466238
cywiki,True,62.0,0.12879581151832462,0.21317157712305027,0.9966470075976827,0.0021725449849984723,0.1605744125326371
cywiki,True,63.0,0.13010752688172042,0.2097053726169844,0.9967017609728371,0.0021124866500766394,0.1605839416058394
cywiki,True,64.0,0.13134657836644592,0.20623916811091855,0.9967539070444128,0.00205503954710793,0.1604855023600809
cywiki,True,65.0,0.13257142857142856,0.20103986135181975,0.9968190896338824,0.0019819250524204814,0.15977961432506887
cywiki,True,66.0,0.13615023474178403,0.20103986135181975,0.9968790576161944,0.0019218667174986488,0.16235129461161651
cywiki,True,67.0,0.13788968824940048,0.19930675909878684,0.9969207744734551,0.001877475774295555,0.1630049610205528
cywiki,True,68.0,0.1402439024390244,0.19930675909878684,0.996957276723558,0.0018409185269518307,0.16463851109520403
cywiki,True,69.0,0.1425,0.1975736568457539,0.9970042081879762,0.0017913051198424905,0.1655773420479303
cywiki,True,70.0,0.1446700507614213,0.1975736568457539,0.9970354958309215,0.0017599703364050126,0.16703296703296702
cywiki,True,71.0,0.14602346805736635,0.19410745233968804,0.9970798199917609,0.0017103569292956724,0.16666666666666666
cywiki,True,72.0,0.14741035856573706,0.1923743500866551,0.9971111076347063,0.0016764109139050713,0.1669172932330827
cywiki,True,73.0,0.1495956873315364,0.1923743500866551,0.997139787974073,0.0016476873624207164,0.16830932524639877
cywiki,True,74.0,0.1510989010989011,0.19064124783362218,0.9971710756170183,0.0016137413470301153,0.1685823754789272
cywiki,True,75.0,0.155049786628734,0.18890814558058924,0.9972310435993305,0.0015510717801551594,0.1703125
cywiki,True,76.0,0.15629522431259044,0.18717504332755633,0.9972571166351183,0.0015223482286708047,0.17034700315457413
cywiki,True,77.0,0.15970149253731344,0.1854419410745234,0.9973066554031152,0.0014701235896083414,0.17161186848436247
cywiki,True,78.0,0.15821812596006143,0.17850953206239167,0.9973353357424818,0.001430955110311494,0.1677524429967427
cywiki,True,79.0,0.16164817749603805,0.17677642980935876,0.9973822672068999,0.0013813417032021537,0.16887417218543047
cywiki,True,80.0,0.1631321370309951,0.1733102253032929,0.9974187694570029,0.0013395619919521831,0.1680672268907563
cywiki,True,81.0,0.16134453781512606,0.1663778162911612,0.9974448424927908,0.0013030047446084588,0.16382252559726965
cywiki,True,82.0,0.1611785095320624,0.1611785095320624,0.9974761301357362,0.0012638362653116114,0.1611785095320624
cywiki,True,83.0,0.16789667896678967,0.15771230502599654,0.9975569565466785,0.001177665610858547,0.16264521894548706
cywiki,True,84.0,0.1709741550695825,0.14904679376083188,0.9976325683504633,0.0010888837244523593,0.15925925925925927
cywiki,True,85.0,0.183585313174946,0.14731369150779897,0.9977316458864571,0.000987045678280556,0.16346153846153846
cywiki,True,86.0,0.19951338199513383,0.14211438474870017,0.9978515818510812,0.000859095312577521,0.1659919028340081
cywiki,True,87.0,0.21195652173913043,0.13518197573656845,0.9979428374763387,0.0007572572664057176,0.16507936507936508
cywiki,True,88.0,0.23974763406940064,0.1317157712305026,0.9980653807445417,0.0006293069007026825,0.17002237136465323
cywiki,True,89.0,0.25435540069686413,0.1265164644714038,0.9981279560304325,0.000558803637968357,0.16898148148148145
cywiki,True,90.0,0.27756653992395436,0.1265164644714038,0.9981905313163233,0.0004961340710934012,0.17380952380952377
cywiki,True,91.0,0.2815126050420168,0.11611785095320624,0.9982244262628475,0.00044652066398406104,0.16441717791411042
cywiki,True,92.0,0.2938388625592417,0.10745233968804159,0.9982687504236868,0.00038907356101535145,0.15736040609137056
cywiki,True,93.0,0.2596685082872928,0.08145580589254767,0.9982687504236868,0.000349905081718504,0.12401055408970979
cywiki,True,94.0,0.23026315789473684,0.060658578856152515,0.9982817869415808,0.0003055141385154102,0.09602194787379974
cywiki,True,95.0,0.21739130434782608,0.043327556325823226,0.9983261111024201,0.00023501087578108477,0.07225433526011561
cywiki,True,96.0,0.21052631578947367,0.02079722703639515,0.9984095448169412,0.00011750543789054238,0.03785488958990536
cywiki,True,97.0,0.3,0.01559792027729636,0.9984642981920957,5.4835871015586445e-05,0.029654036243822075
cywiki,True,98.0,0.3,0.005199306759098787,0.998485156620726,1.8278623671862147e-05,0.010221465076660987
cywiki,True,99.0,0.5,0.0017331022530329288,0.9984955858350412,2.611231953123164e-06,0.0034542314335060447
cywiki,False,0.0,0.0021344141778382474,1.0,0.0021344141778382474,1.0,0.00425973631409384
cywiki,False,1.0,0.0021256884692504884,0.9955423476968797,0.0024864498000374234,0.9996376765532234,0.00424231871210802
cywiki,False,2.0,0.002119327049826528,0.986627043090639,0.008426654488137033,0.9936656962331074,0.0042295687623415505
cywiki,False,3.0,0.002573487134546983,0.9643387815750372,0.20217310638135924,0.7994571504850049,0.005133275330222258
cywiki,False,4.0,0.003972515883593639,0.912332838038633,0.5115680174051486,0.4892892103891481,0.00791058717428415
cywiki,False,5.0,0.00560826928173867,0.7860326894502229,0.702070032888373,0.2981095615250639,0.011137076570033053
cywiki,False,6.0,0.009182236409726785,0.7265973254086181,0.8320694937347174,0.1677049034439797,0.018135291499777478
cywiki,False,7.0,0.012239453932055338,0.6953937592867756,0.8795657593027791,0.12004030053776428,0.024055512721665378
cywiki,False,8.0,0.014781069743051914,0.6701337295690936,0.9039577049814627,0.09554215029430835,0.02892416225749559
cywiki,False,9.0,0.01569262032890528,0.6196136701337296,0.9162345508691474,0.08313098310428559,0.030609997797841883
cywiki,False,10.0,0.0163866245217102,0.5854383358098069,0.9241093657332965,0.07516622382689839,0.03188089169397581
cywiki,False,11.0,0.01721038914352476,0.5690936106983655,0.9297165637517483,0.06951207109167419,0.03341038949709949
cywiki,False,12.0,0.018083710077293275,0.5527488855869243,0.9349844121163684,0.06419799387228416,0.03502165317266051
cywiki,False,13.0,0.019253085768540984,0.5423476968796433,0.9400556279712916,0.05909368285892269,0.037186083235698636
cywiki,False,14.0,0.020491109229466554,0.5393759286775631,0.9439851066731365,0.0551494425304161,0.03948227104633457
cywiki,False,15.0,0.021707494542808636,0.5319465081723626,0.9478321265805923,0.05127830254643461,0.04171278764928634
cywiki,False,16.0,0.0234565460894775,0.5289747399702823,0.9519899527130529,0.04710522635680596,0.044921135646687704
cywiki,False,17.0,0.024617106091335057,0.5230312035661219,0.9547491508329924,0.04432741326485208,0.04702110606465402
cywiki,False,18.0,0.026106359241353662,0.5215453194650818,0.957451262095278,0.04161634396572547,0.049723756906077346
cywiki,False,19.0,0.027918170878459686,0.5170876671619614,0.9605402953927734,0.038511168461333095,0.05297609986299284
cywiki,False,20.0,0.02903965356202768,0.5081723625557206,0.9626842240468874,0.03634358433237138,0.054939759036144585
cywiki,False,21.0,0.030595667870036102,0.5037147102526003,0.9648757250823795,0.03413786089322265,0.05768739896196716
cywiki,False,22.0,0.03136810279667423,0.4933135215453195,0.9664043842706678,0.032583684003102,0.05898552012081372
cywiki,False,23.0,0.032554010062148565,0.4903417533432392,0.9678093552673727,0.03116935125033372,0.06105457909343201
cywiki,False,24.0,0.03387213013487079,0.4888558692421991,0.9691477249301479,0.029824940566241624,0.06335451569420372
cywiki,False,25.0,0.03494479579804909,0.48439821693907875,0.9703465489408802,0.028614017467804065,0.06518696260747851
cywiki,False,26.0,0.036607343996395585,0.48291233283803864,0.9717705488901364,0.0271837933357912,0.06805570097372003
cywiki,False,27.0,0.03753631609529343,0.4799405646359584,0.9726236802628533,0.026322480580734563,0.06962707480060358
cywiki,False,28.0,0.0391156462585034,0.4784546805349183,0.9738003038289424,0.02514016196493726,0.07231892195395845
cywiki,False,29.0,0.04046023517511695,0.475482912332838,0.9748120098062536,0.02411993541743475,0.07457469121416918
cywiki,False,30.0,0.04143646408839779,0.46805349182763745,0.9757539429575433,0.023160096111061672,0.07613293051359517
cywiki,False,31.0,0.04253567508232711,0.4606240713224368,0.9767180765534761,0.02217800887374617,0.07787966335887452
cywiki,False,32.0,0.044191019244476125,0.4606240713224368,0.9775838938945606,0.021310339566991698,0.08064516129032258
cywiki,False,33.0,0.045589105979869746,0.4576523031203566,0.9783926243779911,0.020493522673819906,0.08291829317539375
cywiki,False,34.0,0.04672320740169622,0.45022288261515603,0.9792203838139729,0.019648101298007856,0.08466051969823973
cywiki,False,35.0,0.049013264315755416,0.45022288261515603,0.9801813459178139,0.01868508371578586,0.08840262582056892
cywiki,False,36.0,0.050639300134589504,0.4472511144130758,0.9809234750673149,0.017935010615441335,0.09097778449448392
cywiki,False,37.0,0.052659480473581904,0.4427934621099554,0.9818083213609506,0.017038736826046605,0.0941250789639924
cywiki,False,38.0,0.05472083101465405,0.43833580980683506,0.9826392522890244,0.016196493726083474,0.09729551451187333
cywiki,False,39.0,0.05684904928211098,0.43536404160475484,0.9833782099464335,0.015449598901587867,0.10056632915737086
cywiki,False,40.0,0.05907429963459196,0.4323922734026746,0.9840886241750156,0.014731308559732516,0.10394713341668155
cywiki,False,41.0,0.060799319727891155,0.424962852897474,0.9847609804984951,0.014041622700517424,0.10637902175934535
cywiki,False,42.0,0.06369710467706013,0.424962852897474,0.9854396798061584,0.013361471668849084,0.11078830137516948
cywiki,False,43.0,0.06554350334641126,0.42199108469539376,0.9859249180962167,0.012868838912266874,0.11346384338793447
cywiki,False,44.0,0.06693956176258127,0.413075780089153,0.9864577287676534,0.012315818914555233,0.11520928305014505
cywiki,False,45.0,0.06904400606980274,0.40564635958395245,0.9870571407730195,0.011699233399865241,0.11800302571860817
cywiki,False,46.0,0.07029004442121767,0.399702823179792,0.9874345483319538,0.011308305470448391,0.11955555555555555
cywiki,False,47.0,0.07166123778501629,0.3922734026745914,0.9878563567801744,0.010869703403297779,0.12118430112462705
cywiki,False,48.0,0.07485114828466119,0.3922734026745914,0.9883542810386002,0.010370714095017735,0.12571428571428572
cywiki,False,49.0,0.07794508414526129,0.3922734026745914,0.988798289931464,0.009925755476169288,0.13004926108374382
cywiki,False,50.0,0.08013509364445809,0.38781575037147104,0.9891915549508578,0.009522114443356768,0.13282442748091602
cywiki,False,51.0,0.08285714285714285,0.38781575037147104,0.9895309046046894,0.009182038927522597,0.13654198273607113
cywiki,False,52.0,0.0859400724399078,0.38781575037147104,0.9898892832110723,0.008822893756594922,0.1407008086253369
cywiki,False,53.0,0.08823529411764706,0.3833580980683507,0.9902286328649039,0.008473283413214,0.14345287739783152
cywiki,False,54.0,0.09074669524830296,0.3774145616641902,0.9905996974396545,0.008088712035494985,0.14631336405529952
cywiki,False,55.0,0.09309198374584411,0.37444279346210996,0.9908787887437402,0.007802667209092412,0.14911242603550295
cywiki,False,56.0,0.09596928982725528,0.37147102526002973,0.9911895949687449,0.0074848396242006635,0.1525320317266626
cywiki,False,57.0,0.0988791032826261,0.36701337295690933,0.9915099156700252,0.007154298935913246,0.15578681803847366
cywiki,False,58.0,0.1024896265560166,0.36701337295690933,0.9917890069741111,0.006874610661208508,0.16023353876094712
cywiki,False,59.0,0.10492505353319058,0.3640416047548291,0.9920141829126349,0.006642596524237532,0.16289893617021275
cywiki,False,60.0,0.10897722197409558,0.362555720653789,0.992312303169272,0.006340660318590371,0.1675824175824176
cywiki,False,61.0,0.11106011932078935,0.35958395245170877,0.9924899067264176,0.0061563203193531575,0.1697054698457223
cywiki,False,62.0,0.11469194312796209,0.35958395245170877,0.9927087396807576,0.005937019285777851,0.1739130434782609
cywiki,False,63.0,0.11592791037506088,0.3536404160475483,0.99286414279326,0.0057685706657852245,0.17461482024944974
cywiki,False,64.0,0.11696787148594377,0.3462109955423477,0.993025888889946,0.005590587218245846,0.174859287054409
cywiki,False,65.0,0.11883757135443695,0.34026745913818723,0.9932066639391834,0.00539671239146188,0.17615384615384616
cywiki,False,66.0,0.1202767429483768,0.33580980683506684,0.9933398666070427,0.005253689978260593,0.17711598746081503
cywiki,False,67.0,0.11777655476059438,0.3179791976225854,0.9934603833065342,0.005094776185814719,0.1718875502008032
cywiki,False,68.0,0.11781285231116122,0.31054977711738485,0.9935650425455664,0.004974001703555855,0.17082141397629752
cywiki,False,69.0,0.12030075187969924,0.30906389301634474,0.9937014167055175,0.0048341575662034855,0.17318900915903415
cywiki,False,70.0,0.12238805970149254,0.30460624071322434,0.9938536483259279,0.004672065497908695,0.1746166950596252
cywiki,False,71.0,0.12321981424148606,0.29569093610698366,0.9940058799463384,0.00450043860206715,0.17395104895104896
cywiki,False,72.0,0.12247474747474747,0.28826151560178304,0.9940724812802679,0.004417803429995296,0.17190961453256534
cywiki,False,73.0,0.123046875,0.28083209509658247,0.9941929979797596,0.004281137568491845,0.17111815301041197
cywiki,False,74.0,0.12389979688557888,0.27191679049034173,0.9943420581080781,0.004112688948499218,0.17023255813953486
cywiki,False,75.0,0.12782485875706215,0.2689450222882615,0.9945228331573155,0.003925170673413087,0.17328865485878414
cywiki,False,76.0,0.12481751824817518,0.2540861812778603,0.9946052919517046,0.003810752742852058,0.16740088105726872
cywiki,False,77.0,0.12528301886792453,0.24665676077265974,0.9947162941749205,0.0036836217088953584,0.16616616616616617
cywiki,False,78.0,0.11764705882352941,0.22288261515601784,0.9947733810325744,0.003575560330032164,0.1540041067761807
cywiki,False,79.0,0.11996779388083736,0.2213967310549777,0.9948716972874229,0.0034738555028668047,0.1556135770234987
cywiki,False,80.0,0.12037037037037036,0.212481426448737,0.995004899955282,0.003321298262118766,0.15368081676518
cywiki,False,81.0,0.11644444444444445,0.19465081723625557,0.9951285881468654,0.0031592061938239746,0.1457174638487208
cywiki,False,82.0,0.1205607476635514,0.19167904903417535,0.9952903342435515,0.002990757573831348,0.14802065404475043
cywiki,False,83.0,0.1222879684418146,0.18424962852897475,0.9954362228797783,0.0028286655055365564,0.14700652045050386
cywiki,False,84.0,0.12370062370062371,0.17682020802377416,0.9955694255476374,0.002679286540637435,0.14556574923547402
cywiki,False,85.0,0.12444444444444444,0.1664190193164933,0.9957216571680478,0.0025044813689469735,0.14240305149396057
cywiki,False,86.0,0.12576312576312576,0.15304606240713226,0.9959214611698366,0.002275645507824915,0.1380697050938338
cywiki,False,87.0,0.12175102599179206,0.13224368499257058,0.9961117506953496,0.002040453095005022,0.12678062678062677
cywiki,False,88.0,0.13137557959814528,0.1263001485884101,0.9963527840943328,0.0017861910270916233,0.12878787878787878
cywiki,False,89.0,0.13391304347826086,0.11441307578008915,0.9965303876514784,0.0015827813727609047,0.12339743589743588
cywiki,False,90.0,0.13320463320463322,0.1025260029717682,0.9966604188272457,0.0014270458561639482,0.1158690176322418
cywiki,False,91.0,0.12527964205816555,0.08320950965824665,0.9968031359713805,0.0012427058569267344,0.1
cywiki,False,92.0,0.13243243243243244,0.07280832095096583,0.9970029399731691,0.001020226547502511,0.09395973154362416
cywiki,False,93.0,0.12828947368421054,0.05794947994056464,0.9971488286093959,0.000842243099963132,0.0798362333674514
cywiki,False,94.0,0.11715481171548117,0.041604754829123326,0.9972852027693468,0.0006706162041215881,0.06140350877192983
cywiki,False,95.0,0.13142857142857142,0.03417533432392273,0.9974564633423086,0.00048309792903545684,0.05424528301886792
cywiki,False,96.0,0.21782178217821782,0.03268945022288262,0.9976848107729244,0.0002510837920644809,0.056847545219638244
cywiki,False,97.0,0.3333333333333333,0.020802377414561663,0.9978211849328754,8.899172376968942e-05,0.039160839160839164
cywiki,False,98.0,0.5714285714285714,0.017830609212481426,0.9978751002984374,2.860448264025731e-05,0.034582132564841495
cywiki,False,99.0,0.6666666666666666,0.005943536404160475,0.9978719288063456,6.356551697834958e-06,0.011782032400589101
