wiki_db,user_is_bot,threshold,precision,recall,accuracy,fpr,F1
hrwiki,True,0.0,0.06547103285540679,1.0,0.06547103285540679,1.0,0.12289594148786537
hrwiki,True,1.0,0.06547852626989317,1.0,0.06558547364864496,0.9998775417378577,0.12290914299160076
hrwiki,True,2.0,0.0656987395072868,1.0,0.06893695402204893,0.9962912640608326,0.12329702020227938
hrwiki,True,3.0,0.06702227380261572,0.9998335275511903,0.08875700949858584,0.9750709966353135,0.12562356853763376
hrwiki,True,4.0,0.06976054692268788,0.9988346928583319,0.12790121034762753,0.9331144634870282,0.1304128108851226
hrwiki,True,5.0,0.07374453510751465,0.998252039287498,0.17898540062451976,0.8784106083843091,0.1373430369382111
hrwiki,True,6.0,0.07835506047187028,0.9970867321458299,0.23195513920905064,0.8216482882084356,0.14529245883744202
hrwiki,True,7.0,0.08310130054090836,0.9961711336773764,0.28014016272390885,0.7700233836967234,0.1534054130268985
hrwiki,True,8.0,0.0922745787817071,0.9955884801065423,0.35849940872256825,0.6861336427834179,0.1688953529420071
hrwiki,True,9.0,0.09746270726117559,0.9946728816380889,0.396597293747718,0.6453025593776788,0.17753017641597027
hrwiki,True,10.0,0.10199340655586492,0.99400699184285,0.4266189285072016,0.6131310245091465,0.18500387296669246
hrwiki,True,11.0,0.10635850520289972,0.992841684701182,0.4533708263170228,0.5844233090554969,0.19213453283184198
hrwiki,True,12.0,0.11073069981206855,0.9906775428666555,0.47849875477517834,0.5573833585053094,0.19919665271966527
hrwiki,True,13.0,0.11547730099502487,0.9891792908273681,0.5032288652377916,0.5308157469662423,0.2068113394706159
hrwiki,True,14.0,0.12025162337662337,0.9865157316464125,0.5265965853047122,0.5056243330398222,0.21437227558015445
hrwiki,True,15.0,0.12521582543297494,0.9839354086898618,0.5489016408629925,0.48157586289339716,0.22215957676730655
hrwiki,True,16.0,0.13050646778280642,0.9816880306309306,0.5705908959624199,0.4582096602074793,0.23038531034819548
hrwiki,True,17.0,0.13593219556130343,0.9798568336940237,0.5908905128582406,0.43635960743379965,0.23874422000486736
hrwiki,True,18.0,0.14132056403099283,0.9776926918594973,0.609604307333475,0.4161831509093984,0.24694628403237676
hrwiki,True,19.0,0.14703297255217096,0.9746961877809223,0.6281437158380608,0.3961349839929557,0.255520642402025
hrwiki,True,20.0,0.15313720863158448,0.9722823372731813,0.6461599664307006,0.3766874456955921,0.26459928419335843
hrwiki,True,21.0,0.15927921030324574,0.9697020143166306,0.6629119187361376,0.35858111693597766,0.27361548217389264
hrwiki,True,22.0,0.16566849190052477,0.9670384551356751,0.6789881254053112,0.34119204371176826,0.28287599522777634
hrwiki,True,23.0,0.17188985266159695,0.9632928250374563,0.6937564372946197,0.32512668598785915,0.2917244334652517
hrwiki,True,24.0,0.1775388549159748,0.9593807224904278,0.7063612732355682,0.3113647098613889,0.2996295574186001
hrwiki,True,25.0,0.18332030813888578,0.9567171633094723,0.7181214271311873,0.29859406252368986,0.3076840710451996
hrwiki,True,26.0,0.1887134522200613,0.9530547694356584,0.7286772279170141,0.2870421664615977,0.31504512436715826
hrwiki,True,27.0,0.19472993472073086,0.9509738638255368,0.7393202216881651,0.2755077644369544,0.3232651906345052
hrwiki,True,28.0,0.2005953219670283,0.9479773597469618,0.7492547724535561,0.26466729256445093,0.33112370984154677
hrwiki,True,29.0,0.20688587303033062,0.9453138005660063,0.7591566258494504,0.2538851341501105,0.3394760047228325
hrwiki,True,30.0,0.21290552986729822,0.9428167138338605,0.7680557599141149,0.24418760605760204,0.34736874386653577
hrwiki,True,31.0,0.21915921392127574,0.9403196271017147,0.7767478106386341,0.234711669106113,0.3554695489372414
hrwiki,True,32.0,0.22538989769564957,0.9370734143499251,0.7850311442444455,0.22562060097849984,0.36337814502202925
hrwiki,True,33.0,0.23148300890795118,0.9344098551689696,0.792600585282914,0.2173342585735362,0.3710461080813089
hrwiki,True,34.0,0.23787057698438,0.9316630597636091,0.8000937324592237,0.20912372366418447,0.37898051431376867
hrwiki,True,35.0,0.24414686446982625,0.928749791909439,0.8070855199699184,0.20143800987829982,0.3866518816272783
hrwiki,True,36.0,0.25069361423770103,0.9250873980356251,0.8140664083574476,0.19371147667170105,0.3944841783945907
hrwiki,True,37.0,0.2573054587688734,0.9220076577326453,0.8206549283110174,0.1864456197845901,0.4023318320499782
hrwiki,True,38.0,0.26312024607167556,0.918511736307641,0.8262516280565229,0.18021191110696438,0.4090597371786555
hrwiki,True,39.0,0.2693446192235242,0.9164308306975195,0.8317665843782868,0.1741648054954603,0.4163279196838781
hrwiki,True,40.0,0.2751701449056983,0.912019310804062,0.8369545670050844,0.16830430295007784,0.4227808538961666
hrwiki,True,41.0,0.2809993830968538,0.9099384051939404,0.8416684377741811,0.16311440517357,0.4293962842216897
hrwiki,True,42.0,0.2870089838501462,0.9067754286665557,0.8464150059127743,0.15781371182655246,0.43601288747473543
hrwiki,True,43.0,0.2922252732461099,0.9035292159147661,0.8504095345529452,0.1533119128563681,0.4416192026037428
hrwiki,True,44.0,0.29732552706082843,0.9003662393873814,0.8541642824834742,0.14907252444791733,0.4470296518235354
hrwiki,True,45.0,0.3022447664153799,0.8977026802064259,0.8576193045269508,0.14518884813426092,0.452229699981131
hrwiki,True,46.0,0.3072065378900446,0.8948726485766606,0.8609925831466858,0.14138097931621638,0.45739204424590524
hrwiki,True,47.0,0.31245087479258243,0.893374396537373,0.8643113661505932,0.1377247254893957,0.4629785398468672
hrwiki,True,48.0,0.3172820482427547,0.8912102547028466,0.8673249737058654,0.13434837626175744,0.4679632867132867
hrwiki,True,49.0,0.32199039826081705,0.8876310970534377,0.8702731865221442,0.1309428703050377,0.4725588815279285
hrwiki,True,50.0,0.3267439358071756,0.8846345929748627,0.873106958545185,0.12770064203117437,0.47722323252733445
hrwiki,True,51.0,0.33099934356537775,0.8813883802230731,0.875602857750094,0.1248024631604728,0.4812634927849108
hrwiki,True,52.0,0.33559989832231824,0.8791410021641418,0.8781369038860823,0.12193344101885274,0.48576553373499515
hrwiki,True,53.0,0.3400911824619265,0.875478608290328,0.8806273535294086,0.11901193676488597,0.4898814652662956
hrwiki,True,54.0,0.34399396444269503,0.8728982853337772,0.8826927373692787,0.11662108498020259,0.49350588235294124
hrwiki,True,55.0,0.34831685146339025,0.8707341434992508,0.8848780115639697,0.11413110031664207,0.4975860346754822
hrwiki,True,56.0,0.35182309250506416,0.8674046945230565,0.8866927155710324,0.11195600832716182,0.5006004707690831
hrwiki,True,57.0,0.35526360806048785,0.8643249542200766,0.8884202265927706,0.10989171190819129,0.5035521179351647
hrwiki,True,58.0,0.3592091571279917,0.8619943399367405,0.890289426215661,0.10772828261034365,0.507100186073842
hrwiki,True,59.0,0.36341875528020273,0.859330780755785,0.8922403692622929,0.10545405774198627,0.5108109445351541
hrwiki,True,60.0,0.36739642016686874,0.8576660562676877,0.893995128091945,0.10345973747281136,0.5144283574638043
hrwiki,True,61.0,0.37112805869808796,0.8546695521891127,0.8956681434978556,0.10145958585782013,0.5175272800584663
hrwiki,True,62.0,0.3755866823115283,0.8525886465789911,0.8975482422439115,0.09930198790578877,0.5214580257598126
hrwiki,True,63.0,0.3799583240306616,0.8499250873980356,0.8993683958125569,0.09716771533702263,0.5251491462662004
hrwiki,True,64.0,0.38414818168100195,0.8475944731146995,0.9010577599032158,0.09519672045111291,0.5286849073256841
hrwiki,True,65.0,0.38824114071638827,0.8453470950557682,0.9026653805701331,0.093319027098264,0.5321038430304141
hrwiki,True,66.0,0.39195745837053136,0.8405193940402863,0.9041912578133089,0.09134803221235428,0.5346110066971967
hrwiki,True,67.0,0.3970141000829417,0.8366905277176627,0.9061095034904442,0.08902715657746652,0.5385048080786436
hrwiki,True,68.0,0.4020514883346742,0.8319460629265857,0.9079896022365,0.08668295555931353,0.542116396376851
hrwiki,True,69.0,0.40719224317800595,0.8284501415015815,0.9098043062435627,0.08449620087820069,0.5460131113366431
hrwiki,True,70.0,0.41395485194957493,0.8227068420176461,0.9121367186009885,0.0815980220074991,0.5507787467610264
hrwiki,True,71.0,0.41991101223581756,0.8169635425337106,0.9141258085786998,0.0790672179232245,0.554707810557251
hrwiki,True,72.0,0.42625678752846385,0.8102214083569169,0.9161748437338216,0.07640229288517497,0.558622668579627
hrwiki,True,73.0,0.4341342914888839,0.8045613450973864,0.9185454030223269,0.0734691259395756,0.5639604422532746
hrwiki,True,74.0,0.444165854111529,0.7962377226569003,0.9214227715380298,0.0698070407669386,0.5702363565914579
hrwiki,True,75.0,0.45364333652924255,0.7876643915431996,0.9239895150435148,0.06645984826838186,0.5757133296830322
hrwiki,True,76.0,0.45991519574006506,0.7764275012485433,0.9256679800110081,0.06387656207176054,0.5776566757493188
hrwiki,True,77.0,0.46775178026449643,0.7654403196271017,0.92761892305764,0.06101920262177308,0.5806655300877691
hrwiki,True,78.0,0.476413111998319,0.7548693191276844,0.9296352608432652,0.05812102375107151,0.5841545893719807
hrwiki,True,79.0,0.483232784390456,0.7400532711836191,0.9311665876480237,0.055444436021389376,0.5846841811067637
hrwiki,True,80.0,0.4910734463276836,0.7234892625270518,0.9328069056844377,0.052528763113238904,0.5850440869623746
hrwiki,True,81.0,0.4989055197302254,0.7019310804061928,0.9343273333660307,0.049391499064069,0.5832555244319951
hrwiki,True,82.0,0.5058254833911751,0.6793740635924754,0.935553484722154,0.04649915153918373,0.5798934280639432
hrwiki,True,83.0,0.5161057060215619,0.6534875978025637,0.9371992523201509,0.04292453655379125,0.5767281275251598
hrwiki,True,84.0,0.5286318758815233,0.623938738138838,0.938954011149803,0.03897671543615551,0.5723448117889594
hrwiki,True,85.0,0.5429770992366412,0.5920592641917762,0.940665173486793,0.034912267402193754,0.566456956279366
hrwiki,True,86.0,0.5547524094383516,0.5557682703512569,0.9417114893106849,0.03125018222955676,0.5552598752598753
hrwiki,True,87.0,0.5659636629234,0.5159813550857333,0.9424035836316969,0.027722218010694688,0.5398179997387555
hrwiki,True,88.0,0.5830477726264865,0.48152155818212083,0.9435098446329993,0.024124277642037006,0.5274434719183078
hrwiki,True,89.0,0.5996826476255241,0.44040286332611955,0.9441147459686868,0.020596313423174934,0.5078466189950569
hrwiki,True,90.0,0.6181584030907921,0.39953387714333277,0.9445289126489774,0.017289940345332298,0.4853632640679509
hrwiki,True,91.0,0.6399464604402142,0.3581654736141169,0.9447850420433677,0.014117688221264586,0.4592806062546697
hrwiki,True,92.0,0.6677799261733169,0.3162144165140669,0.9449321802061024,0.011021243592808785,0.42919279218211603
hrwiki,True,93.0,0.6908935442496793,0.2690194772765107,0.9442618841314216,0.008432126050371165,0.3872513779055835
hrwiki,True,94.0,0.7214514407684098,0.22507075079074412,0.9435752393719925,0.006087925032218186,0.34310366704732903
hrwiki,True,95.0,0.7436344611091733,0.17745963043116364,0.9421420046757238,0.004286039174981194,0.28653988307237416
hrwiki,True,96.0,0.777292576419214,0.1333444314965873,0.9407578160337001,0.0026765877296821335,0.22763765541740674
hrwiki,True,97.0,0.8082736674622116,0.08456800399533877,0.9387523773712405,0.0014053543417285276,0.15311581644186573
hrwiki,True,98.0,0.828393135725429,0.04419843515898119,0.9368232325709397,0.0006414480397931039,0.08391939944685896
hrwiki,True,99.0,0.863481228668942,0.021058764774429833,0.9356897237617233,0.00023325383265203776,0.04111481270821484
hrwiki,False,0.0,0.06705841994823154,1.0,0.06705841994823154,1.0,0.12568837599629248
hrwiki,False,1.0,0.06707007334396806,1.0,0.06723216950828874,0.9998137615861783,0.12570884521910522
hrwiki,False,2.0,0.06739832265402164,1.0,0.07210161230681499,0.994594310655225,0.1262852324639967
hrwiki,False,3.0,0.06860260535839631,0.9999335636460271,0.08962358717104531,0.9758081075789484,0.12839630447949635
hrwiki,False,4.0,0.07024826188664092,0.9995349455221897,0.11284811169869154,0.9508855875344422,0.1312706950933815
hrwiki,False,5.0,0.07254228457300542,0.9990034546904066,0.143441399619533,0.9180550979184275,0.13526252822279594
hrwiki,False,6.0,0.0755210165981361,0.998139782088759,0.18051688266558555,0.8782526061439575,0.14041777653161364
hrwiki,False,7.0,0.07852140851110564,0.99747541854903,0.2148613790368928,0.8413917262390823,0.14558253862824283
hrwiki,False,8.0,0.08272807989896817,0.9966117459473824,0.2587621012113463,0.7942734075421782,0.15277445374043314
hrwiki,False,9.0,0.08579198992299104,0.9954823279298433,0.2883440775903164,0.7624839429059878,0.1579699220376686
hrwiki,False,10.0,0.0888484172559442,0.995017273452033,0.31540000267307017,0.7334498517255705,0.1631303779544712
hrwiki,False,11.0,0.09187874021553472,0.9934892373106564,0.34107929662613995,0.7058149363207885,0.16820201338507396
hrwiki,False,12.0,0.09489092886997347,0.9909646558596864,0.36554234365880933,0.6794120596535965,0.17319716911572605
hrwiki,False,13.0,0.09832028206584177,0.989303747010364,0.39087859360868926,0.6521352950446256,0.178864425305995
hrwiki,False,14.0,0.1016260162601626,0.9865798564974754,0.4142590472286945,0.6268785009240291,0.18427061100908323
hrwiki,False,15.0,0.10511077364140847,0.9840552750465055,0.43711379705160364,0.6021995234206744,0.1899339616592934
hrwiki,False,16.0,0.10877782444351113,0.9807998937018336,0.45984825871755003,0.5775969514204261,0.19583601403471534
hrwiki,False,17.0,0.11264190202258192,0.9782753122508637,0.48175406863553133,0.5539351221771748,0.20202228075952147
hrwiki,False,18.0,0.11648883423902265,0.975551421737975,0.5021896899684132,0.5318348304036599,0.20812574854543006
hrwiki,False,19.0,0.12058006381031683,0.9716981132075472,0.522870342732145,0.5093907138661662,0.21453769371245848
hrwiki,False,20.0,0.12488012877594355,0.9689742226946585,0.5425753248894017,0.4880735784994914,0.22124632141015138
hrwiki,False,21.0,0.12931418095085528,0.9653202232261493,0.5618214300034304,0.46718144874384576,0.22807540772599558
hrwiki,False,22.0,0.13384406139839564,0.9610682965718841,0.5803235305910603,0.44704382333137543,0.2349654438696369
hrwiki,False,23.0,0.1382897985455314,0.9563513154398087,0.5974579102828553,0.4283388011021494,0.2416383398380125
hrwiki,False,24.0,0.14257116108599088,0.9510364071219771,0.6131711076757209,0.41111413549560905,0.24796895840911845
hrwiki,False,25.0,0.14726137008930876,0.9475817167153867,0.628527895714623,0.3944052070350367,0.25490809332749514
hrwiki,False,26.0,0.1516667201043103,0.9427982992293383,0.6425347833253884,0.3790477009106581,0.26129866782054706
hrwiki,False,27.0,0.1567292254885678,0.9404065904863141,0.6567020551454373,0.3636901947862795,0.26867994723205557
hrwiki,False,28.0,0.16170466535162165,0.936752591017805,0.6701075019713892,0.3490585409414113,0.27580001564822787
hrwiki,False,29.0,0.1671049343788299,0.9330321551953229,0.6836555125389265,0.3342693007463863,0.28344517886876236
hrwiki,False,30.0,0.17226771750507974,0.9293781557268137,0.6958090715090818,0.32097951854982354,0.29065938061647467
hrwiki,False,31.0,0.17739797609033672,0.9247276109487111,0.7074057408636689,0.3082150241871171,0.2976880467095836
hrwiki,False,32.0,0.1829132837912887,0.9190140845070423,0.7192741723506534,0.29508282834071126,0.30510156818632966
hrwiki,False,33.0,0.18866555303009558,0.915426521392506,0.7303406827912199,0.2829630054104647,0.3128533478645869
hrwiki,False,34.0,0.19463829787234044,0.911639649216051,0.7411220657486156,0.2711344784608111,0.320787357396671
hrwiki,False,35.0,0.20062580796803384,0.9073212862078129,0.7513599244412169,0.25985034072079044,0.32859342668783986
hrwiki,False,36.0,0.20686081775095627,0.9018070688280627,0.7615487768476483,0.24853277557316067,0.3365273766285282
hrwiki,False,37.0,0.21308838602854213,0.8977544512357162,0.7708243302845483,0.2382992135008524,0.3444250449233435
hrwiki,False,38.0,0.21863962629600092,0.8924395429178846,0.7789148226195196,0.22924516138274859,0.3512308637617498
hrwiki,False,39.0,0.22439933511308113,0.8879218708477279,0.7866845465359238,0.2205922381559532,0.3582581656860248
hrwiki,False,40.0,0.23007211912626901,0.8838028169014085,0.7938751052521373,0.21258876170556185,0.36510092901348923
hrwiki,False,41.0,0.2360228547017675,0.880946053680574,0.8007983569528783,0.20496253742675816,0.37229935563573063
hrwiki,False,42.0,0.2422323771770449,0.8768934360882275,0.8077928905244118,0.19717395145385347,0.37960339943342775
hrwiki,False,43.0,0.24761527730648872,0.8726415094339622,0.8136513692801868,0.19058875215487395,0.38576757026638087
hrwiki,False,44.0,0.2529912875121007,0.8681238373638055,0.8192648166051119,0.18424709539704598,0.3918023447572787
hrwiki,False,45.0,0.2582097247560879,0.8650677650810523,0.8242990987298462,0.17863129091872842,0.3977092241905925
hrwiki,False,46.0,0.2632979804136698,0.8609487111347329,0.8291373557099007,0.173149196070847,0.4032674653804263
hrwiki,False,47.0,0.2687984011991007,0.8578262024980069,0.8339845229238041,0.1677291806942395,0.4093329951813341
hrwiki,False,48.0,0.2738112982560739,0.8543050757374435,0.8382926209898379,0.16285832987120896,0.4147061194872208
hrwiki,False,49.0,0.2785913528591353,0.8493223491894765,0.8424136041450407,0.1580829859270614,0.4195602231703315
hrwiki,False,50.0,0.28357975959501347,0.8448046771193197,0.8464722156633001,0.15340792420574093,0.4246239126442155
hrwiki,False,51.0,0.28818351803712317,0.839622641509434,0.8501744178275958,0.14906713656051077,0.42909041523783653
hrwiki,False,52.0,0.2933923785106631,0.8363008238107893,0.8539568120965335,0.1447741023547221,0.4343910140276412
hrwiki,False,53.0,0.29886675414529407,0.8322482062184428,0.8578238535870374,0.140337807830609,0.4397984798216512
hrwiki,False,54.0,0.3031630170316302,0.8277969705022589,0.8608577882126517,0.13676585056038662,0.44379541245191617
hrwiki,False,55.0,0.3083320919608719,0.8250730799893702,0.864154574736814,0.13303630694000734,0.4489065606361829
hrwiki,False,56.0,0.3125474515361644,0.8204889715652405,0.8669434779315783,0.12971744289882478,0.4526628303339076
hrwiki,False,57.0,0.3171997212111825,0.8163699176189211,0.8698437590494562,0.12631262266664756,0.45687940361770557
hrwiki,False,58.0,0.32167280378748025,0.8125166090884932,0.8725301945549561,0.12315612031956602,0.4608833283087127
hrwiki,False,59.0,0.32671727060590616,0.8092612277438214,0.8753770142697395,0.11987068368599248,0.4655010986911245
hrwiki,False,60.0,0.3318585279257135,0.8072681371246346,0.8780857253598621,0.11682401424962632,0.4703582557531887
hrwiki,False,61.0,0.33601067229926906,0.8032155195322881,0.8803667452252284,0.11408774216962977,0.47381106342954565
hrwiki,False,62.0,0.34157335223245927,0.8004916290193994,0.8831467381861436,0.11091213844677163,0.4788284618594393
hrwiki,False,63.0,0.34683668748554247,0.7969040659048632,0.8857440713531527,0.10787024435434962,0.4833185591103232
hrwiki,False,64.0,0.35243603741847906,0.7934493754982727,0.888385955689407,0.10479014751037444,0.4880769938086189
hrwiki,False,65.0,0.35749721879791935,0.7899282487377093,0.8907115267240189,0.10204432474248958,0.49222744302539795
hrwiki,False,66.0,0.36187438665358196,0.7839489768801489,0.8928098867954789,0.09936535678982279,0.4951741502308016
hrwiki,False,67.0,0.3673379760336282,0.7779697050225883,0.895260201103978,0.09630913666556834,0.4990411250799062
hrwiki,False,68.0,0.3733192131189628,0.7728541057666756,0.8977684319324961,0.09325291654131389,0.5034514097764697
hrwiki,False,69.0,0.3791870345461107,0.7678713792187085,0.9001296439025043,0.0903638334551046,0.5076757516526476
hrwiki,False,70.0,0.38638050887494096,0.760696252989636,0.9029408226818912,0.08683485428037954,0.5124647540616748
hrwiki,False,71.0,0.39335295135883674,0.7548498538400212,0.9054936046796548,0.08367835193329799,0.5171950747661425
hrwiki,False,72.0,0.40044121833191004,0.7476747276109487,0.908010745742022,0.08046454545888668,0.5215497265733617
hrwiki,False,73.0,0.40822680487894214,0.7404331650279032,0.91061698914288,0.07715045676164826,0.5262909357070337
hrwiki,False,74.0,0.4180955993930197,0.7321950571352644,0.9137043851715888,0.07324900075927969,0.5322611803342026
hrwiki,False,75.0,0.4270804723976929,0.7231597129949509,0.9163819104432396,0.06972957227244292,0.5370137398554479
hrwiki,False,76.0,0.4351896887159533,0.7133271326069626,0.9186941161270777,0.06654441786169649,0.5405800020138959
hrwiki,False,77.0,0.4430800285966609,0.6999734254584108,0.9208815785370287,0.06323987985234636,0.5426592155751848
hrwiki,False,78.0,0.45228125272616243,0.6888785543449375,0.9231937842208668,0.05996399390666113,0.5460529780399178
hrwiki,False,79.0,0.4600987900484887,0.6745283018867925,0.925096119147647,0.056893447750574234,0.5470513753064469
hrwiki,False,80.0,0.46948045802971516,0.659181504119054,0.9271944792191071,0.05354115630178263,0.5483888796772232
hrwiki,False,81.0,0.4785266925141664,0.6395827796970502,0.9290923590289627,0.05009813331805223,0.5474552175149275
hrwiki,False,82.0,0.4882552968872613,0.6200504916290194,0.9309412325526484,0.0467124144616516,0.5463166213012556
hrwiki,False,83.0,0.49980543665573407,0.5973292585702896,0.9329103942332967,0.0429685448094399,0.5442329227323628
hrwiki,False,84.0,0.5136377200835571,0.5717512622907255,0.9349775684862849,0.038914277800858606,0.541138743043984
hrwiki,False,85.0,0.5302156875445301,0.54384799362211,0.9370982041423677,0.034635569626902375,0.5369453281296119
hrwiki,False,86.0,0.5451913571529445,0.5129550890247143,0.9386441297151844,0.030757990344254544,0.5285821866228521
hrwiki,False,87.0,0.5579502286998992,0.4781424395429179,0.9396019798539613,0.027229011169529485,0.51497263067511
hrwiki,False,88.0,0.5741454638910306,0.4452564443263354,0.9406533874481535,0.023738234746357608,0.50155285313377
hrwiki,False,89.0,0.5919922817173179,0.4076534679776774,0.9414374880268732,0.020194929539800104,0.48282645473501984
hrwiki,False,90.0,0.6103214520008747,0.3708477278766941,0.9419320060054976,0.017019325816941964,0.4613604430118192
hrwiki,False,91.0,0.6301127010257059,0.3305872973691204,0.9420968453317057,0.013948779660855073,0.4336572399668831
hrwiki,False,92.0,0.6516485155900343,0.29019399415360086,0.9419988327593658,0.011150428109584594,0.40156285911284767
hrwiki,False,93.0,0.6719003789929615,0.24734254584108425,0.9414285777930241,0.008681575290460295,0.3615791773903753
hrwiki,False,94.0,0.7031357289997712,0.20409247940473027,0.9408494125928335,0.0061936210955594075,0.31635858091756347
hrwiki,False,95.0,0.727355623100304,0.15898219505713526,0.9396064349708858,0.0042834835179003765,0.26093119616181437
hrwiki,False,96.0,0.7589549093973873,0.11965187350518204,0.9384169187520326,0.0027314967360524143,0.20671449067431855
hrwiki,False,97.0,0.7958904109589041,0.07719904331650279,0.9367908010745742,0.001423052495355978,0.14074612403100775
hrwiki,False,98.0,0.8333333333333334,0.04251926654265214,0.9352225999171349,0.0006112440248508898,0.0809102402022756
hrwiki,False,99.0,0.8587570621468926,0.020196651607759766,0.9340731797506026,0.00023876719720737887,0.03946514345060366
