wiki_db,user_is_bot,threshold,precision,recall,accuracy,fpr,F1
itwiki,True,0.0,0.05744765429833693,1.0,0.05744765429833693,1.0,0.10865342424246235
itwiki,True,1.0,0.05759039484768028,0.9999537144179588,0.05996705501334152,0.997324223185458,0.10890842043973716
itwiki,True,2.0,0.06087648006824946,0.9974542929877344,0.1158817968977469,0.9378491945164207,0.11474958100428513
itwiki,True,3.0,0.0688039577857881,0.9784540615598241,0.23801489836644452,0.8071141528422899,0.12856719299979474
itwiki,True,4.0,0.07791049964768791,0.9647072436935894,0.34206149464943103,0.695888161838655,0.14417714229386402
itwiki,True,5.0,0.08610511279040954,0.9569544087016895,0.41404057365225355,0.6190494997552729,0.15799418077056074
itwiki,True,6.0,0.09400773181110915,0.9493867160379542,0.4714669559656617,0.5576617914022509,0.17107565019214369
itwiki,True,7.0,0.10095773418101449,0.9419115945383013,0.5148006482637407,0.5112313510204485,0.1823685053623958
itwiki,True,8.0,0.10891960881459621,0.9361490395741726,0.5563568003212069,0.4667911695133528,0.19513548194136915
itwiki,True,9.0,0.11738927330588889,0.9305021985651469,0.594095960583012,0.42640767441565236,0.20847765218293063
itwiki,True,10.0,0.12385048211585653,0.9250636426753066,0.6197499744071431,0.39885859852486694,0.21845368543587448
itwiki,True,11.0,0.12991461931721604,0.9197870863226105,0.641505896993072,0.3754550724801221,0.22767189675024488
itwiki,True,12.0,0.13546241535956116,0.9143948160148114,0.659830382510174,0.355685073622652,0.23596757095719426
itwiki,True,13.0,0.1409791022504717,0.9095811154825272,0.6764132242612306,0.33779813330361813,0.24412104498192522
itwiki,True,14.0,0.1463228185354228,0.9036797037722749,0.6915881265098124,0.3213386500938708,0.25186408318068065
itwiki,True,15.0,0.15157839710380125,0.8992131451052997,0.7050692469584385,0.30676363595330014,0.2594259312426138
itwiki,True,16.0,0.15676401068716528,0.8948391576024068,0.7174428946917091,0.2933692360424457,0.2667899441456423
itwiki,True,17.0,0.16205210697637204,0.8906040268456376,0.729158440391245,0.2806815120325325,0.27420969563528963
itwiki,True,18.0,0.1672291537338358,0.8852811849109002,0.7401494091041436,0.2686962323313393,0.28131756607686537
itwiki,True,19.0,0.1721899308213996,0.879611201110854,0.7501512305178532,0.257739229539899,0.28800157609786964
itwiki,True,20.0,0.17704177891249048,0.8730155056699838,0.759576049340369,0.24733797586017692,0.29438435485633124
itwiki,True,21.0,0.1816359320618802,0.8659800971997222,0.7681579657600812,0.23780419858580187,0.3002876964621762
itwiki,True,22.0,0.18606703266400942,0.8588752603563989,0.7760578491630139,0.22898979198903172,0.30587023262522406
itwiki,True,23.0,0.1906145749155633,0.851585281184911,0.7837436832176005,0.22039119659554302,0.3115037205719269
itwiki,True,24.0,0.19495101652724806,0.8446193010877112,0.7907049402855498,0.21258108788593885,0.31678355669745156
itwiki,True,25.0,0.19924571931949567,0.8375144642443879,0.7973019146115935,0.20514900141476233,0.32190891300480345
itwiki,True,26.0,0.20331987845253752,0.8299930571626938,0.8034016562899265,0.1982190638871688,0.3266272620467937
itwiki,True,27.0,0.20720458579451217,0.8239990742883592,0.8087715029853901,0.19215660276492236,0.33113999395475363
itwiki,True,28.0,0.21132467905041957,0.8182828049062717,0.814122736694041,0.18613081544192633,0.33590150385225576
itwiki,True,29.0,0.21539933515694956,0.8127748206433696,0.8191668561202824,0.18044355549662672,0.3405476689162981
itwiki,True,30.0,0.21958217971306318,0.8075908354547559,0.82405675365579,0.1749396645475793,0.34528273883144506
itwiki,True,31.0,0.22332856424732223,0.8019671372367507,0.8284015565774971,0.169987291118029,0.3493668588942211
itwiki,True,32.0,0.2272781268148461,0.797014579958343,0.8326692485538374,0.1651576338628936,0.3536957347821176
itwiki,True,33.0,0.2311872288081753,0.7916223096505438,0.8367960136300243,0.16045069278217314,0.35786324070974224
itwiki,True,34.0,0.23506761054116085,0.7869243230733627,0.8406515608983691,0.1560738158947067,0.3619997657855234
itwiki,True,35.0,0.2386285746588749,0.7815320527655635,0.8441999938843043,0.151980455686061,0.3656206185343778
itwiki,True,36.0,0.2426405705275644,0.7763712103679704,0.8479398747345988,0.14769808435820145,0.3697290982432164
itwiki,True,37.0,0.24634712650477683,0.7710020828511919,0.8513407333250904,0.14376270359248075,0.37339026932517405
itwiki,True,38.0,0.2502172877948501,0.7661883823189076,0.8546737874636215,0.13993311263229016,0.3772383106487469
itwiki,True,39.0,0.25409861396541866,0.7611432538764175,0.8579217536624375,0.13617969033208124,0.38100368388128164
itwiki,True,40.0,0.25744384125058106,0.7561675538069891,0.8606964181965877,0.13293264856767656,0.38411304496052945
itwiki,True,41.0,0.26057480681799927,0.7507521407081694,0.8632955888550753,0.12984499677693725,0.3868721079998092
itwiki,True,42.0,0.26383546396477503,0.7460541541309882,0.8658242960634862,0.1268758295683917,0.389815956855063
itwiki,True,43.0,0.2667494209973841,0.741009025688498,0.8681057164470999,0.12414786311645483,0.3922839430545687
itwiki,True,44.0,0.2696610155116995,0.7358481832909048,0.8703352863674496,0.12146785470969161,0.3946847400400941
itwiki,True,45.0,0.2725303367683358,0.7307799120573941,0.8724717913537359,0.11889222557771813,0.39700520505921694
itwiki,True,46.0,0.27539705533752995,0.7259430687340893,0.874528526396539,0.11641533359757276,0.39931004194486697
itwiki,True,47.0,0.2780557859901701,0.7214070816940523,0.8763924840759251,0.11416130547441086,0.40139843030704947
itwiki,True,48.0,0.28086190329423283,0.7170330941911595,0.8782737252430657,0.11189881416680654,0.4036241890518746
itwiki,True,49.0,0.28355791178852807,0.712983105762555,0.8800233460034593,0.10979571283286763,0.40574747461444244
itwiki,True,50.0,0.2859745501429452,0.7083776903494562,0.881640016858048,0.10779981183519922,0.40745720294986815
itwiki,True,51.0,0.28825379979532273,0.7040037028465633,0.8831343737992962,0.10594778497305181,0.4090304016350459
itwiki,True,52.0,0.2907904348160394,0.7001851423281648,0.884673933708518,0.10408165280350037,0.4109226234940987
itwiki,True,53.0,0.29314595901024254,0.6961351538995603,0.886113781188386,0.10230720513207504,0.412560605125462
itwiki,True,54.0,0.29567281538994117,0.6918305947697292,0.8876214331202147,0.10044530455474482,0.4142881890309393
itwiki,True,55.0,0.29790647308895485,0.6876186068039806,0.8889575796735548,0.09877100456588801,0.4157094287353267
itwiki,True,56.0,0.3001939617966346,0.6841240453598704,0.8902352282683408,0.09720249438256133,0.417283654355145
itwiki,True,57.0,0.3024159955567898,0.680467484378616,0.8914716623923272,0.09566783693700429,0.4187358032427352
itwiki,True,58.0,0.3044882480413402,0.6763712103679704,0.8926535870549336,0.09416421116773609,0.41993189361610417
itwiki,True,59.0,0.30671310956301456,0.6724832214765101,0.8938607721996429,0.09264648009106387,0.4212830735773831
itwiki,True,60.0,0.30914360888584663,0.6689192316593381,0.8951038538189195,0.09111041211476642,0.4228605704170233
itwiki,True,61.0,0.3111878647451791,0.6651469567229807,0.8961834070540561,0.08973514464287477,0.4240054879802905
itwiki,True,62.0,0.31339912280701754,0.6614672529507059,0.8973015157618761,0.08832461390247308,0.425295736924336
itwiki,True,63.0,0.3156046886284095,0.6573941217310808,0.8984222834678122,0.08688728307800377,0.4264684907855722
itwiki,True,64.0,0.31781121196423345,0.6531127053922703,0.8995350741793999,0.08544572066131323,0.4275649960608448
itwiki,True,65.0,0.32000137089588043,0.6482527192779449,0.900657171384394,0.08395902126092986,0.4284862020436884
itwiki,True,66.0,0.32263713324828946,0.6438555889840315,0.9018856285140322,0.08238769001612237,0.42986711990111254
itwiki,True,67.0,0.3249099597467103,0.6388567461235825,0.9029970897265619,0.08090381167721979,0.4307493056205723
itwiki,True,68.0,0.3277296857812425,0.634343901874566,0.9042415008448966,0.07930850140982547,0.4321776011856897
itwiki,True,69.0,0.3304417553579239,0.6294376301781995,0.9054433679933738,0.07773434910353719,0.43337210599276604
itwiki,True,70.0,0.3332345203246007,0.6243693589446887,0.9066518826371411,0.07614327042836408,0.43454590846493946
itwiki,True,71.0,0.3367091474077522,0.6193936588752603,0.9080398796537452,0.07436741222619835,0.4362616852897788
itwiki,True,72.0,0.34031554643406875,0.6140013885674612,0.9094504781543362,0.07254218544811857,0.43791367500206324
itwiki,True,73.0,0.3450597034509907,0.6085859754686416,0.9111548959467562,0.0704038208456696,0.440411991291241
itwiki,True,74.0,0.34932233669590446,0.6018514232816478,0.9127250343343132,0.06832751959579832,0.44206464553745206
itwiki,True,75.0,0.35404787483128114,0.5949085859754687,0.9143749426653531,0.0661538917248393,0.44391103129101334
itwiki,True,76.0,0.3592383858073082,0.5885906040268456,0.9160540999756702,0.06398731650758231,0.4461655863236468
itwiki,True,77.0,0.3646845013085199,0.5804906271696366,0.9178050502351219,0.06163596176333269,0.4479507098848111
itwiki,True,78.0,0.3706505749196914,0.5714417958805832,0.9196397589352308,0.05913791182208129,0.44964854135557414
itwiki,True,79.0,0.37709071690604984,0.5614209673686646,0.9215276475976617,0.05652419836011696,0.451153967752134
itwiki,True,80.0,0.3843330045118618,0.5500115713955103,0.923533861676259,0.05370031581783278,0.452483174198216
itwiki,True,81.0,0.39233884576442796,0.5380698912288822,0.9255879377209462,0.05079321196186489,0.45379135356689765
itwiki,True,82.0,0.4010448950677411,0.524068502661421,0.9276951937279553,0.04770414964038519,0.454376724354151
itwiki,True,83.0,0.41027413899426307,0.508099976857209,0.9297851662472097,0.04451352910559656,0.45397682040466075
itwiki,True,84.0,0.4203571428571429,0.49030317056236983,0.9318791272636383,0.041207245050095,0.4526439482961222
itwiki,True,85.0,0.4309789972899729,0.47109465401527423,0.9338840118431776,0.037909424179035846,0.45014484420954864
itwiki,True,86.0,0.44290130472337136,0.4509372830363342,0.9358729424340203,0.03457069791650504,0.44688317049676624
itwiki,True,87.0,0.45606828356373297,0.42909048831289054,0.9378033750663087,0.031191066262502593,0.44216827244109513
itwiki,True,88.0,0.4711471361855172,0.4062485535755612,0.9396939227268557,0.02779309770887492,0.43629765869662473
itwiki,True,89.0,0.48854395441324866,0.3809534829900486,0.9415259724288485,0.02430767624934234,0.4280921668573806
itwiki,True,90.0,0.5088413215449046,0.3542929877343208,0.9432596392005457,0.020843412750915787,0.41773084479371314
itwiki,True,91.0,0.5308436649531297,0.32501735709326546,0.9447220881644005,0.017507507549865787,0.403180891683174
itwiki,True,92.0,0.5546251644015783,0.2927794492015737,0.9458654573543235,0.014329581791740778,0.38324750075734626
itwiki,True,93.0,0.5850283514539875,0.2602638278176348,0.9468984781224282,0.011251803716184288,0.36025819678695564
itwiki,True,94.0,0.6203098988346779,0.22420735940754455,0.9475486031618147,0.008364447290582028,0.32936696811042365
itwiki,True,95.0,0.6661675401380917,0.18532747049294146,0.9478636944385724,0.0056604598612319855,0.28998207528380804
itwiki,True,96.0,0.7190364277320799,0.14161073825503356,0.9475087181900732,0.003372579000300443,0.2366202629543697
itwiki,True,97.0,0.7830959164292498,0.09541772737792177,0.9465155823937099,0.001610826105538731,0.17010830324909745
itwiki,True,98.0,0.8551587301587301,0.04987271464938672,0.9449321490155724,0.0005148437202466172,0.09424885195713974
itwiki,True,99.0,0.9094269870609981,0.02277250636426753,0.9437302818670953,0.00013823201255936573,0.044432403142779735
itwiki,False,0.0,0.08454622819838666,1.0,0.08454622819838666,1.0,0.15591078738770248
itwiki,False,1.0,0.0845992555446123,1.0,0.08517303449690862,0.9993153053514778,0.15600094710028597
itwiki,False,2.0,0.08534478677329871,0.9997247981853359,0.09412917286246009,0.9895066116549046,0.15726419930268198
itwiki,False,3.0,0.08658078051629389,0.9977024818200013,0.10990015518567638,0.9720923390447701,0.15933448868867167
itwiki,False,4.0,0.08833524345446053,0.9959803856161185,0.13060732524337218,0.9493137264718047,0.16227778606249457
itwiki,False,5.0,0.09062924024987273,0.9939872573220362,0.15625843879402185,0.9211095442120967,0.16611274150968441
itwiki,False,6.0,0.0932374389583054,0.991493762092201,0.18403709790798992,0.8905351169795801,0.1704465383333393
itwiki,False,7.0,0.09593709647853099,0.988562445793582,0.21142444375347688,0.8603477078132978,0.17490060076642258
itwiki,False,8.0,0.09862271025580027,0.9853100607111882,0.23738614017757867,0.8316879610039827,0.17929884810651964
itwiki,False,9.0,0.10129845438074575,0.9819492627927147,0.2619345258869591,0.8045620380332859,0.18365133112999046
itwiki,False,10.0,0.10403118457686147,0.9786051437720995,0.28561532425063507,0.7783853683295222,0.1880695293033006
itwiki,False,11.0,0.10680720879908015,0.9749065981719928,0.3085885859207601,0.7529488466091441,0.19252236944654533
itwiki,False,12.0,0.10963113306616813,0.9707327039829208,0.33097981317082903,0.7281042122199125,0.1970123815560428
itwiki,False,13.0,0.11256510429314368,0.9664253786109814,0.3529991165486029,0.7036535275637733,0.20164362014034978
itwiki,False,14.0,0.11560225705731415,0.9616427046500767,0.3747586020174843,0.679442755599439,0.20639329231867928
itwiki,False,15.0,0.11873333309183082,0.9566765628127293,0.3960016244788659,0.6557792002242779,0.21124856192261104
itwiki,False,16.0,0.1218965848068615,0.9509640402962172,0.41667565629580744,0.6326682527347351,0.21609380766510314
itwiki,False,17.0,0.1252403252682723,0.9455100406965108,0.43704509832539074,0.6099139009957725,0.22118317920825833
itwiki,False,18.0,0.12863624811894817,0.9392054173060245,0.45697316719088543,0.5875631263049825,0.2262804777282342
itwiki,False,19.0,0.1320089996612142,0.9326047434785509,0.4758559713347167,0.5663268096079064,0.23128053730139442
itwiki,False,20.0,0.1354282549719929,0.92587063846821,0.4940016258890038,0.5458833985808568,0.2362935562687825
itwiki,False,21.0,0.13892142634689314,0.9188321435719528,0.5116290547634106,0.5259779619205031,0.24135200407441282
itwiki,False,22.0,0.14237255906847535,0.9116351991460404,0.5282408318121471,0.5071673435310989,0.24628250641947397
itwiki,False,23.0,0.14580902218925063,0.903950396957769,0.5441563532705681,0.48907222719847443,0.2511130094838196
itwiki,False,24.0,0.1493479780579294,0.8961613516578825,0.5596689278227964,0.471407644396248,0.25602810435014645
itwiki,False,25.0,0.15284796727546737,0.8880929348188672,0.5743844219245421,0.45458795476548247,0.26080865794716623
itwiki,False,26.0,0.15643744926289882,0.8798660684501968,0.5887110704991395,0.43817838875714443,0.26564418838425896
itwiki,False,27.0,0.16005802189453433,0.8714307158582961,0.6024969311873855,0.4223403001719824,0.2704430431344943
itwiki,False,28.0,0.16373299719825932,0.863349789845887,0.615634833508543,0.4072427446628091,0.2752628132903924
itwiki,False,29.0,0.1674213318697402,0.8547434785509374,0.6283468741825606,0.39256185935031795,0.2799984701627091
itwiki,False,30.0,0.17128884298775857,0.8464707452131564,0.6407772398101672,0.37821947043605575,0.2849218936406125
itwiki,False,31.0,0.17506231805741976,0.8375141770631797,0.6525941954493439,0.3644839874644656,0.2895922904573648
itwiki,False,32.0,0.1789254728576767,0.82853676029088,0.6640512133884133,0.3511397585777452,0.294296553731267
itwiki,False,33.0,0.1829322094791688,0.8195259857228634,0.675267097745824,0.3380558522908004,0.2991001520291092
itwiki,False,34.0,0.18691478252842794,0.810556908399493,0.6858776804077554,0.32563700092961356,0.3037781816533862
itwiki,False,35.0,0.19097020796414466,0.8016378677696978,0.696104000490728,0.31364252161717326,0.308457998806292
itwiki,False,36.0,0.19511659571499076,0.7929231436386683,0.7059485257360744,0.30208396713157615,0.3131705300671673
itwiki,False,37.0,0.19909195829875717,0.7833119287477484,0.7152653068706855,0.29101910136330483,0.3174887801431984
itwiki,False,38.0,0.20307878822361863,0.7739008606311295,0.7241223830484502,0.28047488079458466,0.32173208350126326
itwiki,False,39.0,0.20715656843549066,0.7645273200346921,0.7327051874038022,0.27023372810459734,0.3259843205652348
itwiki,False,40.0,0.21119890480732678,0.7552079858562946,0.740832164681545,0.26049550635441304,0.3300868424170076
itwiki,False,41.0,0.2151269767346708,0.7454049636400026,0.7485473816911925,0.2511624020228144,0.3338914814396299
itwiki,False,42.0,0.2192764319943955,0.7360897991860698,0.7561074835313519,0.2420437942712084,0.33789585506608355
itwiki,False,43.0,0.22324132770981844,0.726561978784442,0.7631454818123938,0.23347586894220454,0.3415415796055495
itwiki,False,44.0,0.2274883395214249,0.7179014610714524,0.7700368257513743,0.2251482413976089,0.3454960297154278
itwiki,False,45.0,0.23152532957172695,0.7090241176863032,0.7764296859411366,0.21734510997859655,0.3490662675953696
itwiki,False,46.0,0.2355215659535304,0.6999799853225699,0.7825401660155354,0.20983503403063333,0.35245346638798813
itwiki,False,47.0,0.23929166997538315,0.6910776235906332,0.7881391185651001,0.2028968205984493,0.3554913511768598
itwiki,False,48.0,0.24309054091597224,0.6822669957969177,0.7935293707048081,0.1961950540246413,0.3584617760753097
itwiki,False,49.0,0.2468971312884373,0.6737774367869771,0.7986594524011476,0.1898071379224562,0.36137354508950587
itwiki,False,50.0,0.2507274018400282,0.6654504970311562,0.8035840064979155,0.1836587494194729,0.3642233116065071
itwiki,False,51.0,0.2545477738271701,0.6573362132230303,0.8082748302370231,0.17778531703518746,0.3669841166378393
itwiki,False,52.0,0.2582948563849629,0.6496305624124358,0.8126614167232484,0.1722819586425948,0.36962558674446827
itwiki,False,53.0,0.26201301353080503,0.6420708519581027,0.8168400078685695,0.16701928312701356,0.37215777262180977
itwiki,False,54.0,0.26563986876635837,0.6343693708719728,0.8208176543625084,0.16196301724675732,0.3744712587518445
itwiki,False,55.0,0.2691490218899682,0.626763793448529,0.8245531096713603,0.15718016711478608,0.37658321005036954
itwiki,False,56.0,0.272907134453982,0.6200255187137234,0.8282124175333727,0.15256059624657942,0.37899697586426184
itwiki,False,57.0,0.27664109442665635,0.6131704916939089,0.8317409351047486,0.1480731121412766,0.3812675818976134
itwiki,False,58.0,0.2801028204322851,0.6061236573487224,0.8349923605779027,0.14387059656235535,0.3831457312790018
itwiki,False,59.0,0.2835980213999759,0.599331176195877,0.8381235717947036,0.13982288820992783,0.3850119266534252
itwiki,False,60.0,0.2873532572250366,0.5932016812329042,0.8412255226499875,0.13586837226747916,0.3871613861871146
itwiki,False,61.0,0.29090217308141664,0.586596837680966,0.8441575518877869,0.1320555704030148,0.3889287456992659
itwiki,False,62.0,0.29451846019025363,0.5801629528320769,0.8470099083339855,0.12834558826360976,0.39069928086644223
itwiki,False,63.0,0.298201260395883,0.5739625725532057,0.8497762463680135,0.12475113390517018,0.3924867234558221
itwiki,False,64.0,0.3020004435573298,0.5677997197945159,0.8525066258854784,0.12119942482568784,0.39428773287159563
itwiki,False,65.0,0.3057523499942116,0.5616368670358263,0.855119258887923,0.1177763366756804,0.3959509492810392
itwiki,False,66.0,0.3096543864545539,0.5551529454933618,0.8577502236831251,0.11430357157985781,0.39755801870453755
itwiki,False,67.0,0.3134931887121102,0.5485856294616052,0.8602669673080678,0.11094787463541358,0.398984071145346
itwiki,False,68.0,0.31770832061236504,0.5423935886316632,0.8628305980183332,0.10757561870903096,0.40070357780403015
itwiki,False,69.0,0.32209074559272194,0.5361723597304691,0.8653755444013648,0.10422107704239639,0.40243173460605586
itwiki,False,70.0,0.32639003125514066,0.5294882914137033,0.8678305944929885,0.10092198871062524,0.4038417504134334
itwiki,False,71.0,0.3306015398660665,0.5224497965174462,0.8701876400002538,0.09769722325127524,0.4049526678280206
itwiki,False,72.0,0.33518051373857377,0.5152570218159984,0.8726109619890278,0.0943858119562011,0.4061535528698722
itwiki,False,73.0,0.3399516536030906,0.5078182333711388,0.8750272332882795,0.09105938204960147,0.40726534597841063
itwiki,False,74.0,0.3451280560297305,0.4999207752351725,0.877520709637799,0.08760625667654301,0.4083472550752626
itwiki,False,75.0,0.35056261925566634,0.4918231703249049,0.8800029048840832,0.08414696982183306,0.40934883026830426
itwiki,False,76.0,0.35644489239051613,0.4836880378944559,0.8825143604918843,0.08065225444762703,0.4104305983087429
itwiki,False,77.0,0.3628319993375142,0.4750066715591434,0.885088919770909,0.07703816036642332,0.41141003949129007
itwiki,False,78.0,0.36925717914624223,0.46550386950430317,0.887583806258333,0.07343523397071294,0.41183197518066683
itwiki,False,79.0,0.37636388716463204,0.4550753886183201,0.8901756397266871,0.06964091655120307,0.4119938694309594
itwiki,False,80.0,0.38431992036614265,0.44432583894856226,0.8928390376936912,0.06573877320279208,0.4121502321632665
itwiki,False,81.0,0.39318931154962844,0.4331092801387684,0.895559193711349,0.06173149957370249,0.4121849931646418
itwiki,False,82.0,0.40281420274235075,0.4207710654479952,0.8982878105564334,0.05761139381186994,0.41159687481517887
itwiki,False,83.0,0.4127706890574398,0.407094369204083,0.9009067891794478,0.05348743712400521,0.40991287918547287
itwiki,False,84.0,0.42395036064128006,0.39287143905530725,0.9035370489056977,0.0493007103418159,0.40781964520296843
itwiki,False,85.0,0.43560188240280917,0.3770848622323037,0.9060273524449324,0.045122455596897384,0.404236630899513
itwiki,False,86.0,0.448083826424857,0.35965124424578027,0.908407665227621,0.04091223816591176,0.39902664017376144
itwiki,False,87.0,0.46202688821411236,0.3413378143972246,0.9107100678910894,0.03670587166095831,0.39261682198166914
itwiki,False,88.0,0.47687175685693106,0.3218860497698312,0.9128139936445084,0.03261118201093817,0.3843427000975843
itwiki,False,89.0,0.49437755954582185,0.30101240910000665,0.9148749101918422,0.028432157080813224,0.37419073931050206
itwiki,False,90.0,0.5127641589180051,0.27822903462539195,0.9166248913312477,0.024416411414452832,0.36072592808835696
itwiki,False,91.0,0.5345340600890013,0.25393621989458937,0.9182278655941157,0.02042184584126945,0.34430608754646574
itwiki,False,92.0,0.5588920448740217,0.22808809793848822,0.919517789242199,0.01662560295874349,0.32396401518516543
itwiki,False,93.0,0.5887518979653811,0.20210237507505505,0.9206053581009955,0.013037695174558626,0.30091044827083124
itwiki,False,94.0,0.6243261756559549,0.17481986790312895,0.9213403924836829,0.00971511619399117,0.27315312497964017
itwiki,False,95.0,0.6672439672093292,0.14458102608579626,0.9215815260653416,0.0066590212948507725,0.23766407347750096
itwiki,False,96.0,0.7188144260890519,0.1119445927013143,0.9212159478136165,0.004044242518998544,0.19372016754878724
itwiki,False,97.0,0.7781054971360177,0.07590149442924811,0.9200409504047449,0.001999015703306174,0.1383112097197
itwiki,False,98.0,0.8459289828905511,0.041025919007271996,0.9182906167308632,0.0006900859449671862,0.0782565468970591
itwiki,False,99.0,0.9033104561970126,0.01865951697911802,0.9168624995681453,0.00018445935694156373,0.03656374347367819
