wiki_db,user_is_bot,threshold,precision,recall,accuracy,fpr,F1
knwiki,True,0.0,0.04945208836606799,1.0,0.04945208836606799,1.0,0.09424363229971142
knwiki,True,1.0,0.049457282913165264,1.0,0.04955711935020831,0.9998895047973334,0.09425306530986738
knwiki,True,2.0,0.04980430873382462,1.0,0.056524174631516294,0.9925599896871145,0.09488303357012107
knwiki,True,3.0,0.050345737097234104,1.0,0.0672023246857823,0.9813263107493416,0.09586507626787927
knwiki,True,4.0,0.050832476504861376,0.9975221238938053,0.07877323810524105,0.9690245115191248,0.09673543647660567
knwiki,True,5.0,0.05150104468311279,0.9946902654867257,0.09381017400133039,0.9530579547337986,0.09793158729328941
knwiki,True,6.0,0.052499811761162564,0.9872566371681416,0.1182473829779785,0.9269626710373658,0.09969793919462369
knwiki,True,7.0,0.053849464048196544,0.9745132743362832,0.15199733921506844,0.8907939080311597,0.10205935235129475
knwiki,True,8.0,0.055581830519627395,0.9568141592920354,0.19388719672303328,0.8458039446787352,0.1050606343283582
knwiki,True,9.0,0.058044494951702434,0.9401769911504425,0.2425340475440255,0.7937607042227584,0.10933865755511188
knwiki,True,10.0,0.06095521278572756,0.928849557522124,0.2888527115499072,0.7444430120992247,0.1144028077518366
knwiki,True,11.0,0.06340793089909698,0.9146902654867257,0.3276441550257326,0.7028968158965765,0.11859467150102118
knwiki,True,12.0,0.06544380537851702,0.8941592920353982,0.3633196793053951,0.6642971584317048,0.12196122926876372
knwiki,True,13.0,0.06772082878953108,0.8792920353982301,0.39542415012428667,0.6297489917312756,0.1257562333881787
knwiki,True,14.0,0.07025975512072319,0.8693805309734514,0.424622763715296,0.5985156811108451,0.1300124401154019
knwiki,True,15.0,0.07254725472547255,0.855929203539823,0.4517557679515457,0.5692712841384137,0.13375743327340617
knwiki,True,16.0,0.07522109967582538,0.8460176991150442,0.47803101915064944,0.5411134233255372,0.13815827504480027
knwiki,True,17.0,0.07785120163066706,0.8382300884955752,0.500997794349333,0.516546656599326,0.14247036881054087
knwiki,True,18.0,0.08072674718695158,0.8304424778761061,0.5239645695480166,0.4919798898731147,0.14714921909301887
knwiki,True,19.0,0.08360808486238532,0.8258407079646017,0.5437629100584672,0.47091213789801295,0.15184353542256498
knwiki,True,20.0,0.08691099476439791,0.8226548672566372,0.5638238280292687,0.44964181138468906,0.15721292068324033
knwiki,True,21.0,0.09044755135515113,0.8198230088495575,0.5833946014074152,0.42890554501758715,0.16292075551334811
knwiki,True,22.0,0.09336310127866856,0.8141592920353983,0.5998319504253755,0.41131839192648384,0.16751638747268754
knwiki,True,23.0,0.09597340850759456,0.8074336283185841,0.6143612365647866,0.39568332074915746,0.17155535499398317
knwiki,True,24.0,0.09884685943915436,0.8010619469026549,0.6290130588523615,0.3799377543691645,0.17597884832225202
knwiki,True,25.0,0.101832164668627,0.7968141592920354,0.6424045093302524,0.3656286256238375,0.18058563979141598
knwiki,True,26.0,0.1053423626787058,0.7929203539823009,0.6567412386654063,0.3503434559216221,0.18597700195109804
knwiki,True,27.0,0.10900914112528719,0.7893805309734513,0.6705178027518118,0.335666009834073,0.19156429859977667
knwiki,True,28.0,0.11191079574252408,0.7815929203539823,0.682473829779785,0.32268282352074545,0.1957880735978719
knwiki,True,29.0,0.11517118626321851,0.7787610619469026,0.6931869901620978,0.31126498591186164,0.200665845760934
knwiki,True,30.0,0.1172398875189271,0.7674336283185841,0.7027448097188671,0.30062061472164414,0.20340573251395597
knwiki,True,31.0,0.12014292094685128,0.7617699115044247,0.7123376396036831,0.29023406567098214,0.2075517191493466
knwiki,True,32.0,0.12384473197781885,0.7589380530973451,0.722560655393341,0.2793318723412092,0.21294135174057705
knwiki,True,33.0,0.12696996729110913,0.7557522123893805,0.7309456289605434,0.27034492919099096,0.2174134419551935
knwiki,True,34.0,0.1304134762633997,0.7536283185840708,0.7393130973637223,0.26143164950921716,0.22234986945169713
knwiki,True,35.0,0.13418105902448282,0.7507964601769912,0.7481006897034626,0.25203955728255467,0.2276728209531988
knwiki,True,36.0,0.13803480308779276,0.7469026548672566,0.7568357665511326,0.24264746505589216,0.23300756446358567
knwiki,True,37.0,0.14118122977346279,0.7412389380530974,0.7642229457690018,0.23458131526122908,0.2371863850031149
knwiki,True,38.0,0.14442286348501665,0.7369911504424779,0.7710849700661695,0.2271413049483435,0.24151731338089438
knwiki,True,39.0,0.14721646537554492,0.7292035398230089,0.7777194272310332,0.21975654223679122,0.24497562135806875
knwiki,True,40.0,0.15058285377010477,0.7224778761061947,0.7847389980044113,0.21202187805012798,0.2492215641980585
knwiki,True,41.0,0.15390464603452209,0.7164601769911504,0.791198403529041,0.20491335334524227,0.25338007010515773
knwiki,True,42.0,0.15638181534135293,0.7086725663716814,0.7965374785561741,0.1988913647999116,0.256223203429961
knwiki,True,43.0,0.16008032128514058,0.7054867256637168,0.8023842033399853,0.1925747223808033,0.260949263502455
knwiki,True,44.0,0.16369664318276006,0.6991150442477876,0.8084935055841473,0.18581609915102854,0.26527871054398927
knwiki,True,45.0,0.16749104553982602,0.6952212389380531,0.8140426425795609,0.17977569473858676,0.2699470826747302
knwiki,True,46.0,0.1712901805372083,0.6884955752212389,0.8198718621993488,0.17329330951547853,0.2743300423131171
knwiki,True,47.0,0.17429273173837898,0.6782300884955752,0.8251934320624584,0.16716082576748126,0.27731943841366336
knwiki,True,48.0,0.1764377961534888,0.672212389380531,0.8286244442110423,0.16323824607281634,0.27951133352958496
knwiki,True,49.0,0.1791555724610118,0.6669026548672566,0.8324230648041172,0.15896576490304046,0.28243759838093097
knwiki,True,50.0,0.18322618351841027,0.6658407079646018,0.8366943248258236,0.15441704572659803,0.28737300435413643
knwiki,True,51.0,0.18608816797691313,0.6619469026548672,0.8401078318103841,0.15062337710171084,0.2905080006214075
knwiki,True,52.0,0.18964460784313725,0.6573451327433628,0.8441515246997864,0.1461299055266017,0.29436474597764917
knwiki,True,53.0,0.19387968979249634,0.6548672566371682,0.8482827434093058,0.1416548498186037,0.29918331042289964
knwiki,True,54.0,0.195898312326426,0.6492035398230088,0.850873507684767,0.13863464761238284,0.3009764503159104
knwiki,True,55.0,0.1984998369387977,0.6463716814159292,0.8534467667962049,0.13578018821016188,0.3037258815701929
knwiki,True,56.0,0.2023211695123312,0.6417699115044248,0.8571578615691628,0.13163661811016372,0.30765314780247754
knwiki,True,57.0,0.20487971725002851,0.6361061946902655,0.859923677484858,0.1284322572328318,0.30993446015867543
knwiki,True,58.0,0.2069889341875364,0.6290265486725664,0.8624794314322726,0.12537522329238873,0.31148115687992983
knwiki,True,59.0,0.20926037282020446,0.6159292035398231,0.8659104435808563,0.12108432625550174,0.3123877917414722
knwiki,True,60.0,0.21296296296296297,0.6106194690265486,0.8691488989251829,0.11740115283328116,0.31578947368421056
knwiki,True,61.0,0.2174961909598781,0.6063716814159292,0.8726499317298603,0.11349698900572733,0.32015699467339503
knwiki,True,62.0,0.22042034250129736,0.6014159292035398,0.8751006546931345,0.11066094547061749,0.32260514573245985
knwiki,True,63.0,0.22415625830454425,0.5971681415929203,0.8778664706088296,0.10753024806172999,0.32595884455608154
knwiki,True,64.0,0.22769857433808555,0.5936283185840708,0.8803346987361271,0.10474945212795345,0.3291462217860648
knwiki,True,65.0,0.23109126430365615,0.5861946902654868,0.8830830094877989,0.10147142778217712,0.3314983485136623
knwiki,True,66.0,0.2336194563662375,0.5780530973451328,0.8853586808108392,0.09865380011417837,0.33275598573611825
knwiki,True,67.0,0.23623550139480254,0.5695575221238938,0.8876518572979029,0.09579934071195742,0.33395599833956
knwiki,True,68.0,0.2395500835993312,0.5578761061946903,0.8905577145257851,0.09213458315684794,0.33517652062951936
knwiki,True,69.0,0.23988799004355943,0.5458407079646018,0.8920106431397262,0.0899799267048489,0.33329730898087107
knwiki,True,70.0,0.24190445655658865,0.5341592920353982,0.8941812834786262,0.08708863556840574,0.33300231711353856
knwiki,True,71.0,0.24412446209864283,0.5221238938053098,0.8964219444736197,0.08410526509640706,0.3326942596143002
knwiki,True,72.0,0.2456558773424191,0.5104424778761062,0.8982774918600988,0.08154545956796376,0.3316848763657274
knwiki,True,73.0,0.24562334217506632,0.49168141592920356,0.9001855547386479,0.07856208909596508,0.3275943396226415
knwiki,True,74.0,0.24615666178623719,0.4761061946902655,0.9019885866330567,0.07585495663063295,0.3245264808782724
knwiki,True,75.0,0.2509534706331045,0.46584070796460175,0.9048244232048455,0.07233752601241229,0.32618664022803323
knwiki,True,76.0,0.253134328358209,0.45026548672566374,0.9071175996919091,0.06911474926796929,0.32407643312101914
knwiki,True,77.0,0.2565499895200168,0.43327433628318585,0.9098834156076042,0.06532108064308208,0.3222748815165877
knwiki,True,78.0,0.26426360017691286,0.4230088495575221,0.9132269019360711,0.06126958987863944,0.3253028446985164
knwiki,True,79.0,0.2689095127610209,0.4102654867256637,0.9156776248993453,0.05802839726708532,0.32487736510161175
knwiki,True,80.0,0.26939970717423134,0.39079646017699116,0.9174631516297308,0.05513710613064216,0.318936877076412
knwiki,True,81.0,0.2742812742812743,0.37486725663716813,0.9200364107411686,0.0516012596453104,0.3167813341310201
knwiki,True,82.0,0.28343423225096315,0.36460176991150445,0.9229947834611211,0.04795491795731202,0.3189348196315219
knwiki,True,83.0,0.28802588996763756,0.3465486725663717,0.9253229702762314,0.044566398408869085,0.31458868894601544
knwiki,True,84.0,0.2998725302740599,0.33309734513274336,0.9285614256205581,0.04045966004309313,0.31561294650343785
knwiki,True,85.0,0.308587068080739,0.3192920353982301,0.9309596330917621,0.03721846743153901,0.3138482950591511
knwiki,True,86.0,0.3229646697388633,0.2976991150442478,0.9344081504043693,0.03246717371687446,0.3098176459753177
knwiki,True,87.0,0.3392781316348195,0.28283185840707964,0.9372965024682282,0.028655089224876154,0.3084942084942085
knwiki,True,88.0,0.3517635843660629,0.26123893805309734,0.9396596996113854,0.02504557927109998,0.2998171846435101
knwiki,True,89.0,0.3487124463519313,0.23008849557522124,0.9406749991247418,0.022356862672878952,0.2772446150565152
knwiki,True,90.0,0.35800240673886885,0.21061946902654868,0.9422854742148934,0.01964973020754682,0.26521060842433697
knwiki,True,91.0,0.3698245614035088,0.18654867256637167,0.9440534957812555,0.016537448665770428,0.248
knwiki,True,92.0,0.3868169991326973,0.15787610619469025,0.945979063823828,0.01302001804754977,0.22423328305681245
knwiki,True,93.0,0.39798206278026904,0.1256637168141593,0.9473619717816756,0.00988932063866227,0.19101425881086898
knwiki,True,94.0,0.411144578313253,0.09663716814159291,0.9484823022791724,0.007200604040441244,0.15649183147033532
knwiki,True,95.0,0.44967880085653106,0.0743362831858407,0.9497251689248328,0.004732877847553452,0.1275820170109356
knwiki,True,96.0,0.4925925925925926,0.047079646017699116,0.9504778909778384,0.0025229737942211007,0.08594507269789985
knwiki,True,97.0,0.5181347150259067,0.035398230088495575,0.9506704477820958,0.0017126756413325722,0.06626905235255136
knwiki,True,98.0,0.5905511811023622,0.02654867256637168,0.9509505304064699,0.0009576250897773521,0.0508130081300813
knwiki,True,99.0,0.6808510638297872,0.011327433628318584,0.9508454994223295,0.0002762380066665439,0.022284122562674095
knwiki,False,0.0,0.04325427440830243,1.0,0.04325427440830243,1.0,0.08292182542522483
knwiki,False,1.0,0.04325858078004829,1.0,0.043353823946641445,0.9998959498478267,0.08292973875700824
knwiki,False,2.0,0.043576371477284125,1.0,0.05064582762997437,0.992274276201129,0.08351352650040844
knwiki,False,3.0,0.04406358542707198,1.0,0.06162116423185088,0.9808027469240174,0.08440785799276367
knwiki,False,4.0,0.0445040972025996,0.9968354430379747,0.07413951867798213,0.9675753713289805,0.08520421963754395
knwiki,False,5.0,0.04509609358679758,0.9936708860759493,0.08961947188969911,0.9512525037067867,0.08627666483489034
knwiki,False,6.0,0.04602482388460248,0.9867663981588032,0.11474328662800826,0.9246806960955181,0.08794759041550748
knwiki,False,7.0,0.04705849535551898,0.9706559263521288,0.1485279112018118,0.8886403246364748,0.08976507835155773
knwiki,False,8.0,0.048465834958145805,0.9510932105868815,0.19020183668898236,0.8441979033894337,0.09223172313744088
knwiki,False,9.0,0.050435865504358655,0.9321058688147296,0.23799805878400238,0.7933824103217751,0.09569377990430622
knwiki,False,10.0,0.052787476626234876,0.9177215189873418,0.28415171349642865,0.7444918450693234,0.09983256920212183
knwiki,False,11.0,0.05486973247071166,0.9027617951668585,0.3231875762176153,0.7030148531592227,0.10345168628226684
knwiki,False,12.0,0.05661073206712152,0.883199079401611,0.3583285632512879,0.6654007231485576,0.10640141406439539
knwiki,False,13.0,0.05840348330914369,0.8682393555811277,0.3888280530599039,0.6328460317873215,0.1094449783322152
knwiki,False,14.0,0.06054220529237752,0.859608745684695,0.4169632413329683,0.6030486694586791,0.1131175468483816
knwiki,False,15.0,0.06196249973456777,0.8394706559263522,0.4433563126850999,0.5745519340322035,0.11540667207182266
knwiki,False,16.0,0.06384920105042952,0.8253739930955121,0.4690027624996889,0.5471087063964831,0.11852922949803758
knwiki,False,17.0,0.06583922978772765,0.8164556962025317,0.49099076678031905,0.5237234346955233,0.12185225735815033
knwiki,False,18.0,0.06807819169577027,0.8075373993095513,0.5135262935218138,0.49976588715760994,0.12557036771942381
knwiki,False,19.0,0.07037308343226654,0.8014959723820483,0.5334486448819094,0.47866971880446374,0.12938581214443284
knwiki,False,20.0,0.07306658231851969,0.7974683544303798,0.5536447574724372,0.4573784564159925,0.13386777418264353
knwiki,False,21.0,0.07565454395286733,0.7905638665132336,0.573144023294592,0.43668548240251803,0.13809392195783815
knwiki,False,22.0,0.07803608704355038,0.7850978135788262,0.5894950349667754,0.419348125796634,0.14196166150805006
knwiki,False,23.0,0.08017566244325094,0.7773302646720368,0.6046265647943058,0.4031813334027001,0.14535868951233288
knwiki,False,24.0,0.08223694346017563,0.7678365937859609,0.6193101216993107,0.38740472907941625,0.1485625226127856
knwiki,False,25.0,0.08454260691683181,0.7609321058688148,0.6332595007590652,0.3725125510496059,0.1521776652666705
knwiki,False,26.0,0.08731477174563095,0.7560414269275029,0.6476195216644682,0.35728221002523214,0.1565497110859594
knwiki,False,27.0,0.09006017846026146,0.7491369390103567,0.6617555561086086,0.34219493796009676,0.16079036739734484
knwiki,False,28.0,0.09214637124286279,0.738204833141542,0.6740872551703542,0.3288114871367999,0.16384126680075342
knwiki,False,29.0,0.0947290274684484,0.7341772151898734,0.6850252606953535,0.31719688890045,0.16780641767490795
knwiki,False,30.0,0.09651752767527676,0.7223820483314154,0.695502849605535,0.3057123533543168,0.17028346670283467
knwiki,False,31.0,0.09901855604561528,0.716915995397008,0.7055946840546526,0.29491715006633196,0.17400411968020107
knwiki,False,32.0,0.10196610727212899,0.7131760644418872,0.7159105049650333,0.2839658715500871,0.17842234057866704
knwiki,False,33.0,0.10470403263502316,0.7088607594936709,0.7252308304920236,0.27402908201753245,0.1824576992854234
knwiki,False,34.0,0.10755048287971905,0.7048331415420023,0.734252507403997,0.26441744921051946,0.18662400975015236
knwiki,False,35.0,0.11067229561033183,0.7013808975834293,0.743299071700555,0.25480581640350647,0.19117820035287197
knwiki,False,36.0,0.11389543099387658,0.6956271576524741,0.7527438341504691,0.24467393283562677,0.1957419250384522
knwiki,False,37.0,0.11663908090740921,0.6892980437284235,0.7607575719867599,0.2360117576671956,0.19951702889499545
knwiki,False,38.0,0.11885204848242012,0.682681242807825,0.7673527289017197,0.22881929089821293,0.2024571282313796
knwiki,False,39.0,0.12044832395020919,0.6708860759493671,0.7738607799706329,0.22148375516999194,0.20422997766781975
knwiki,False,40.0,0.12275641025641025,0.6611047180667434,0.780991015654165,0.2135889498738392,0.20706433591638132
knwiki,False,41.0,0.12529655172413792,0.653337169159954,0.7877230531843409,0.2062013890695315,0.21026804314615066
knwiki,False,42.0,0.12734698508139997,0.6458573072497124,0.7932480525621562,0.20008844262934736,0.21274579483534709
knwiki,False,43.0,0.13044749926879204,0.6415420023014959,0.7995196734775143,0.19333818900710142,0.21681007243206454
knwiki,False,44.0,0.13312375309836164,0.6334867663981588,0.8057166322391179,0.18649689150170382,0.22001298895938448
knwiki,False,45.0,0.13662464111846212,0.629746835443038,0.8118513725392599,0.17991571937673959,0.22453584983075187
knwiki,False,46.0,0.13898392615066812,0.6193901035673187,0.8175630273014609,0.1734776162110137,0.2270258870670111
knwiki,False,47.0,0.14107357457604486,0.6078826237054085,0.8229511460640602,0.16732565096376453,0.22900184241898772
knwiki,False,48.0,0.1430616139585605,0.60385500575374,0.8264104925213409,0.16352782040943734,0.23132025567555653
knwiki,False,49.0,0.14393568682278923,0.5923475258918297,0.8299818322092531,0.15927477043935176,0.23159552331139982
knwiki,False,50.0,0.1475044883303411,0.5909090909090909,0.8345859983574326,0.1543974195562261,0.23607838629963793
knwiki,False,51.0,0.1495581737849779,0.5842922899884925,0.8383066623528533,0.15020940093124885,0.23815666041275796
knwiki,False,52.0,0.15238455715367147,0.5791139240506329,0.8424628555785073,0.14563119423562157,0.24128011506652283
knwiki,False,53.0,0.15601841017240034,0.5753739930955121,0.8470048032652249,0.1407148245454309,0.24547407180116598
knwiki,False,54.0,0.15835800592142113,0.5693325661680092,0.8504890371070905,0.1367999375699087,0.24779315094221496
knwiki,False,55.0,0.16093456416959398,0.5667433831990794,0.8534506358726761,0.1335873891215566,0.25068397276834004
knwiki,False,56.0,0.16417283120376597,0.5618527042577676,0.8573206241756054,0.12932133288244935,0.2540983606557377
knwiki,False,57.0,0.1653163247715911,0.5517836593785961,0.8601080112490979,0.1259527092058372,0.25441039925719594
knwiki,False,58.0,0.16731448763250883,0.5448791714614499,0.8630198352455141,0.12259709179824675,0.25601513922681807
knwiki,False,59.0,0.16713984797142595,0.5250287686996548,0.8662925263184093,0.11827901048305284,0.25356026398054876
knwiki,False,60.0,0.17055434885258286,0.5195627157652474,0.8699260844677833,0.11423406081731395,0.25680767863490933
knwiki,False,61.0,0.17416333300809836,0.5135212888377445,0.8736343047709116,0.11008506099940171,0.2601092896174863
knwiki,False,62.0,0.17644115292233786,0.507192174913694,0.8762848112291879,0.10702858777930963,0.2618057618057618
knwiki,False,63.0,0.17924237757930397,0.502301495972382,0.8789850924566337,0.10398512082823921,0.26420519028523876
knwiki,False,64.0,0.1827186512118019,0.498849252013809,0.8818098106070034,0.10087662253206045,0.26746876446089773
knwiki,False,65.0,0.18473547267996532,0.4902186421173763,0.884373211219233,0.0978071430429467,0.2683464566929134
knwiki,False,66.0,0.18685854529228024,0.4818757192174914,0.8868868370622931,0.09480269489894129,0.26929260450160775
knwiki,False,67.0,0.18894114947803142,0.4738204833141542,0.8892635822901371,0.0919543219831959,0.270155006971213
knwiki,False,68.0,0.19230769230769232,0.464614499424626,0.8924367238246933,0.08822152277397706,0.2720229071921846
knwiki,False,69.0,0.19349712749052683,0.4554085155350978,0.894340608745427,0.08581536300496839,0.27159646564296136
knwiki,False,70.0,0.19449007961582207,0.44275028768699654,0.8965804733580548,0.08290195874411466,0.2702607779436298
knwiki,False,71.0,0.19720151693474566,0.43383199079401613,0.8991189865856997,0.07984548552402258,0.2711498696394858
knwiki,False,72.0,0.19803048698232834,0.4223245109321059,0.9010353151987258,0.0773222693338189,0.26962990173569656
knwiki,False,73.0,0.19870985836488572,0.4076524741081703,0.9032751798113536,0.07431782118981349,0.26718204958989344
knwiki,False,74.0,0.20020354754289038,0.3961449942462601,0.9054279385779348,0.0715474858881981,0.2659841607108364
knwiki,False,75.0,0.206334703822141,0.38981588032220943,0.9087504044199995,0.06778867414093594,0.26983968933585584
knwiki,False,76.0,0.210081352687829,0.3788837744533947,0.9115129041089072,0.06440704419530213,0.2702924576706003
knwiki,False,77.0,0.21230924031527754,0.36421173762945913,0.9140514173365522,0.06109044559477668,0.268248755164742
knwiki,False,78.0,0.21856763925729442,0.35558112773302647,0.9171374530250616,0.057474702806752855,0.27072609790822466
knwiki,False,79.0,0.2208827893175074,0.34263521288837745,0.9192902117916428,0.05463933616002913,0.2686062246278755
knwiki,False,80.0,0.22180892717306186,0.3259493670886076,0.9213807520967622,0.051699919361132066,0.26397949673811744
knwiki,False,81.0,0.2269518272425249,0.31444188722669736,0.9240188148627461,0.04842233956767162,0.2636275928605885
knwiki,False,82.0,0.23494109802178262,0.30408515535097813,0.9270675194743785,0.04476757797258279,0.2650783699059561
knwiki,False,83.0,0.23696795791487327,0.28509781357882624,0.9293696025484682,0.041503004448144004,0.25881431183076525
knwiki,False,84.0,0.24837112327339067,0.27416570771001153,0.9327169557751176,0.03751007985849179,0.2606317516750991
knwiki,False,85.0,0.25742296918767504,0.2643843498273878,0.9351932505413006,0.034479619176443044,0.26085722395685496
knwiki,False,86.0,0.27539000318369944,0.24884925201380897,0.9391876757671537,0.02960226829331738,0.2614477860057428
knwiki,False,87.0,0.2898032200357782,0.2330264672036824,0.9421243871481546,0.02581744400801186,0.2583320044649976
knwiki,False,88.0,0.30646481178396073,0.21547756041426927,0.9449739926831089,0.02204562599172801,0.25304054054054054
knwiki,False,89.0,0.30422666047375757,0.1884349827387802,0.9462556929892237,0.01948339099445933,0.23272339669568304
knwiki,False,90.0,0.32416710735060816,0.17635212888377447,0.9484706702172668,0.01662201180969227,0.22843301658282095
knwiki,False,91.0,0.3409378960709759,0.15477560414269276,0.9504989920609244,0.013526519782535181,0.21290067273446775
knwiki,False,92.0,0.362015503875969,0.13434982738780207,0.9523157711356114,0.01070415940483313,0.1959714645404952
knwiki,False,93.0,0.3852295409181637,0.11104718066743383,0.9538836763644508,0.008011861717347761,0.1723983921393479
knwiki,False,94.0,0.40720961281708945,0.08774453394706559,0.9550160523630572,0.005774783445620789,0.14437869822485208
knwiki,False,95.0,0.44074074074074077,0.06846950517836593,0.9559493292849854,0.00392789324454387,0.11852589641434262
knwiki,False,96.0,0.48125,0.04430379746835443,0.956596401284189,0.002159040657596962,0.08113804004214964
knwiki,False,97.0,0.5045045045045045,0.03222094361334868,0.9567706129762823,0.001430689592383529,0.06057328285559762
knwiki,False,98.0,0.5642857142857143,0.022727272727272728,0.9569697120529603,0.0007933824103217751,0.04369469026548673
knwiki,False,99.0,0.62,0.008918296892980437,0.956895049899206,0.00024711911141170047,0.01758366420873511
