wiki_db,user_is_bot,threshold,precision,recall,accuracy,fpr,F1
kswiki,True,0.0,0.019766852508869743,1.0,0.019766852508869743,1.0,0.03876739562624255
kswiki,True,1.0,0.019766852508869743,1.0,0.019766852508869743,1.0,0.03876739562624255
kswiki,True,2.0,0.0197869101978691,1.0,0.020780537252914344,0.9989658738366081,0.03880597014925373
kswiki,True,3.0,0.019437340153452685,0.9743589743589743,0.027876330461226558,0.9912099276111686,0.03811434302908726
kswiki,True,4.0,0.01962809917355372,0.9743589743589743,0.03750633552965028,0.9813857290589452,0.03848101265822785
kswiki,True,5.0,0.01978136387298282,0.9743589743589743,0.0451089711099848,0.9736297828335057,0.03877551020408164
kswiki,True,6.0,0.01995798319327731,0.9743589743589743,0.053725291434363914,0.9648397104446742,0.03911477097272259
kswiki,True,7.0,0.020266666666666665,0.9743589743589743,0.06842372022301065,0.9498448810754913,0.03970741901776385
kswiki,True,8.0,0.021939953810623556,0.9743589743589743,0.1409021794221997,0.8759048603929679,0.04291360813099944
kswiki,True,9.0,0.02289156626506024,0.9743589743589743,0.17739483020780536,0.8386763185108583,0.04473219540906415
kswiki,True,10.0,0.023642172523961662,0.9487179487179487,0.22453117080587937,0.7900723888314375,0.046134663341645885
kswiki,True,11.0,0.024915824915824916,0.9487179487179487,0.26507856056766343,0.7487073422957601,0.048556430446194225
kswiki,True,12.0,0.02846153846153846,0.9487179487179487,0.35884439939178914,0.6530506721820062,0.05526512322628828
kswiki,True,13.0,0.030100334448160536,0.9230769230769231,0.41054232133806384,0.5997931747673216,0.058299595141700404
kswiki,True,14.0,0.031088082901554404,0.9230769230769231,0.4298023314749113,0.5801447776628749,0.06015037593984963
kswiki,True,15.0,0.032667876588021776,0.9230769230769231,0.4581855043081602,0.5511892450879007,0.06310254163014899
kswiki,True,16.0,0.034026465028355386,0.9230769230769231,0.4804865686771414,0.5284384694932782,0.06563354603463992
kswiki,True,17.0,0.03596403596403597,0.9230769230769231,0.5093765838824126,0.49896587383660806,0.06923076923076923
kswiki,True,18.0,0.036382536382536385,0.8974358974358975,0.5281297516472377,0.4793174767321613,0.06993006993006994
kswiki,True,19.0,0.03536977491961415,0.8461538461538461,0.5408008109477952,0.4653567735263702,0.06790123456790123
kswiki,True,20.0,0.03670745272525028,0.8461538461538461,0.5580334515965535,0.44777662874870733,0.07036247334754797
kswiki,True,21.0,0.03579676674364896,0.7948717948717948,0.5727318803852002,0.4317476732161324,0.06850828729281769
kswiki,True,22.0,0.036686390532544376,0.7948717948717948,0.5833755701976685,0.42088934850051707,0.07013574660633484
kswiki,True,23.0,0.03743961352657005,0.7948717948717948,0.5919918905220476,0.4120992761116856,0.0715109573241061
kswiki,True,24.0,0.038461538461538464,0.7948717948717948,0.6031424227065383,0.40072388831437433,0.07337278106508877
kswiki,True,25.0,0.03974358974358974,0.7948717948717948,0.6163203243791181,0.38728024819027923,0.0757020757020757
kswiki,True,26.0,0.03937007874015748,0.7692307692307693,0.6244298023314749,0.3784901758014478,0.0749063670411985
kswiki,True,27.0,0.04005340453938585,0.7692307692307693,0.6310187531677648,0.3717683557394002,0.07614213197969542
kswiki,True,28.0,0.04132231404958678,0.7692307692307693,0.6426761277242777,0.35987590486039295,0.0784313725490196
kswiki,True,29.0,0.04297994269340974,0.7692307692307693,0.6568677141409022,0.3453981385729059,0.08141112618724558
kswiki,True,30.0,0.04504504504504504,0.7692307692307693,0.6730866700456158,0.32885211995863495,0.08510638297872339
kswiki,True,31.0,0.04746835443037975,0.7692307692307693,0.690319310694374,0.3112719751809721,0.08941877794336811
kswiki,True,32.0,0.04746317512274959,0.7435897435897436,0.6999493157627977,0.30093071354705275,0.08923076923076924
kswiki,True,33.0,0.04957264957264957,0.7435897435897436,0.7131272174353775,0.2874870734229576,0.09294871794871794
kswiki,True,34.0,0.050699300699300696,0.7435897435897436,0.7197161682716675,0.28076525336091,0.09492635024549917
kswiki,True,35.0,0.0518783542039356,0.7435897435897436,0.7263051191079575,0.27404343329886244,0.09698996655518395
kswiki,True,36.0,0.05390334572490706,0.7435897435897436,0.7369488089204258,0.2631851085832472,0.10051993067590988
kswiki,True,37.0,0.05353728489483748,0.717948717948718,0.7435377597567157,0.2559462254395036,0.09964412811387902
kswiki,True,38.0,0.055666003976143144,0.717948717948718,0.7536746071971617,0.24560496380558428,0.10332103321033209
kswiki,True,39.0,0.05555555555555555,0.6923076923076923,0.7612772427774962,0.23733195449844882,0.10285714285714284
kswiki,True,40.0,0.057815845824411134,0.6923076923076923,0.7709072478459199,0.22750775594622544,0.10671936758893281
kswiki,True,41.0,0.06108597285067873,0.6923076923076923,0.7835783071464775,0.21458117890382628,0.11226611226611226
kswiki,True,42.0,0.06398104265402843,0.6923076923076923,0.7937151545869234,0.20423991726990692,0.11713665943600868
kswiki,True,43.0,0.06467661691542288,0.6666666666666666,0.8028383172833249,0.19441571871768357,0.11791383219954647
kswiki,True,44.0,0.06735751295336788,0.6666666666666666,0.8109477952356817,0.18614270941054809,0.1223529411764706
kswiki,True,45.0,0.07065217391304347,0.6666666666666666,0.8200709579320831,0.1768355739400207,0.12776412776412777
kswiki,True,46.0,0.07386363636363637,0.6666666666666666,0.8281804358844399,0.16856256463288521,0.1329923273657289
kswiki,True,47.0,0.07017543859649122,0.6153846153846154,0.8312214901165738,0.16442605997931747,0.12598425196850394
kswiki,True,48.0,0.06990881458966565,0.5897435897435898,0.8367967562088191,0.15822130299896586,0.12499999999999997
kswiki,True,49.0,0.0749185667752443,0.5897435897435898,0.8479472883933097,0.1468459152016546,0.1329479768786127
kswiki,True,50.0,0.08013937282229965,0.5897435897435898,0.8580841358337558,0.13650465356773525,0.1411042944785276
kswiki,True,51.0,0.07913669064748201,0.5641025641025641,0.8616320324379118,0.13236814891416754,0.138801261829653
kswiki,True,52.0,0.0842911877394636,0.5641025641025641,0.870248352762291,0.12357807652533609,0.14666666666666667
kswiki,True,53.0,0.08943089430894309,0.5641025641025641,0.8778509883426254,0.11582213029989659,0.1543859649122807
kswiki,True,54.0,0.09482758620689655,0.5641025641025641,0.8849467815509376,0.10858324715615306,0.16236162361623616
kswiki,True,55.0,0.09821428571428571,0.5641025641025641,0.8890015205271161,0.10444674250258532,0.16730038022813687
kswiki,True,56.0,0.10945273631840796,0.5641025641025641,0.900658895083629,0.09255429162357807,0.18333333333333335
kswiki,True,57.0,0.10695187165775401,0.5128205128205128,0.905727318803852,0.08634953464322648,0.17699115044247787
kswiki,True,58.0,0.1111111111111111,0.5128205128205128,0.9092752154080082,0.0827300930713547,0.182648401826484
kswiki,True,59.0,0.11494252873563218,0.5128205128205128,0.9123162696401419,0.0796277145811789,0.18779342723004694
kswiki,True,60.0,0.12345679012345678,0.5128205128205128,0.9183983781044095,0.0734229576008273,0.1990049751243781
kswiki,True,61.0,0.13157894736842105,0.5128205128205128,0.9234668018246326,0.06825232678386763,0.20942408376963348
kswiki,True,62.0,0.136986301369863,0.5128205128205128,0.9265078560567663,0.06514994829369183,0.2162162162162162
kswiki,True,63.0,0.14074074074074075,0.48717948717948717,0.9310694374049671,0.05997931747673216,0.21839080459770113
kswiki,True,64.0,0.15126050420168066,0.46153846153846156,0.9381652306132793,0.05222337125129266,0.22784810126582278
kswiki,True,65.0,0.16071428571428573,0.46153846153846156,0.9417131272174354,0.04860392967942089,0.23841059602649012
kswiki,True,66.0,0.17142857142857143,0.46153846153846156,0.9452610238215915,0.04498448810754912,0.25000000000000006
kswiki,True,67.0,0.1782178217821782,0.46153846153846156,0.9472883933096807,0.042916235780765255,0.2571428571428571
kswiki,True,68.0,0.1702127659574468,0.41025641025641024,0.9488089204257476,0.04033092037228542,0.24060150375939848
kswiki,True,69.0,0.1797752808988764,0.41025641025641024,0.9513431322858591,0.037745604963805586,0.25
kswiki,True,70.0,0.19753086419753085,0.41025641025641024,0.9553978712620375,0.03360910031023785,0.26666666666666666
kswiki,True,71.0,0.21621621621621623,0.41025641025641024,0.9589457678661936,0.02998965873836608,0.2831858407079646
kswiki,True,72.0,0.22857142857142856,0.41025641025641024,0.9609731373542828,0.027921406411582212,0.29357798165137616
kswiki,True,73.0,0.24193548387096775,0.38461538461538464,0.9640141915864167,0.024301964839710446,0.29702970297029707
kswiki,True,74.0,0.23728813559322035,0.358974358974359,0.9645210339584389,0.02326783867631851,0.28571428571428575
kswiki,True,75.0,0.25,0.358974358974359,0.9660415610745058,0.02171664943123061,0.29473684210526313
kswiki,True,76.0,0.26,0.3333333333333333,0.968068930562595,0.019131334022750777,0.2921348314606742
kswiki,True,77.0,0.28888888888888886,0.3333333333333333,0.9706031424227065,0.016546018614270942,0.3095238095238095
kswiki,True,78.0,0.30952380952380953,0.3333333333333333,0.9721236695387735,0.01499482936918304,0.3209876543209877
kswiki,True,79.0,0.3,0.3076923076923077,0.9721236695387735,0.014477766287487074,0.3037974683544304
kswiki,True,80.0,0.3076923076923077,0.3076923076923077,0.9726305119107957,0.013960703205791106,0.3076923076923077
kswiki,True,81.0,0.3333333333333333,0.3076923076923077,0.9741510390268626,0.012409513960703205,0.32
kswiki,True,82.0,0.35294117647058826,0.3076923076923077,0.9751647237709072,0.011375387797311272,0.3287671232876712
kswiki,True,83.0,0.35294117647058826,0.3076923076923077,0.9751647237709072,0.011375387797311272,0.3287671232876712
kswiki,True,84.0,0.41379310344827586,0.3076923076923077,0.9776989356310187,0.008790072388831437,0.35294117647058826
kswiki,True,85.0,0.5,0.3076923076923077,0.9802331474911302,0.0062047569803516025,0.380952380952381
kswiki,True,86.0,0.47619047619047616,0.2564102564102564,0.979726305119108,0.005687693898655636,0.3333333333333333
kswiki,True,87.0,0.5,0.2564102564102564,0.9802331474911302,0.005170630816959669,0.3389830508474576
kswiki,True,88.0,0.47058823529411764,0.20512820512820512,0.979726305119108,0.004653567735263702,0.28571428571428564
kswiki,True,89.0,0.42857142857142855,0.15384615384615385,0.9792194627470857,0.004136504653567736,0.22641509433962267
kswiki,True,90.0,0.25,0.05128205128205128,0.9782057780030411,0.0031023784901758012,0.0851063829787234
kswiki,True,91.0,0.25,0.05128205128205128,0.9782057780030411,0.0031023784901758012,0.0851063829787234
kswiki,True,92.0,0.4,0.05128205128205128,0.979726305119108,0.0015511892450879006,0.09090909090909091
kswiki,True,93.0,0.5,0.05128205128205128,0.9802331474911302,0.001034126163391934,0.09302325581395347
kswiki,True,94.0,0.0,0.0,0.979726305119108,0.000517063081695967,0.09302325581395347
kswiki,True,95.0,0.0,0.0,0.979726305119108,0.000517063081695967,0.09302325581395347
kswiki,True,96.0,0.0,0.0,0.979726305119108,0.000517063081695967,0.09302325581395347
kswiki,True,97.0,0.0,0.0,0.9802331474911302,0.0,0.09302325581395347
kswiki,True,98.0,0.0,0.0,0.9802331474911302,0.0,0.09302325581395347
kswiki,True,99.0,0.0,0.0,0.9802331474911302,0.0,0.09302325581395347
kswiki,False,0.0,0.01394189753491087,1.0,0.01394189753491087,1.0,0.027500387485330915
kswiki,False,1.0,0.01394189753491087,1.0,0.01394189753491087,1.0,0.027500387485330915
kswiki,False,2.0,0.013954742590054156,1.0,0.014862377082304342,0.9990665057717265,0.02752537564824254
kswiki,False,3.0,0.013904640929093137,0.9871175523349437,0.02382021462888959,0.989799867944719,0.027422998635560424
kswiki,False,4.0,0.014090982231110499,0.9871175523349437,0.03690898477841139,0.976526035381708,0.027785332245489985
kswiki,False,5.0,0.014263111359300107,0.9871175523349437,0.04869561312918145,0.9645727556294256,0.028119911007133194
kswiki,False,6.0,0.014438137409614433,0.9871175523349437,0.060392438597278976,0.9527105484847795,0.028460002785644645
kswiki,False,7.0,0.014785691888371644,0.9871175523349437,0.08279825782407615,0.9299879328794882,0.029134980988593157
kswiki,False,8.0,0.01578229865771812,0.9694041867954911,0.15672848098423958,0.8547619589717903,0.031058944924545334
kswiki,False,9.0,0.016059228612645964,0.9500805152979066,0.18773292622693188,0.8230459233624007,0.03158458244111349
kswiki,False,10.0,0.016698705993745157,0.9371980676328503,0.22971577387634143,0.7802873340770929,0.0328127642780628
kswiki,False,11.0,0.01758414405704272,0.9371980676328503,0.26911678864891564,0.7403292274766057,0.03452059669622468
kswiki,False,12.0,0.019097621000820346,0.9371980676328503,0.32800502896142963,0.6806083650190115,0.03743246719835349
kswiki,False,13.0,0.01970357454228422,0.9098228663446055,0.36765300166135334,0.6400127501650691,0.03857181867831786
kswiki,False,14.0,0.020523811253587126,0.9098228663446055,0.39338152754703426,0.6139204480772296,0.04014209591474245
kswiki,False,15.0,0.021344389419939346,0.895330112721417,0.42620448116384535,0.5804284966189295,0.04169478815148107
kswiki,False,16.0,0.022362546756224108,0.895330112721417,0.4528310358762516,0.5534254684547255,0.04363522210014127
kswiki,False,17.0,0.023772874978621517,0.895330112721417,0.48594584886174846,0.519842444388789,0.04631596484651589
kswiki,False,18.0,0.024632982076916148,0.8808373590982287,0.5120784877194557,0.4931354021994035,0.04792570201953827
kswiki,False,19.0,0.02495038276155373,0.8502415458937198,0.5346639127115981,0.4697980464925662,0.048478171050819446
kswiki,False,20.0,0.025646143099491068,0.8276972624798712,0.5591800996811997,0.44461647048109104,0.0497507622320089
kswiki,False,21.0,0.024731295001565273,0.7632850241545893,0.577050873333034,0.4255822954850755,0.047910244099661395
kswiki,False,22.0,0.02564518746956663,0.7632850241545893,0.5923847155493691,0.41003164773115364,0.04962311557788945
kswiki,False,23.0,0.026517482517482517,0.7632850241545893,0.6060347537155942,0.39618861137041506,0.051254325259515565
kswiki,False,24.0,0.027113516029557222,0.750402576489533,0.62112163800458,0.3807062680722206,0.05233602875112309
kswiki,False,25.0,0.02827498331411929,0.750402576489533,0.6369718467962822,0.36463195282438926,0.05449655011109812
kswiki,False,26.0,0.029008606949314633,0.7326892109500805,0.6543487045934174,0.34675895357573827,0.05580767815528027
kswiki,False,27.0,0.030042918454935622,0.7326892109500805,0.6664720937542095,0.3344641515448191,0.0577191424584549
kswiki,False,28.0,0.031616982836495035,0.7326892109500805,0.6833999371379821,0.31729696500535054,0.060618172128963504
kswiki,False,29.0,0.034326669181440964,0.7326892109500805,0.7089039558169817,0.2914323444366021,0.0655808590371865
kswiki,False,30.0,0.03443656422379827,0.7037037037037037,0.7207803870504244,0.2789781653423192,0.0656599804672827
kswiki,False,31.0,0.03537560814710976,0.6908212560386473,0.7330609312558933,0.26634184103276337,0.0673046752431754
kswiki,False,32.0,0.035301173849712965,0.6634460547504025,0.7425351353778457,0.25634662234466427,0.06703547022453628
kswiki,False,33.0,0.03694735898125728,0.6634460547504025,0.754209510125275,0.24450718335192734,0.06999660210669384
kswiki,False,34.0,0.03821183453904656,0.6634460547504025,0.7624938260518163,0.2361057352974659,0.07226168552135402
kswiki,False,35.0,0.039361803764211334,0.6634460547504025,0.7695658030622783,0.2289337674460964,0.07431457431457432
kswiki,False,36.0,0.04088924176260421,0.6634460547504025,0.7783440348435184,0.22003142004963458,0.07703094325511826
kswiki,False,37.0,0.04007770166649627,0.6312399355877617,0.7840689686138925,0.21377017827462944,0.07537012113055182
kswiki,False,38.0,0.04114026563006155,0.6135265700483091,0.795249427506623,0.2021811889528927,0.07710989678202793
kswiki,False,39.0,0.042150343739434236,0.6022544283413849,0.8036459970365049,0.19350652307552196,0.07878660206446175
kswiki,False,40.0,0.04309116809116809,0.5845410628019324,0.8132324547617978,0.183534072539332,0.08026533996683251
kswiki,False,41.0,0.04467223487724627,0.5684380032206119,0.8245027165372009,0.1718767787618679,0.08283468262348938
kswiki,False,42.0,0.04685426068489514,0.5684380032206119,0.832764581743074,0.1634980988593156,0.08657265481299815
kswiki,False,43.0,0.04798119469026549,0.5587761674718197,0.8392752907368326,0.15675872589421916,0.08837386985865274
kswiki,False,44.0,0.04979193571531066,0.5587761674718197,0.8451798302725517,0.15077070194212336,0.0914361001317523
kswiki,False,45.0,0.05145314353499407,0.5587761674718197,0.8502312424228817,0.1456478677625737,0.09422946367956551
kswiki,False,46.0,0.0498220640569395,0.5185185185185185,0.8554173588972206,0.13981922087384166,0.09090909090909091
kswiki,False,47.0,0.04945756222080409,0.499194847020934,0.8592564321314714,0.13565264907447463,0.0899985484105095
kswiki,False,48.0,0.05046635576282479,0.48792270531400966,0.8648691122985048,0.12980123403383348,0.09147169811320754
kswiki,False,49.0,0.05353356890459364,0.48792270531400966,0.8725921602083427,0.12196898977709979,0.09648145199808947
kswiki,False,50.0,0.05624651939855207,0.48792270531400966,0.8787212069507431,0.11575328430591289,0.10086551264980027
kswiki,False,51.0,0.05767350928641251,0.4750402576489533,0.8844685914417852,0.10974249220190797,0.10285913528591353
kswiki,False,52.0,0.05955592446565677,0.46215780998389694,0.8907547932288626,0.10318526445208442,0.10551470588235294
kswiki,False,53.0,0.0624048706240487,0.46215780998389694,0.895693951775852,0.09817627103208032,0.10996168582375478
kswiki,False,54.0,0.0662970662970663,0.46215780998389694,0.901755646356248,0.09202887001662075,0.11595959595959597
kswiki,False,55.0,0.07063746000492246,0.46215780998389694,0.9077275380539715,0.08597254160879761,0.12254483347566181
kswiki,False,56.0,0.07367309215738051,0.4492753623188406,0.9135647254276862,0.07987067689715625,0.1265880217785844
kswiki,False,57.0,0.07526881720430108,0.428341384863124,0.9186610390193525,0.07440632043896997,0.12803850782190132
kswiki,False,58.0,0.07837360047142015,0.428341384863124,0.9218041399128912,0.07121877917169463,0.13250311332503112
kswiki,False,59.0,0.0809284818067754,0.41545893719806765,0.9260697768398366,0.06671068509369095,0.13546862693620373
kswiki,False,60.0,0.08378561736770691,0.3977455716586151,0.9309640339454897,0.06149677830650486,0.13841412160268984
kswiki,False,61.0,0.0829145728643216,0.3719806763285024,0.933882627632347,0.05817262812777487,0.13560316994423247
kswiki,False,62.0,0.08336594911937378,0.34299516908212563,0.938260518162633,0.053323011771134535,0.1341309823677582
kswiki,False,63.0,0.08588186007540846,0.33011272141706927,0.9416730277041893,0.04968010746567701,0.1363031914893617
kswiki,False,64.0,0.0891089108910891,0.3188405797101449,0.9450630865250774,0.0460827394640377,0.13928948294055576
kswiki,False,65.0,0.08973128598848369,0.30112721417069244,0.947667370122581,0.04319118417158079,0.13826247689463958
kswiki,False,66.0,0.09497206703910614,0.30112721417069244,0.9502492029994163,0.0405728467020332,0.14440154440154437
kswiki,False,67.0,0.10331491712707182,0.30112721417069244,0.9538188675856495,0.03695271054848478,0.15384615384615385
kswiki,False,68.0,0.10876132930513595,0.2898550724637681,0.9569844191998563,0.033583024065936565,0.15817223198594024
kswiki,False,69.0,0.12080536912751678,0.2898550724637681,0.9606887881100983,0.029826279000933494,0.1705352913311227
kswiki,False,70.0,0.1291248206599713,0.2898550724637681,0.9628440572942392,0.027640536417658977,0.17866004962779158
kswiki,False,71.0,0.13878180416345412,0.2898550724637681,0.9650217771990481,0.025432025682475354,0.18769551616266944
kswiki,False,72.0,0.14539579967689822,0.2898550724637681,0.966346369718468,0.02408870471983789,0.19365250134480902
kswiki,False,73.0,0.1521547933157432,0.2785829307568438,0.9682995824165955,0.021948498440381593,0.19681456200227532
kswiki,False,74.0,0.15595463137996218,0.26570048309178745,0.969713977818688,0.02033195965483482,0.19654556283502087
kswiki,False,75.0,0.16336633663366337,0.26570048309178745,0.9707916124107584,0.01923908836319756,0.20232985898221953
kswiki,False,76.0,0.1790193842645382,0.2528180354267311,0.97341834672893,0.016393069374558866,0.20961281708945262
kswiki,False,77.0,0.19898605830164764,0.2528180354267311,0.9753940101477258,0.014389472006557227,0.22269503546099292
kswiki,False,78.0,0.2056338028169014,0.23510466988727857,0.9766737012258093,0.012841237676737779,0.2193839218632607
kswiki,False,79.0,0.21350078492935637,0.21900161030595813,0.9778635894212204,0.011406844106463879,0.2162162162162162
kswiki,False,80.0,0.2390158172231986,0.21900161030595813,0.9793902384266535,0.00985860977664443,0.22857142857142854
kswiki,False,81.0,0.26407766990291265,0.21900161030595813,0.9806025773427327,0.008629129573552516,0.23943661971830985
kswiki,False,82.0,0.2515090543259557,0.20128824476650564,0.9805127744600601,0.008469752510188748,0.22361359570661896
kswiki,False,83.0,0.25667351129363447,0.20128824476650564,0.9807372816667415,0.008242070991097653,0.22563176895306858
kswiki,False,84.0,0.30864197530864196,0.20128824476650564,0.9825782407615284,0.006375082534550671,0.24366471734892786
kswiki,False,85.0,0.33967391304347827,0.20128824476650564,0.9834089174262494,0.0055326609139136175,0.2527805864509606
kswiki,False,86.0,0.3480825958702065,0.19001610305958133,0.9837456782362713,0.005031761571913208,0.24583333333333338
kswiki,False,87.0,0.3408360128617363,0.1706924315619968,0.9838354811189439,0.004667471141367455,0.22746781115879827
kswiki,False,88.0,0.36,0.15942028985507245,0.9843293969736429,0.004007194736003279,0.22098214285714285
kswiki,False,89.0,0.3807531380753138,0.14653784219001612,0.9847784113870055,0.0033696864825482117,0.2116279069767442
kswiki,False,90.0,0.39263803680981596,0.10305958132045089,0.9852723272417044,0.002254047039001844,0.163265306122449
kswiki,False,91.0,0.34868421052631576,0.0853462157809984,0.985025369314355,0.002254047039001844,0.1371280724450194
kswiki,False,92.0,0.33035714285714285,0.05958132045088567,0.9852049750797001,0.0017076113931832153,0.1009549795361528
kswiki,False,93.0,0.4567901234567901,0.05958132045088567,0.9859009474204122,0.0010017986840008197,0.10541310541310542
kswiki,False,94.0,0.45454545454545453,0.024154589371980676,0.9859907503030847,0.00040982673436397167,0.045871559633027525
kswiki,False,95.0,0.45454545454545453,0.024154589371980676,0.9859907503030847,0.00040982673436397167,0.045871559633027525
kswiki,False,96.0,0.4117647058823529,0.011272141706924315,0.9859907503030847,0.0002276815190910954,0.021943573667711595
kswiki,False,97.0,1.0,0.011272141706924315,0.986215257509766,0.0,0.022292993630573247
kswiki,False,98.0,1.0,0.011272141706924315,0.986215257509766,0.0,0.022292993630573247
kswiki,False,99.0,1.0,0.0,0.9860581024650892,0.0,0.0
