wiki_db,user_is_bot,threshold,precision,recall,accuracy,fpr,F1
kvwiki,True,0.0,0.03322700691121744,1.0,0.03322700691121744,1.0,0.06431695394906096
kvwiki,True,1.0,0.03322700691121744,1.0,0.03322700691121744,1.0,0.06431695394906096
kvwiki,True,2.0,0.033386752136752136,1.0,0.038011695906432746,0.9950508660984327,0.06461617989144482
kvwiki,True,3.0,0.03411572052401747,1.0,0.05927698032961191,0.9730547154248007,0.06598046978094485
kvwiki,True,4.0,0.034274746366876885,1.0,0.06379585326953748,0.9683805334066539,0.0662778366914104
kvwiki,True,5.0,0.034683684794672584,1.0,0.07522594364699628,0.9565576024195765,0.06704210244033253
kvwiki,True,6.0,0.03517163759144626,1.0,0.08851674641148326,0.9428100082485565,0.0679532481652623
kvwiki,True,7.0,0.03574492422076065,1.0,0.10366826156299841,0.9271377508935936,0.06902263942573164
kvwiki,True,8.0,0.0359505320678746,1.0,0.1089845826687932,0.9216387132251856,0.0694058856191005
kvwiki,True,9.0,0.03651767455448437,1.0,0.12333864965443912,0.9067913115204839,0.07046223224351747
kvwiki,True,10.0,0.03676470588235294,1.0,0.12945241892610312,0.9004674182018146,0.07092198581560283
kvwiki,True,11.0,0.03734687780101584,1.0,0.14354066985645933,0.8858949683805334,0.07200460829493088
kvwiki,True,12.0,0.03765060240963856,1.0,0.1507177033492823,0.8784712675281826,0.0725689404934688
kvwiki,True,13.0,0.037844383893430214,1.0,0.15523657628920787,0.8737970855100358,0.07292882147024504
kvwiki,True,14.0,0.03819126183929117,1.0,0.16321105794790006,0.8655485290074237,0.07357268981753973
kvwiki,True,15.0,0.03884400248601616,1.0,0.17783094098883573,0.8504261754193017,0.07478312892611427
kvwiki,True,16.0,0.039209535759096616,1.0,0.18580542264752792,0.8421776189166896,0.07546030787805615
kvwiki,True,17.0,0.03985969387755102,1.0,0.19962785752259438,0.8278801209788287,0.07666360012266175
kvwiki,True,18.0,0.04061078622482131,1.0,0.21504518872939926,0.8119329117404455,0.07805182641273806
kvwiki,True,19.0,0.04187604690117253,1.0,0.23976608187134502,0.7863623865823481,0.08038585209003216
kvwiki,True,20.0,0.0423728813559322,1.0,0.2490696438064859,0.776739070662634,0.0813008130081301
kvwiki,True,21.0,0.04279356384799726,1.0,0.2567783094098884,0.7687654660434424,0.08207485226526592
kvwiki,True,22.0,0.04288164665523156,1.0,0.2583732057416268,0.76711575474292,0.08223684210526315
kvwiki,True,23.0,0.04418522446094026,1.0,0.2812333864965444,0.7434698927687655,0.08463100880162491
kvwiki,True,24.0,0.04512635379061372,1.0,0.296916533758639,0.7272477316469618,0.08635578583765113
kvwiki,True,25.0,0.045787545787545784,1.0,0.3075491759702286,0.7162496563101457,0.08756567425569176
kvwiki,True,26.0,0.046433878157503716,1.0,0.3176501860712387,0.7058014847401705,0.08874689385871494
kvwiki,True,27.0,0.04809542131589073,1.0,0.3423710792131845,0.6802309595820731,0.091776798825257
kvwiki,True,28.0,0.04984051036682616,1.0,0.36656034024455075,0.6552103381908166,0.09494872768704898
kvwiki,True,29.0,0.050958010599266204,1.0,0.38118022328548645,0.6400879846026946,0.0969743987587277
kvwiki,True,30.0,0.05296610169491525,1.0,0.4059011164274322,0.6145174594445972,0.10060362173038229
kvwiki,True,31.0,0.054608999563128,1.0,0.42477405635300375,0.5949958757217487,0.10356255178127588
kvwiki,True,32.0,0.05666364460562103,1.0,0.4468367889420521,0.5721748693978553,0.10725010725010725
kvwiki,True,33.0,0.05907372400756144,1.0,0.47076023391812866,0.5474291998900193,0.11155734047300313
kvwiki,True,34.0,0.061124694376528114,1.0,0.48963317384370014,0.5279076161671707,0.1152073732718894
kvwiki,True,35.0,0.0647332988089073,1.0,0.5199362041467305,0.49656310145724497,0.1215953307392996
kvwiki,True,36.0,0.0684931506849315,1.0,0.5481127060074429,0.4674182018146824,0.1282051282051282
kvwiki,True,37.0,0.07339988256018791,1.0,0.580542264752791,0.4338740720373935,0.13676148796498908
kvwiki,True,38.0,0.0767341927562922,1.0,0.6002126528442318,0.4135276326642838,0.14253135689851767
kvwiki,True,39.0,0.08202099737532809,1.0,0.6281233386496544,0.3846576849051416,0.1516070345664039
kvwiki,True,40.0,0.08686587908269632,1.0,0.6507177033492823,0.36128677481440746,0.15984654731457798
kvwiki,True,41.0,0.09328358208955224,1.0,0.6770334928229665,0.33406653835578776,0.1706484641638225
kvwiki,True,42.0,0.09952229299363058,1.0,0.6993620414673046,0.310970580148474,0.18102824040550328
kvwiki,True,43.0,0.10757314974182444,1.0,0.7243487506645402,0.28512510310695627,0.19425019425019427
kvwiki,True,44.0,0.11759172154280338,1.0,0.7506645401382244,0.25790486664833656,0.21043771043771045
kvwiki,True,45.0,0.12913223140495866,1.0,0.7759170653907496,0.2317844377233984,0.22872827081427263
kvwiki,True,46.0,0.13616557734204793,1.0,0.7892078681552366,0.21803684355237835,0.23969319271332692
kvwiki,True,47.0,0.14467592592592593,1.0,0.8035619351408825,0.20318944184767665,0.2527805864509605
kvwiki,True,48.0,0.16149870801033592,1.0,0.827485380116959,0.17844377233984052,0.2780867630700779
kvwiki,True,49.0,0.17076502732240437,1.0,0.8386496544391281,0.16689579323618367,0.29171528588098017
kvwiki,True,50.0,0.1865671641791045,1.0,0.855130249867092,0.1498487764641188,0.3144654088050315
kvwiki,True,51.0,0.1987281399046105,1.0,0.8660287081339713,0.13857574924388233,0.33156498673740054
kvwiki,True,52.0,0.20938023450586266,1.0,0.8745348219032429,0.12977728897442947,0.3462603878116344
kvwiki,True,53.0,0.2204585537918871,1.0,0.8825093035619351,0.12152873247181743,0.36127167630057805
kvwiki,True,54.0,0.23191094619666047,1.0,0.8899521531100478,0.1138300797360462,0.37650602409638556
kvwiki,True,55.0,0.25826446280991733,1.0,0.9045720361509835,0.09870772614792411,0.4105090311986863
kvwiki,True,56.0,0.27292576419213976,1.0,0.9114832535885168,0.09155897717899368,0.4288164665523157
kvwiki,True,57.0,0.2796420581655481,1.0,0.9144072301967039,0.08853450646136926,0.4370629370629371
kvwiki,True,58.0,0.2834467120181406,1.0,0.9160021265284424,0.08688479516084685,0.441696113074205
kvwiki,True,59.0,0.28604118993135014,1.0,0.9170653907496013,0.08578498762716524,0.44483985765124556
kvwiki,True,60.0,0.29069767441860467,1.0,0.9189261031366295,0.08386032444322243,0.45045045045045046
kvwiki,True,61.0,0.3004807692307692,1.0,0.9226475279106858,0.08001099807533682,0.46210720887245843
kvwiki,True,62.0,0.30864197530864196,1.0,0.9255715045188729,0.0769865273577124,0.4716981132075471
kvwiki,True,63.0,0.32051282051282054,1.0,0.929558745348219,0.07286224910640637,0.48543689320388356
kvwiki,True,64.0,0.32051282051282054,1.0,0.929558745348219,0.07286224910640637,0.48543689320388356
kvwiki,True,65.0,0.32722513089005234,1.0,0.9316852737905369,0.07066263403904317,0.49309664694280075
kvwiki,True,66.0,0.33692722371967654,1.0,0.9346092503987241,0.06763816332141875,0.5040322580645161
kvwiki,True,67.0,0.3443526170798898,1.0,0.936735778841042,0.06543854825405554,0.5122950819672131
kvwiki,True,68.0,0.3443526170798898,1.0,0.936735778841042,0.06543854825405554,0.5122950819672131
kvwiki,True,69.0,0.34615384615384615,0.936,0.9391281233386497,0.060764366235908716,0.5053995680345572
kvwiki,True,70.0,0.3492537313432836,0.936,0.9399255715045188,0.05993951058564751,0.508695652173913
kvwiki,True,71.0,0.3588957055214724,0.936,0.9423179160021266,0.0574649436348639,0.5188470066518847
kvwiki,True,72.0,0.3583061889250814,0.88,0.9436469962785752,0.05416552103381908,0.5092592592592592
kvwiki,True,73.0,0.3767123287671233,0.88,0.9476342371079213,0.05004124278251306,0.5275779376498801
kvwiki,True,74.0,0.4074074074074074,0.88,0.9534821903242956,0.04399230134726423,0.5569620253164557
kvwiki,True,75.0,0.4198473282442748,0.88,0.9556087187666135,0.041792686279901015,0.5684754521963824
kvwiki,True,76.0,0.4198473282442748,0.88,0.9556087187666135,0.041792686279901015,0.5684754521963824
kvwiki,True,77.0,0.4583333333333333,0.88,0.9614566719829878,0.03574374484465218,0.6027397260273972
kvwiki,True,78.0,0.4444444444444444,0.832,0.9598617756512493,0.03574374484465218,0.5793871866295264
kvwiki,True,79.0,0.4444444444444444,0.832,0.9598617756512493,0.03574374484465218,0.5793871866295264
kvwiki,True,80.0,0.4727272727272727,0.832,0.9635832004253057,0.031894418476766564,0.6028985507246376
kvwiki,True,81.0,0.4842105263157895,0.736,0.9651780967570441,0.02694528457519934,0.5841269841269842
kvwiki,True,82.0,0.5575757575757576,0.736,0.9718234981392876,0.020071487489689305,0.6344827586206897
kvwiki,True,83.0,0.5714285714285714,0.736,0.9728867623604466,0.0189716799560077,0.6433566433566433
kvwiki,True,84.0,0.647887323943662,0.736,0.9779372674109517,0.013747594171020072,0.6891385767790262
kvwiki,True,85.0,0.6764705882352942,0.736,0.97953216374269,0.012097882870497663,0.7049808429118775
kvwiki,True,86.0,0.7419354838709677,0.736,0.9827219564061669,0.008798460269452846,0.7389558232931728
kvwiki,True,87.0,0.7727272727272727,0.68,0.9827219564061669,0.006873797085510036,0.7234042553191491
kvwiki,True,88.0,0.8173076923076923,0.68,0.9843168527379054,0.005224085784987627,0.7423580786026202
kvwiki,True,89.0,0.8586956521739131,0.632,0.9843168527379054,0.0035743744844652188,0.7281105990783409
kvwiki,True,90.0,0.8522727272727273,0.6,0.9832535885167464,0.0035743744844652188,0.7042253521126761
kvwiki,True,91.0,0.821917808219178,0.48,0.9792663476874003,0.0035743744844652188,0.6060606060606061
kvwiki,True,92.0,0.7903225806451613,0.392,0.9763423710792132,0.0035743744844652188,0.5240641711229946
kvwiki,True,93.0,0.74,0.296,0.9731525784157363,0.0035743744844652188,0.4228571428571428
kvwiki,True,94.0,0.6904761904761905,0.232,0.9710260499734183,0.0035743744844652188,0.3473053892215569
kvwiki,True,95.0,0.8148148148148148,0.176,0.9712918660287081,0.0013747594171020072,0.2894736842105263
kvwiki,True,96.0,0.782608695652174,0.144,0.9702286018075492,0.0013747594171020072,0.24324324324324323
kvwiki,True,97.0,0.4444444444444444,0.032,0.9665071770334929,0.0013747594171020072,0.059701492537313425
kvwiki,True,98.0,1.0,0.032,0.9678362573099415,0.0,0.06201550387596899
kvwiki,True,99.0,1.0,0.032,0.9678362573099415,0.0,0.06201550387596899
kvwiki,False,0.0,0.03084452538128841,1.0,0.03084452538128841,1.0,0.05984321519266866
kvwiki,False,1.0,0.03084452538128841,1.0,0.03084452538128841,1.0,0.05984321519266866
kvwiki,False,2.0,0.030982050988910485,1.0,0.035283405417709995,0.9954198473282443,0.06010201818585052
kvwiki,False,3.0,0.03183366615764126,1.0,0.06191668563623947,0.9679389312977099,0.06170309653916212
kvwiki,False,4.0,0.03205204021289178,1.0,0.06851809697245619,0.9611274221961245,0.06211322484528993
kvwiki,False,5.0,0.03256428743090603,1.0,0.08365581607102208,0.9455079271873165,0.06307459560107063
kvwiki,False,6.0,0.033145792563600784,1.0,0.10027316184839517,0.9283617146212566,0.06416479223392921
kvwiki,False,7.0,0.033702275836338766,1.0,0.11563851582062372,0.9125073399882561,0.06520692974013474
kvwiki,False,8.0,0.03393863494051346,1.0,0.12201229228317778,0.9059307105108632,0.06564922480620154
kvwiki,False,9.0,0.03454869964303926,1.0,0.13806055087639427,0.8893716970052848,0.06678989525569931
kvwiki,False,10.0,0.034868759650025734,1.0,0.1462554063282495,0.8809160305343512,0.06738779062538854
kvwiki,False,11.0,0.03544800523217789,1.0,0.16071022080582745,0.866001174398121,0.0684689236988378
kvwiki,False,12.0,0.03586553732133404,1.0,0.17083997268381515,0.8555490311215502,0.06924747668327583
kvwiki,False,13.0,0.036075612353567627,1.0,0.17584793990439335,0.850381679389313,0.06963895670050109
kvwiki,False,14.0,0.03647375504710632,1.0,0.1851809697245618,0.8407516147974163,0.07038047006882223
kvwiki,False,15.0,0.037235504259411925,1.0,0.20248122012292283,0.8229007633587786,0.07179758908464696
kvwiki,False,16.0,0.03762321255032625,1.0,0.21101752788527203,0.8140927774515561,0.07251806261707253
kvwiki,False,17.0,0.038314717941467555,1.0,0.22581379467334395,0.798825601879037,0.07380174291938998
kvwiki,False,18.0,0.039190166305133764,1.0,0.24379694969269292,0.7802701115678214,0.07542443640411912
kvwiki,False,19.0,0.04059925093632959,1.0,0.2711131345322103,0.7520845566647093,0.07803052116325943
kvwiki,False,20.0,0.04124809741248098,1.0,0.2830639653994992,0.7397533763945978,0.07922818301417922
kvwiki,False,21.0,0.04169872288044314,1.0,0.2911450034145231,0.7314151497357604,0.08005908419497784
kvwiki,False,22.0,0.041801635045503625,1.0,0.29296608240382427,0.7295361127422196,0.0802487414865265
kvwiki,False,23.0,0.04306372159542349,1.0,0.31459139540177555,0.7072225484439225,0.08257160268129189
kvwiki,False,24.0,0.04405071521456437,1.0,0.330639653994992,0.6906635349383441,0.08438424412268411
kvwiki,False,25.0,0.04470471791487958,1.0,0.3408832233098111,0.680093951849677,0.08558345176061898
kvwiki,False,26.0,0.0451967978652435,1.0,0.34839517414067833,0.6723429242513213,0.08648476144885911
kvwiki,False,27.0,0.04682909970623812,1.0,0.3721830184384248,0.6477980035231944,0.08946847144272037
kvwiki,False,28.0,0.048479427549194994,1.0,0.39460505349419533,0.6246623605402232,0.09247568674287664
kvwiki,False,29.0,0.04966098588968298,1.0,0.4097427725927612,0.6090428655314152,0.09462290502793295
kvwiki,False,30.0,0.05147198480531814,1.0,0.43159572046437517,0.5864944216089254,0.09790462427745664
kvwiki,False,31.0,0.05281621516273631,1.0,0.44684725699977235,0.5707574867880212,0.10033320992225102
kvwiki,False,32.0,0.05460407011887971,1.0,0.46596858638743455,0.5510275983558426,0.10355368742835308
kvwiki,False,33.0,0.056861099454469155,1.0,0.4883906214432051,0.5278919553728714,0.10760373238038515
kvwiki,False,34.0,0.05896431679721497,1.0,0.5077395857045299,0.5079271873165003,0.11136223546332444
kvwiki,False,35.0,0.06241363426992169,1.0,0.5366492146596858,0.47809747504403993,0.11749403858660307
kvwiki,False,36.0,0.065808644973288,1.0,0.5621443205099022,0.4517909571344686,0.12349054454317612
kvwiki,False,37.0,0.07004393900232618,1.0,0.5904848622809015,0.42254844392248975,0.13091787439613525
kvwiki,False,38.0,0.07286905082011293,1.0,0.6075574778055998,0.4049324721080446,0.13583959899749373
kvwiki,False,39.0,0.07722998005129666,1.0,0.6314591395401775,0.3802701115678215,0.1433862433862434
kvwiki,False,40.0,0.08106491175590787,1.0,0.6503528340541771,0.3607751027598356,0.14997232982844494
kvwiki,False,41.0,0.08619592875318066,1.0,0.6730025039836103,0.3374045801526718,0.15871156661786237
kvwiki,False,42.0,0.09192672998643148,1.0,0.6953107216025495,0.31438637698179683,0.1683752718235477
kvwiki,False,43.0,0.09815284317276349,1.0,0.7165945822900068,0.2924251321197886,0.1787598944591029
kvwiki,False,44.0,0.10635792778649922,1.0,0.7408376963350786,0.2674104521432766,0.1922667612628592
kvwiki,False,45.0,0.11492790500424088,1.0,0.7624630093330298,0.24509688784497946,0.20616203879802206
kvwiki,False,46.0,0.12114438980777828,1.0,0.7762349191896198,0.23088667058132706,0.21610845295055825
kvwiki,False,47.0,0.1281929990539262,1.0,0.7902344639198725,0.2164415736934821,0.22725366876310274
kvwiki,False,48.0,0.14240672622175513,1.0,0.8142499430912816,0.19166177334116266,0.24931002759889603
kvwiki,False,49.0,0.14955849889624723,1.0,0.824607329842932,0.1809747504403993,0.2602016322611618
kvwiki,False,50.0,0.16121356335514575,1.0,0.8395174140678352,0.1655901350557839,0.27766393442622955
kvwiki,False,51.0,0.16990595611285267,1.0,0.8493057136353289,0.15549031121550205,0.2904608788853162
kvwiki,False,52.0,0.1786420566908372,1.0,0.858183473708172,0.1463300058719906,0.30313199105145416
kvwiki,False,53.0,0.18977591036414565,1.0,0.8683132255861598,0.13587786259541984,0.31901118304885223
kvwiki,False,54.0,0.19985250737463126,1.0,0.876508081038015,0.12742219612448621,0.33312845728334356
kvwiki,False,55.0,0.21872477804681195,1.0,0.8898247211472797,0.11368173810921903,0.35894039735099337
kvwiki,False,56.0,0.22849915682967958,1.0,0.8958570452993398,0.10745742806811509,0.3719972546328071
kvwiki,False,57.0,0.2368881118881119,1.0,0.9006373776462554,0.10252495596007047,0.38303886925795055
kvwiki,False,58.0,0.24326750448833034,1.0,0.9040519007511951,0.09900176159718145,0.3913357400722022
kvwiki,False,59.0,0.24613987284287012,1.0,0.9055315274300023,0.09747504403992954,0.39504373177842567
kvwiki,False,60.0,0.24885215794306703,1.0,0.9068973366719781,0.09606576629477392,0.3985294117647059
kvwiki,False,61.0,0.2595785440613027,1.0,0.9120191213293877,0.0907809747504404,0.41216730038022814
kvwiki,False,62.0,0.26673228346456695,1.0,0.9152060095606647,0.08749266001174398,0.4211344211344212
kvwiki,False,63.0,0.2793814432989691,1.0,0.9204416116549056,0.08209042865531416,0.43674456083803387
kvwiki,False,64.0,0.2793814432989691,1.0,0.9204416116549056,0.08209042865531416,0.43674456083803387
kvwiki,False,65.0,0.28829787234042553,1.0,0.9238561347598452,0.07856723429242513,0.4475639966969447
kvwiki,False,66.0,0.2968236582694414,1.0,0.9269292055542909,0.07539635936582502,0.45777027027027023
kvwiki,False,67.0,0.3058690744920993,1.0,0.9300022763487367,0.0722254844392249,0.46845289541918755
kvwiki,False,68.0,0.3058690744920993,1.0,0.9300022763487367,0.0722254844392249,0.46845289541918755
kvwiki,False,69.0,0.3172839506172839,0.948339483394834,0.9354655133166401,0.06494421608925426,0.4754856614246068
kvwiki,False,70.0,0.3236775818639798,0.948339483394834,0.9372865923059412,0.06306517909571345,0.48262910798122066
kvwiki,False,71.0,0.3445040214477212,0.948339483394834,0.9427498292738448,0.05742806811509102,0.5054080629301868
kvwiki,False,72.0,0.3474576271186441,0.9077490774907749,0.9445709082631459,0.0542571931884909,0.5025536261491318
kvwiki,False,73.0,0.3704819277108434,0.9077490774907749,0.9495788754837241,0.04908984145625367,0.5262032085561498
kvwiki,False,74.0,0.40594059405940597,0.9077490774907749,0.9561802868199408,0.042278332354668234,0.5610034207525656
kvwiki,False,75.0,0.42560553633217996,0.9077490774907749,0.9593671750512178,0.03899001761597182,0.579505300353357
kvwiki,False,76.0,0.42560553633217996,0.9077490774907749,0.9593671750512178,0.03899001761597182,0.579505300353357
kvwiki,False,77.0,0.467680608365019,0.9077490774907749,0.9652856817664466,0.03288314738696418,0.6173149309912171
kvwiki,False,78.0,0.45525291828793774,0.8634686346863468,0.9639198725244708,0.03288314738696418,0.5961783439490446
kvwiki,False,79.0,0.45525291828793774,0.8634686346863468,0.9639198725244708,0.03288314738696418,0.5961783439490446
kvwiki,False,80.0,0.4785276073619632,0.8634686346863468,0.9667653084452538,0.029947152084556665,0.6157894736842106
kvwiki,False,81.0,0.49414519906323184,0.7785977859778598,0.9685863874345549,0.02536699941280094,0.6045845272206304
kvwiki,False,82.0,0.5656836461126006,0.7785977859778598,0.9747325290234464,0.019025249559600704,0.6552795031055901
kvwiki,False,83.0,0.5893854748603352,0.7785977859778598,0.9764397905759162,0.017263652378156195,0.6709062003179651
kvwiki,False,84.0,0.6614420062695925,0.7785977859778598,0.9808786706123378,0.01268349970640047,0.7152542372881358
kvwiki,False,85.0,0.6872964169381107,0.7785977859778598,0.9822444798543137,0.011274221961244862,0.7301038062283737
kvwiki,False,86.0,0.7617328519855595,0.7785977859778598,0.9856590029592533,0.007751027598355843,0.7700729927007298
kvwiki,False,87.0,0.7936507936507936,0.7380073800738007,0.9860004552697473,0.0061068702290076335,0.7648183556405352
kvwiki,False,88.0,0.8403361344537815,0.7380073800738007,0.9875938993853859,0.004462712859659424,0.7858546168958743
kvwiki,False,89.0,0.8767772511848341,0.6826568265682657,0.9872524470748919,0.0030534351145038168,0.7676348547717842
kvwiki,False,90.0,0.868020304568528,0.6309963099630996,0.9856590029592533,0.0030534351145038168,0.7307692307692308
kvwiki,False,91.0,0.8333333333333334,0.4797047970479705,0.9809924880491692,0.0030534351145038168,0.6088992974238876
kvwiki,False,92.0,0.8,0.3837638376383764,0.9780332346915548,0.0030534351145038168,0.518703241895262
kvwiki,False,93.0,0.7523809523809524,0.2915129151291513,0.9751877987707717,0.0030534351145038168,0.4202127659574468
kvwiki,False,94.0,0.717391304347826,0.24354243542435425,0.9737081720919645,0.0030534351145038168,0.36363636363636365
kvwiki,False,95.0,0.7971014492753623,0.2029520295202952,0.9738219895287958,0.001644157369348209,0.32352941176470595
kvwiki,False,96.0,0.7454545454545455,0.15129151291512916,0.9722285454131573,0.001644157369348209,0.25153374233128833
kvwiki,False,97.0,0.5,0.05166051660516605,0.9691554746187115,0.001644157369348209,0.09364548494983278
kvwiki,False,98.0,1.0,0.05166051660516605,0.9707489187343501,0.0,0.09824561403508772
kvwiki,False,99.0,1.0,0.05166051660516605,0.9707489187343501,0.0,0.09824561403508772
