wiki_db,user_is_bot,threshold,precision,recall,accuracy,fpr,F1
lbwiki,True,0.0,0.013241723922548408,1.0,0.013241723922548408,1.0,0.026137344347182838
lbwiki,True,1.0,0.013248895925339555,1.0,0.013783052259004789,0.9994514073511415,0.026151315789473682
lbwiki,True,2.0,0.013341750841750842,0.9968553459119497,0.02377680616281491,0.9892813436299953,0.026331090622144695
lbwiki,True,3.0,0.0136318536732669,0.9937106918238994,0.04780345617322507,0.9648900704730556,0.02689476147921188
lbwiki,True,4.0,0.013805468399820707,0.9685534591194969,0.08340620445554861,0.9284719584757565,0.027222909669436097
lbwiki,True,5.0,0.014400677678949597,0.9622641509433962,0.127420362273579,0.883782757311052,0.028376686604534705
lbwiki,True,6.0,0.014903725931482871,0.9371069182389937,0.17897147616073286,0.8312022618896907,0.029340816226062126
lbwiki,True,7.0,0.015577307651826123,0.9308176100628931,0.22015407037268375,0.7893826222728615,0.030641821946169774
lbwiki,True,8.0,0.016164747564216122,0.9182389937106918,0.25887986674994795,0.7499683504241044,0.03177020998803177
lbwiki,True,9.0,0.016936195236695088,0.9056603773584906,0.30264418072038307,0.7054479469975102,0.033250591698897415
lbwiki,True,10.0,0.017882823735384232,0.89937106918239,0.3446179471163856,0.6628265181246571,0.035068358776285946
lbwiki,True,11.0,0.018723347547974414,0.8836477987421384,0.3852175723506142,0.6214710722876313,0.03666971160120057
lbwiki,True,12.0,0.01983647351581941,0.8773584905660378,0.4243181344992713,0.581761404397181,0.03879580059792811
lbwiki,True,13.0,0.02091124170037396,0.8616352201257862,0.46396002498438477,0.5413765455542896,0.040831532672677154
lbwiki,True,14.0,0.022400261608894703,0.8616352201257862,0.5002290235269623,0.5046208380807697,0.04366533864541833
lbwiki,True,15.0,0.024241351853490224,0.8616352201257862,0.5389131792629607,0.4654175634046504,0.047156010670338186
lbwiki,True,16.0,0.025770735897680634,0.8490566037735849,0.5729752238184468,0.43072962822298183,0.05002315886984715
lbwiki,True,17.0,0.027743526510480888,0.8490566037735849,0.6039975015615241,0.3992910494999367,0.05373134328358209
lbwiki,True,18.0,0.029392338177014532,0.839622641509434,0.6307307932542161,0.3720724142296493,0.05679642629227823
lbwiki,True,19.0,0.0312793979303857,0.8364779874213837,0.6547990839058921,0.34763894163818204,0.06030378598957153
lbwiki,True,20.0,0.033117529880478086,0.8364779874213837,0.6744534665833853,0.32772080854116553,0.0637125748502994
lbwiki,True,21.0,0.03476996298254892,0.8270440251572327,0.6936914428482198,0.30809807148584206,0.06673433138797259
lbwiki,True,22.0,0.03651881908493074,0.8207547169811321,0.7108890276910265,0.2905853061568975,0.06992632283991962
lbwiki,True,23.0,0.0386094674556213,0.8207547169811321,0.7270039558609203,0.27425412499472507,0.07374964679287933
lbwiki,True,24.0,0.04104418933794622,0.8207547169811321,0.7437018530085363,0.25733215174916657,0.07817882282462184
lbwiki,True,25.0,0.043173862310385065,0.8144654088050315,0.758525921299188,0.24222475418829387,0.08200094981795154
lbwiki,True,26.0,0.04543053354463814,0.8113207547169812,0.7717676452217365,0.22876313457399672,0.0860430215107554
lbwiki,True,27.0,0.04714871412597838,0.7955974842767296,0.7843847595252967,0.2157657087395029,0.08902181562280084
lbwiki,True,28.0,0.049147839873166864,0.779874213836478,0.7972933583177181,0.20247288686331602,0.0924683072334079
lbwiki,True,29.0,0.05023873780361221,0.7610062893081762,0.8063293774724131,0.19306241296366627,0.09425511197663096
lbwiki,True,30.0,0.052494577006507594,0.7610062893081762,0.8149489902144493,0.18432713001645779,0.09821428571428571
lbwiki,True,31.0,0.05428117192823075,0.7515723270440252,0.8233187591088903,0.17571844537283202,0.1012497352255878
lbwiki,True,32.0,0.05618241654913023,0.7515723270440252,0.8295232146575058,0.16943072962822298,0.10454943132108487
lbwiki,True,33.0,0.05817106236135075,0.7421383647798742,0.8374765771392879,0.16124403932987297,0.10788571428571428
lbwiki,True,34.0,0.060450819672131145,0.7421383647798742,0.8438475952529669,0.15478752584715366,0.11179535765040265
lbwiki,True,35.0,0.062383859835412794,0.7389937106918238,0.84946908182386,0.14904840275140313,0.11505507955936352
lbwiki,True,36.0,0.06380065717415115,0.7327044025157232,0.8540911930043723,0.1442798666497869,0.11738035264483626
lbwiki,True,37.0,0.06564799094510469,0.7295597484276729,0.8589215073912139,0.13934253281006034,0.12045690550363447
lbwiki,True,38.0,0.067975388221506,0.7295597484276729,0.8639600249843847,0.1342364012322235,0.12436344143661215
lbwiki,True,39.0,0.06928614277144571,0.7264150943396226,0.8671663543618572,0.13094484533907247,0.12650602409638553
lbwiki,True,40.0,0.06985967053081148,0.720125786163522,0.8693316677076827,0.12866607587458329,0.12736373748609567
lbwiki,True,41.0,0.07154014370509215,0.720125786163522,0.8725379970851551,0.12541671941595983,0.13015061096902528
lbwiki,True,42.0,0.07302295918367346,0.720125786163522,0.875244638767437,0.1226737561716673,0.13259988419224086
lbwiki,True,43.0,0.07307567392010393,0.7075471698113207,0.8772850301894649,0.1204371861417057,0.13246982631733883
lbwiki,True,44.0,0.07397622192866579,0.7044025157232704,0.8793254216114929,0.11832721441532683,0.13389121338912136
lbwiki,True,45.0,0.0750336473755047,0.7012578616352201,0.8815740162398501,0.11600624551631009,0.13556231003039515
lbwiki,True,46.0,0.0762914813547725,0.7012578616352201,0.883614407661878,0.1139384732244588,0.13761184819500155
lbwiki,True,47.0,0.07751129648939868,0.7012578616352201,0.8855298771601082,0.11199729923619023,0.13959311424100157
lbwiki,True,48.0,0.0789101203113942,0.7012578616352201,0.8876535498646679,0.1098451280752838,0.14185750636132316
lbwiki,True,49.0,0.07921146953405019,0.6949685534591195,0.888986050385176,0.10841034730134616,0.14221364221364222
lbwiki,True,50.0,0.07991282237559026,0.6918238993710691,0.8904434728294816,0.10689116765835338,0.14327580592640832
lbwiki,True,51.0,0.08096118299445472,0.6886792452830188,0.8923589423277118,0.10490779423555724,0.14488918293086336
lbwiki,True,52.0,0.08143444153903623,0.6855345911949685,0.8934415990006246,0.10376840950331266,0.145575959933222
lbwiki,True,53.0,0.08238851095993953,0.6855345911949685,0.8947324588798667,0.10246022703295776,0.14709851551956815
lbwiki,True,54.0,0.08342900880214313,0.6855345911949685,0.8961066000416407,0.1010676456935477,0.14875469123166155
lbwiki,True,55.0,0.08450155763239875,0.6823899371069182,0.8978971476160733,0.09921087057433431,0.15038115038115038
lbwiki,True,56.0,0.08587257617728532,0.6823899371069182,0.8996044139079742,0.09748069375870363,0.15254833040421795
lbwiki,True,57.0,0.08573717948717949,0.6729559748427673,0.900645429939621,0.09629910959193147,0.15209665955934612
lbwiki,True,58.0,0.08681541582150101,0.6729559748427673,0.9019362898188632,0.09499092712157657,0.1537908731584621
lbwiki,True,59.0,0.08745402533714752,0.6729559748427673,0.902685821361649,0.09423133730008018,0.1547920433996383
lbwiki,True,60.0,0.08823529411764706,0.6698113207547169,0.9039766812408911,0.09288095539519771,0.15592972181551978
lbwiki,True,61.0,0.08888888888888889,0.6666666666666666,0.9051009785550698,0.09169937122842554,0.1568627450980392
lbwiki,True,62.0,0.08882277943051424,0.6572327044025157,0.9061836352279825,0.09047558762712579,0.1564956944964433
lbwiki,True,63.0,0.08968804159445408,0.6509433962264151,0.9078909015198834,0.08866101194243997,0.15765422696115766
lbwiki,True,64.0,0.09090909090909091,0.6509433962264151,0.9091817613991255,0.08735282947208507,0.15953757225433526
lbwiki,True,65.0,0.09184128399465002,0.6477987421383647,0.9105142619196336,0.08596024813267503,0.1608746583365873
lbwiki,True,66.0,0.0921825576140985,0.6415094339622641,0.9115969185925463,0.08477866396590286,0.1612011062821019
lbwiki,True,67.0,0.09307657038055937,0.6383647798742138,0.9128461378305226,0.08347048149554796,0.16246498599439774
lbwiki,True,68.0,0.09499298081422555,0.6383647798742138,0.9146783260462211,0.08161370637633455,0.1653767820773931
lbwiki,True,69.0,0.09666666666666666,0.6383647798742138,0.9162190297730585,0.0800523272988142,0.16790736145574855
lbwiki,True,70.0,0.0988315481986368,0.6383647798742138,0.9181344992712888,0.07811115331054563,0.1711635750421585
lbwiki,True,71.0,0.10079443892750745,0.6383647798742138,0.9198001249219238,0.07642317592944255,0.17409948542024012
lbwiki,True,72.0,0.10362429811128127,0.6383647798742138,0.922090360191547,0.07410220703042579,0.17830478700043917
lbwiki,True,73.0,0.1051255230125523,0.6320754716981132,0.9238809077659796,0.07220323247668481,0.18026905829596412
lbwiki,True,74.0,0.10789049919484701,0.6320754716981132,0.9259212991880075,0.07013546018483352,0.18431911966987619
lbwiki,True,75.0,0.10921125206839492,0.6226415094339622,0.927753487403706,0.06815208676203739,0.18582824964805256
lbwiki,True,76.0,0.11148648648648649,0.6226415094339622,0.9292941911305435,0.06659070768451703,0.18911174785100285
lbwiki,True,77.0,0.11415259172976121,0.6163522012578616,0.9315844264001666,0.06418533991644512,0.1926289926289926
lbwiki,True,78.0,0.11566707466340269,0.5943396226415094,0.934457630647512,0.06097818289234924,0.19364754098360656
lbwiki,True,79.0,0.11847133757961784,0.5849056603773585,0.9368727878409328,0.058404017386167024,0.19703389830508475
lbwiki,True,80.0,0.12190221031480242,0.5723270440251572,0.9397459920882781,0.05532345866565388,0.20099392600773053
lbwiki,True,81.0,0.12454212454212454,0.5345911949685535,0.9440766187799292,0.05042832426045491,0.20202020202020204
lbwiki,True,82.0,0.13141025641025642,0.5157232704402516,0.9484488861128462,0.045744187027893825,0.20945083014048532
lbwiki,True,83.0,0.13432835820895522,0.4811320754716981,0.9520716219029773,0.04160864244419125,0.21002059025394648
lbwiki,True,84.0,0.1392156862745098,0.44654088050314467,0.9561107641057672,0.037051103515212895,0.21225710014947682
lbwiki,True,85.0,0.14175824175824175,0.4056603773584906,0.9596085779721008,0.0329577583660379,0.21009771986970688
lbwiki,True,86.0,0.15267175572519084,0.37735849056603776,0.9640224859462836,0.0281048233953665,0.21739130434782608
lbwiki,True,87.0,0.16593245227606462,0.3553459119496855,0.9678117843014783,0.023969278811663924,0.22622622622622623
lbwiki,True,88.0,0.19614711033274956,0.3522012578616352,0.9723089735581928,0.019369540448157994,0.25196850393700787
lbwiki,True,89.0,0.2151639344262295,0.330188679245283,0.9751821778055382,0.016162383424062118,0.260545905707196
lbwiki,True,90.0,0.25757575757575757,0.32075471698113206,0.9787632729544035,0.012406633751107735,0.28571428571428575
lbwiki,True,91.0,0.29141104294478526,0.29874213836477986,0.9810951488652925,0.009748069375870364,0.2950310559006212
lbwiki,True,92.0,0.3107569721115538,0.24528301886792453,0.9828024151571935,0.007300502173270878,0.27416520210896306
lbwiki,True,93.0,0.30434782608695654,0.1761006289308176,0.9837601499063086,0.0054015276195298985,0.22310756972111553
lbwiki,True,94.0,0.3262411347517731,0.14465408805031446,0.9847178846554236,0.004008946280119847,0.20043572984749458
lbwiki,True,95.0,0.3465346534653465,0.11006289308176101,0.9854674161982094,0.0027851626788201037,0.16706443914081145
lbwiki,True,96.0,0.4626865671641791,0.09748427672955975,0.9865500728711222,0.0015191796429927839,0.16103896103896106
lbwiki,True,97.0,0.46875,0.04716981132075472,0.9866749947949198,0.0007173903869688146,0.08571428571428573
lbwiki,True,98.0,0.6,0.03773584905660377,0.9869248386425151,0.00033759547622061865,0.07100591715976332
lbwiki,True,99.0,0.7142857142857143,0.015723270440251572,0.9868831980012492,8.439886905515466e-05,0.030769230769230767
lbwiki,False,0.0,0.011358008386436426,1.0,0.011358008386436426,1.0,0.022460905618491074
lbwiki,False,1.0,0.011367767092957932,1.0,0.012216462508667085,0.9991316835320442,0.022479986930240156
lbwiki,False,2.0,0.01142589870372845,0.9941860465116279,0.022947139036550334,0.9882109341081388,0.022592152199762187
lbwiki,False,3.0,0.011620356129737858,0.9883720930232558,0.04503582395087001,0.9658016898774338,0.02297064486707428
lbwiki,False,4.0,0.011693204435598521,0.9563953488372093,0.0813880542807145,0.9286644624787096,0.023103932584269665
lbwiki,False,5.0,0.01208098735970767,0.9418604651162791,0.12454188265592499,0.8848478776341716,0.023855980561793614
lbwiki,False,6.0,0.012672811059907835,0.9273255813953488,0.17859147489021693,0.830010353004041,0.025003919109578304
lbwiki,False,7.0,0.01326470834379446,0.9215116279069767,0.2205236570145607,0.7875296396486658,0.026152957676759344
lbwiki,False,8.0,0.013934970139349702,0.9156976744186046,0.26308317099745765,0.7444143873359382,0.027452176565427686
lbwiki,False,9.0,0.01464267157904681,0.9011627906976745,0.3101000429227061,0.6966903783855993,0.028817104345805252
lbwiki,False,10.0,0.015557126982523487,0.8953488372093024,0.3553009542047743,0.6509033830945463,0.030582861682057393
lbwiki,False,11.0,0.016181229773462782,0.872093023255814,0.3963086472744082,0.6091573990582106,0.031772929464096586
lbwiki,False,12.0,0.017188671627155795,0.8662790697674418,0.43589658929573744,0.5690478575960992,0.0337085006504157
lbwiki,False,13.0,0.01808497460671374,0.8488372093023255,0.4748241819922739,0.529472664729653,0.035415403274711946
lbwiki,False,14.0,0.019411021737685302,0.8488372093023255,0.5112424472545977,0.49263600841599037,0.037954117111847666
lbwiki,False,15.0,0.02104959630911188,0.8488372093023255,0.549905900221217,0.45352837057075107,0.04108047270680922
lbwiki,False,16.0,0.0223654577929642,0.8372093023255814,0.5824941393997425,0.42043215442674414,0.04356705241660994
lbwiki,False,17.0,0.024183390712906205,0.8372093023255814,0.6144550467197147,0.3881040643890058,0.04700889578062515
lbwiki,False,18.0,0.0255877034358047,0.8226744186046512,0.6421567008947733,0.3599171759676719,0.049631708172571024
lbwiki,False,19.0,0.027349432644748328,0.8197674418604651,0.666820748175785,0.33493637912032864,0.05293289535429376
lbwiki,False,20.0,0.029141262788054147,0.8197674418604651,0.6877538217717173,0.31376281601709916,0.05628180820277417
lbwiki,False,21.0,0.030801501435195406,0.811046511627907,0.707993528576617,0.2931903950839929,0.0593490746649649
lbwiki,False,22.0,0.03243179955508722,0.8052325581395349,0.7249314887575528,0.2759910496610226,0.06235227912211592
lbwiki,False,23.0,0.034504235176880914,0.8052325581395349,0.7418694489384885,0.2588584978125104,0.0661729574773053
lbwiki,False,24.0,0.0371164411094734,0.8052325581395349,0.7605243173638855,0.2399893130280867,0.07096195721788139
lbwiki,False,25.0,0.03944914646392196,0.7994186046511628,0.7766368408888302,0.2236248872858431,0.07518796992481203
lbwiki,False,26.0,0.04157782515991471,0.7936046511627907,0.7898768448509261,0.21016598203252848,0.07901591895803184
lbwiki,False,27.0,0.04370967741935484,0.7877906976744186,0.8018291676296762,0.19800955148114752,0.0828239608801956
lbwiki,False,28.0,0.04467234486354945,0.747093023255814,0.8156634859840856,0.18354874261096082,0.08430375594554698
lbwiki,False,29.0,0.044734904270986746,0.7063953488372093,0.8253376035923004,0.17329592893163678,0.08414127423822715
lbwiki,False,30.0,0.04723032069970846,0.7063953488372093,0.8348136164030773,0.1637110509968941,0.08854071779923484
lbwiki,False,31.0,0.04978399506274429,0.7034883720930233,0.844124541882656,0.1542597602110677,0.09298751200768492
lbwiki,False,32.0,0.05206540447504303,0.7034883720930233,0.8511572621916994,0.1471462445312761,0.09695512820512821
lbwiki,False,33.0,0.053665220369947475,0.6831395348837209,0.8595767160828078,0.13839628627726014,0.0995130213847131
lbwiki,False,34.0,0.05679072015466409,0.6831395348837209,0.8675339254465613,0.13034766055505462,0.10486390004462293
lbwiki,False,35.0,0.059123343527013254,0.6744186046511628,0.8744015584244065,0.12330093844972113,0.10871602624179945
lbwiki,False,36.0,0.06125166444740346,0.6686046511627907,0.8798494403539472,0.11772367498246669,0.11222249329104658
lbwiki,False,37.0,0.06350974930362117,0.6627906976744186,0.8851652524185294,0.11227999866412851,0.11591255719369599
lbwiki,False,38.0,0.06670567583382095,0.6627906976744186,0.8908442566117476,0.10653575126072871,0.12121212121212122
lbwiki,False,39.0,0.06811332127787824,0.6569767441860465,0.8940139333707531,0.10326286611228,0.12342981977061714
lbwiki,False,40.0,0.06900800985828712,0.6511627906976745,0.8962591210750487,0.1009250910062452,0.12479108635097491
lbwiki,False,41.0,0.0712015257469803,0.6511627906976745,0.8995608676990128,0.09758541228333835,0.12836676217765045
lbwiki,False,42.0,0.07303553961525922,0.6511627906976745,0.9021692475319444,0.09494706609224193,0.13133978305482263
lbwiki,False,43.0,0.07288532263457038,0.6337209302325582,0.9042823653712814,0.09260929098620713,0.13073463268365818
lbwiki,False,44.0,0.07340389211334927,0.625,0.9061313434807013,0.09063888053969209,0.13137794072716164
lbwiki,False,45.0,0.07428170988086896,0.6162790697674418,0.9084095486512365,0.08823431185919914,0.13258286429018137
lbwiki,False,46.0,0.07595843783590112,0.6162790697674418,0.9104896490243338,0.08613031426376783,0.13524720893141948
lbwiki,False,47.0,0.07745706978443552,0.6162790697674418,0.9122725922012744,0.08432688775339812,0.1376176566049984
lbwiki,False,48.0,0.07949006374203224,0.6162790697674418,0.9145838148380493,0.08198911264736332,0.1408170043175025
lbwiki,False,49.0,0.07993909402360107,0.6104651162790697,0.9157724436226764,0.08072003473265872,0.1413665432514305
lbwiki,False,50.0,0.08035714285714286,0.6017441860465116,0.9172582296034603,0.07911698894566342,0.14178082191780822
lbwiki,False,51.0,0.08128469468675655,0.5959302325581395,0.9189091029154423,0.07738035600975186,0.14305652477320305
lbwiki,False,52.0,0.0814516129032258,0.5872093023255814,0.9200977317000694,0.07607788130781819,0.14305949008498584
lbwiki,False,53.0,0.08275297009422368,0.5872093023255814,0.9213854128834154,0.07477540660588451,0.1450628366247756
lbwiki,False,54.0,0.08420175072947061,0.5872093023255814,0.9227721464654802,0.07337274154226363,0.14728399562522784
lbwiki,False,55.0,0.08471690080885483,0.5784883720930233,0.9242249149800245,0.07180309254249741,0.14779056813962124
lbwiki,False,56.0,0.08652173913043479,0.5784883720930233,0.9258427708257668,0.07016664996827306,0.15052950075642965
lbwiki,False,57.0,0.08624502432551968,0.5668604651162791,0.9268663122791957,0.06899776241525565,0.14971209213051823
lbwiki,False,58.0,0.08752244165170557,0.5668604651162791,0.9279558886651038,0.0678956684366964,0.1516329704510109
lbwiki,False,59.0,0.08851566046300499,0.5668604651162791,0.9287813253210948,0.06706074875596968,0.15312131919905772
lbwiki,False,60.0,0.08876560332871013,0.5581395348837209,0.9299039191732427,0.06582506762849413,0.15317112086158757
lbwiki,False,61.0,0.08979783732957217,0.5552325581395349,0.9310265130253904,0.06465618007547674,0.15459328207203563
lbwiki,False,62.0,0.09003831417624521,0.5465116279069767,0.9321160894112985,0.06345389573523028,0.15460526315789472
lbwiki,False,63.0,0.09086468001954079,0.5406976744186046,0.9333377356621653,0.0621514210332966,0.15558343789209533
lbwiki,False,64.0,0.09239940387481371,0.5406976744186046,0.9344603295143131,0.06101593026750827,0.15782774713619008
lbwiki,False,65.0,0.09251769464105157,0.5319767441860465,0.9354178360352626,0.05994723307617807,0.15762273901808785
lbwiki,False,66.0,0.09152016546018614,0.5145348837209303,0.9364743949549311,0.05867815516147347,0.15539947322212466
lbwiki,False,67.0,0.09153077327722252,0.5058139534883721,0.9373658665434015,0.05767625154460141,0.15501113585746104
lbwiki,False,68.0,0.0939524838012959,0.5058139534883721,0.9389837223891438,0.05603980897037705,0.15846994535519124
lbwiki,False,69.0,0.0957622454595487,0.5058139534883721,0.9401393337075313,0.05487092141735965,0.16103655714946785
lbwiki,False,70.0,0.09808342728297632,0.5058139534883721,0.9415590847558358,0.0534348595665097,0.16430594900849857
lbwiki,False,71.0,0.10046189376443418,0.5058139534883721,0.9429458183379007,0.052032194502888825,0.1676300578034682
lbwiki,False,72.0,0.10344827586206896,0.5058139534883721,0.9445966916498828,0.050362355141435396,0.1717670286278381
lbwiki,False,73.0,0.1050394656952034,0.502906976744186,0.9456862680357909,0.049226864375647064,0.17378201908588647
lbwiki,False,74.0,0.10785536159600997,0.502906976744186,0.9471060190840955,0.047790802524797116,0.17761806981519507
lbwiki,False,75.0,0.1096067053513862,0.4941860465116279,0.9486578399973586,0.04612096316334369,0.17941952506596306
lbwiki,False,76.0,0.1118421052631579,0.4941860465116279,0.9496813814507875,0.04508566275924256,0.18240343347639484
lbwiki,False,77.0,0.11422708618331054,0.48546511627906974,0.9513982896952488,0.04324883946164379,0.1849390919158361
lbwiki,False,78.0,0.11594202898550725,0.46511627906976744,0.9536434773995444,0.040744080419463646,0.18561484918793503
lbwiki,False,79.0,0.11939163498098859,0.4563953488372093,0.9555915079076832,0.0386734796112614,0.18927064496684748
lbwiki,False,80.0,0.12150279776179057,0.4418604651162791,0.9573744510846237,0.03670306916474635,0.19059561128526648
lbwiki,False,81.0,0.12695652173913044,0.42441860465116277,0.9603130055799518,0.03353037437798484,0.1954484605087015
lbwiki,False,82.0,0.1348747591522158,0.4069767441860465,0.9636147522039159,0.02999031493170357,0.20260492040520986
lbwiki,False,83.0,0.13789473684210526,0.3808139534883721,0.9659259748406908,0.027351968740607153,0.20247295208655333
lbwiki,False,84.0,0.14469078179696615,0.36046511627906974,0.9685343546736224,0.024479845038907256,0.20649458784346375
lbwiki,False,85.0,0.14790575916230367,0.32848837209302323,0.9708785947766368,0.021741308486123635,0.203971119133574
lbwiki,False,86.0,0.15765765765765766,0.30523255813953487,0.9735860270082873,0.018735597635507466,0.2079207920792079
lbwiki,False,87.0,0.17307692307692307,0.2877906976744186,0.9762934592399379,0.01579668035934943,0.21615720524017468
lbwiki,False,88.0,0.20292887029288703,0.2819767441860465,0.9792650312015055,0.012724175934275123,0.23600973236009734
lbwiki,False,89.0,0.21980676328502416,0.26453488372093026,0.9809819394459669,0.010787162274989145,0.24010554089709765
lbwiki,False,90.0,0.25449101796407186,0.24709302325581395,0.9832271271502625,0.008315800020038072,0.2507374631268437
lbwiki,False,91.0,0.2947761194029851,0.22965116279069767,0.9850100703272031,0.0063119927862939585,0.2581699346405229
lbwiki,False,92.0,0.3137254901960784,0.18604651162790697,0.9861326641793509,0.0046755502120695985,0.23357664233576642
lbwiki,False,93.0,0.33766233766233766,0.1511627906976744,0.9869911183015815,0.0034064722973649935,0.20883534136546184
lbwiki,False,94.0,0.3559322033898305,0.12209302325581395,0.9875193977614158,0.002538155829409211,0.18181818181818182
lbwiki,False,95.0,0.3333333333333333,0.07848837209302326,0.9877505200250932,0.0018034265103697023,0.12705882352941178
lbwiki,False,96.0,0.4230769230769231,0.06395348837209303,0.9883778518836465,0.0010019036168720569,0.11111111111111112
lbwiki,False,97.0,0.5,0.040697674418604654,0.9886419916135636,0.0004675550212069599,0.07526881720430109
lbwiki,False,98.0,0.6875,0.03197674418604651,0.9888400964110015,0.00016698393614534283,0.06111111111111111
lbwiki,False,99.0,1.0,0.011627906976744186,0.9887740614785221,0.0,0.022988505747126436
