wiki_db,user_is_bot,threshold,precision,recall,accuracy,fpr,F1
lfnwiki,True,0.0,0.031578947368421054,1.0,0.031578947368421054,1.0,0.061224489795918366
lfnwiki,True,1.0,0.031578947368421054,1.0,0.031578947368421054,1.0,0.061224489795918366
lfnwiki,True,2.0,0.031578947368421054,1.0,0.031578947368421054,1.0,0.061224489795918366
lfnwiki,True,3.0,0.031578947368421054,1.0,0.031578947368421054,1.0,0.061224489795918366
lfnwiki,True,4.0,0.031578947368421054,1.0,0.031578947368421054,1.0,0.061224489795918366
lfnwiki,True,5.0,0.031914893617021274,1.0,0.042105263157894736,0.9891304347826086,0.06185567010309278
lfnwiki,True,6.0,0.03225806451612903,1.0,0.05263157894736842,0.9782608695652174,0.0625
lfnwiki,True,7.0,0.03225806451612903,1.0,0.05263157894736842,0.9782608695652174,0.0625
lfnwiki,True,8.0,0.03225806451612903,1.0,0.05263157894736842,0.9782608695652174,0.0625
lfnwiki,True,9.0,0.03296703296703297,1.0,0.07368421052631578,0.9565217391304348,0.06382978723404255
lfnwiki,True,10.0,0.03409090909090909,1.0,0.10526315789473684,0.9239130434782609,0.06593406593406592
lfnwiki,True,11.0,0.034482758620689655,1.0,0.11578947368421053,0.9130434782608695,0.06666666666666667
lfnwiki,True,12.0,0.03488372093023256,1.0,0.12631578947368421,0.9021739130434783,0.06741573033707865
lfnwiki,True,13.0,0.03529411764705882,1.0,0.1368421052631579,0.8913043478260869,0.06818181818181818
lfnwiki,True,14.0,0.03529411764705882,1.0,0.1368421052631579,0.8913043478260869,0.06818181818181818
lfnwiki,True,15.0,0.03529411764705882,1.0,0.1368421052631579,0.8913043478260869,0.06818181818181818
lfnwiki,True,16.0,0.03529411764705882,1.0,0.1368421052631579,0.8913043478260869,0.06818181818181818
lfnwiki,True,17.0,0.03614457831325301,1.0,0.15789473684210525,0.8695652173913043,0.06976744186046512
lfnwiki,True,18.0,0.036585365853658534,1.0,0.16842105263157894,0.8586956521739131,0.07058823529411765
lfnwiki,True,19.0,0.037037037037037035,1.0,0.17894736842105263,0.8478260869565217,0.07142857142857142
lfnwiki,True,20.0,0.0375,1.0,0.18947368421052632,0.8369565217391305,0.07228915662650602
lfnwiki,True,21.0,0.038461538461538464,1.0,0.21052631578947367,0.8152173913043478,0.07407407407407407
lfnwiki,True,22.0,0.04,1.0,0.24210526315789474,0.782608695652174,0.07692307692307693
lfnwiki,True,23.0,0.0410958904109589,1.0,0.2631578947368421,0.7608695652173914,0.07894736842105263
lfnwiki,True,24.0,0.04285714285714286,1.0,0.29473684210526313,0.7282608695652174,0.0821917808219178
lfnwiki,True,25.0,0.04477611940298507,1.0,0.3263157894736842,0.6956521739130435,0.08571428571428572
lfnwiki,True,26.0,0.046153846153846156,1.0,0.3473684210526316,0.6739130434782609,0.08823529411764706
lfnwiki,True,27.0,0.031746031746031744,0.6666666666666666,0.3473684210526316,0.6630434782608695,0.06060606060606061
lfnwiki,True,28.0,0.03225806451612903,0.6666666666666666,0.35789473684210527,0.6521739130434783,0.06153846153846154
lfnwiki,True,29.0,0.03225806451612903,0.6666666666666666,0.35789473684210527,0.6521739130434783,0.06153846153846154
lfnwiki,True,30.0,0.03278688524590164,0.6666666666666666,0.3684210526315789,0.6413043478260869,0.0625
lfnwiki,True,31.0,0.03333333333333333,0.6666666666666666,0.37894736842105264,0.6304347826086957,0.06349206349206349
lfnwiki,True,32.0,0.03333333333333333,0.6666666666666666,0.37894736842105264,0.6304347826086957,0.06349206349206349
lfnwiki,True,33.0,0.03389830508474576,0.6666666666666666,0.3894736842105263,0.6195652173913043,0.06451612903225806
lfnwiki,True,34.0,0.03389830508474576,0.6666666666666666,0.3894736842105263,0.6195652173913043,0.06451612903225806
lfnwiki,True,35.0,0.03389830508474576,0.6666666666666666,0.3894736842105263,0.6195652173913043,0.06451612903225806
lfnwiki,True,36.0,0.03571428571428571,0.6666666666666666,0.42105263157894735,0.5869565217391305,0.06779661016949153
lfnwiki,True,37.0,0.03571428571428571,0.6666666666666666,0.42105263157894735,0.5869565217391305,0.06779661016949153
lfnwiki,True,38.0,0.03571428571428571,0.6666666666666666,0.42105263157894735,0.5869565217391305,0.06779661016949153
lfnwiki,True,39.0,0.03571428571428571,0.6666666666666666,0.42105263157894735,0.5869565217391305,0.06779661016949153
lfnwiki,True,40.0,0.03636363636363636,0.6666666666666666,0.43157894736842106,0.5760869565217391,0.06896551724137931
lfnwiki,True,41.0,0.0392156862745098,0.6666666666666666,0.47368421052631576,0.532608695652174,0.07407407407407407
lfnwiki,True,42.0,0.04,0.6666666666666666,0.4842105263157895,0.5217391304347826,0.07547169811320754
lfnwiki,True,43.0,0.0425531914893617,0.6666666666666666,0.5157894736842106,0.4891304347826087,0.08
lfnwiki,True,44.0,0.043478260869565216,0.6666666666666666,0.5263157894736842,0.4782608695652174,0.08163265306122448
lfnwiki,True,45.0,0.045454545454545456,0.6666666666666666,0.5473684210526316,0.45652173913043476,0.08510638297872342
lfnwiki,True,46.0,0.045454545454545456,0.6666666666666666,0.5473684210526316,0.45652173913043476,0.08510638297872342
lfnwiki,True,47.0,0.04878048780487805,0.6666666666666666,0.5789473684210527,0.42391304347826086,0.0909090909090909
lfnwiki,True,48.0,0.04878048780487805,0.6666666666666666,0.5789473684210527,0.42391304347826086,0.0909090909090909
lfnwiki,True,49.0,0.04878048780487805,0.6666666666666666,0.5789473684210527,0.42391304347826086,0.0909090909090909
lfnwiki,True,50.0,0.04878048780487805,0.6666666666666666,0.5789473684210527,0.42391304347826086,0.0909090909090909
lfnwiki,True,51.0,0.05128205128205128,0.6666666666666666,0.6,0.40217391304347827,0.09523809523809523
lfnwiki,True,52.0,0.05405405405405406,0.6666666666666666,0.6210526315789474,0.3804347826086957,0.1
lfnwiki,True,53.0,0.05714285714285714,0.6666666666666666,0.6421052631578947,0.358695652173913,0.10526315789473684
lfnwiki,True,54.0,0.058823529411764705,0.6666666666666666,0.6526315789473685,0.34782608695652173,0.10810810810810811
lfnwiki,True,55.0,0.06060606060606061,0.6666666666666666,0.6631578947368421,0.33695652173913043,0.1111111111111111
lfnwiki,True,56.0,0.06060606060606061,0.6666666666666666,0.6631578947368421,0.33695652173913043,0.1111111111111111
lfnwiki,True,57.0,0.06666666666666667,0.6666666666666666,0.6947368421052632,0.30434782608695654,0.1212121212121212
lfnwiki,True,58.0,0.07142857142857142,0.6666666666666666,0.7157894736842105,0.2826086956521739,0.12903225806451613
lfnwiki,True,59.0,0.08333333333333333,0.6666666666666666,0.7578947368421053,0.2391304347826087,0.14814814814814814
lfnwiki,True,60.0,0.08695652173913043,0.6666666666666666,0.7684210526315789,0.22826086956521738,0.15384615384615383
lfnwiki,True,61.0,0.09523809523809523,0.6666666666666666,0.7894736842105263,0.20652173913043478,0.16666666666666666
lfnwiki,True,62.0,0.10526315789473684,0.6666666666666666,0.8105263157894737,0.18478260869565216,0.18181818181818182
lfnwiki,True,63.0,0.10526315789473684,0.6666666666666666,0.8105263157894737,0.18478260869565216,0.18181818181818182
lfnwiki,True,64.0,0.10526315789473684,0.6666666666666666,0.8105263157894737,0.18478260869565216,0.18181818181818182
lfnwiki,True,65.0,0.11764705882352941,0.6666666666666666,0.8315789473684211,0.16304347826086957,0.2
lfnwiki,True,66.0,0.11764705882352941,0.6666666666666666,0.8315789473684211,0.16304347826086957,0.2
lfnwiki,True,67.0,0.11764705882352941,0.6666666666666666,0.8315789473684211,0.16304347826086957,0.2
lfnwiki,True,68.0,0.125,0.6666666666666666,0.8421052631578947,0.15217391304347827,0.21052631578947367
lfnwiki,True,69.0,0.125,0.6666666666666666,0.8421052631578947,0.15217391304347827,0.21052631578947367
lfnwiki,True,70.0,0.13333333333333333,0.6666666666666666,0.8526315789473684,0.14130434782608695,0.2222222222222222
lfnwiki,True,71.0,0.13333333333333333,0.6666666666666666,0.8526315789473684,0.14130434782608695,0.2222222222222222
lfnwiki,True,72.0,0.13333333333333333,0.6666666666666666,0.8526315789473684,0.14130434782608695,0.2222222222222222
lfnwiki,True,73.0,0.15384615384615385,0.6666666666666666,0.8736842105263158,0.11956521739130435,0.25
lfnwiki,True,74.0,0.2222222222222222,0.6666666666666666,0.9157894736842105,0.07608695652173914,0.3333333333333333
lfnwiki,True,75.0,0.2222222222222222,0.6666666666666666,0.9157894736842105,0.07608695652173914,0.3333333333333333
lfnwiki,True,76.0,0.25,0.6666666666666666,0.9263157894736842,0.06521739130434782,0.36363636363636365
lfnwiki,True,77.0,0.25,0.6666666666666666,0.9263157894736842,0.06521739130434782,0.36363636363636365
lfnwiki,True,78.0,0.25,0.6666666666666666,0.9263157894736842,0.06521739130434782,0.36363636363636365
lfnwiki,True,79.0,0.25,0.6666666666666666,0.9263157894736842,0.06521739130434782,0.36363636363636365
lfnwiki,True,80.0,0.2857142857142857,0.6666666666666666,0.9368421052631579,0.05434782608695652,0.4
lfnwiki,True,81.0,0.2857142857142857,0.6666666666666666,0.9368421052631579,0.05434782608695652,0.4
lfnwiki,True,82.0,0.2857142857142857,0.6666666666666666,0.9368421052631579,0.05434782608695652,0.4
lfnwiki,True,83.0,0.2857142857142857,0.6666666666666666,0.9368421052631579,0.05434782608695652,0.4
lfnwiki,True,84.0,0.2857142857142857,0.6666666666666666,0.9368421052631579,0.05434782608695652,0.4
lfnwiki,True,85.0,0.2857142857142857,0.6666666666666666,0.9368421052631579,0.05434782608695652,0.4
lfnwiki,True,86.0,0.2857142857142857,0.6666666666666666,0.9368421052631579,0.05434782608695652,0.4
lfnwiki,True,87.0,0.2857142857142857,0.6666666666666666,0.9368421052631579,0.05434782608695652,0.4
lfnwiki,True,88.0,0.3333333333333333,0.6666666666666666,0.9473684210526315,0.043478260869565216,0.4444444444444444
lfnwiki,True,89.0,0.3333333333333333,0.6666666666666666,0.9473684210526315,0.043478260869565216,0.4444444444444444
lfnwiki,True,90.0,0.3333333333333333,0.6666666666666666,0.9473684210526315,0.043478260869565216,0.4444444444444444
lfnwiki,True,91.0,0.4,0.6666666666666666,0.9578947368421052,0.03260869565217391,0.5
lfnwiki,True,92.0,0.0,0.0,0.9578947368421052,0.010869565217391304,0.5
lfnwiki,True,93.0,0.0,0.0,0.9578947368421052,0.010869565217391304,0.5
lfnwiki,True,94.0,0.0,0.0,0.9578947368421052,0.010869565217391304,0.5
lfnwiki,True,95.0,0.0,0.0,0.9578947368421052,0.010869565217391304,0.5
lfnwiki,True,96.0,0.0,0.0,0.9578947368421052,0.010869565217391304,0.5
lfnwiki,True,97.0,0.0,0.0,0.968421052631579,0.0,0.5
lfnwiki,True,98.0,0.0,0.0,0.968421052631579,0.0,0.5
lfnwiki,True,99.0,0.0,0.0,0.968421052631579,0.0,0.5
lfnwiki,False,0.0,0.046442533229085224,1.0,0.046442533229085224,1.0,0.08876270173341304
lfnwiki,False,1.0,0.046442533229085224,1.0,0.046442533229085224,1.0,0.08876270173341304
lfnwiki,False,2.0,0.046442533229085224,1.0,0.046442533229085224,1.0,0.08876270173341304
lfnwiki,False,3.0,0.046442533229085224,1.0,0.046442533229085224,1.0,0.08876270173341304
lfnwiki,False,4.0,0.046442533229085224,1.0,0.046442533229085224,1.0,0.08876270173341304
lfnwiki,False,5.0,0.04664677242029213,1.0,0.0508209538702111,0.9954083306001967,0.08913565426170468
lfnwiki,False,6.0,0.04672750157331655,1.0,0.052541047693510555,0.9936044604788455,0.08928303021193446
lfnwiki,False,7.0,0.04672750157331655,1.0,0.052541047693510555,0.9936044604788455,0.08928303021193446
lfnwiki,False,8.0,0.04691943127962085,1.0,0.05660672400312744,0.9893407674647425,0.08963331824354911
lfnwiki,False,9.0,0.047657252888318354,1.0,0.07193119624706802,0.9732699245654313,0.09097871036912238
lfnwiki,False,10.0,0.0483319772172498,1.0,0.08553557466770914,0.9590029517874713,0.09220738900962433
lfnwiki,False,11.0,0.04888888888888889,1.0,0.09648162627052384,0.9475237782879633,0.09322033898305085
lfnwiki,False,12.0,0.04920477137176938,1.0,0.10258014073494919,0.9411282387668088,0.09379441023211747
lfnwiki,False,13.0,0.04967385850476668,1.0,0.11149335418295543,0.9317809117743523,0.09464627151051624
lfnwiki,False,14.0,0.05021132713440406,1.0,0.12150117279124316,0.921285667431945,0.0956213779781069
lfnwiki,False,15.0,0.05042444821731749,1.0,0.12541047693510554,0.9171859626106921,0.09600775820268305
lfnwiki,False,16.0,0.050934659578116964,1.0,0.1346364347146208,0.9075106592325353,0.09693211488250653
lfnwiki,False,17.0,0.051553549730949486,1.0,0.1455824863174355,0.8960314857330273,0.09805216242984484
lfnwiki,False,18.0,0.051941238195173135,1.0,0.15230648944487882,0.8889799934404723,0.09875311720698254
lfnwiki,False,19.0,0.05220601160133591,1.0,0.1568412822517592,0.884224335847819,0.09923154026060808
lfnwiki,False,20.0,0.05310209190059002,1.0,0.17185301016419077,0.8684814693342079,0.10084889643463497
lfnwiki,False,21.0,0.05407865986890022,1.0,0.18764659890539484,0.8519186618563463,0.10260839523233718
lfnwiki,False,22.0,0.05443548387096774,1.0,0.19327599687255667,0.8460150869137422,0.10325047801147227
lfnwiki,False,23.0,0.056260655427164234,1.0,0.2209538702111024,0.8169891767792719,0.10652797704447632
lfnwiki,False,24.0,0.05804182137971468,1.0,0.24628616106333073,0.7904230895375532,0.1097155522718877
lfnwiki,False,25.0,0.05963855421686747,1.0,0.26770914777169663,0.7679567071170875,0.11256395679363276
lfnwiki,False,26.0,0.06077348066298342,1.0,0.28225175918686474,0.7527058051820269,0.11458333333333333
lfnwiki,False,27.0,0.059314954051796154,0.9562289562289562,0.29366692728694294,0.7386028205969171,0.11170108161258603
lfnwiki,False,28.0,0.060348491287717805,0.9562289562289562,0.3064894448788116,0.7251557887832076,0.11353188087147711
lfnwiki,False,29.0,0.06090499678318679,0.9562289562289562,0.3132134480062549,0.7181042964906527,0.11451612903225805
lfnwiki,False,30.0,0.061698892026938956,0.9562289562289562,0.3225957779515246,0.7082650049196458,0.11591836734693879
lfnwiki,False,31.0,0.06281796062817961,0.9562289562289562,0.33541829554339325,0.6948179731059364,0.11789124117891242
lfnwiki,False,32.0,0.06346368715083799,0.9562289562289562,0.34261141516810006,0.687274516234831,0.1190276613579212
lfnwiki,False,33.0,0.0642243328810493,0.9562289562289562,0.35089913995308836,0.678583142013775,0.12036448400084762
lfnwiki,False,34.0,0.06528735632183907,0.9562289562289562,0.362157935887412,0.6667759921285668,0.12222939530880136
lfnwiki,False,35.0,0.06595448211797492,0.9562289562289562,0.36903831118060987,0.6595605116431617,0.12339778405387791
lfnwiki,False,36.0,0.06753864447086802,0.9562289562289562,0.38483189992181394,0.6429977041653001,0.12616614837849846
lfnwiki,False,37.0,0.06935286935286936,0.9562289562289562,0.40203283815480845,0.6249590029517875,0.12932604735883424
lfnwiki,False,38.0,0.0710532899674756,0.9562289562289562,0.417357310398749,0.6088881600524763,0.13227759664648348
lfnwiki,False,39.0,0.07184416898558058,0.9562289562289562,0.4242376856919468,0.6016726795670712,0.13364705882352942
lfnwiki,False,40.0,0.0728578758337609,0.9562289562289562,0.4328381548084441,0.5926533289603149,0.13539928486293204
lfnwiki,False,41.0,0.07501320655044902,0.9562289562289562,0.4503518373729476,0.574286651361102,0.13911339701200096
lfnwiki,False,42.0,0.0764057035243476,0.9562289562289562,0.4611415168100078,0.562971466054444,0.14150473343298456
lfnwiki,False,43.0,0.07817230938618222,0.9562289562289562,0.4742767787333855,0.5491964578550345,0.14452926208651398
lfnwiki,False,44.0,0.0802486578129415,0.9562289562289562,0.48897576231430806,0.5337815677271236,0.1480709071949948
lfnwiki,False,45.0,0.08301666179479684,0.9562289562289562,0.5074276778733385,0.5144309609708101,0.15277030661646046
lfnwiki,False,46.0,0.08372641509433962,0.9562289562289562,0.5119624706802189,0.5096753033781568,0.15397126592572513
lfnwiki,False,47.0,0.08624354691770422,0.9562289562289562,0.527443315089914,0.4934404722859954,0.15821727019498608
lfnwiki,False,48.0,0.08911201757138375,0.9562289562289562,0.5440187646598905,0.47605772384388323,0.1630309988518944
lfnwiki,False,49.0,0.09190938511326861,0.9562289562289562,0.5591868647380767,0.4601508691374221,0.1677000295246531
lfnwiki,False,50.0,0.09232769830949285,0.9562289562289562,0.5613760750586395,0.4578550344375205,0.16839608656981916
lfnwiki,False,51.0,0.09498327759197324,0.9562289562289562,0.5748240813135262,0.4437520498524106,0.17280194706419225
lfnwiki,False,52.0,0.09881697981906751,0.9562289562289562,0.5929632525410476,0.4247294194817973,0.17912330495111953
lfnwiki,False,53.0,0.10223182145428365,0.9562289562289562,0.6079749804534793,0.4089865529681863,0.18471544715447158
lfnwiki,False,54.0,0.10868733256792958,0.9562289562289562,0.6337763878029711,0.3819285011479174,0.19518900343642612
lfnwiki,False,55.0,0.11525974025974026,0.9562289562289562,0.6570758405003909,0.3574942604132502,0.20572256428830132
lfnwiki,False,56.0,0.11892797319932999,0.9562289562289562,0.6689601250977326,0.3450311577566415,0.21154562383612666
lfnwiki,False,57.0,0.13003663003663005,0.9562289562289562,0.7008600469116497,0.3115775664152181,0.22893994357114064
lfnwiki,False,58.0,0.13358419567262464,0.9562289562289562,0.7099296325254105,0.30206625122991143,0.234420140321915
lfnwiki,False,59.0,0.13942071674030437,0.9562289562289562,0.7238467552775606,0.2874713020662512,0.24335904027420738
lfnwiki,False,60.0,0.1443823080833757,0.9562289562289562,0.7347928068803753,0.2759921285667432,0.2508833922261484
lfnwiki,False,61.0,0.14776274713839752,0.9562289562289562,0.7418295543393276,0.26861265988848804,0.2559711581793601
lfnwiki,False,62.0,0.15725359911406422,0.9562289562289562,0.7599687255668491,0.2495900295178747,0.27009034712315744
lfnwiki,False,63.0,0.1611804767309875,0.9562289562289562,0.7668491008600469,0.24237454903246966,0.27586206896551724
lfnwiki,False,64.0,0.1699581089168163,0.9562289562289562,0.781078967943706,0.2274516234831092,0.2886178861788618
lfnwiki,False,65.0,0.1810070108349267,0.9562289562289562,0.7970289288506646,0.2107248278123975,0.30439442658092175
lfnwiki,False,66.0,0.1883289124668435,0.9562289562289562,0.8065676309616888,0.2007215480485405,0.3146814404432132
lfnwiki,False,67.0,0.1922816519972918,0.9562289562289562,0.8114151681000782,0.19563791407018694,0.3201803833145434
lfnwiki,False,68.0,0.19027484143763213,0.9090909090909091,0.8161063330727131,0.1884224335847819,0.3146853146853147
lfnwiki,False,69.0,0.20270270270270271,0.9090909090909091,0.8297107114933542,0.1741554608068219,0.3314917127071823
lfnwiki,False,70.0,0.20238095238095238,0.8585858585858586,0.836278342455043,0.16480813381436538,0.3275529865125241
lfnwiki,False,71.0,0.21537162162162163,0.8585858585858586,0.8481626270523847,0.15234503115775663,0.3443619176232275
lfnwiki,False,72.0,0.22077922077922077,0.8585858585858586,0.8526974198592651,0.14758937356510332,0.3512396694214876
lfnwiki,False,73.0,0.24056603773584906,0.8585858585858586,0.8675527756059421,0.1320104952443424,0.37582903463522477
lfnwiki,False,74.0,0.24926686217008798,0.8585858585858586,0.8733385457388585,0.12594293210888816,0.38636363636363635
lfnwiki,False,75.0,0.26870389884088514,0.8585858585858586,0.8849100860046911,0.11380780583797967,0.4093097913322632
lfnwiki,False,76.0,0.27242152466367714,0.8181818181818182,0.8900703674745896,0.1064283371597245,0.4087468460891506
lfnwiki,False,77.0,0.27242152466367714,0.8181818181818182,0.8900703674745896,0.1064283371597245,0.4087468460891506
lfnwiki,False,78.0,0.2665121668597914,0.7744107744107744,0.890539483971853,0.10380452607412266,0.396551724137931
lfnwiki,False,79.0,0.270906949352179,0.7744107744107744,0.892728694292416,0.10150869137422106,0.4013961605584642
lfnwiki,False,80.0,0.28255528255528256,0.7744107744107744,0.8982017200938233,0.09576910462446704,0.414041404140414
lfnwiki,False,81.0,0.30831099195710454,0.7744107744107744,0.908835027365129,0.08461790751065923,0.44103547459252157
lfnwiki,False,82.0,0.31636863823933975,0.7744107744107744,0.9118060985144645,0.08150213184650705,0.44921874999999994
lfnwiki,False,83.0,0.3258258258258258,0.7306397306397306,0.9172791243158718,0.07363069858970155,0.45067497403946
lfnwiki,False,84.0,0.32901134521880065,0.6835016835016835,0.9205629397967162,0.06789111183994752,0.4442013129102844
lfnwiki,False,85.0,0.33777038269550747,0.6835016835016835,0.9230648944487881,0.06526730075434568,0.4521158129175946
lfnwiki,False,86.0,0.34587813620071683,0.6498316498316499,0.9266614542611415,0.0598556903902919,0.45146198830409356
lfnwiki,False,87.0,0.30237154150197626,0.5151515151515151,0.9222830336200156,0.05788783207609052,0.3810709838107098
lfnwiki,False,88.0,0.3357487922705314,0.468013468013468,0.9322908522283033,0.04509675303378157,0.39099859353023914
lfnwiki,False,89.0,0.3357487922705314,0.468013468013468,0.9322908522283033,0.04509675303378157,0.39099859353023914
lfnwiki,False,90.0,0.3633720930232558,0.4208754208754209,0.9388584831899922,0.03591341423417514,0.39001560062402496
lfnwiki,False,91.0,0.4098360655737705,0.4208754208754209,0.9449569976544175,0.029517874713020663,0.41528239202657813
lfnwiki,False,92.0,0.4541832669322709,0.3838383838383838,0.9499609069585614,0.022466382420465725,0.41605839416058393
lfnwiki,False,93.0,0.38009049773755654,0.2828282828282828,0.9452697419859265,0.022466382420465725,0.3243243243243243
lfnwiki,False,94.0,0.43523316062176165,0.2828282828282828,0.9496481626270524,0.017874713020662514,0.34285714285714286
lfnwiki,False,95.0,0.525,0.2828282828282828,0.9548084440969508,0.012463102656608724,0.36761487964989065
lfnwiki,False,96.0,0.5079365079365079,0.21548821548821548,0.9538702111024238,0.010167267956707117,0.3026004728132387
lfnwiki,False,97.0,0.8205128205128205,0.21548821548821548,0.9613760750586395,0.0022958346999016072,0.3413333333333334
lfnwiki,False,98.0,1.0,0.21548821548821548,0.9635652853792025,0.0,0.3545706371191136
lfnwiki,False,99.0,1.0,0.10101010101010101,0.9582486317435497,0.0,0.1834862385321101
