wiki_db,user_is_bot,threshold,precision,recall,accuracy,fpr,F1
mhrwiki,True,0.0,0.03778625954198473,1.0,0.03778625954198473,1.0,0.07282089003310041
mhrwiki,True,1.0,0.03778625954198473,1.0,0.03778625954198473,1.0,0.07282089003310041
mhrwiki,True,2.0,0.03778625954198473,1.0,0.03778625954198473,1.0,0.07282089003310041
mhrwiki,True,3.0,0.03778625954198473,1.0,0.03778625954198473,1.0,0.07282089003310041
mhrwiki,True,4.0,0.03778625954198473,1.0,0.03778625954198473,1.0,0.07282089003310041
mhrwiki,True,5.0,0.03778625954198473,1.0,0.03778625954198473,1.0,0.07282089003310041
mhrwiki,True,6.0,0.03778625954198473,1.0,0.03778625954198473,1.0,0.07282089003310041
mhrwiki,True,7.0,0.03787299158377965,1.0,0.04007633587786259,0.9976199920666402,0.07298193881312201
mhrwiki,True,8.0,0.03790199081163859,1.0,0.04083969465648855,0.9968266560888537,0.07303578015492437
mhrwiki,True,9.0,0.0379746835443038,1.0,0.042748091603053436,0.9948433161443871,0.07317073170731708
mhrwiki,True,10.0,0.03800383877159309,1.0,0.04351145038167939,0.9940499801666005,0.07322485207100593
mhrwiki,True,11.0,0.03815028901734104,1.0,0.04732824427480916,0.9900833002776676,0.07349665924276169
mhrwiki,True,12.0,0.03837209302325582,1.0,0.05305343511450382,0.9841332804442682,0.07390817469204927
mhrwiki,True,13.0,0.03852140077821012,1.0,0.05687022900763359,0.9801666005553352,0.07418508804795804
mhrwiki,True,14.0,0.039037854889589906,1.0,0.06984732824427481,0.9666798889329631,0.07514231499051233
mhrwiki,True,15.0,0.03936381709741551,1.0,0.07786259541984733,0.9583498611662039,0.0757459831675593
mhrwiki,True,16.0,0.04070723684210526,1.0,0.10954198473282442,0.9254264180880603,0.0782299486369024
mhrwiki,True,17.0,0.04168421052631579,1.0,0.13129770992366413,0.9028163427211424,0.08003233629749394
mhrwiki,True,18.0,0.042764578833693306,1.0,0.15419847328244274,0.8790162633875446,0.08202154101077051
mhrwiki,True,19.0,0.0437859354268023,1.0,0.17480916030534352,0.8575961919873066,0.08389830508474577
mhrwiki,True,20.0,0.044434470377019746,1.0,0.18740458015267175,0.8445061483538279,0.08508809626128062
mhrwiki,True,21.0,0.04551724137931035,1.0,0.20763358778625954,0.8234827449424832,0.0870712401055409
mhrwiki,True,22.0,0.04678638941398866,1.0,0.23015267175572518,0.8000793335977786,0.08939051918735892
mhrwiki,True,23.0,0.0470532319391635,1.0,0.23473282442748092,0.7953193177310591,0.08987743985474353
mhrwiki,True,24.0,0.047619047619047616,1.0,0.24427480916030533,0.7854026180087267,0.0909090909090909
mhrwiki,True,25.0,0.04822211397954213,1.0,0.25419847328244277,0.775089250297501,0.09200743494423791
mhrwiki,True,26.0,0.04876847290640394,1.0,0.2629770992366412,0.7659658865529552,0.09300140911225926
mhrwiki,True,27.0,0.04927824788451966,1.0,0.27099236641221375,0.757635858786196,0.09392789373814041
mhrwiki,True,28.0,0.050407331975560084,1.0,0.2881679389312977,0.7397857992859976,0.09597673291323316
mhrwiki,True,29.0,0.05079527963057978,1.0,0.29389312977099236,0.7338357794525981,0.0966796875
mhrwiki,True,30.0,0.05010330578512397,0.9797979797979798,0.29732824427480914,0.7294724315747719,0.09533169533169532
mhrwiki,True,31.0,0.051982851018220796,0.9797979797979798,0.3240458015267176,0.7017056723522411,0.09872773536895675
mhrwiki,True,32.0,0.05629715612304121,0.9797979797979798,0.3786259541984733,0.6449821499404998,0.10647639956092206
mhrwiki,True,33.0,0.06394199077125906,0.9797979797979798,0.45725190839694657,0.5632685442284807,0.12004950495049507
mhrwiki,True,34.0,0.06918687589158345,0.9797979797979798,0.501145038167939,0.5176517255057517,0.12924716855429713
mhrwiki,True,35.0,0.072768192048012,0.9797979797979798,0.5274809160305344,0.49028163427211424,0.13547486033519554
mhrwiki,True,36.0,0.07625786163522012,0.9797979797979798,0.5507633587786259,0.4660848869496232,0.14150255288110866
mhrwiki,True,37.0,0.08056478405315615,0.9797979797979798,0.5767175572519084,0.439111463704879,0.1488871834228703
mhrwiki,True,38.0,0.08874656907593778,0.9797979797979798,0.6190839694656488,0.39508131693772314,0.16275167785234898
mhrwiki,True,39.0,0.09317963496637849,0.9797979797979798,0.6389312977099236,0.3744545815152717,0.17017543859649123
mhrwiki,True,40.0,0.1,0.9494949494949495,0.6751908396946565,0.3355811186037287,0.1809432146294514
mhrwiki,True,41.0,0.10375275938189846,0.9494949494949495,0.6881679389312977,0.3220944069813566,0.18706467661691545
mhrwiki,True,42.0,0.1087962962962963,0.9494949494949495,0.7041984732824428,0.30543435144783815,0.19522326064382137
mhrwiki,True,43.0,0.11311672683513839,0.9494949494949495,0.716793893129771,0.2923443078143594,0.2021505376344086
mhrwiki,True,44.0,0.11604938271604938,0.9494949494949495,0.7248091603053435,0.28401428004760015,0.20682068206820678
mhrwiki,True,45.0,0.11853720050441362,0.9494949494949495,0.7312977099236642,0.27727092423641414,0.21076233183856502
mhrwiki,True,46.0,0.12287581699346405,0.9494949494949495,0.7419847328244275,0.2661642205474018,0.21759259259259262
mhrwiki,True,47.0,0.12516644474034622,0.9494949494949495,0.7473282442748092,0.2606108687028957,0.22117647058823528
mhrwiki,True,48.0,0.12806539509536785,0.9494949494949495,0.7538167938931297,0.2538675128917096,0.2256902761104442
mhrwiki,True,49.0,0.1298342541436464,0.9494949494949495,0.7576335877862596,0.24990083300277668,0.2284325637910085
mhrwiki,True,50.0,0.13295615275813297,0.9494949494949495,0.7641221374045801,0.24315747719159064,0.23325062034739452
mhrwiki,True,51.0,0.13702623906705538,0.9494949494949495,0.7721374045801527,0.2348274494248314,0.23949044585987256
mhrwiki,True,52.0,0.14461538461538462,0.9494949494949495,0.7858778625954198,0.22054740182467275,0.2510013351134846
mhrwiki,True,53.0,0.14618973561430793,0.9494949494949495,0.7885496183206107,0.21777072590241967,0.25336927223719674
mhrwiki,True,54.0,0.1518578352180937,0.9494949494949495,0.7977099236641222,0.20825069416898057,0.2618384401114206
mhrwiki,True,55.0,0.1551155115511551,0.9494949494949495,0.8026717557251909,0.2030940103133677,0.26666666666666666
mhrwiki,True,56.0,0.15905245346869712,0.9494949494949495,0.8083969465648855,0.19714399047996828,0.27246376811594203
mhrwiki,True,57.0,0.16123499142367068,0.9494949494949495,0.8114503816793893,0.1939706465688219,0.27565982404692085
mhrwiki,True,58.0,0.1657848324514991,0.9494949494949495,0.8175572519083969,0.18762395874652915,0.2822822822822823
mhrwiki,True,59.0,0.16936936936936936,0.9494949494949495,0.8221374045801527,0.1828639428798096,0.2874617737003058
mhrwiki,True,60.0,0.18042226487523993,0.9494949494949495,0.8351145038167939,0.16937723125743753,0.3032258064516129
mhrwiki,True,61.0,0.1854043392504931,0.9494949494949495,0.8404580152671756,0.1638238794129314,0.31023102310231027
mhrwiki,True,62.0,0.1891348088531187,0.9494949494949495,0.8442748091603054,0.1598571995239984,0.31543624161073824
mhrwiki,True,63.0,0.20042643923240938,0.9494949494949495,0.8549618320610687,0.14875049583498612,0.33098591549295775
mhrwiki,True,64.0,0.2079646017699115,0.9494949494949495,0.8614503816793894,0.14200714002380008,0.34119782214156075
mhrwiki,True,65.0,0.21559633027522937,0.9494949494949495,0.8675572519083969,0.13566045220150733,0.3514018691588785
mhrwiki,True,66.0,0.2186046511627907,0.9494949494949495,0.8698473282442748,0.13328044426814756,0.3553875236294896
mhrwiki,True,67.0,0.22982885085574573,0.9494949494949495,0.8778625954198473,0.12495041650138834,0.3700787401574803
mhrwiki,True,68.0,0.2275,0.9191919191919192,0.8790076335877862,0.12257040856802856,0.36472945891783576
mhrwiki,True,69.0,0.23333333333333334,0.9191919191919192,0.882824427480916,0.11860372867909559,0.37218813905930476
mhrwiki,True,70.0,0.24331550802139038,0.9191919191919192,0.8889312977099236,0.11225704085680285,0.38477801268498946
mhrwiki,True,71.0,0.2430939226519337,0.8888888888888888,0.8912213740458015,0.10868702895676319,0.3817787418655097
mhrwiki,True,72.0,0.24788732394366197,0.8888888888888888,0.8938931297709923,0.10591035303451012,0.3876651982378854
mhrwiki,True,73.0,0.2573099415204678,0.8888888888888888,0.898854961832061,0.10075366917889726,0.39909297052154197
mhrwiki,True,74.0,0.26426426426426425,0.8888888888888888,0.9022900763358779,0.0971836572788576,0.4074074074074074
mhrwiki,True,75.0,0.2691131498470948,0.8888888888888888,0.9045801526717557,0.09480364934549781,0.4131455399061033
mhrwiki,True,76.0,0.28205128205128205,0.8888888888888888,0.9103053435114504,0.08885362951209837,0.4282238442822384
mhrwiki,True,77.0,0.292358803986711,0.8888888888888888,0.9145038167938931,0.08449028163427211,0.44
mhrwiki,True,78.0,0.3087719298245614,0.8888888888888888,0.9206106870229007,0.07814359381197937,0.4583333333333333
mhrwiki,True,79.0,0.32234432234432236,0.8888888888888888,0.9251908396946565,0.07338357794525982,0.47311827956989255
mhrwiki,True,80.0,0.35864978902953587,0.8585858585858586,0.9366412213740458,0.06029353431178104,0.5059523809523809
mhrwiki,True,81.0,0.37610619469026546,0.8585858585858586,0.9408396946564885,0.05593018643395478,0.523076923076923
mhrwiki,True,82.0,0.397196261682243,0.8585858585858586,0.9454198473282442,0.051170170567235225,0.5431309904153354
mhrwiki,True,83.0,0.4120603015075377,0.8282828282828283,0.9488549618320611,0.04641015470051567,0.5503355704697988
mhrwiki,True,84.0,0.4340659340659341,0.797979797979798,0.9530534351145038,0.04085680285600952,0.5622775800711743
mhrwiki,True,85.0,0.4342857142857143,0.7676767676767676,0.9534351145038168,0.03927013090043634,0.5547445255474452
mhrwiki,True,86.0,0.45222929936305734,0.7171717171717171,0.9564885496183206,0.03411344704482348,0.5546875
mhrwiki,True,87.0,0.4714285714285714,0.6666666666666666,0.9591603053435115,0.029353431178103927,0.5523012552301255
mhrwiki,True,88.0,0.48120300751879697,0.6464646464646465,0.9603053435114504,0.027370091233637445,0.5517241379310345
mhrwiki,True,89.0,0.4666666666666667,0.5656565656565656,0.9591603053435115,0.025386751289170964,0.5114155251141552
mhrwiki,True,90.0,0.4368932038834951,0.45454545454545453,0.9572519083969465,0.023006743355811186,0.4455445544554455
mhrwiki,True,91.0,0.3709677419354839,0.23232323232323232,0.9561068702290076,0.015470051566838556,0.2857142857142857
mhrwiki,True,92.0,0.32608695652173914,0.15151515151515152,0.9561068702290076,0.012296707655692185,0.20689655172413793
mhrwiki,True,93.0,0.22580645161290322,0.0707070707070707,0.9557251908396946,0.009520031733439112,0.10769230769230768
mhrwiki,True,94.0,0.13636363636363635,0.030303030303030304,0.9561068702290076,0.00753669178897263,0.049586776859504134
mhrwiki,True,95.0,0.21428571428571427,0.030303030303030304,0.9591603053435115,0.00436334787782626,0.05309734513274336
mhrwiki,True,96.0,0.375,0.030303030303030304,0.9614503816793893,0.0019833399444664813,0.05607476635514019
mhrwiki,True,97.0,0.0,0.0,0.9610687022900763,0.001190003966679889,0.05607476635514019
mhrwiki,True,98.0,0.0,0.0,0.9610687022900763,0.001190003966679889,0.05607476635514019
mhrwiki,True,99.0,0.0,0.0,0.9622137404580152,0.0,0.05607476635514019
mhrwiki,False,0.0,0.04925028835063437,1.0,0.04925028835063437,1.0,0.09387710234143125
mhrwiki,False,1.0,0.04925028835063437,1.0,0.04925028835063437,1.0,0.09387710234143125
mhrwiki,False,2.0,0.04925028835063437,1.0,0.04925028835063437,1.0,0.09387710234143125
mhrwiki,False,3.0,0.04925028835063437,1.0,0.04925028835063437,1.0,0.09387710234143125
mhrwiki,False,4.0,0.04925028835063437,1.0,0.04925028835063437,1.0,0.09387710234143125
mhrwiki,False,5.0,0.04925028835063437,1.0,0.04925028835063437,1.0,0.09387710234143125
mhrwiki,False,6.0,0.04925028835063437,1.0,0.04925028835063437,1.0,0.09387710234143125
mhrwiki,False,7.0,0.04941557690082166,1.0,0.05259515570934256,0.9964818633992478,0.09417732686369651
mhrwiki,False,8.0,0.049501507071643865,1.0,0.054325259515570934,0.9946621375712726,0.09433337015354026
mhrwiki,False,9.0,0.049564712710388856,1.0,0.05559400230680508,0.9933276719640908,0.0944481309444813
mhrwiki,False,10.0,0.04964539007092199,1.0,0.05720876585928489,0.9916292611913139,0.0945945945945946
mhrwiki,False,11.0,0.04987152534454567,1.0,0.06170703575547866,0.9868979740385782,0.09500500611858939
mhrwiki,False,12.0,0.05015858099377423,1.0,0.06735870818915801,0.9809535363338591,0.09552572706935125
mhrwiki,False,13.0,0.050282618935468676,1.0,0.06978085351787774,0.9784059201746936,0.09575064469110887
mhrwiki,False,14.0,0.05091819699499165,1.0,0.08200692041522491,0.9655465243236686,0.09690230341540905
mhrwiki,False,15.0,0.051359153235506376,1.0,0.0903114186851211,0.9568118403493874,0.09770049193456126
mhrwiki,False,16.0,0.052892357240183326,1.0,0.11810841983852365,0.9275749120465849,0.10047058823529412
mhrwiki,False,17.0,0.0542015740035542,1.0,0.1405997693194925,0.9039184762829067,0.10282962071041542
mhrwiki,False,18.0,0.05558448320749805,1.0,0.1632064590542099,0.8801407254640301,0.10531508200764583
mhrwiki,False,19.0,0.056751727804359386,1.0,0.18143021914648214,0.8609729467426908,0.1074078732234939
mhrwiki,False,20.0,0.05758597437626433,1.0,0.19400230680507496,0.8477496057260706,0.10890079061463913
mhrwiki,False,21.0,0.0589697555586245,1.0,0.2140715109573241,0.8266407861215577,0.11137193531559728
mhrwiki,False,22.0,0.060541613497802356,1.0,0.23575547866205307,0.8038335557442678,0.11417112299465242
mhrwiki,False,23.0,0.06094775906365972,1.0,0.2411764705882353,0.7981317481499454,0.11489304453114489
mhrwiki,False,24.0,0.06183029249927599,1.0,0.25271049596309114,0.7860002426301104,0.11645983908359471
mhrwiki,False,25.0,0.06263752383746517,1.0,0.2629757785467128,0.7752032027174572,0.11789066813914964
mhrwiki,False,26.0,0.06334371754932502,1.0,0.2717416378316032,0.7659832585223826,0.119140625
mhrwiki,False,27.0,0.06389346102049978,1.0,0.2784313725490196,0.7589469853208783,0.12011251758087202
mhrwiki,False,28.0,0.06534047436878347,1.0,0.2955017301038062,0.7409923571515225,0.12266590060327491
mhrwiki,False,29.0,0.06602752435441472,1.0,0.3033448673587082,0.7327429333980346,0.1238758340586017
mhrwiki,False,30.0,0.06423017107309487,0.9672131147540983,0.30438292964244523,0.7299526871284726,0.1204608429342278
mhrwiki,False,31.0,0.06584821428571429,0.9672131147540983,0.3226066897347174,0.7107849084071334,0.12330198537095091
mhrwiki,False,32.0,0.07027394929385741,0.9672131147540983,0.3681660899653979,0.662865461603785,0.13102791878172593
mhrwiki,False,33.0,0.07605893186003683,0.9672131147540983,0.41972318339100345,0.6086376319301225,0.1410278299470719
mhrwiki,False,34.0,0.08030332490764146,0.9672131147540983,0.4528258362168397,0.573820211088196,0.14829443447037702
mhrwiki,False,35.0,0.08314878196094222,0.9672131147540983,0.47312572087658594,0.5524687613732864,0.1531331108639229
mhrwiki,False,36.0,0.08547185430463576,0.9672131147540983,0.48869665513264127,0.5360912289215092,0.1570640806236927
mhrwiki,False,37.0,0.0887599398237696,0.9672131147540983,0.5093425605536333,0.5143758340410045,0.1625984251968504
mhrwiki,False,38.0,0.09280898876404495,0.9672131147540983,0.5327566320645906,0.4897488778357394,0.1693664137789625
mhrwiki,False,39.0,0.0955576122165664,0.9672131147540983,0.547520184544406,0.4742205507703506,0.17393135396925669
mhrwiki,False,40.0,0.0979431929480901,0.936768149882904,0.5719723183391003,0.44692466335072184,0.17734426956328972
mhrwiki,False,41.0,0.10025062656641603,0.936768149882904,0.5828143021914648,0.43552104816207693,0.1811184061580258
mhrwiki,False,42.0,0.10298661174047374,0.936768149882904,0.595040369088812,0.4226616523110518,0.18557179308745073
mhrwiki,False,43.0,0.10562450488513335,0.936768149882904,0.6062283737024221,0.4108940919568118,0.18984337921214997
mhrwiki,False,44.0,0.1078167115902965,0.936768149882904,0.6151095732410611,0.4015528327065389,0.19337684312303602
mhrwiki,False,45.0,0.11037527593818984,0.936768149882904,0.6250288350634371,0.3911197379594808,0.1974821031843989
mhrwiki,False,46.0,0.11373329542223486,0.936768149882904,0.6373702422145329,0.3781390270532573,0.2028397565922921
mhrwiki,False,47.0,0.11644832605531295,0.936768149882904,0.6468281430219146,0.3681911925269926,0.20714655618850336
mhrwiki,False,48.0,0.11929615269907545,0.936768149882904,0.6562860438292965,0.3582433580007279,0.21164021164021163
mhrwiki,False,49.0,0.12124886329190664,0.936768149882904,0.6625144175317186,0.351692345020017,0.21470746108427272
mhrwiki,False,50.0,0.12430080795525171,0.936768149882904,0.6718569780853518,0.3418658255489506,0.2194787379972565
mhrwiki,False,51.0,0.12845215157353887,0.936768149882904,0.6838523644752018,0.3292490598083222,0.2259248799774075
mhrwiki,False,52.0,0.13351134846461948,0.936768149882904,0.6974625144175317,0.3149338832949169,0.23371311714869994
mhrwiki,False,53.0,0.1353637901861252,0.936768149882904,0.7021914648212226,0.30995996603178455,0.2365464222353637
mhrwiki,False,54.0,0.1402524544179523,0.936768149882904,0.7140715109573241,0.2974645153463545,0.24397682220189085
mhrwiki,False,55.0,0.14450867052023122,0.936768149882904,0.723760092272203,0.2872740507096931,0.2503912363067292
mhrwiki,False,56.0,0.14908684308609765,0.936768149882904,0.7335640138408305,0.27696227101783333,0.25723472668810293
mhrwiki,False,57.0,0.1513431706394249,0.936768149882904,0.7381776239907728,0.2721096688098993,0.26058631921824105
mhrwiki,False,58.0,0.15618898867629832,0.936768149882904,0.7476355247981545,0.2621618342836346,0.26773761713520755
mhrwiki,False,59.0,0.1592356687898089,0.936768149882904,0.7532871972318339,0.25621739657891546,0.27220142905750255
mhrwiki,False,60.0,0.16750418760469013,0.936768149882904,0.7675893886966552,0.24117432973432004,0.28419182948490235
mhrwiki,False,61.0,0.17123287671232876,0.936768149882904,0.7735870818915802,0.23486594686400583,0.2895403546869345
mhrwiki,False,62.0,0.176522506619594,0.936768149882904,0.7816608996539792,0.2263738930001213,0.29706646862235425
mhrwiki,False,63.0,0.18613308515588645,0.936768149882904,0.7951557093425605,0.21218003154191434,0.31055900621118016
mhrwiki,False,64.0,0.1932367149758454,0.936768149882904,0.8042675893886967,0.2025961421812447,0.3203844613536243
mhrwiki,False,65.0,0.20171457387796268,0.936768149882904,0.8143021914648212,0.19204173237898822,0.33195020746887965
mhrwiki,False,66.0,0.20408163265306123,0.936768149882904,0.816955017301038,0.1892514861094262,0.33514872224549647
mhrwiki,False,67.0,0.21447721179624665,0.936768149882904,0.8279123414071511,0.17772655586558292,0.34904013961605584
mhrwiki,False,68.0,0.21162280701754385,0.9039812646370023,0.8294117647058824,0.17445104937522746,0.34295868502887605
mhrwiki,False,69.0,0.21624649859943978,0.9039812646370023,0.8339100346020761,0.1697197622224918,0.34900542495479203
mhrwiki,False,70.0,0.22652582159624413,0.9039812646370023,0.8432525951557094,0.15989324275142544,0.36227123416236506
mhrwiki,False,71.0,0.2287980475899939,0.8782201405152225,0.8482122260668974,0.15334222977071454,0.36302032913843174
mhrwiki,False,72.0,0.23452157598499063,0.8782201405152225,0.8528258362168397,0.14848962756278053,0.37018756169792694
mhrwiki,False,73.0,0.24525833878351863,0.8782201405152225,0.8608996539792387,0.13999757369889604,0.3834355828220859
mhrwiki,False,74.0,0.2545824847250509,0.8782201405152225,0.8673587081891581,0.13320393060778843,0.3947368421052631
mhrwiki,False,75.0,0.26187150837988826,0.8782201405152225,0.8720876585928489,0.12823001334465609,0.40344271113501884
mhrwiki,False,76.0,0.2727272727272727,0.8782201405152225,0.8786620530565167,0.12131505519835012,0.41620421753607095
mhrwiki,False,77.0,0.2840909090909091,0.8782201405152225,0.8850057670126874,0.11464272716244085,0.42930738408700636
mhrwiki,False,78.0,0.29856687898089174,0.8782201405152225,0.8923875432525952,0.10687856362974645,0.44563279857397514
mhrwiki,False,79.0,0.3117206982543641,0.8782201405152225,0.8985005767012687,0.10044886570423389,0.4601226993865031
mhrwiki,False,80.0,0.3358070500927644,0.8477751756440282,0.909919261822376,0.08686157952201869,0.4810631229235881
mhrwiki,False,81.0,0.35317073170731705,0.8477751756440282,0.9160322952710496,0.08043188159650613,0.4986225895316804
mhrwiki,False,82.0,0.3735810113519092,0.8477751756440282,0.9224913494809689,0.07363823850539852,0.518624641833811
mhrwiki,False,83.0,0.38870431893687707,0.8220140515222483,0.9275663206459054,0.06696591046948927,0.5278195488721805
mhrwiki,False,84.0,0.4111245465538089,0.7962529274004684,0.9337946943483275,0.05908043188159651,0.5422647527910686
mhrwiki,False,85.0,0.41698352344740175,0.7704918032786885,0.9356401384083045,0.05580492539124105,0.5411184210526315
mhrwiki,False,86.0,0.437410071942446,0.711943793911007,0.9407151095732411,0.047434186582554896,0.5418894830659536
mhrwiki,False,87.0,0.4504065040650406,0.6487119437939111,0.9437139561707035,0.041004488657042336,0.5316698656429942
mhrwiki,False,88.0,0.4597902097902098,0.6159250585480094,0.9454440599769319,0.03748635205629019,0.5265265265265265
mhrwiki,False,89.0,0.44313725490196076,0.5292740046838408,0.9440599769319492,0.03445347567633143,0.4823906083244397
mhrwiki,False,90.0,0.42316258351893093,0.4449648711943794,0.9427912341407151,0.03142059929637268,0.4337899543378995
mhrwiki,False,91.0,0.31851851851851853,0.20140515222482436,0.9394463667820069,0.02232197015649642,0.2467718794835007
mhrwiki,False,92.0,0.3137254901960784,0.14988290398126464,0.9419838523644752,0.016984107727769017,0.20285261489698891
mhrwiki,False,93.0,0.16911764705882354,0.053864168618266976,0.9403690888119954,0.013708601237413564,0.0817051509769094
mhrwiki,False,94.0,0.13402061855670103,0.03044496487119438,0.942560553633218,0.010190464636661409,0.04961832061068702
mhrwiki,False,95.0,0.18055555555555555,0.03044496487119438,0.9454440599769319,0.007157588256702657,0.052104208416833664
mhrwiki,False,96.0,0.3023255813953488,0.03044496487119438,0.9487889273356401,0.0036394516559505033,0.055319148936170216
mhrwiki,False,97.0,0.0,0.0,0.9490196078431372,0.0018197258279752516,0.055319148936170216
mhrwiki,False,98.0,0.0,0.0,0.9490196078431372,0.0018197258279752516,0.055319148936170216
mhrwiki,False,99.0,0.0,0.0,0.9507497116493656,0.0,0.055319148936170216
