wiki_db,user_is_bot,threshold,precision,recall,accuracy,fpr,F1
minwiki,True,0.0,0.0002481259195254665,1.0,0.0002481259195254665,1.0,0.0004961287366519482
minwiki,True,1.0,0.0002481259195254665,1.0,0.0002481259195254665,1.0,0.0004961287366519482
minwiki,True,2.0,0.0002546763064145471,1.0,0.02596856682468882,0.9742731756028766,0.000509222925815206
minwiki,True,3.0,0.0003273498908191835,1.0,0.24226430956773545,0.7579237509599016,0.0006544855358696574
minwiki,True,4.0,0.0007162116616110549,1.0,0.6538059596926742,0.34627996134114686,0.001431398139182419
minwiki,True,5.0,0.0007957087893056739,1.0,0.6884180659022442,0.3116592648394227,0.0015901522804654471
minwiki,True,6.0,0.0009011038522189682,0.9882352941176471,0.7281240512832489,0.27194050507616435,0.0018005658921375288
minwiki,True,7.0,0.0011260650132957073,0.9764705882352941,0.7850733285070409,0.21497417390060236,0.002249535863835323
minwiki,True,8.0,0.0014394727714186612,0.9764705882352941,0.831919502113449,0.1681163736594225,0.002874707766906226
minwiki,True,9.0,0.0017105290274715083,0.9764705882352941,0.8585915788982041,0.14143767719857628,0.0034150757077024358
minwiki,True,10.0,0.002171524253047983,0.9764705882352941,0.8886615212162257,0.11136027189670729,0.004333411648001671
minwiki,True,11.0,0.004380809915589272,0.9647058823529412,0.9455903645407627,0.05441437969183872,0.008722012444822635
minwiki,True,12.0,0.005969280046589503,0.9647058823529412,0.9601305434249551,0.03987059211698099,0.011865142526407177
minwiki,True,13.0,0.007113115891741846,0.9647058823529412,0.9665788982041522,0.03342063693672387,0.014122104538017738
minwiki,True,14.0,0.007882341632221474,0.9647058823529412,0.9698629177272834,0.0301358023609931,0.015636918382913804
minwiki,True,15.0,0.014357501794687724,0.9411764705882353,0.9839535508278648,0.01603583243547855,0.028283542513699838
minwiki,True,16.0,0.020030425963488845,0.9294117647058824,0.9887000537119638,0.01128523167573281,0.0392156862745098
minwiki,True,17.0,0.02056220718375846,0.9294117647058824,0.9889978048153943,0.010987406674199887,0.04023427552839317
minwiki,True,18.0,0.02114561027837259,0.9294117647058824,0.9893072324326849,0.010677902260842144,0.04135043182412981
minwiki,True,19.0,0.021391822366639588,0.9294117647058824,0.9894327549566801,0.010552348583725323,0.04182106934886183
minwiki,True,20.0,0.02435265104808878,0.9294117647058824,0.9907434436374676,0.009241334606389222,0.04746170021027336
minwiki,True,21.0,0.02933433621662279,0.9176470588235294,0.9924452955325658,0.007536140479965429,0.056851311953352766
minwiki,True,22.0,0.030046224961479198,0.9176470588235294,0.9926292006258611,0.007352189743724506,0.058187243565833636
minwiki,True,23.0,0.03098927294398093,0.9176470588235294,0.9928598117745966,0.007121521360184301,0.05995388162951576
minwiki,True,24.0,0.03430079155672823,0.9176470588235294,0.9935691599915929,0.006411997091826455,0.06612971598134802
minwiki,True,25.0,0.03480589022757698,0.9176470588235294,0.9936654912309381,0.006315641944271686,0.06706792777300087
minwiki,True,26.0,0.03777239709443099,0.9176470588235294,0.9941792578407791,0.0058017478239795845,0.07255813953488371
minwiki,True,27.0,0.044647967945048654,0.9176470588235294,0.9951075406926508,0.004873234583906354,0.0851528384279476
minwiki,True,28.0,0.0448456610366919,0.9058823529411765,0.9951892762896709,0.004788558848176406,0.08546059933407325
minwiki,True,29.0,0.044997039668442866,0.8941176470588236,0.9952651736297611,0.004709722818358867,0.08568207440811726
minwiki,True,30.0,0.05121293800539083,0.8941176470588236,0.9958635949650873,0.004111152962336817,0.09687699171446781
minwiki,True,31.0,0.055433989788475566,0.8941176470588236,0.9961934564816328,0.0037812095782856375,0.1043956043956044
minwiki,True,32.0,0.05701425356339085,0.8941176470588236,0.9963043833633031,0.0036702551659498427,0.1071932299012694
minwiki,True,33.0,0.058596761757902856,0.8941176470588236,0.9964094719880433,0.003565140459526458,0.10998552821997107
minwiki,True,34.0,0.060221870047543584,0.8941176470588236,0.9965116414843185,0.003462945606059279,0.11284335560504827
minwiki,True,35.0,0.05972558514931396,0.8705882352941177,0.9965671049251535,0.0034016286939789714,0.11178247734138973
minwiki,True,36.0,0.06060606060606061,0.8705882352941177,0.9966196492375237,0.003349071340767279,0.11332312404287903
minwiki,True,37.0,0.061872909698996656,0.8705882352941177,0.9966926274491488,0.003276075016862151,0.11553473848555816
minwiki,True,38.0,0.06357388316151202,0.8705882352941177,0.996786039560029,0.0031826397222635867,0.11849479583666933
minwiki,True,39.0,0.06514084507042253,0.8705882352941177,0.9968677751570492,0.003100883839489843,0.1212121212121212
minwiki,True,40.0,0.0664869721473495,0.8705882352941177,0.9969349151117443,0.0030337272214971253,0.12353923205342235
minwiki,True,41.0,0.06820276497695853,0.8705882352941177,0.9970166507087644,0.002951971338723382,0.1264957264957265
minwiki,True,42.0,0.06906338694418164,0.8588235294117647,0.9970925480488545,0.0028731353089058434,0.12784588441330996
minwiki,True,43.0,0.06999041227229147,0.8588235294117647,0.9971334158473646,0.0028322573675189718,0.12943262411347517
minwiki,True,44.0,0.07234886025768088,0.8588235294117647,0.9972326662151748,0.0027329823670079975,0.13345521023766
minwiki,True,45.0,0.0729483282674772,0.8470588235294118,0.9972910487844749,0.00267166545492769,0.13432835820895522
minwiki,True,46.0,0.07306889352818371,0.8235294117647058,0.9973640269961,0.0025928294251101516,0.1342281879194631
minwiki,True,47.0,0.07430997876857749,0.8235294117647058,0.9974107330515402,0.0025461117778108693,0.13631937682570594
minwiki,True,48.0,0.07583965330444203,0.8235294117647058,0.9974661964923752,0.002490634571642972,0.13888888888888887
minwiki,True,49.0,0.07700770077007701,0.8235294117647058,0.9975070642908853,0.0024497566302561003,0.14084507042253522
minwiki,True,50.0,0.07692307692307693,0.8,0.9975683659886504,0.0023826000122633825,0.14035087719298248
minwiki,True,51.0,0.07771428571428571,0.8,0.9975946381448355,0.0023563213356575363,0.14166666666666666
minwiki,True,52.0,0.0779976717112922,0.788235294117647,0.9976355059433456,0.0023125235413144593,0.14194915254237286
minwiki,True,53.0,0.07919621749408984,0.788235294117647,0.9976734546133906,0.0022745654528837926,0.1439312567132116
minwiki,True,54.0,0.08160779537149818,0.788235294117647,0.9977464328250157,0.0022015691289786646,0.1479028697571744
minwiki,True,55.0,0.08343711083437111,0.788235294117647,0.9977989771373859,0.0021490117757669725,0.1509009009009009
minwiki,True,56.0,0.08461538461538462,0.7764705882352941,0.9978602788351509,0.0020847750107304596,0.15260115606936417
minwiki,True,57.0,0.08672798948751642,0.7764705882352941,0.9979157422759861,0.002029297804562562,0.15602836879432622
minwiki,True,58.0,0.0891891891891892,0.7764705882352941,0.9979770439737512,0.0019679808924822546,0.16
minwiki,True,59.0,0.09243697478991597,0.7764705882352941,0.9980529413138414,0.0018920647156209214,0.16520650813516896
minwiki,True,60.0,0.09635036496350365,0.7764705882352941,0.9981375960393265,0.0018073889798909727,0.1714285714285714
minwiki,True,61.0,0.10015174506828528,0.7764705882352941,0.9982134933794167,0.0017314728030296395,0.17741935483870966
minwiki,True,62.0,0.10361067503924647,0.7764705882352941,0.9982777142056468,0.0016672360379931268,0.1828254847645429
minwiki,True,63.0,0.10610932475884244,0.7764705882352941,0.9983215011326219,0.0016234382436500498,0.1867043847241867
minwiki,True,64.0,0.10927152317880795,0.7764705882352941,0.998374045444992,0.0015708808904383576,0.19158200290275762
minwiki,True,65.0,0.11398963730569948,0.7764705882352941,0.9984470236566171,0.0014978845665332293,0.1987951807228916
minwiki,True,66.0,0.11743772241992882,0.7764705882352941,0.9984966488405221,0.0014482470662777424,0.20401854714064915
minwiki,True,67.0,0.12244897959183673,0.7764705882352941,0.9985637887952173,0.0013810904482850243,0.21153846153846154
minwiki,True,68.0,0.12643678160919541,0.7764705882352941,0.9986134139791224,0.0013314529480295371,0.21746293245469522
minwiki,True,69.0,0.1317365269461078,0.7764705882352941,0.9986747156768875,0.0012701360359492295,0.22525597269624575
minwiki,True,70.0,0.13485477178423236,0.7647058823529411,0.9987243408607926,0.0012175786827375373,0.2292768959435626
minwiki,True,71.0,0.1391304347826087,0.7529411764705882,0.9987827234300927,0.0011562617706572297,0.23486238532110093
minwiki,True,72.0,0.14512471655328799,0.7529411764705882,0.9988381868709278,0.0011007845644893323,0.24334600760456276
minwiki,True,73.0,0.1507177033492823,0.7411764705882353,0.9988994885686929,0.0010365477994528196,0.2504970178926441
minwiki,True,74.0,0.1575,0.7411764705882353,0.998952032881063,0.0009839904462411273,0.2597938144329897
minwiki,True,75.0,0.168,0.7411764705882353,0.9990250110926882,0.0009109941223359991,0.27391304347826084
minwiki,True,76.0,0.18051575931232092,0.7411764705882353,0.9991009084327783,0.0008350779454746659,0.29032258064516125
minwiki,True,77.0,0.182370820668693,0.7058823529411765,0.9991417762312884,0.0007854404452191788,0.28985507246376807
minwiki,True,78.0,0.1895424836601307,0.6823529411764706,0.9991972396721235,0.0007241235331388712,0.2966751918158567
minwiki,True,79.0,0.19243986254295534,0.6588235294117647,0.9992293500852385,0.0006861654447082045,0.2978723404255319
minwiki,True,80.0,0.2028985507246377,0.6588235294117647,0.9992731370122137,0.0006423676503651277,0.3102493074792244
minwiki,True,81.0,0.20930232558139536,0.6352941176470588,0.9993140048107237,0.0005956500030658456,0.314868804664723
minwiki,True,82.0,0.2222222222222222,0.611764705882353,0.9993723873800239,0.0005314132380293328,0.3260188087774295
minwiki,True,83.0,0.24186046511627907,0.611764705882353,0.9994278508208589,0.00047593603186143546,0.3466666666666667
minwiki,True,84.0,0.25380710659898476,0.5882352941176471,0.999468718619369,0.0004292183845621534,0.3546099290780142
minwiki,True,85.0,0.2617801047120419,0.5882352941176471,0.9994862333901591,0.0004116992668249227,0.36231884057971014
minwiki,True,86.0,0.26900584795321636,0.5411764705882353,0.9995212629317392,0.0003649816195256407,0.35937499999999994
minwiki,True,87.0,0.27741935483870966,0.5058823529411764,0.9995504542163891,0.00032702353109497406,0.35833333333333334
minwiki,True,88.0,0.28368794326241137,0.47058823529411764,0.9995738072441092,0.0002949051485767177,0.35398230088495575
minwiki,True,89.0,0.2926829268292683,0.4235294117647059,0.9996029985287592,0.00025402720718984594,0.34615384615384615
minwiki,True,90.0,0.30392156862745096,0.36470588235294116,0.9996351089418744,0.0002073095598905639,0.3315508021390374
minwiki,True,91.0,0.3068181818181818,0.3176470588235294,0.9996526237126644,0.00017811103032851265,0.3121387283236994
minwiki,True,92.0,0.35135135135135137,0.3058823529411765,0.9996876532542445,0.00014015294189784604,0.32704402515723274
minwiki,True,93.0,0.3888888888888889,0.24705882352941178,0.9997168445388944,9.635514755476914e-05,0.302158273381295
minwiki,True,94.0,0.3953488372093023,0.2,0.9997256019242895,7.591617686133326e-05,0.265625
minwiki,True,95.0,0.5161290322580645,0.18823529411764706,0.9997547932089396,4.3797794343076885e-05,0.27586206896551724
minwiki,True,96.0,0.5652173913043478,0.15294117647058825,0.9997606314658696,2.9198529562051254e-05,0.24074074074074076
minwiki,True,97.0,0.5263157894736842,0.11764705882352941,0.9997547932089396,2.627867660584613e-05,0.1923076923076923
minwiki,True,98.0,0.5,0.058823529411764705,0.9997518740804745,1.4599264781025627e-05,0.10526315789473684
minwiki,True,99.0,0.6666666666666666,0.047058823529411764,0.9997577123374045,5.839705912410251e-06,0.08791208791208792
minwiki,False,0.0,0.0010443931560013926,1.0,0.0010443931560013926,1.0,0.0020866070738555864
minwiki,False,1.0,0.0010443931560013926,1.0,0.0010443931560013926,1.0,0.0020866070738555864
minwiki,False,2.0,0.0010537773364151623,1.0,0.00994967142445771,0.9910854113962173,0.0021053361173443306
minwiki,False,3.0,0.0011722876977330948,1.0,0.11014264777303574,0.8907876847884076,0.002341830096853467
minwiki,False,4.0,0.0026596909067028588,1.0,0.6083697581563667,0.3920396854079543,0.005305271431222504
minwiki,False,5.0,0.003053070660367876,1.0,0.6589648043804341,0.3413917428192817,0.0060875555833907425
minwiki,False,6.0,0.0033850092447731475,0.9794238683127572,0.6988150650489318,0.3014783072607431,0.006746701061613255
minwiki,False,7.0,0.0042800198387185654,0.9588477366255144,0.7669842825276894,0.23321630784587055,0.008521999926849785
minwiki,False,8.0,0.005116605911546401,0.9588477366255144,0.8052400170197404,0.1949205775551999,0.010178895174854197
minwiki,False,9.0,0.005608140685664983,0.9094650205761317,0.8314873791748865,0.16859414528370076,0.011147540983606558
minwiki,False,10.0,0.006284300622742912,0.9094650205761317,0.8497105354771329,0.15035193694391383,0.012482349618751767
minwiki,False,11.0,0.009233104262405666,0.9012345679012346,0.8988958658363096,0.10110657924174368,0.01827894165762457
minwiki,False,12.0,0.011447987454260324,0.9012345679012346,0.9186189942021137,0.08136283064002615,0.022608785423011406
minwiki,False,13.0,0.012823515634149197,0.9012345679012346,0.9274383141861254,0.07253429018878965,0.025287223601408695
minwiki,False,14.0,0.013798752441560078,0.9012345679012346,0.9326258966523546,0.0673412841826286,0.027181333002358195
minwiki,False,15.0,0.01795317283031356,0.8930041152263375,0.9488720124123763,0.05106957853614883,0.03519870235198703
minwiki,False,16.0,0.020746485700436256,0.8806584362139918,0.9564621289288309,0.04345861944344055,0.04053798067815874
minwiki,False,17.0,0.0213189878461845,0.8806584362139918,0.9576526511683879,0.04226685253067616,0.041630191615601594
minwiki,False,18.0,0.021754746023601848,0.8724279835390947,0.9588947483786119,0.04101485191112947,0.042450941129355234
minwiki,False,19.0,0.022145617883631046,0.8724279835390947,0.959633989624835,0.04027483779923245,0.04319478402607987
minwiki,False,20.0,0.023551949515438358,0.8600823045267489,0.962612444180839,0.037280362090625914,0.04584841504880991
minwiki,False,21.0,0.025576414262315737,0.8353909465020576,0.9665880148363999,0.03327482058960194,0.04963325183374084
minwiki,False,22.0,0.025481826413141895,0.8106995884773662,0.9674218101955121,0.03241433906414029,0.04941058439929771
minwiki,False,23.0,0.02570898489265836,0.7983539094650206,0.9681911368412909,0.03163130087597019,0.049813840030812684
minwiki,False,24.0,0.02720897615708275,0.7983539094650206,0.9699790691577378,0.029841499303009965,0.052624440526244404
minwiki,False,25.0,0.027753934191702433,0.7983539094650206,0.9705807771488497,0.02923916223518681,0.053643025024194664
minwiki,False,26.0,0.029221268263292664,0.7983539094650206,0.9720893450408516,0.027729017158001617,0.056378959604766056
minwiki,False,27.0,0.031219826198905697,0.7983539094650206,0.9739159585852986,0.025900493916395616,0.060089824996128235
minwiki,False,28.0,0.031573754316724226,0.7901234567901234,0.974470389519966,0.025336878517218234,0.060721062618595834
minwiki,False,29.0,0.030981646741875736,0.757201646090535,0.9750119267119667,0.02476035589515893,0.05952766095114849
minwiki,False,30.0,0.032474408753971055,0.757201646090535,0.9761852572946349,0.02358579861290378,0.062277881198172284
minwiki,False,31.0,0.033357771260997066,0.7489711934156379,0.9770706276244139,0.022690897826423667,0.06387085453588348
minwiki,False,32.0,0.03450236966824644,0.7489711934156379,0.9778485500986371,0.021912162045880874,0.06596592968466834
minwiki,False,33.0,0.0349609375,0.7366255144032922,0.978488939317749,0.021258196086530023,0.06675368264031326
minwiki,False,34.0,0.03603784980873767,0.7366255144032922,0.9791465201937499,0.02059992771955186,0.06871401151631477
minwiki,False,35.0,0.0355820649938297,0.7119341563786008,0.9795462262164172,0.020173989364448346,0.06777668952007837
minwiki,False,36.0,0.03636745848223671,0.7119341563786008,0.9799975072097511,0.01972223656358098,0.06920000000000001
minwiki,False,37.0,0.03726039198793883,0.7119341563786008,0.9804874694310851,0.01923176209406784,0.070814572247237
minwiki,False,38.0,0.038299756475536864,0.7119341563786008,0.9810290066230858,0.018689658733027,0.0726890756302521
minwiki,False,39.0,0.03930031803725579,0.7119341563786008,0.981523266758642,0.018194881855886556,0.07448869752421959
minwiki,False,40.0,0.040467836257309944,0.7119341563786008,0.982069101864865,0.017648476087218406,0.07658255865427181
minwiki,False,41.0,0.04124940391034811,0.7119341563786008,0.9824172329168654,0.01729998106940644,0.07798061753437006
minwiki,False,42.0,0.04211557296767875,0.7078189300411523,0.982881407652866,0.01683101863802984,0.07950080887450889
minwiki,False,43.0,0.0429034671988027,0.7078189300411523,0.9832037512195332,0.016508338065981724,0.08090310442144874
minwiki,False,44.0,0.04425006431695395,0.7078189300411523,0.983728096754645,0.01598344433545012,0.08329297820823243
minwiki,False,45.0,0.04472507234938174,0.6995884773662552,0.9840805257208677,0.015622042094756226,0.08407517309594462
minwiki,False,46.0,0.04583672362354217,0.6954732510288066,0.9845618921137572,0.015135870032870395,0.08600508905852416
minwiki,False,47.0,0.046866333887964504,0.6954732510288066,0.9849100231657577,0.014787375015058427,0.08781501688750325
minwiki,False,48.0,0.04818933561448532,0.6954732510288066,0.9853355166737582,0.01436143665995491,0.09013333333333334
minwiki,False,49.0,0.0484106153397492,0.6831275720164609,0.9856449664977587,0.014038756087906792,0.09041394335511983
minwiki,False,50.0,0.0488240547782078,0.6748971193415638,0.9859286288364257,0.013746192369249833,0.09106052193225987
minwiki,False,51.0,0.04955643927806669,0.6666666666666666,0.9862982494595373,0.013367580498046707,0.09225512528473805
minwiki,False,52.0,0.04993718592964824,0.654320987654321,0.9866377846830933,0.01301478307260743,0.09279252990954187
minwiki,False,53.0,0.05088,0.654320987654321,0.9868913616222047,0.012760941022596246,0.09441805225653208
minwiki,False,54.0,0.0521482453263365,0.654320987654321,0.987218003103094,0.012433958042920818,0.09659781287970837
minwiki,False,55.0,0.053302044921220246,0.654320987654321,0.9875016654417611,0.012149999139518475,0.09857408555486671
minwiki,False,56.0,0.05379310344827586,0.6419753086419753,0.9878326048368726,0.011805806529333815,0.09926821508113269
minwiki,False,57.0,0.05435933639251676,0.6337448559670782,0.988103373432873,0.01152615003355878,0.1001300390117035
minwiki,False,58.0,0.05563583815028902,0.6337448559670782,0.9883827378573179,0.011246493537783744,0.10229159747592162
minwiki,False,59.0,0.056217423678332094,0.6213991769547325,0.9887093793382071,0.010906603335226393,0.10310686241037897
minwiki,False,60.0,0.05836876691148048,0.6213991769547325,0.9891348728462077,0.010480664980122878,0.10671378091872791
minwiki,False,61.0,0.0606425702811245,0.6213991769547325,0.9895517705257638,0.010063331440273977,0.11050128064398097
minwiki,False,62.0,0.06270764119601328,0.6213991769547325,0.9899041994919865,0.009710534014834701,0.1139192757450019
minwiki,False,63.0,0.06412997007268063,0.6172839506172839,0.9901921597448758,0.009417970296177742,0.11618900077459333
minwiki,False,64.0,0.06663705019991115,0.6172839506172839,0.9905703761964318,0.009039358424974615,0.12028869286287087
minwiki,False,65.0,0.06993006993006994,0.6172839506172839,0.991025955103988,0.008583303216479942,0.1256281407035176
minwiki,False,66.0,0.07215992198927353,0.6090534979423868,0.9914127673839885,0.008187481714767584,0.12903225806451613
minwiki,False,67.0,0.07489878542510121,0.6090534979423868,0.9917351109506557,0.007864801142719466,0.1333934204596665
minwiki,False,68.0,0.07969843834141088,0.6090534979423868,0.9922465627431007,0.007352814635069785,0.14095238095238097
minwiki,False,69.0,0.08399545970488081,0.6090534979423868,0.9926548645942125,0.006944085910475502,0.14763092269326683
minwiki,False,70.0,0.08598351001177856,0.6008230452674898,0.9929127394475461,0.006677336637582391,0.15043791859866046
minwiki,False,71.0,0.08993710691823899,0.588477366255144,0.9933511266982133,0.006225583836715026,0.15602836879432622
minwiki,False,72.0,0.09437751004016064,0.5802469135802469,0.9937465348066583,0.0058211575197480514,0.16234887737478412
minwiki,False,73.0,0.09808102345415778,0.5679012345679012,0.9940946658586588,0.005459755279054158,0.16727272727272727
minwiki,False,74.0,0.10407239819004525,0.5679012345679012,0.9944427969106593,0.005111260261242191,0.17590822179732316
minwiki,False,75.0,0.11567476948868399,0.5679012345679012,0.9950144195022156,0.004539040046810195,0.19220055710306405
minwiki,False,76.0,0.12421242124212421,0.5679012345679012,0.9953668484684383,0.004186242621370919,0.20384047267355984
minwiki,False,77.0,0.13306852035749753,0.551440329218107,0.9957794482337722,0.003756001858640095,0.2144
minwiki,False,78.0,0.14409534127843987,0.5473251028806584,0.9961318771999949,0.003398902025573511,0.22813036020583188
minwiki,False,79.0,0.1542111506524318,0.5349794238683128,0.9964499228524397,0.0030676166382707765,0.2394106813996317
minwiki,False,80.0,0.16731016731016732,0.5349794238683128,0.9967335851911068,0.0027836577348684323,0.2549019607843137
minwiki,False,81.0,0.17872340425531916,0.5185185185185185,0.9970086517013294,0.002491094016211472,0.26582278481012656
minwiki,False,82.0,0.1947449768160742,0.5185185185185185,0.9972579307262186,0.002241554373827594,0.28314606741573034
minwiki,False,83.0,0.20882852292020374,0.5061728395061729,0.9974814222657744,0.0020049219543256404,0.2956730769230769
minwiki,False,84.0,0.2199248120300752,0.48148148148148145,0.9976748284057747,0.0017854991653329204,0.30193548387096775
minwiki,False,85.0,0.22690763052208834,0.46502057613168724,0.9977865741755526,0.0016564269365136732,0.30499325236167346
minwiki,False,86.0,0.24770642201834864,0.4444444444444444,0.9980100657151084,0.0014111897017571034,0.3181148748159057
minwiki,False,87.0,0.2701298701298701,0.4279835390946502,0.9981948760266642,0.0012089765432736158,0.3312101910828026
minwiki,False,88.0,0.2926829268292683,0.3950617283950617,0.9983710905097756,0.0009981585695355121,0.33625218914185634
minwiki,False,89.0,0.312280701754386,0.3662551440329218,0.9984957300222203,0.0008432718949524154,0.3371212121212121
minwiki,False,90.0,0.34439834024896265,0.34156378600823045,0.9986332632773315,0.0006797804051147021,0.3429752066115702
minwiki,False,91.0,0.35609756097560974,0.3004115226337449,0.9987020299048872,0.0005679178068046879,0.3258928571428572
minwiki,False,92.0,0.4074074074074074,0.2716049382716049,0.9988266694173318,0.0004130311322215912,0.32592592592592595
minwiki,False,93.0,0.4426229508196721,0.2222222222222222,0.9988954360448874,0.0002925637186569604,0.2958904109589041
minwiki,False,94.0,0.4639175257731959,0.18518518518518517,0.998925521444443,0.00022372519662002856,0.2647058823529411
minwiki,False,95.0,0.5789473684210527,0.18106995884773663,0.9990071818146653,0.00013767704407386373,0.27586206896551724
minwiki,False,96.0,0.631578947368421,0.14814814814814814,0.9990200755573321,9.035056017347308e-05,0.24
minwiki,False,97.0,0.7111111111111111,0.13168724279835392,0.9990372672142209,5.593129915500714e-05,0.22222222222222227
minwiki,False,98.0,0.7142857142857143,0.06172839506172839,0.9989942880719986,2.581444576384945e-05,0.11363636363636363
minwiki,False,99.0,0.75,0.024691358024691357,0.9989727985008875,8.604815254616483e-06,0.04780876494023904
