wiki_db,user_is_bot,threshold,precision,recall,accuracy,fpr,F1
mnwwiki,True,0.0,0.002613240418118467,1.0,0.002613240418118467,1.0,0.005212858384013901
mnwwiki,True,1.0,0.002613240418118467,1.0,0.002613240418118467,1.0,0.005212858384013901
mnwwiki,True,2.0,0.00264783759929391,1.0,0.0156794425087108,0.9868995633187773,0.00528169014084507
mnwwiki,True,3.0,0.0026857654431512983,1.0,0.029616724738675958,0.9729257641921397,0.005357142857142857
mnwwiki,True,4.0,0.0027803521779425394,1.0,0.0627177700348432,0.9397379912663756,0.005545286506469501
mnwwiki,True,5.0,0.002859866539561487,1.0,0.08885017421602788,0.9135371179039301,0.005703422053231939
mnwwiki,True,6.0,0.002982107355864811,1.0,0.12630662020905922,0.8759825327510917,0.005946481665014865
mnwwiki,True,7.0,0.003171247357293869,1.0,0.17857142857142858,0.8235807860262009,0.006322444678609062
mnwwiki,True,8.0,0.003537735849056604,1.0,0.26393728222996515,0.7379912663755459,0.007050528789659224
mnwwiki,True,9.0,0.003826530612244898,1.0,0.31968641114982577,0.6820960698689956,0.007623888182973316
mnwwiki,True,10.0,0.004178272980501393,1.0,0.37717770034843207,0.6244541484716157,0.008321775312066576
mnwwiki,True,11.0,0.004511278195488722,1.0,0.42334494773519166,0.5781659388646289,0.008982035928143712
mnwwiki,True,12.0,0.0049261083743842365,1.0,0.4721254355400697,0.5292576419213973,0.00980392156862745
mnwwiki,True,13.0,0.005357142857142857,1.0,0.514808362369338,0.48646288209606986,0.010657193605683837
mnwwiki,True,14.0,0.005671077504725898,1.0,0.5418118466898955,0.45938864628820963,0.011278195488721804
mnwwiki,True,15.0,0.006172839506172839,1.0,0.5792682926829268,0.4218340611353712,0.012269938650306747
mnwwiki,True,16.0,0.006493506493506494,1.0,0.6001742160278746,0.4008733624454148,0.012903225806451613
mnwwiki,True,17.0,0.006772009029345372,1.0,0.6167247386759582,0.38427947598253276,0.013452914798206279
mnwwiki,True,18.0,0.006944444444444444,1.0,0.6263066202090593,0.3746724890829694,0.013793103448275862
mnwwiki,True,19.0,0.0071090047393364926,1.0,0.6350174216027874,0.36593886462882097,0.014117647058823528
mnwwiki,True,20.0,0.009009009009009009,1.0,0.7125435540069687,0.28820960698689957,0.01785714285714286
mnwwiki,True,21.0,0.00909090909090909,1.0,0.7151567944250871,0.28558951965065504,0.018018018018018018
mnwwiki,True,22.0,0.009345794392523364,1.0,0.7229965156794426,0.2777292576419214,0.018518518518518517
mnwwiki,True,23.0,0.009523809523809525,1.0,0.7282229965156795,0.2724890829694323,0.01886792452830189
mnwwiki,True,24.0,0.022556390977443608,1.0,0.8867595818815331,0.11353711790393013,0.04411764705882353
mnwwiki,True,25.0,0.024193548387096774,1.0,0.8945993031358885,0.1056768558951965,0.047244094488188976
mnwwiki,True,26.0,0.025,1.0,0.8980836236933798,0.10218340611353711,0.04878048780487806
mnwwiki,True,27.0,0.02586206896551724,1.0,0.9015679442508711,0.09868995633187773,0.050420168067226885
mnwwiki,True,28.0,0.027522935779816515,1.0,0.9076655052264808,0.0925764192139738,0.05357142857142857
mnwwiki,True,29.0,0.02857142857142857,1.0,0.9111498257839721,0.0890829694323144,0.05555555555555556
mnwwiki,True,30.0,0.03,1.0,0.9155052264808362,0.08471615720524017,0.058252427184466014
mnwwiki,True,31.0,0.03260869565217391,1.0,0.9224738675958188,0.0777292576419214,0.06315789473684211
mnwwiki,True,32.0,0.033707865168539325,1.0,0.9250871080139372,0.07510917030567686,0.06521739130434782
mnwwiki,True,33.0,0.07142857142857142,1.0,0.9660278745644599,0.03406113537117904,0.13333333333333333
mnwwiki,True,34.0,0.075,1.0,0.9677700348432056,0.032314410480349345,0.13953488372093023
mnwwiki,True,35.0,0.08333333333333333,1.0,0.9712543554006968,0.028820960698689956,0.15384615384615385
mnwwiki,True,36.0,0.0967741935483871,1.0,0.975609756097561,0.02445414847161572,0.17647058823529413
mnwwiki,True,37.0,0.1111111111111111,1.0,0.9790940766550522,0.02096069868995633,0.19999999999999998
mnwwiki,True,38.0,0.08,0.6666666666666666,0.9790940766550522,0.020087336244541485,0.14285714285714285
mnwwiki,True,39.0,0.09523809523809523,0.6666666666666666,0.9825783972125436,0.016593886462882096,0.16666666666666666
mnwwiki,True,40.0,0.10526315789473684,0.6666666666666666,0.9843205574912892,0.014847161572052401,0.18181818181818182
mnwwiki,True,41.0,0.1111111111111111,0.6666666666666666,0.985191637630662,0.013973799126637555,0.1904761904761905
mnwwiki,True,42.0,0.125,0.6666666666666666,0.9869337979094077,0.01222707423580786,0.21052631578947367
mnwwiki,True,43.0,0.13333333333333333,0.6666666666666666,0.9878048780487805,0.011353711790393014,0.2222222222222222
mnwwiki,True,44.0,0.15384615384615385,0.6666666666666666,0.9895470383275261,0.00960698689956332,0.25
mnwwiki,True,45.0,0.18181818181818182,0.6666666666666666,0.9912891986062717,0.007860262008733625,0.28571428571428575
mnwwiki,True,46.0,0.2,0.6666666666666666,0.9921602787456446,0.0069868995633187774,0.30769230769230765
mnwwiki,True,47.0,0.2222222222222222,0.6666666666666666,0.9930313588850174,0.00611353711790393,0.3333333333333333
mnwwiki,True,48.0,0.2857142857142857,0.6666666666666666,0.9947735191637631,0.004366812227074236,0.4
mnwwiki,True,49.0,0.2857142857142857,0.6666666666666666,0.9947735191637631,0.004366812227074236,0.4
mnwwiki,True,50.0,0.2857142857142857,0.6666666666666666,0.9947735191637631,0.004366812227074236,0.4
mnwwiki,True,51.0,0.3333333333333333,0.6666666666666666,0.9956445993031359,0.0034934497816593887,0.4444444444444444
mnwwiki,True,52.0,0.3333333333333333,0.6666666666666666,0.9956445993031359,0.0034934497816593887,0.4444444444444444
mnwwiki,True,53.0,0.3333333333333333,0.6666666666666666,0.9956445993031359,0.0034934497816593887,0.4444444444444444
mnwwiki,True,54.0,0.3333333333333333,0.6666666666666666,0.9956445993031359,0.0034934497816593887,0.4444444444444444
mnwwiki,True,55.0,0.4,0.6666666666666666,0.9965156794425087,0.0026200873362445414,0.5
mnwwiki,True,56.0,0.4,0.6666666666666666,0.9965156794425087,0.0026200873362445414,0.5
mnwwiki,True,57.0,0.4,0.6666666666666666,0.9965156794425087,0.0026200873362445414,0.5
mnwwiki,True,58.0,0.4,0.6666666666666666,0.9965156794425087,0.0026200873362445414,0.5
mnwwiki,True,59.0,0.4,0.6666666666666666,0.9965156794425087,0.0026200873362445414,0.5
mnwwiki,True,60.0,0.4,0.6666666666666666,0.9965156794425087,0.0026200873362445414,0.5
mnwwiki,True,61.0,0.4,0.6666666666666666,0.9965156794425087,0.0026200873362445414,0.5
mnwwiki,True,62.0,0.25,0.3333333333333333,0.9956445993031359,0.0026200873362445414,0.28571428571428575
mnwwiki,True,63.0,0.3333333333333333,0.3333333333333333,0.9965156794425087,0.0017467248908296944,0.3333333333333333
mnwwiki,True,64.0,0.3333333333333333,0.3333333333333333,0.9965156794425087,0.0017467248908296944,0.3333333333333333
mnwwiki,True,65.0,0.5,0.3333333333333333,0.9973867595818815,0.0008733624454148472,0.4
mnwwiki,True,66.0,0.5,0.3333333333333333,0.9973867595818815,0.0008733624454148472,0.4
mnwwiki,True,67.0,0.5,0.3333333333333333,0.9973867595818815,0.0008733624454148472,0.4
mnwwiki,True,68.0,0.5,0.3333333333333333,0.9973867595818815,0.0008733624454148472,0.4
mnwwiki,True,69.0,0.5,0.3333333333333333,0.9973867595818815,0.0008733624454148472,0.4
mnwwiki,True,70.0,0.5,0.3333333333333333,0.9973867595818815,0.0008733624454148472,0.4
mnwwiki,True,71.0,0.5,0.3333333333333333,0.9973867595818815,0.0008733624454148472,0.4
mnwwiki,True,72.0,0.5,0.3333333333333333,0.9973867595818815,0.0008733624454148472,0.4
mnwwiki,True,73.0,1.0,0.3333333333333333,0.9982578397212544,0.0,0.5
mnwwiki,True,74.0,1.0,0.3333333333333333,0.9982578397212544,0.0,0.5
mnwwiki,True,75.0,1.0,0.3333333333333333,0.9982578397212544,0.0,0.5
mnwwiki,True,76.0,1.0,0.3333333333333333,0.9982578397212544,0.0,0.5
mnwwiki,True,77.0,1.0,0.3333333333333333,0.9982578397212544,0.0,0.5
mnwwiki,True,78.0,1.0,0.0,0.9973867595818815,0.0,0.0
mnwwiki,True,79.0,1.0,0.0,0.9973867595818815,0.0,0.0
mnwwiki,True,80.0,1.0,0.0,0.9973867595818815,0.0,0.0
mnwwiki,True,81.0,1.0,0.0,0.9973867595818815,0.0,0.0
mnwwiki,True,82.0,1.0,0.0,0.9973867595818815,0.0,0.0
mnwwiki,True,83.0,1.0,0.0,0.9973867595818815,0.0,0.0
mnwwiki,True,84.0,1.0,0.0,0.9973867595818815,0.0,0.0
mnwwiki,True,85.0,1.0,0.0,0.9973867595818815,0.0,0.0
mnwwiki,True,86.0,1.0,0.0,0.9973867595818815,0.0,0.0
mnwwiki,True,87.0,1.0,0.0,0.9973867595818815,0.0,0.0
mnwwiki,True,88.0,1.0,0.0,0.9973867595818815,0.0,0.0
mnwwiki,True,89.0,1.0,0.0,0.9973867595818815,0.0,0.0
mnwwiki,True,90.0,1.0,0.0,0.9973867595818815,0.0,0.0
mnwwiki,True,91.0,1.0,0.0,0.9973867595818815,0.0,0.0
mnwwiki,True,92.0,1.0,0.0,0.9973867595818815,0.0,0.0
mnwwiki,True,93.0,1.0,0.0,0.9973867595818815,0.0,0.0
mnwwiki,True,94.0,1.0,0.0,0.9973867595818815,0.0,0.0
mnwwiki,True,95.0,1.0,0.0,0.9973867595818815,0.0,0.0
mnwwiki,True,96.0,1.0,0.0,0.9973867595818815,0.0,0.0
mnwwiki,True,97.0,1.0,0.0,0.9973867595818815,0.0,0.0
mnwwiki,True,98.0,1.0,0.0,0.9973867595818815,0.0,0.0
mnwwiki,True,99.0,1.0,0.0,0.9973867595818815,0.0,0.0
mnwwiki,False,0.0,0.006762468300929839,1.0,0.006762468300929839,1.0,0.01343408900083963
mnwwiki,False,1.0,0.006764227642276422,1.0,0.007022563235580987,0.9997381342062193,0.013437560565928031
mnwwiki,False,2.0,0.006811929610060696,1.0,0.014023451893274379,0.9926895799236225,0.013531682352430933
mnwwiki,False,3.0,0.006954040921856194,1.0,0.034310856796063896,0.9722640480087289,0.01381203240515295
mnwwiki,False,4.0,0.007156455719430236,1.0,0.061815896135422765,0.9445717403164212,0.014211209547017697
mnwwiki,False,5.0,0.006866252130698869,0.9166666666666666,0.10282419749875371,0.9027168576104746,0.013630406290956748
mnwwiki,False,6.0,0.007315326376099857,0.9166666666666666,0.15824609315733576,0.8469176213857065,0.014514819326025172
mnwwiki,False,7.0,0.007958814526227912,0.9166666666666666,0.2267594338600256,0.7779378068739771,0.01578061632686843
mnwwiki,False,8.0,0.008352269237855432,0.8717948717948718,0.2991741985824826,0.7047244953627932,0.01654601861427094
mnwwiki,False,9.0,0.008762322015334063,0.8205128205128205,0.3710904480135249,0.6319694489907256,0.017339474397182336
mnwwiki,False,10.0,0.008324020193456395,0.6923076923076923,0.44016732774129225,0.5615493726132024,0.016450249419290963
mnwwiki,False,11.0,0.00924420097577677,0.6923076923076923,0.49615276242495177,0.5051827605019095,0.018244784187853705
mnwwiki,False,12.0,0.009452151422525276,0.6442307692307693,0.5410408132301623,0.4596617566830333,0.018630949622282983
mnwwiki,False,13.0,0.009576689929193622,0.6025641025641025,0.5758935344734162,0.42428805237315875,0.018853733139447427
mnwwiki,False,14.0,0.008901587999340623,0.5192307692307693,0.6058044519582981,0.3936061102018549,0.017503106261142022
mnwwiki,False,15.0,0.009596587879864936,0.5192307692307693,0.6343715456141492,0.3648445171849427,0.018844878729715582
mnwwiki,False,16.0,0.010094715852442673,0.5192307692307693,0.6524264689945163,0.3466666666666667,0.019804400977995112
mnwwiki,False,17.0,0.010528368102944044,0.5192307692307693,0.666753364978217,0.3322422258592471,0.020638257213835276
mnwwiki,False,18.0,0.010983050847457628,0.5192307692307693,0.6805600710926155,0.318341516639389,0.021511087504979418
mnwwiki,False,19.0,0.011639603391291851,0.5192307692307693,0.698593319895095,0.30018548827059466,0.022768798313422343
mnwwiki,False,20.0,0.013400612126726776,0.5192307692307693,0.7382361228515074,0.26027277686852157,0.02612692524796387
mnwwiki,False,21.0,0.013188174898212073,0.4775641025641026,0.7548171749355181,0.2432951445717403,0.02566752799310939
mnwwiki,False,22.0,0.01386691484411354,0.4775641025641026,0.7668032165073585,0.23122749590834696,0.02695125260016279
mnwwiki,False,23.0,0.014806717678624664,0.4775641025641026,0.7815852786266988,0.21634478996181125,0.02872289156626506
mnwwiki,False,24.0,0.02019243799972896,0.4775641025641026,0.8397598456770055,0.15777414075286417,0.03874658691977636
mnwwiki,False,25.0,0.022012114049342592,0.4775641025641026,0.8529813381884388,0.14446262956901254,0.042084451348679566
mnwwiki,False,26.0,0.02352755408179378,0.4775641025641026,0.8624314541474305,0.13494817239498091,0.044845748683220464
mnwwiki,False,27.0,0.02553118574366004,0.4775641025641026,0.8732037193575655,0.12410256410256411,0.048471047495120365
mnwwiki,False,28.0,0.02797071522432889,0.4775641025641026,0.8842360795023517,0.11299509001636661,0.05284624933498847
mnwwiki,False,29.0,0.030229255427064314,0.4775641025641026,0.8928625615016148,0.10430987452264048,0.05685937798130128
mnwwiki,False,30.0,0.03264680105170903,0.4775641025641026,0.9007737824305871,0.09634478996181124,0.061115668580803945
mnwwiki,False,31.0,0.034976525821596244,0.4775641025641026,0.9073628541084162,0.08971085651936715,0.06517935258092739
mnwwiki,False,32.0,0.037055458841084306,0.4775641025641026,0.9125430782235516,0.08449536279323513,0.06877452111700899
mnwwiki,False,33.0,0.04201680672268908,0.4326923076923077,0.9294492489758762,0.06716857610474632,0.07659574468085106
mnwwiki,False,34.0,0.04551584625758597,0.4326923076923077,0.9348028697141123,0.0617785051827605,0.08236729713239781
mnwwiki,False,35.0,0.04510166358595194,0.391025641025641,0.9398963955176973,0.056366612111292964,0.08087504143188597
mnwwiki,False,36.0,0.04881952781112445,0.391025641025641,0.944361358562542,0.05187124931805783,0.08680184987548914
mnwwiki,False,37.0,0.05353225098727512,0.391025641025641,0.949129765697813,0.04707037643207856,0.09417213431107681
mnwwiki,False,38.0,0.050159598723210214,0.3525641025641026,0.9504735895268439,0.04545553737043099,0.08782435129740519
mnwwiki,False,39.0,0.053165780570323826,0.3525641025641026,0.9531612371849059,0.04274959083469722,0.09239815203695925
mnwwiki,False,40.0,0.051419389394750936,0.3076923076923077,0.9569326137373475,0.03864702673213311,0.08811381367599816
mnwwiki,False,41.0,0.05283434232250963,0.3076923076923077,0.9580163426317273,0.03755591925804692,0.09018318459370597
mnwwiki,False,42.0,0.057692307692307696,0.3076923076923077,0.9613325530485294,0.034217130387343156,0.097165991902834
mnwwiki,False,43.0,0.052906596995427824,0.25961538461538464,0.9635650345709518,0.031642116748499725,0.08790016277807922
mnwwiki,False,44.0,0.05540355677154583,0.25961538461538464,0.9650605804451958,0.030136388434260773,0.09131905298759864
mnwwiki,False,45.0,0.059602649006622516,0.25961538461538464,0.9672930619676182,0.027888707037643207,0.09694793536804308
mnwwiki,False,46.0,0.06328125,0.25961538461538464,0.9690053536207383,0.026164757228587014,0.10175879396984926
mnwwiki,False,47.0,0.06590724165988608,0.25961538461538464,0.9701107570930056,0.025051827605019096,0.10512654120700844
mnwwiki,False,48.0,0.0678391959798995,0.25961538461538464,0.9708693673190715,0.024288052373158755,0.10756972111553785
mnwwiki,False,49.0,0.06934931506849315,0.25961538461538464,0.9714329063441489,0.023720676486633934,0.10945945945945947
mnwwiki,False,50.0,0.0726457399103139,0.25961538461538464,0.9725816589721915,0.022564102564102566,0.1135248773651016
mnwwiki,False,51.0,0.07871720116618076,0.25961538461538464,0.9744456726705247,0.020687397708674303,0.12080536912751678
mnwwiki,False,52.0,0.08411214953271028,0.25961538461538464,0.9758761948111061,0.019247135842880524,0.12705882352941175
mnwwiki,False,53.0,0.09173272933182333,0.25961538461538464,0.9776101610421137,0.01750136388434261,0.13556485355648534
mnwwiki,False,54.0,0.09484777517564402,0.25961538461538464,0.978238723800854,0.016868521549372614,0.13893653516295026
mnwwiki,False,55.0,0.0989010989010989,0.25961538461538464,0.9789973340269198,0.016104746317512277,0.14323607427055704
mnwwiki,False,56.0,0.10163111668757842,0.25961538461538464,0.979474174740447,0.015624659028914347,0.1460775473399459
mnwwiki,False,57.0,0.10931174089068826,0.25961538461538464,0.9806879511021522,0.014402618657937807,0.15384615384615385
mnwwiki,False,58.0,0.11328671328671329,0.25961538461538464,0.9812514901272298,0.013835242771412985,0.15774099318403115
mnwwiki,False,59.0,0.11328671328671329,0.25961538461538464,0.9812514901272298,0.013835242771412985,0.15774099318403115
mnwwiki,False,60.0,0.11722141823444283,0.25961538461538464,0.981771679996532,0.013311511183851609,0.16151545363908276
mnwwiki,False,61.0,0.12597200622083982,0.25961538461538464,0.9828120597351366,0.01226404800872886,0.16963350785340314
mnwwiki,False,62.0,0.11075949367088607,0.22435897435897437,0.982573639378373,0.01226404800872886,0.1483050847457627
mnwwiki,False,63.0,0.11570247933884298,0.22435897435897437,0.9831588529813382,0.011674849972722313,0.15267175572519084
mnwwiki,False,64.0,0.11804384485666104,0.22435897435897437,0.9834189479159894,0.011412984178941626,0.15469613259668508
mnwwiki,False,65.0,0.12367491166077739,0.22435897435897437,0.9840041615189544,0.010823786142935079,0.15945330296127563
mnwwiki,False,66.0,0.12939001848428835,0.22435897435897437,0.9845460259661443,0.01027823240589198,0.16412661195779601
mnwwiki,False,67.0,0.13333333333333333,0.22435897435897437,0.9848928192123458,0.009929078014184398,0.16726403823178018
mnwwiki,False,68.0,0.136986301369863,0.22435897435897437,0.9851962633027722,0.009623567921440262,0.1701093560145808
mnwwiki,False,69.0,0.14112903225806453,0.22435897435897437,0.9855213819710861,0.009296235679214403,0.17326732673267328
mnwwiki,False,70.0,0.1598173515981735,0.22435897435897437,0.9867785074885667,0.008030551009274413,0.18666666666666665
mnwwiki,False,71.0,0.17369727047146402,0.22435897435897437,0.9875371177146325,0.0072667757774140754,0.1958041958041958
mnwwiki,False,72.0,0.17994858611825193,0.22435897435897437,0.9878405618050589,0.00696126568466994,0.19971469329529246
mnwwiki,False,73.0,0.1897018970189702,0.22435897435897437,0.9882740533628107,0.006524822695035461,0.20558002936857564
mnwwiki,False,74.0,0.19607843137254902,0.22435897435897437,0.9885341482974619,0.006262956901254774,0.20926756352765322
mnwwiki,False,75.0,0.19607843137254902,0.22435897435897437,0.9885341482974619,0.006262956901254774,0.20926756352765322
mnwwiki,False,76.0,0.19607843137254902,0.22435897435897437,0.9885341482974619,0.006262956901254774,0.20926756352765322
mnwwiki,False,77.0,0.19607843137254902,0.22435897435897437,0.9885341482974619,0.006262956901254774,0.20926756352765322
mnwwiki,False,78.0,0.15217391304347827,0.15705128205128205,0.9883824262522487,0.005957446808510639,0.15457413249211358
mnwwiki,False,79.0,0.15960912052117263,0.15705128205128205,0.9887075449205627,0.005630114566284779,0.1583198707592892
mnwwiki,False,80.0,0.15960912052117263,0.15705128205128205,0.9887075449205627,0.005630114566284779,0.1583198707592892
mnwwiki,False,81.0,0.18081180811808117,0.15705128205128205,0.9894878297245161,0.004844517184942717,0.1680960548885077
mnwwiki,False,82.0,0.168141592920354,0.12179487179487179,0.9899863450159309,0.0041025641025641026,0.1412639405204461
mnwwiki,False,83.0,0.1218274111675127,0.07692307692307693,0.9900080195938185,0.0037752318603382433,0.09430255402750493
mnwwiki,False,84.0,0.1702127659574468,0.07692307692307693,0.9912217959555237,0.002553191489361702,0.10596026490066225
mnwwiki,False,85.0,0.0,0.0,0.9909617010208727,0.0022913256955810145,0.10596026490066225
mnwwiki,False,86.0,0.0,0.0,0.9915035654680625,0.001745771958537916,0.10596026490066225
mnwwiki,False,87.0,0.0,0.0,0.9918503587142641,0.0013966175668303328,0.10596026490066225
mnwwiki,False,88.0,0.0,0.0,0.9923705485835663,0.000872885979268958,0.10596026490066225
mnwwiki,False,89.0,0.0,0.0,0.9926089689403299,0.0006328423349699946,0.10596026490066225
mnwwiki,False,90.0,0.0,0.0,0.9929124130307563,0.0003273322422258593,0.10596026490066225
mnwwiki,False,91.0,0.0,0.0,0.9932375316990701,0.0,0.10596026490066225
mnwwiki,False,92.0,0.0,0.0,0.9932375316990701,0.0,0.10596026490066225
mnwwiki,False,93.0,0.0,0.0,0.9932375316990701,0.0,0.10596026490066225
mnwwiki,False,94.0,0.0,0.0,0.9932375316990701,0.0,0.10596026490066225
mnwwiki,False,95.0,0.0,0.0,0.9932375316990701,0.0,0.10596026490066225
mnwwiki,False,96.0,0.0,0.0,0.9932375316990701,0.0,0.10596026490066225
mnwwiki,False,97.0,0.0,0.0,0.9932375316990701,0.0,0.10596026490066225
mnwwiki,False,98.0,0.0,0.0,0.9932375316990701,0.0,0.10596026490066225
mnwwiki,False,99.0,0.0,0.0,0.9932375316990701,0.0,0.10596026490066225
