wiki_db,user_is_bot,threshold,precision,recall,accuracy,fpr,F1
mznwiki,True,0.0,0.2669848399775407,1.0,0.2669848399775407,1.0,0.4214491469089297
mznwiki,True,1.0,0.2669848399775407,1.0,0.2669848399775407,1.0,0.4214491469089297
mznwiki,True,2.0,0.26743532058492686,1.0,0.2686692869174621,0.9977020298736117,0.4220102063456844
mznwiki,True,3.0,0.26826516220028207,1.0,0.2717574396406513,0.9934890846418997,0.4230427046263345
mznwiki,True,4.0,0.27001703577512776,1.0,0.27821448624368333,0.984680199157411,0.42521797451374915
mznwiki,True,5.0,0.2710173838700484,1.0,0.2818641212801797,0.9797012638835695,0.42645739910313896
mznwiki,True,6.0,0.2727272727272727,1.0,0.2880404267265581,0.9712753734201456,0.42857142857142855
mznwiki,True,7.0,0.2730669732681805,0.9989484752891693,0.28972487366647953,0.9685944082726925,0.42889390519187365
mznwiki,True,8.0,0.27472527472527475,0.9989484752891693,0.2956204379562044,0.9605515128303332,0.43093672034474945
mznwiki,True,9.0,0.2760023242300988,0.9989484752891693,0.3001122964626614,0.9544235924932976,0.4325062599590257
mznwiki,True,10.0,0.2777777777777778,0.9989484752891693,0.3062886019090399,0.9459977020298737,0.4346831388698239
mznwiki,True,11.0,0.2792341678939617,0.9968454258675079,0.3121841661987647,0.9371888165453849,0.4362632305568339
mznwiki,True,12.0,0.28062889350341147,0.9947423764458465,0.31779898933183603,0.928762926081961,0.43776029615918566
mznwiki,True,13.0,0.2824723798148701,0.9947423764458465,0.32397529477821446,0.920337035618537,0.44000000000000006
mznwiki,True,14.0,0.284207353827607,0.9915878023133544,0.3309938236945536,0.9096131750287246,0.44178964628718664
mznwiki,True,15.0,0.28632348461772766,0.9884332281808622,0.339135317237507,0.8973573343546534,0.44402456306093524
mznwiki,True,16.0,0.2898550724637681,0.9884332281808622,0.35036496350364965,0.8820375335120644,0.4482594182164997
mznwiki,True,17.0,0.29225023342670403,0.9873817034700315,0.35822571588994945,0.8709306779011873,0.4510086455331412
mznwiki,True,18.0,0.29493232609379916,0.9852786540483701,0.36720943290286356,0.8579088471849866,0.45397286821705424
mznwiki,True,19.0,0.29716831053133946,0.982124079915878,0.3750701852891634,0.8460360015319801,0.45627747923790907
mznwiki,True,20.0,0.3004181408813123,0.982124079915878,0.38461538461538464,0.8330141708157794,0.46009852216748764
mznwiki,True,21.0,0.3051905387647832,0.9768664563617245,0.40005614823133073,0.8100344695518958,0.46508135168961207
mznwiki,True,22.0,0.3083832335329341,0.9747634069400631,0.40960134755755195,0.7962466487935657,0.46853677028051555
mznwiki,True,23.0,0.312902133423637,0.9716088328075709,0.4227961819202695,0.7770968977403294,0.4733606557377049
mznwiki,True,24.0,0.3187305967575026,0.9716088328075709,0.43795620437956206,0.7564151666028341,0.48
mznwiki,True,25.0,0.32364273204903676,0.9716088328075709,0.4503088152723189,0.7395633856759862,0.4855491329479769
mznwiki,True,26.0,0.3271954674220963,0.9716088328075709,0.4590117911285794,0.7276905400229797,0.48953642384105966
mznwiki,True,27.0,0.33297297297297296,0.9716088328075709,0.47276810780460415,0.7089237839908081,0.49597423510466987
mznwiki,True,28.0,0.3413550536838208,0.9695057833859095,0.49241998877035376,0.6813481424741479,0.5049288061336253
mznwiki,True,29.0,0.3513925982449447,0.9684542586750788,0.5143177989893318,0.6510915358100344,0.5156774916013438
mznwiki,True,30.0,0.359765625,0.9684542586750788,0.5314430095451993,0.6277288395250862,0.524636855596696
mznwiki,True,31.0,0.366640127388535,0.9684542586750788,0.5449185850645705,0.6093450785139793,0.5319087496390413
mznwiki,True,32.0,0.3754586220953934,0.9684542586750788,0.5614823133071308,0.5867483722711605,0.5411280846063455
mznwiki,True,33.0,0.38263398421271294,0.9684542586750788,0.5743964065131948,0.5691306013021831,0.5485407980941037
mznwiki,True,34.0,0.39091680814940577,0.9684542586750788,0.5887142055025266,0.5495978552278821,0.5570003023888721
mznwiki,True,35.0,0.3987012987012987,0.9684542586750788,0.6016282987085907,0.5319800842589046,0.5648574057037719
mznwiki,True,36.0,0.4060846560846561,0.9684542586750788,0.6134194272880404,0.5158942933741861,0.5722273998136067
mznwiki,True,37.0,0.41749773345421576,0.9684542586750788,0.6308253790005615,0.4921486020681731,0.5834653151726322
mznwiki,True,38.0,0.4254041570438799,0.9684542586750788,0.6423357664233577,0.4764458062045193,0.5911424903722722
mznwiki,True,39.0,0.43259746359793333,0.9684542586750788,0.652442448062886,0.4626579854461892,0.5980519480519481
mznwiki,True,40.0,0.4411905904944791,0.9663512092534174,0.6642335766423357,0.4458062045193413,0.6058009228740936
mznwiki,True,41.0,0.44741966893865626,0.9663512092534174,0.6723750701852892,0.4346993489084642,0.6116472545757071
mznwiki,True,42.0,0.45766932270916333,0.9663512092534174,0.6852891633913532,0.4170815779394868,0.6211557958769854
mznwiki,True,43.0,0.46626078132927445,0.9663512092534174,0.6956765861875351,0.4029107621600919,0.6290212183436001
mznwiki,True,44.0,0.478396668401874,0.9663512092534174,0.7097136440202133,0.3837610111068556,0.6399721448467965
mznwiki,True,45.0,0.48342977380326146,0.9663512092534174,0.7153284671532847,0.37610111068556107,0.644460028050491
mznwiki,True,46.0,0.4888297872340426,0.9663512092534174,0.7212240314430095,0.3680582152432018,0.6492405510420346
mznwiki,True,47.0,0.4919614147909968,0.9652996845425867,0.7245929253228524,0.3630792799693604,0.6517571884984026
mznwiki,True,48.0,0.49702219815917703,0.9652996845425867,0.7299270072992701,0.3558023745691306,0.6561829878484632
mznwiki,True,49.0,0.5002724795640326,0.9652996845425867,0.7332959011791128,0.3512064343163539,0.6590093323761665
mznwiki,True,50.0,0.503013698630137,0.9652996845425867,0.7361033127456486,0.34737648410570665,0.6613832853025936
mznwiki,True,51.0,0.5069022639425732,0.9652996845425867,0.7400336889387984,0.3420145538108005,0.6647356987690081
mznwiki,True,52.0,0.5114206128133705,0.9652996845425867,0.7445255474452555,0.33588663347376485,0.6686088856518573
mznwiki,True,53.0,0.5168918918918919,0.9652996845425867,0.7498596294216732,0.32860972807353506,0.6732673267326733
mznwiki,True,54.0,0.5204313280363224,0.964248159831756,0.753228523301516,0.3236307927996936,0.676004423147807
mznwiki,True,55.0,0.524,0.964248159831756,0.7565974171813588,0.3190348525469169,0.6790077748981859
mznwiki,True,56.0,0.5288350634371396,0.964248159831756,0.7610892756878158,0.31290693220988125,0.6830540037243948
mznwiki,True,57.0,0.5322862129144852,0.9621451104100947,0.764177428411005,0.30792799693603984,0.6853932584269664
mznwiki,True,58.0,0.5369718309859155,0.9621451104100947,0.7683885457608085,0.30218307162006897,0.6892655367231639
mznwiki,True,59.0,0.5404607206142942,0.9621451104100947,0.7714766984839978,0.29797012638835696,0.6921331316187594
mznwiki,True,60.0,0.5421615201900237,0.9600420609884333,0.7728804042672656,0.2952891612409039,0.6929791271347248
mznwiki,True,61.0,0.5446375074895147,0.9558359621451105,0.7748455923638405,0.29107621600919187,0.6938931297709924
mznwiki,True,62.0,0.5496043822276324,0.9495268138801262,0.7787759685569905,0.28341631558789737,0.6962220508866614
mznwiki,True,63.0,0.5489596083231334,0.943217665615142,0.7779337450870297,0.28226733052470315,0.6940038684719535
mznwiki,True,64.0,0.5521927115503397,0.9400630914826499,0.7804604154969118,0.27767139027192644,0.6957198443579767
mznwiki,True,65.0,0.5577043044291953,0.9400630914826499,0.7849522740033689,0.27154346993489087,0.7000783085356305
mznwiki,True,66.0,0.5600251414204902,0.9369085173501577,0.7866367209432903,0.2680965147453083,0.7010228166797796
mznwiki,True,67.0,0.5642811906269791,0.9369085173501577,0.790005614823133,0.2635005744925316,0.7043478260869565
mznwiki,True,68.0,0.5685019206145967,0.9337539432176656,0.7930937675463223,0.25813864419762544,0.7067250298448071
mznwiki,True,69.0,0.5690322580645162,0.9274447949526814,0.7930937675463223,0.25584067407123706,0.7053178728508598
mznwiki,True,70.0,0.5744125326370757,0.92534174553102,0.7970241437394722,0.24971275373420146,0.7088199758356826
mznwiki,True,71.0,0.578042328042328,0.9190325972660357,0.7992700729927007,0.2443508234392953,0.7097036134794965
mznwiki,True,72.0,0.5805799055967633,0.9053627760252366,0.8001122964626615,0.23822290310225966,0.7074774034511093
mznwiki,True,73.0,0.5860178204249485,0.8990536277602523,0.8034811903425042,0.2313289927230946,0.7095435684647302
mznwiki,True,74.0,0.5873347251217815,0.8874868559411146,0.8034811903425042,0.22711604749138262,0.7068676716917923
mznwiki,True,75.0,0.59375,0.879074658254469,0.8071308253790006,0.21907315204902336,0.708774904620602
mznwiki,True,76.0,0.5933429811866859,0.8622502628811777,0.8054463784390792,0.2152432018383761,0.7029575653664809
mznwiki,True,77.0,0.5916542473919523,0.8349106203995794,0.8020774845592363,0.20988127154346994,0.6925425207152203
mznwiki,True,78.0,0.599845797995374,0.8180862250262881,0.8057271195957327,0.19877441593259287,0.6921708185053381
mznwiki,True,79.0,0.5950479233226837,0.7833859095688749,0.7998315553060079,0.19417847567981616,0.6763504312301407
mznwiki,True,80.0,0.6035353535353535,0.7539432176656151,0.8020774845592363,0.180390654921486,0.670406732117812
mznwiki,True,81.0,0.6157894736842106,0.7381703470031545,0.8071308253790006,0.16775181922635005,0.6714490674318507
mznwiki,True,82.0,0.6276303751143641,0.7213459516298633,0.811341942728804,0.15587897357334354,0.6712328767123288
mznwiki,True,83.0,0.6427870461236507,0.6887486855941115,0.8147108366086468,0.13941018766756033,0.6649746192893402
mznwiki,True,84.0,0.6599788806758183,0.6572029442691903,0.8180797304884896,0.12332439678284182,0.6585879873551107
mznwiki,True,85.0,0.6805555555555556,0.6182965299684543,0.8206064008983717,0.10570662581386442,0.6479338842975207
mznwiki,True,86.0,0.7034220532319392,0.583596214511041,0.8231330713082537,0.08962083492914592,0.6379310344827587
mznwiki,True,87.0,0.7232876712328767,0.555205047318612,0.8245367770915216,0.07736499425507469,0.62819750148721
mznwiki,True,88.0,0.7382352941176471,0.5278654048370137,0.8239752947782145,0.06817311374952126,0.615573267933783
mznwiki,True,89.0,0.7496038034865293,0.49737118822292326,0.8214486243683324,0.060513213328226734,0.5979772439949431
mznwiki,True,90.0,0.7646017699115044,0.45425867507886436,0.8169567658618754,0.05093833780160858,0.5699208443271767
mznwiki,True,91.0,0.777319587628866,0.3964248159831756,0.8085345311622684,0.04136346227499042,0.5250696378830083
mznwiki,True,92.0,0.7983870967741935,0.31230283911671924,0.7953396967995509,0.028724626579854463,0.4489795918367347
mznwiki,True,93.0,0.8327526132404182,0.2513144058885384,0.7866367209432903,0.018383761011106857,0.3861066235864297
mznwiki,True,94.0,0.875,0.19873817034700317,0.7784952274003369,0.010340865568747606,0.32390745501285345
mznwiki,True,95.0,0.9010989010989011,0.17245005257623555,0.7740033688938799,0.0068939103791650705,0.28949691085613416
mznwiki,True,96.0,0.9192546583850931,0.15562565720294427,0.7709152161706906,0.00497893527384144,0.26618705035971224
mznwiki,True,97.0,0.9185185185185185,0.13038906414300735,0.7647389107243122,0.004212945231711987,0.22836095764272557
mznwiki,True,98.0,0.9042553191489362,0.08937960042060988,0.7543514879281302,0.0034469551895825352,0.1626794258373206
mznwiki,True,99.0,0.85,0.035751840168243953,0.7408759124087592,0.002297970126388357,0.06861755802219979
mznwiki,False,0.0,0.24465440079562406,1.0,0.24465440079562406,1.0,0.3931282461046744
mznwiki,False,1.0,0.24465440079562406,1.0,0.24465440079562406,1.0,0.3931282461046744
mznwiki,False,2.0,0.24506873879258817,1.0,0.24634510193933368,0.997761685319289,0.3936629860777724
mznwiki,False,3.0,0.2459385153711572,1.0,0.2498756837394331,0.9930875576036866,0.39478435305917753
mznwiki,False,4.0,0.24726103125942306,1.0,0.25519641969169565,0.9860434496379197,0.39648642114594246
mznwiki,False,5.0,0.24800887186208287,1.0,0.2581800099453008,0.9820934825543121,0.39744728976492444
mznwiki,False,6.0,0.24956883433093233,1.0,0.2643460964694182,0.9739302172481896,0.39944791751238123
mznwiki,False,7.0,0.2497201017811705,0.9973577235772357,0.2662357036300348,0.9705727452271231,0.3994301994301994
mznwiki,False,8.0,0.25171847748025034,0.9973577235772357,0.27399303828940824,0.9603028308097432,0.4019824690751208
mznwiki,False,9.0,0.2533429707264185,0.9973577235772357,0.28020885131775236,0.9520737327188941,0.40405121660010695
mznwiki,False,10.0,0.25485613379038125,0.9973577235772357,0.28592739930382893,0.9445029624753127,0.4059733598080583
mznwiki,False,11.0,0.25641562794595163,0.9951219512195122,0.29278965688712083,0.9346938775510204,0.4077621387523945
mznwiki,False,12.0,0.2577461071522829,0.9924796747967479,0.29890601690701146,0.9257406188281765,0.4092185208464278
mznwiki,False,13.0,0.25951318027210885,0.9924796747967479,0.30532073595226256,0.91724818959842,0.41144253454668017
mznwiki,False,14.0,0.26190091979990315,0.9896341463414634,0.3151168572849329,0.9033574720210665,0.4141891029730764
mznwiki,False,15.0,0.2645168318988997,0.9869918699186991,0.3254102436598707,0.8888742593811718,0.4172179740527537
mznwiki,False,16.0,0.26800596059385173,0.9869918699186991,0.33729487817006465,0.873140223831468,0.4215460740483528
mznwiki,False,17.0,0.27074479982106914,0.9841463414634146,0.34758826454500247,0.8585911784068466,0.4246623399403613
mznwiki,False,18.0,0.27303561334087056,0.9817073170731707,0.3560417702635505,0.8466096115865701,0.4272445820433437
mznwiki,False,19.0,0.2742377526550188,0.9762195121951219,0.3621084037792143,0.8368005266622778,0.42818935544263165
mznwiki,False,20.0,0.27708549671166494,0.9762195121951219,0.37105917454002985,0.8249506254114549,0.431652736586681
mznwiki,False,21.0,0.28128310771041787,0.9713414634146341,0.3857782197911487,0.8038841342988808,0.43623916020082143
mznwiki,False,22.0,0.2845290676853289,0.9689024390243902,0.39632023868722027,0.789137590520079,0.439881886130848
mznwiki,False,23.0,0.2884802136440884,0.9660569105691057,0.4087518647439085,0.7717577353522054,0.44428865208450186
mznwiki,False,24.0,0.293993938269314,0.9660569105691057,0.4241173545499751,0.7514154048716261,0.4507990705173804
mznwiki,False,25.0,0.29831168016067283,0.9660569105691057,0.4357533565390353,0.7360105332455563,0.4558576703591809
mznwiki,False,26.0,0.3018352702101988,0.9660569105691057,0.44500248632521133,0.7237656352863726,0.45996032322059327
mznwiki,False,27.0,0.3074584384500938,0.9660569105691057,0.45932371954251616,0.704805793285056,0.4664605721576132
mznwiki,False,28.0,0.31439368825830405,0.9638211382113822,0.4769269020387867,0.6807768268597761,0.4741288806678998
mznwiki,False,29.0,0.3227105227241709,0.9611788617886179,0.4969666832421681,0.6533903884134299,0.4831919893736589
mznwiki,False,30.0,0.3300760801284288,0.9611788617886179,0.5132272501243162,0.6318630678077682,0.491401257338806
mznwiki,False,31.0,0.33584262481357857,0.9611788617886179,0.5254599701640975,0.6156682027649769,0.4977632756170728
mznwiki,False,32.0,0.34407741559953436,0.9611788617886179,0.5422178020885132,0.5934825543120474,0.5067509644234891
mznwiki,False,33.0,0.35027035034441895,0.9611788617886179,0.5543013426156141,0.5774851876234365,0.5134357526735791
mznwiki,False,34.0,0.3575803402646503,0.9611788617886179,0.5680258577821979,0.5593153390388413,0.5212455221824195
mznwiki,False,35.0,0.36385319689159035,0.9611788617886179,0.5793635007458976,0.5443054641211323,0.5278785510967238
mznwiki,False,36.0,0.37075656605252844,0.9611788617886179,0.5913973147687718,0.5283739302172482,0.5351060820367751
mznwiki,False,37.0,0.38063425627817127,0.9611788617886179,0.6078567876678269,0.5065832784726794,0.5453182656826568
mznwiki,False,38.0,0.3870202144201653,0.9611788617886179,0.6180507210343112,0.4930875576036866,0.5518408308536087
mznwiki,False,39.0,0.3931659461257067,0.9611788617886179,0.627548483341621,0.480513495720869,0.5580599480764692
mznwiki,False,40.0,0.40010180707559173,0.9585365853658536,0.6382396817503729,0.46550362080316,0.5645537798527562
mznwiki,False,41.0,0.40539843548525745,0.9585365853658536,0.6458975634012929,0.4553653719552337,0.5698060774481967
mznwiki,False,42.0,0.41393838321776527,0.9585365853658536,0.6578319244157136,0.43956550362080316,0.5781891742781831
mznwiki,False,43.0,0.42141006165668843,0.9585365853658536,0.6678766782695177,0.42626728110599077,0.585438520265657
mznwiki,False,44.0,0.4321055525013744,0.9585365853658536,0.6816509199403282,0.40803159973666886,0.5956801818870784
mznwiki,False,45.0,0.4371118732041894,0.9585365853658536,0.6878667329686723,0.3998025016458196,0.6004201413202622
mznwiki,False,46.0,0.4421940928270042,0.9585365853658536,0.6940328194927896,0.39163923633969716,0.6051973051010586
mznwiki,False,47.0,0.4451802100085139,0.9565040650406504,0.6977125808055694,0.38610928242264647,0.6075785940223356
mznwiki,False,48.0,0.44960351581159835,0.9565040650406504,0.7028841372451516,0.3792626728110599,0.6116851887957366
mznwiki,False,49.0,0.45319722650231126,0.9565040650406504,0.7070114370959721,0.373798551678736,0.6150026136957658
mznwiki,False,50.0,0.4557427852024017,0.9565040650406504,0.7098955743411238,0.36998025016458197,0.6173422537058901
mznwiki,False,51.0,0.45898761338144933,0.9565040650406504,0.7135256091496768,0.365174456879526,0.6203123970210243
mznwiki,False,52.0,0.46318897637795275,0.9565040650406504,0.7181501740427648,0.3590520078999342,0.6241379310344827
mznwiki,False,53.0,0.4678862596937761,0.9565040650406504,0.7232222774738936,0.35233706385780117,0.6283883028441715
mznwiki,False,54.0,0.47185363892239646,0.9540650406504065,0.7274987568373943,0.3458854509545754,0.6314231907452247
mznwiki,False,55.0,0.4744289468364665,0.9540650406504065,0.730183988065639,0.3423304805793285,0.6337248548670177
mznwiki,False,56.0,0.47922409392547216,0.9540650406504065,0.7351069119840875,0.33581303489137593,0.637988447162759
mznwiki,False,57.0,0.4821759736245621,0.9512195121951219,0.7381402287419194,0.33087557603686635,0.6399562423082182
mznwiki,False,58.0,0.4864864864864865,0.9512195121951219,0.7424167081054202,0.32521395655036206,0.6437414030261348
mznwiki,False,59.0,0.4893861758862282,0.9512195121951219,0.7452511188463451,0.3214614878209348,0.6462749430366637
mznwiki,False,60.0,0.4907465825446898,0.9485772357723578,0.7465937344604674,0.31882817643186306,0.6468468468468468
mznwiki,False,61.0,0.4929936305732484,0.9439024390243902,0.7487817006464446,0.3144173798551679,0.6476987447698744
mznwiki,False,62.0,0.49709239715701053,0.9382113821138212,0.7526603679761312,0.3074391046741277,0.6498662536956216
mznwiki,False,63.0,0.4961517615176152,0.9302845528455285,0.7518150174042765,0.30599078341013825,0.6471544715447154
mznwiki,False,64.0,0.49934340118187787,0.927439024390244,0.7547488811536549,0.30118499012508226,0.649167733674776
mznwiki,False,65.0,0.5054835493519442,0.927439024390244,0.7602685231228244,0.2938775510204082,0.6543342654334267
mznwiki,False,66.0,0.508268156424581,0.9245934959349593,0.7627051218299353,0.28973008558262014,0.6559480894015861
mznwiki,False,67.0,0.5130258260967633,0.9245934959349593,0.7668324216807558,0.2842659644502962,0.6598970044244578
mznwiki,False,68.0,0.5173987450085568,0.9217479674796748,0.7705121829935355,0.2784726793943384,0.6627694556083302
mznwiki,False,69.0,0.5194102061974427,0.9164634146341464,0.7721034311287917,0.2746543778801843,0.6630394823910006
mznwiki,False,70.0,0.524131499183959,0.9138211382113821,0.7759323719542516,0.2687294272547729,0.6661727663357535
mznwiki,False,71.0,0.5279554607912816,0.9058943089430894,0.7788165091994033,0.26234364713627384,0.667115701242329
mznwiki,False,72.0,0.5307330032604758,0.8932926829268293,0.7806563898557931,0.25582620144832124,0.6658586470721914
mznwiki,False,73.0,0.5360824742268041,0.8878048780487805,0.7845847836897066,0.2488479262672811,0.6685032139577594
mznwiki,False,74.0,0.5364576841580456,0.8747967479674796,0.7844356041770264,0.24483212639894666,0.6650699219655413
mznwiki,False,75.0,0.5408525754884547,0.8664634146341463,0.7873694679264047,0.23824884792626727,0.6659896891110764
mznwiki,False,76.0,0.5413271245634459,0.850609756097561,0.787120835405271,0.23344305464121132,0.6616077780412616
mznwiki,False,77.0,0.5418104592513937,0.8296747967479675,0.7866732968672302,0.2272547728768927,0.6555323590814197
mznwiki,False,78.0,0.5515534781413253,0.8154471544715447,0.7926404773744405,0.21474654377880184,0.6580285386255535
mznwiki,False,79.0,0.5523429710867398,0.7882113821138211,0.7918945798110393,0.20691244239631337,0.6495268402981326
mznwiki,False,80.0,0.5624529154738587,0.758739837398374,0.7965688712083541,0.1911784068466096,0.6460154019209138
mznwiki,False,81.0,0.5733082706766918,0.7439024390243902,0.8018896071606166,0.1793285055957867,0.6475583864118896
mznwiki,False,82.0,0.5821358589157414,0.7245934959349594,0.8053704624564894,0.1684660961158657,0.645599420499819
mznwiki,False,83.0,0.5948215535339398,0.6910569105691057,0.809249129786176,0.15246872942725478,0.6393380970289582
mznwiki,False,84.0,0.608286252354049,0.6565040650406504,0.8125310790651418,0.1369321922317314,0.6314760508308895
mznwiki,False,85.0,0.6253330600532896,0.6201219512195122,0.8161611138736947,0.12034233048057932,0.622716603735075
mznwiki,False,86.0,0.6431777378815081,0.582520325203252,0.8187966185977126,0.10467412771560237,0.6113481228668942
mznwiki,False,87.0,0.6637124569177745,0.5479674796747968,0.8214818498259573,0.08992758393680053,0.6003117345802716
mznwiki,False,88.0,0.6804858727224716,0.5237804878048781,0.8233217304823471,0.07965766951942067,0.5919375215343975
mznwiki,False,89.0,0.6926774102346621,0.49796747967479676,0.82312282446544,0.07156023699802502,0.579401679082417
mznwiki,False,90.0,0.7054337464251669,0.45121951219512196,0.8196419691695673,0.06102699144173798,0.5503904797322424
mznwiki,False,91.0,0.7082728592162555,0.3967479674796748,0.8124316260566882,0.05292955892034233,0.508598228243877
mznwiki,False,92.0,0.7298180121325245,0.3178861788617886,0.8043262058677275,0.038117182356813696,0.4428713011468214
mznwiki,False,93.0,0.7661141804788214,0.25365853658536586,0.7984584783689707,0.025082290980908493,0.3811268896014659
mznwiki,False,94.0,0.8138977635782748,0.2071138211382114,0.7944306315266036,0.01533903884134299,0.330200907323396
mznwiki,False,95.0,0.851593625498008,0.17378048780487804,0.7904525111884635,0.009809084924292298,0.28865631330182306
mznwiki,False,96.0,0.8794489092996556,0.15569105691056911,0.7882148184982596,0.0069124423963133645,0.26454843723018473
mznwiki,False,97.0,0.8849797023004059,0.1329268292682927,0.7836399801093983,0.005595786701777485,0.23113624315250045
mznwiki,False,98.0,0.861878453038674,0.0951219512195122,0.7748881153654898,0.004937458854509546,0.171334431630972
mznwiki,False,99.0,0.7791164658634538,0.03943089430894309,0.7622575832918945,0.003620803159973667,0.0750628748307216
