wiki_db,user_is_bot,threshold,precision,recall,accuracy,fpr,F1
nahwiki,True,0.0,0.01889324798678505,1.0,0.01889324798678505,1.0,0.03708582429830783
nahwiki,True,1.0,0.01889324798678505,1.0,0.01889324798678505,1.0,0.03708582429830783
nahwiki,True,2.0,0.018916032112462528,1.0,0.020097735563356048,0.9987723175137676,0.03712971730014878
nahwiki,True,3.0,0.018956527744207727,1.0,0.022231399270424668,0.996597565681013,0.037207726194510335
nahwiki,True,4.0,0.019004430905566326,1.0,0.024743616215844175,0.9940369707811568,0.0372999966029147
nahwiki,True,5.0,0.018899446590790434,0.9890710382513661,0.029733636175924016,0.9887403977691256,0.03709016393442623
nahwiki,True,6.0,0.018979080678731435,0.9799635701275046,0.04260444627985408,0.9754463502753516,0.037236987818383166
nahwiki,True,7.0,0.019248033899522392,0.97632058287796,0.059673755936403054,0.9579781823283875,0.03775179602760953
nahwiki,True,8.0,0.01956338903718872,0.9744990892531876,0.07681189345447037,0.9404749377389596,0.038356753656438196
nahwiki,True,9.0,0.019920617089792557,0.9690346083788707,0.09866473948654415,0.9180960398470659,0.039038708493854345
nahwiki,True,10.0,0.020066761309135556,0.9526411657559198,0.12017344621102623,0.8958574485250271,0.03930557643168495
nahwiki,True,11.0,0.020434886120149195,0.9380692167577414,0.14925321770252598,0.86593707250342,0.03999844666226555
nahwiki,True,12.0,0.020947139277939786,0.9289617486338798,0.17833298919402574,0.8361219264092041,0.040970437017994854
nahwiki,True,13.0,0.021443492347700047,0.9162112932604736,0.20847959253905982,0.8051492511136834,0.041906190119136884
nahwiki,True,14.0,0.021820117083555083,0.8961748633879781,0.23900474912244477,0.7736504261812059,0.04260293544616184
nahwiki,True,15.0,0.02241323536207773,0.8834244080145719,0.2698052171519031,0.7420112946788734,0.04371732468000721
nahwiki,True,16.0,0.02277103793568265,0.8615664845173042,0.2988161607818845,0.7120207653723386,0.0443694010599878
nahwiki,True,17.0,0.023341399475700745,0.843351548269581,0.33033932135728544,0.6795397944508752,0.04542555800833946
nahwiki,True,18.0,0.024101479915433405,0.8306010928961749,0.36138068690205793,0.6476551264512961,0.046843700241409415
nahwiki,True,19.0,0.02477552377785168,0.8142076502732241,0.3909766673549453,0.6171735241502684,0.04808778441181217
nahwiki,True,20.0,0.02567386621645223,0.8032786885245902,0.4203317502925184,0.5870426882738784,0.049757418481326865
nahwiki,True,21.0,0.025503027337777505,0.7595628415300546,0.4471057884231537,0.5589112210179241,0.0493491124260355
nahwiki,True,22.0,0.02587978422810172,0.7340619307832422,0.4729506504232914,0.5320775895331299,0.04999689845543081
nahwiki,True,23.0,0.025627191799298624,0.692167577413479,0.4969715740931929,0.5067873303167421,0.04942446511022957
nahwiki,True,24.0,0.026379580778554113,0.6739526411657559,0.5238832679468649,0.47900662948542566,0.05077186963979417
nahwiki,True,25.0,0.026943162037387423,0.6484517304189436,0.5508982035928144,0.45098039215686275,0.05173666618224096
nahwiki,True,26.0,0.026867103790180712,0.6120218579234973,0.5738522954091816,0.4268827387842436,0.051474530831099194
nahwiki,True,27.0,0.027867186176520415,0.599271402550091,0.5974602519099732,0.4025746255568417,0.053257790368271954
nahwiki,True,28.0,0.028869286287089013,0.5901639344262295,0.6171794342349783,0.38230032621277493,0.05504587155963303
nahwiki,True,29.0,0.029414537569529556,0.5683060109289617,0.6375524812444078,0.36111403416464977,0.055934026532807456
nahwiki,True,30.0,0.028782064229448595,0.5191256830601093,0.6599559501686283,0.3373320705742046,0.054540235384173755
nahwiki,True,31.0,0.029588982139014418,0.5009107468123861,0.680191341455021,0.3163562383808622,0.05587727318906838
nahwiki,True,32.0,0.030462666055886396,0.48451730418943534,0.6989125197880102,0.29695885509839,0.05732140933089107
nahwiki,True,33.0,0.03204500978473581,0.4772313296903461,0.7177713538440361,0.27759654845838155,0.06005730659025788
nahwiki,True,34.0,0.033337743087710016,0.45901639344262296,0.7383164705072613,0.2563050264828651,0.06216082881105082
nahwiki,True,35.0,0.03463449254790631,0.4444444444444444,0.7554546080253286,0.23855624539619066,0.06426125888859625
nahwiki,True,36.0,0.03584502745576571,0.42805100182149364,0.7716635694128984,0.22171945701357465,0.06615059817030261
nahwiki,True,37.0,0.03726000650829808,0.41712204007285975,0.7853603138550486,0.20754849345820617,0.06840926064227035
nahwiki,True,38.0,0.037636299683432996,0.38979963570127507,0.8001583040814921,0.19193938756182258,0.06864474739374499
nahwiki,True,39.0,0.038953599388963145,0.37158469945355194,0.8149218803771767,0.17654074152022167,0.07051503629450397
nahwiki,True,40.0,0.040582086493133836,0.36065573770491804,0.8268291004198499,0.16419376337296995,0.07295504789977893
nahwiki,True,41.0,0.04128440366972477,0.3442622950819672,0.8365682428246954,0.1539513837735452,0.07372732592159156
nahwiki,True,42.0,0.04367222352664945,0.33879781420765026,0.847339803152316,0.14286716475498965,0.07737104825291181
nahwiki,True,43.0,0.04514329190971342,0.3242258652094718,0.8576639823800675,0.13206355887614438,0.07925200356188782
nahwiki,True,44.0,0.04747693977211069,0.31876138433515483,0.8663018790006195,0.1231540916903434,0.08264462809917356
nahwiki,True,45.0,0.049393414211438474,0.3114754098360656,0.8737352880446004,0.11543723034831106,0.08526551982049363
nahwiki,True,46.0,0.05125,0.2987249544626594,0.882269942872875,0.1064926865200463,0.08748999733262203
nahwiki,True,47.0,0.052614271621177246,0.29143897996357016,0.8874664464175098,0.10105580693815988,0.08913649025069638
nahwiki,True,48.0,0.054875917511359666,0.2859744990892532,0.8934544703696056,0.09484724122207022,0.09208211143695015
nahwiki,True,49.0,0.056910569105691054,0.28051001821493626,0.8985821460527221,0.08951559156757515,0.09462365591397849
nahwiki,True,50.0,0.058097890966971745,0.2659380692167577,0.9046734117970955,0.08302641271177523,0.09536250816459829
nahwiki,True,51.0,0.058674546222034614,0.25318761384335153,0.9091472227957877,0.07822091269423691,0.09527073337902672
nahwiki,True,52.0,0.06034868126955744,0.2459016393442623,0.913414550209925,0.07373110245887264,0.09691313711414214
nahwiki,True,53.0,0.058711217183770883,0.22404371584699453,0.9174753940395072,0.0691711389385808,0.09304084720121028
nahwiki,True,54.0,0.05755755755755756,0.20947176684881602,0.920262922431,0.06604931775930407,0.09030231645072635
nahwiki,True,55.0,0.058151609553478714,0.2040072859744991,0.9225342418611053,0.06362902942930303,0.0905050505050505
nahwiki,True,56.0,0.05929919137466307,0.20036429872495445,0.9248399752219698,0.06120874109930197,0.09151414309484193
nahwiki,True,57.0,0.060948081264108354,0.19672131147540983,0.9275586757519444,0.05836753305973552,0.09306333476949592
nahwiki,True,58.0,0.060874704491725766,0.18761384335154827,0.9299676509050864,0.05573678487495177,0.09192324854975457
nahwiki,True,59.0,0.07028531663187196,0.18397085610200364,0.9386055475256384,0.04686239433161458,0.10171198388721049
nahwiki,True,60.0,0.07318840579710145,0.18397085610200364,0.9405671415789112,0.04486302571117893,0.10471747019180923
nahwiki,True,61.0,0.0758150113722517,0.18214936247723132,0.9425975634937023,0.042758427163351924,0.10706638115631692
nahwiki,True,62.0,0.0779423226812159,0.18214936247723132,0.9438364650010325,0.04149566803465572,0.10917030567685589
nahwiki,True,63.0,0.07973962571196094,0.1785063752276867,0.9455571615389909,0.03967168262653899,0.11023622047244093
nahwiki,True,64.0,0.08256107834877843,0.1785063752276867,0.9470025466308761,0.038198463643060086,0.11290322580645162
nahwiki,True,65.0,0.08398950131233596,0.17486338797814208,0.948379103861243,0.036725244659581185,0.11347517730496455
nahwiki,True,66.0,0.08935361216730038,0.17122040072859745,0.9513731158372909,0.03360342348030446,0.1174266083697689
nahwiki,True,67.0,0.09639830508474577,0.1657559198542805,0.9548833367747264,0.02992037602160721,0.12190221031480242
nahwiki,True,68.0,0.1068075117370892,0.1657559198542805,0.9580494184045701,0.026693324914939143,0.1299072091363312
nahwiki,True,69.0,0.11166875784190715,0.1621129326047359,0.9598045288732879,0.024834262864358622,0.13224368499257058
nahwiki,True,70.0,0.1152317880794702,0.15846994535519127,0.9611122582421364,0.02343119716580729,0.13343558282208587
nahwiki,True,71.0,0.11576011157601115,0.151183970856102,0.9621446761649115,0.022238591322038655,0.1311216429699842
nahwiki,True,72.0,0.125,0.151183970856102,0.9639686144951476,0.020379529271458138,0.1368507831821929
nahwiki,True,73.0,0.13070866141732285,0.151183970856102,0.9649666184871636,0.019362306640008417,0.1402027027027027
nahwiki,True,74.0,0.13562091503267973,0.151183970856102,0.9657581388946246,0.018555543863341403,0.14298018949181737
nahwiki,True,75.0,0.1438474870017331,0.151183970856102,0.9669626264711956,0.017327861377108983,0.14742451154529304
nahwiki,True,76.0,0.15073529411764705,0.1493624772313297,0.9680294583247299,0.016205408818267916,0.15004574565416287
nahwiki,True,77.0,0.15913555992141454,0.14754098360655737,0.9691651180397826,0.01501280297449928,0.15311909262759923
nahwiki,True,78.0,0.16666666666666666,0.14754098360655737,0.9699566384472434,0.014206040197832264,0.15652173913043477
nahwiki,True,79.0,0.16630669546436286,0.14025500910746813,0.970472847408631,0.01353958399102038,0.1521739130434783
nahwiki,True,80.0,0.1773049645390071,0.1366120218579235,0.9717117489159611,0.012206671577396612,0.154320987654321
nahwiki,True,81.0,0.17929292929292928,0.12932604735883424,0.9723656136003854,0.011399908800729594,0.15026455026455027
nahwiki,True,82.0,0.1903485254691689,0.12932604735883424,0.9731571340078464,0.010593146024062576,0.15401301518438176
nahwiki,True,83.0,0.18888888888888888,0.12386156648451731,0.9733980315231606,0.010242379599424744,0.14961496149614964
nahwiki,True,84.0,0.19692307692307692,0.11657559198542805,0.9743272076536582,0.009155003683047459,0.14645308924485126
nahwiki,True,85.0,0.21575342465753425,0.11475409836065574,0.9753940395071925,0.00803255112420639,0.1498216409036861
nahwiki,True,86.0,0.22426470588235295,0.1111111111111111,0.9759446623993393,0.007401171559858291,0.14859926918392202
nahwiki,True,87.0,0.21825396825396826,0.10018214936247723,0.9762199738454126,0.006910098565365323,0.1373283395755306
nahwiki,True,88.0,0.2073732718894009,0.08196721311475409,0.9767361828068002,0.006033182503770739,0.11749347258485639
nahwiki,True,89.0,0.22459893048128343,0.07650273224043716,0.9775621171450203,0.005086113157248588,0.11413043478260872
nahwiki,True,90.0,0.25,0.07650273224043716,0.9782159818294446,0.004419656950436704,0.11715481171548119
nahwiki,True,91.0,0.16793893129770993,0.04007285974499089,0.9781127400371671,0.003823354028552387,0.06470588235294118
nahwiki,True,92.0,0.16129032258064516,0.03642987249544627,0.9782159818294446,0.00364797081623347,0.05943536404160475
nahwiki,True,93.0,0.13761467889908258,0.0273224043715847,0.9783880514832404,0.0032972043915956363,0.04559270516717325
nahwiki,True,94.0,0.13186813186813187,0.02185792349726776,0.9788010186523505,0.002771054754638886,0.0375
nahwiki,True,95.0,0.1111111111111111,0.012750455373406194,0.9794204694060156,0.0019642919779718684,0.022875816993464054
nahwiki,True,96.0,0.125,0.007285974499089253,0.9802808176749949,0.0009821459889859342,0.013769363166953529
nahwiki,True,97.0,0.23529411764705882,0.007285974499089253,0.9807970266363825,0.00045599635202918376,0.014134275618374558
nahwiki,True,98.0,0.5,0.007285974499089253,0.981106752013215,0.00014030656985513347,0.014362657091561938
nahwiki,True,99.0,0.0,0.0,0.9810723380824558,3.507664246378337e-05,0.014362657091561938
nahwiki,False,0.0,0.017649942801111294,1.0,0.017649942801111294,1.0,0.03468765055403887
nahwiki,False,1.0,0.017649942801111294,1.0,0.017649942801111294,1.0,0.03468765055403887
nahwiki,False,2.0,0.017669950566209725,1.0,0.01878224733266407,0.9988473512845497,0.03472628931684294
nahwiki,False,3.0,0.017707820954254796,1.0,0.020918450727243014,0.9966727665945766,0.03479942000966651
nahwiki,False,4.0,0.01775418902575062,1.0,0.023521583825555064,0.9940228628466858,0.03488895298528988
nahwiki,False,5.0,0.017702874946891375,0.9920634920634921,0.028272593561039387,0.9890438957149987,0.03478502852372339
nahwiki,False,6.0,0.017789254716304426,0.9841269841269841,0.04066957719515327,0.9762815790099104,0.034946804762911295
nahwiki,False,7.0,0.018048786416617037,0.9821428571428571,0.056580206849858754,0.9600494331820234,0.03544618028619508
nahwiki,False,8.0,0.018313205305880025,0.9788359788359788,0.07351808185277707,0.9427478194738218,0.03595374599164319
nahwiki,False,9.0,0.018620086893738837,0.9722222222222222,0.09510190740783975,0.9206573662571,0.03654034974334755
nahwiki,False,10.0,0.018718623928186903,0.9543650793650794,0.1161604370462027,0.8988996363809207,0.036717090113357345
nahwiki,False,11.0,0.01901471631917942,0.9391534391534392,0.14375598253682909,0.8705349715996863,0.03727474373613681
nahwiki,False,12.0,0.019398695700232123,0.9285714285714286,0.170265916466276,0.843358604463246,0.03800346470333478
nahwiki,False,13.0,0.019673539518900343,0.9087301587301587,0.19916886512735507,0.8135798654847066,0.038513286242852336
nahwiki,False,14.0,0.019880833865767226,0.8849206349206349,0.2279667546050942,0.7838367754355111,0.03888800081379972
nahwiki,False,15.0,0.020259732237990085,0.8677248677248677,0.25703312866247985,0.7539392066924924,0.03959499630305865
nahwiki,False,16.0,0.020390142088785423,0.83994708994709,0.28493217846053276,0.7250398079711006,0.03981378434722636
nahwiki,False,17.0,0.020751683247914782,0.8194444444444444,0.3143137300679383,0.6947619839817477,0.04047829069881407
nahwiki,False,18.0,0.021269896799020464,0.8042328042328042,0.34338010412532394,0.6649000641680728,0.04144371357486111
nahwiki,False,19.0,0.02164169547957485,0.7824074074074074,0.37187448929563655,0.6355015804358676,0.042118380062305304
nahwiki,False,20.0,0.02242169668373708,0.7731481481481481,0.4010342492937688,0.6056515435986406,0.043579563458778364
nahwiki,False,21.0,0.0224100885559951,0.7380952380952381,0.427088926762076,0.5784989424150961,0.04349944456354387
nahwiki,False,22.0,0.02282558481374155,0.718915343915344,0.4518245278173371,0.5529743090049195,0.04424634672528189
nahwiki,False,23.0,0.022627016350268845,0.6818783068783069,0.47452898466135923,0.5291964731325902,0.04380058202519276
nahwiki,False,24.0,0.02325904647176018,0.6640211640211641,0.5019027385427124,0.501010052998075,0.0449438202247191
nahwiki,False,25.0,0.023587681443703414,0.6362433862433863,0.5287278500221791,0.4732038881098938,0.04548893512388878
nahwiki,False,26.0,0.02340584759102991,0.5998677248677249,0.5511754955291481,0.4496993606958671,0.04505377145269851
nahwiki,False,27.0,0.024130957586357672,0.583994708994709,0.5758177106436626,0.42432920597951373,0.04634684022674785
nahwiki,False,28.0,0.024718586199982816,0.5707671957671958,0.5949501552541265,0.40461534805238014,0.0473850377487989
nahwiki,False,29.0,0.024898650692805713,0.5443121693121693,0.6157168538276563,0.3830002138935761,0.04761904761904762
nahwiki,False,30.0,0.023802612481857766,0.4880952380952381,0.6376508766605188,0.35966204814982056,0.04539164129532246
nahwiki,False,31.0,0.024411925601750546,0.4722222222222222,0.6576004482525156,0.3390688499655394,0.04642392717815345
nahwiki,False,32.0,0.02513835135819438,0.45965608465608465,0.6758457264258866,0.3202699812248972,0.047669673171233586
nahwiki,False,33.0,0.026270174492507993,0.45105820105820105,0.6952233091308103,0.3003897616274925,0.04964874604156808
nahwiki,False,34.0,0.027221344859113955,0.4332010582010582,0.7167604417154997,0.2781448297169475,0.05122389927269883
nahwiki,False,35.0,0.028305235137533274,0.421957671957672,0.7341302266943711,0.26026095016279677,0.053051721270580415
nahwiki,False,36.0,0.02942436794743608,0.4087301587301587,0.7516050708565826,0.24223447489127076,0.054896735509660226
nahwiki,False,37.0,0.030010663687604733,0.39087301587301587,0.766266663553802,0.22698861610856289,0.05574157038434332
nahwiki,False,38.0,0.03,0.3630952380952381,0.7815469381084678,0.21093471492739502,0.05542095699576015
nahwiki,False,39.0,0.030911992434541048,0.3458994708994709,0.7970606775150001,0.19483328184043539,0.05675221094894471
nahwiki,False,40.0,0.03254869614872153,0.3392857142857143,0.8103448275862069,0.18119162487819948,0.059399062120071795
nahwiki,False,41.0,0.03328402366863906,0.3273809523809524,0.8203021035183153,0.17084155239204316,0.06042480468749999
nahwiki,False,42.0,0.03444548533544714,0.31613756613756616,0.8315200896505032,0.15922000142595719,0.062122295145883424
nahwiki,False,43.0,0.03536452665941241,0.30092592592592593,0.8427847687530642,0.14747962069539178,0.06329113924050632
nahwiki,False,44.0,0.03667969724694336,0.2916666666666667,0.8522984614666262,0.13762863322004895,0.06516438862209087
nahwiki,False,45.0,0.038101958017286996,0.2857142857142857,0.8600845142763757,0.12959574114124106,0.06723735408560311
nahwiki,False,46.0,0.03917291093616618,0.27314814814814814,0.8689211589195247,0.12037455141763909,0.06851928660306927
nahwiki,False,47.0,0.0403959604039596,0.2671957671957672,0.8750379380384283,0.1140409249708867,0.07018153391817945
nahwiki,False,48.0,0.04176358638189892,0.2612433862433862,0.8811663903999253,0.10769541554768639,0.07201458523245213
nahwiki,False,49.0,0.04308035714285714,0.2552910052910053,0.8867695468447225,0.10188464006464339,0.07372039724980901
nahwiki,False,50.0,0.04343118383060635,0.23875661375661375,0.8937501459155324,0.09448154573757635,0.07349348534201953
nahwiki,False,51.0,0.04390862944162437,0.22883597883597884,0.8984427894380501,0.08952634455878508,0.07367972742759796
nahwiki,False,52.0,0.04492579221821099,0.2222222222222222,0.902890294866108,0.08488010076764028,0.07474140807474142
nahwiki,False,53.0,0.0453699728066409,0.20965608465608465,0.9081899470034787,0.07925945290776433,0.07459701141310741
nahwiki,False,54.0,0.043569711538461536,0.1917989417989418,0.9114234352018303,0.07564702806759037,0.07100881488736532
nahwiki,False,55.0,0.0438104147178048,0.18584656084656084,0.9140382415427357,0.07287829455522019,0.07090587938430482
nahwiki,False,56.0,0.04474708171206226,0.18253968253968253,0.9167931267947611,0.07001449723126649,0.07187500000000001
nahwiki,False,57.0,0.04619289340101523,0.18055555555555555,0.9197347839282796,0.06698433823704161,0.07356507679870655
nahwiki,False,58.0,0.047840057122456266,0.17724867724867724,0.9232134102210913,0.06338379637331559,0.07534439134101771
nahwiki,False,59.0,0.05647058823529412,0.1746031746031746,0.9339411201643593,0.05241580911186634,0.08534022951349604
nahwiki,False,60.0,0.05910006715916723,0.1746031746031746,0.9363691546237713,0.04994415001069468,0.08830908178625188
nahwiki,False,61.0,0.06097560975609756,0.17195767195767195,0.9386454369294702,0.04757943769755448,0.09002770083102493
nahwiki,False,62.0,0.06235011990407674,0.17195767195767195,0.939742721733243,0.04646243791144806,0.09151707145371349
nahwiki,False,63.0,0.06329113924050633,0.16865079365079366,0.9412719165129689,0.04484635311452813,0.09204114780725502
nahwiki,False,64.0,0.06551901336073998,0.16865079365079366,0.9428711507482549,0.04321838534116025,0.09437453737971874
nahwiki,False,65.0,0.06659591403555319,0.16600529100529102,0.9442135736464875,0.04180431114385531,0.0950577542132172
nahwiki,False,66.0,0.07244234180958013,0.16203703703703703,0.9485910396189854,0.037276897117189914,0.10012259910093992
nahwiki,False,67.0,0.08129521184981055,0.15608465608465608,0.9539724044545094,0.031691898186657796,0.10690826727066817
nahwiki,False,68.0,0.0944,0.15608465608465608,0.9586767212196203,0.0269030586781377,0.11764705882352941
nahwiki,False,69.0,0.09867009867009867,0.15211640211640212,0.9605094203067728,0.02496613351712337,0.11969815248503773
nahwiki,False,70.0,0.10357470210815765,0.14947089947089948,0.962155347512432,0.02324310193217197,0.12236058473199783
nahwiki,False,71.0,0.10541586073500966,0.14417989417989419,0.9632993252865781,0.021983506428690257,0.12178770949720671
nahwiki,False,72.0,0.1190606226105953,0.14417989417989419,0.9660658837811967,0.019167241010528316,0.1304217768471433
nahwiki,False,73.0,0.12528735632183907,0.14417989417989419,0.9671281488571896,0.018085890153765716,0.13407134071340712
nahwiki,False,74.0,0.13108839446782922,0.14417989417989419,0.9680269885368757,0.017170900967274284,0.1373228346456693
nahwiki,False,75.0,0.1391193363114231,0.14417989417989419,0.9691476198258352,0.01603013522827198,0.1416044170185125
nahwiki,False,76.0,0.15003538570417552,0.1402116402116402,0.9708052202740878,0.014271454713976757,0.14495726495726494
nahwiki,False,77.0,0.15910837817063797,0.13690476190476192,0.9719958910186072,0.012999976234047105,0.1471738357625311
nahwiki,False,78.0,0.16626506024096385,0.13690476190476192,0.9726495926038335,0.012334529552962426,0.1501632208922742
nahwiki,False,79.0,0.16851063829787233,0.13095238095238096,0.9732566012186865,0.011609667989638044,0.14737625604763677
nahwiki,False,80.0,0.17506874427131072,0.12632275132275134,0.9740737282002194,0.010694678803146613,0.14675374567806376
nahwiki,False,81.0,0.18055555555555555,0.12037037037037036,0.9748324889687857,0.009815338545999001,0.14444444444444443
nahwiki,False,82.0,0.19238900634249473,0.12037037037037036,0.975556230009572,0.00907859400622668,0.14808787632221318
nahwiki,False,83.0,0.18838992332968238,0.11375661375661375,0.9757079821632854,0.008805285547924044,0.14185567010309277
nahwiki,False,84.0,0.19642857142857142,0.10912698412698413,0.9763967034762916,0.00802100910235996,0.14030612244897958
nahwiki,False,85.0,0.20915032679738563,0.10582010582010581,0.9771554642448579,0.007189200751004111,0.14053579270970573
nahwiki,False,86.0,0.2287390029325513,0.10317460317460317,0.9780309574393575,0.0062504456116167974,0.1422060164083865
nahwiki,False,87.0,0.20893141945773525,0.08664021164021164,0.9780893236523241,0.005893956318178578,0.12248714352501171
nahwiki,False,88.0,0.20786516853932585,0.07341269841269842,0.9787080055097706,0.005026499037478907,0.10850439882697947
nahwiki,False,89.0,0.2326086956521739,0.07076719576719577,0.9794784395209302,0.00419469068612306,0.10851926977687627
nahwiki,False,90.0,0.25721153846153844,0.07076719576719577,0.9799920621950365,0.00367183972241367,0.11099585062240665
nahwiki,False,91.0,0.16666666666666666,0.03571428571428571,0.97982863679873,0.0032084036409439835,0.058823529411764705
nahwiki,False,92.0,0.16611295681063123,0.03306878306878307,0.9800037354376299,0.002982627088433111,0.05515719801434088
nahwiki,False,93.0,0.15151515151515152,0.026455026455026454,0.9802021805617165,0.0026617867243387125,0.04504504504504504
nahwiki,False,94.0,0.14678899082568808,0.021164021164021163,0.9805523778395162,0.0022102336193169664,0.03699421965317919
nahwiki,False,95.0,0.12582781456953643,0.012566137566137565,0.9810309807858427,0.0015685528911281697,0.022850270595309682
nahwiki,False,96.0,0.14473684210526316,0.007275132275132275,0.9817197020988491,0.0007723934691161442,0.013853904282115869
nahwiki,False,97.0,0.2619047619047619,0.007275132275132275,0.9821165923470222,0.0003683722698861611,0.014157014157014156
nahwiki,False,98.0,0.4074074074074074,0.007275132275132275,0.9822916909859221,0.00019012762316705087,0.014294996751137101
nahwiki,False,99.0,0.0,0.0,0.9823033642285154,4.753190579176272e-05,0.014294996751137101
