wiki_db,user_is_bot,threshold,precision,recall,accuracy,fpr,F1
pflwiki,True,0.0,0.043795620437956206,1.0,0.043795620437956206,1.0,0.08391608391608392
pflwiki,True,1.0,0.043795620437956206,1.0,0.043795620437956206,1.0,0.08391608391608392
pflwiki,True,2.0,0.044444444444444446,1.0,0.058394160583941604,0.9847328244274809,0.0851063829787234
pflwiki,True,3.0,0.045112781954887216,1.0,0.072992700729927,0.9694656488549618,0.08633093525179857
pflwiki,True,4.0,0.04580152671755725,1.0,0.08759124087591241,0.9541984732824428,0.0875912408759124
pflwiki,True,5.0,0.04580152671755725,1.0,0.08759124087591241,0.9541984732824428,0.0875912408759124
pflwiki,True,6.0,0.046875,1.0,0.10948905109489052,0.9312977099236641,0.08955223880597014
pflwiki,True,7.0,0.04918032786885246,1.0,0.15328467153284672,0.8854961832061069,0.09375
pflwiki,True,8.0,0.05263157894736842,1.0,0.2116788321167883,0.8244274809160306,0.1
pflwiki,True,9.0,0.056074766355140186,1.0,0.26277372262773724,0.7709923664122137,0.10619469026548672
pflwiki,True,10.0,0.057692307692307696,1.0,0.2846715328467153,0.7480916030534351,0.1090909090909091
pflwiki,True,11.0,0.0594059405940594,1.0,0.30656934306569344,0.7251908396946565,0.11214953271028036
pflwiki,True,12.0,0.06,1.0,0.31386861313868614,0.7175572519083969,0.11320754716981131
pflwiki,True,13.0,0.061855670103092786,1.0,0.3357664233576642,0.6946564885496184,0.11650485436893204
pflwiki,True,14.0,0.0625,1.0,0.34306569343065696,0.6870229007633588,0.11764705882352941
pflwiki,True,15.0,0.0625,1.0,0.34306569343065696,0.6870229007633588,0.11764705882352941
pflwiki,True,16.0,0.0625,1.0,0.34306569343065696,0.6870229007633588,0.11764705882352941
pflwiki,True,17.0,0.0625,1.0,0.34306569343065696,0.6870229007633588,0.11764705882352941
pflwiki,True,18.0,0.06315789473684211,1.0,0.35036496350364965,0.6793893129770993,0.11881188118811882
pflwiki,True,19.0,0.06382978723404255,1.0,0.35766423357664234,0.6717557251908397,0.12
pflwiki,True,20.0,0.06382978723404255,1.0,0.35766423357664234,0.6717557251908397,0.12
pflwiki,True,21.0,0.06382978723404255,1.0,0.35766423357664234,0.6717557251908397,0.12
pflwiki,True,22.0,0.06382978723404255,1.0,0.35766423357664234,0.6717557251908397,0.12
pflwiki,True,23.0,0.06521739130434782,1.0,0.3722627737226277,0.6564885496183206,0.12244897959183672
pflwiki,True,24.0,0.06521739130434782,1.0,0.3722627737226277,0.6564885496183206,0.12244897959183672
pflwiki,True,25.0,0.06593406593406594,1.0,0.3795620437956204,0.648854961832061,0.12371134020618557
pflwiki,True,26.0,0.06818181818181818,1.0,0.40145985401459855,0.6259541984732825,0.1276595744680851
pflwiki,True,27.0,0.06818181818181818,1.0,0.40145985401459855,0.6259541984732825,0.1276595744680851
pflwiki,True,28.0,0.07407407407407407,1.0,0.45255474452554745,0.5725190839694656,0.13793103448275862
pflwiki,True,29.0,0.07407407407407407,1.0,0.45255474452554745,0.5725190839694656,0.13793103448275862
pflwiki,True,30.0,0.07407407407407407,1.0,0.45255474452554745,0.5725190839694656,0.13793103448275862
pflwiki,True,31.0,0.075,1.0,0.45985401459854014,0.5648854961832062,0.13953488372093023
pflwiki,True,32.0,0.075,1.0,0.45985401459854014,0.5648854961832062,0.13953488372093023
pflwiki,True,33.0,0.07792207792207792,1.0,0.48175182481751827,0.5419847328244275,0.14457831325301204
pflwiki,True,34.0,0.08,1.0,0.49635036496350365,0.5267175572519084,0.14814814814814814
pflwiki,True,35.0,0.08,1.0,0.49635036496350365,0.5267175572519084,0.14814814814814814
pflwiki,True,36.0,0.08,1.0,0.49635036496350365,0.5267175572519084,0.14814814814814814
pflwiki,True,37.0,0.08333333333333333,1.0,0.5182481751824818,0.5038167938931297,0.15384615384615385
pflwiki,True,38.0,0.08333333333333333,1.0,0.5182481751824818,0.5038167938931297,0.15384615384615385
pflwiki,True,39.0,0.08571428571428572,1.0,0.5328467153284672,0.48854961832061067,0.15789473684210528
pflwiki,True,40.0,0.09230769230769231,1.0,0.5693430656934306,0.45038167938931295,0.16901408450704225
pflwiki,True,41.0,0.09230769230769231,1.0,0.5693430656934306,0.45038167938931295,0.16901408450704225
pflwiki,True,42.0,0.09523809523809523,1.0,0.583941605839416,0.4351145038167939,0.17391304347826084
pflwiki,True,43.0,0.09523809523809523,1.0,0.583941605839416,0.4351145038167939,0.17391304347826084
pflwiki,True,44.0,0.10526315789473684,1.0,0.6277372262773723,0.3893129770992366,0.1904761904761905
pflwiki,True,45.0,0.10526315789473684,1.0,0.6277372262773723,0.3893129770992366,0.1904761904761905
pflwiki,True,46.0,0.11764705882352941,1.0,0.6715328467153284,0.3435114503816794,0.21052631578947367
pflwiki,True,47.0,0.14634146341463414,1.0,0.7445255474452555,0.26717557251908397,0.2553191489361702
pflwiki,True,48.0,0.14634146341463414,1.0,0.7445255474452555,0.26717557251908397,0.2553191489361702
pflwiki,True,49.0,0.15384615384615385,1.0,0.7591240875912408,0.25190839694656486,0.2666666666666667
pflwiki,True,50.0,0.16216216216216217,1.0,0.7737226277372263,0.2366412213740458,0.27906976744186046
pflwiki,True,51.0,0.16666666666666666,1.0,0.781021897810219,0.22900763358778625,0.2857142857142857
pflwiki,True,52.0,0.16666666666666666,1.0,0.781021897810219,0.22900763358778625,0.2857142857142857
pflwiki,True,53.0,0.17647058823529413,1.0,0.7956204379562044,0.21374045801526717,0.3
pflwiki,True,54.0,0.17647058823529413,1.0,0.7956204379562044,0.21374045801526717,0.3
pflwiki,True,55.0,0.1935483870967742,1.0,0.8175182481751825,0.19083969465648856,0.3243243243243243
pflwiki,True,56.0,0.1935483870967742,1.0,0.8175182481751825,0.19083969465648856,0.3243243243243243
pflwiki,True,57.0,0.1935483870967742,1.0,0.8175182481751825,0.19083969465648856,0.3243243243243243
pflwiki,True,58.0,0.1935483870967742,1.0,0.8175182481751825,0.19083969465648856,0.3243243243243243
pflwiki,True,59.0,0.20689655172413793,1.0,0.8321167883211679,0.17557251908396945,0.34285714285714286
pflwiki,True,60.0,0.20689655172413793,1.0,0.8321167883211679,0.17557251908396945,0.34285714285714286
pflwiki,True,61.0,0.20689655172413793,1.0,0.8321167883211679,0.17557251908396945,0.34285714285714286
pflwiki,True,62.0,0.20689655172413793,1.0,0.8321167883211679,0.17557251908396945,0.34285714285714286
pflwiki,True,63.0,0.20689655172413793,1.0,0.8321167883211679,0.17557251908396945,0.34285714285714286
pflwiki,True,64.0,0.21428571428571427,1.0,0.8394160583941606,0.16793893129770993,0.35294117647058826
pflwiki,True,65.0,0.2222222222222222,1.0,0.8467153284671532,0.16030534351145037,0.3636363636363636
pflwiki,True,66.0,0.2222222222222222,1.0,0.8467153284671532,0.16030534351145037,0.3636363636363636
pflwiki,True,67.0,0.2222222222222222,1.0,0.8467153284671532,0.16030534351145037,0.3636363636363636
pflwiki,True,68.0,0.23076923076923078,1.0,0.8540145985401459,0.15267175572519084,0.375
pflwiki,True,69.0,0.2857142857142857,1.0,0.8905109489051095,0.11450381679389313,0.4444444444444445
pflwiki,True,70.0,0.2857142857142857,1.0,0.8905109489051095,0.11450381679389313,0.4444444444444445
pflwiki,True,71.0,0.2857142857142857,1.0,0.8905109489051095,0.11450381679389313,0.4444444444444445
pflwiki,True,72.0,0.3,1.0,0.8978102189781022,0.10687022900763359,0.4615384615384615
pflwiki,True,73.0,0.3333333333333333,1.0,0.9124087591240876,0.0916030534351145,0.5
pflwiki,True,74.0,0.3333333333333333,1.0,0.9124087591240876,0.0916030534351145,0.5
pflwiki,True,75.0,0.29411764705882354,0.8333333333333334,0.9051094890510949,0.0916030534351145,0.4347826086956522
pflwiki,True,76.0,0.3333333333333333,0.8333333333333334,0.9197080291970803,0.07633587786259542,0.47619047619047616
pflwiki,True,77.0,0.38461538461538464,0.8333333333333334,0.9343065693430657,0.061068702290076333,0.5263157894736842
pflwiki,True,78.0,0.36363636363636365,0.6666666666666666,0.9343065693430657,0.05343511450381679,0.4705882352941177
pflwiki,True,79.0,0.4,0.6666666666666666,0.9416058394160584,0.04580152671755725,0.5
pflwiki,True,80.0,0.4444444444444444,0.6666666666666666,0.948905109489051,0.03816793893129771,0.5333333333333333
pflwiki,True,81.0,0.4444444444444444,0.6666666666666666,0.948905109489051,0.03816793893129771,0.5333333333333333
pflwiki,True,82.0,0.5,0.6666666666666666,0.9562043795620438,0.030534351145038167,0.5714285714285715
pflwiki,True,83.0,0.5,0.6666666666666666,0.9562043795620438,0.030534351145038167,0.5714285714285715
pflwiki,True,84.0,0.5714285714285714,0.6666666666666666,0.9635036496350365,0.022900763358778626,0.6153846153846153
pflwiki,True,85.0,0.5714285714285714,0.6666666666666666,0.9635036496350365,0.022900763358778626,0.6153846153846153
pflwiki,True,86.0,0.6666666666666666,0.6666666666666666,0.9708029197080292,0.015267175572519083,0.6666666666666666
pflwiki,True,87.0,0.6666666666666666,0.3333333333333333,0.9635036496350365,0.007633587786259542,0.4444444444444444
pflwiki,True,88.0,0.0,0.0,0.948905109489051,0.007633587786259542,0.4444444444444444
pflwiki,True,89.0,0.0,0.0,0.948905109489051,0.007633587786259542,0.4444444444444444
pflwiki,True,90.0,0.0,0.0,0.948905109489051,0.007633587786259542,0.4444444444444444
pflwiki,True,91.0,0.0,0.0,0.948905109489051,0.007633587786259542,0.4444444444444444
pflwiki,True,92.0,0.0,0.0,0.948905109489051,0.007633587786259542,0.4444444444444444
pflwiki,True,93.0,0.0,0.0,0.948905109489051,0.007633587786259542,0.4444444444444444
pflwiki,True,94.0,0.0,0.0,0.9562043795620438,0.0,0.4444444444444444
pflwiki,True,95.0,0.0,0.0,0.9562043795620438,0.0,0.4444444444444444
pflwiki,True,96.0,0.0,0.0,0.9562043795620438,0.0,0.4444444444444444
pflwiki,True,97.0,0.0,0.0,0.9562043795620438,0.0,0.4444444444444444
pflwiki,True,98.0,0.0,0.0,0.9562043795620438,0.0,0.4444444444444444
pflwiki,True,99.0,0.0,0.0,0.9562043795620438,0.0,0.4444444444444444
pflwiki,False,0.0,0.08950617283950617,1.0,0.08950617283950617,1.0,0.16430594900849857
pflwiki,False,1.0,0.08950617283950617,1.0,0.08950617283950617,1.0,0.16430594900849857
pflwiki,False,2.0,0.09073842302878599,1.0,0.10308641975308643,0.9850847457627119,0.1663798049340218
pflwiki,False,3.0,0.09200507614213198,1.0,0.11666666666666667,0.9701694915254238,0.16850668216153397
pflwiki,False,4.0,0.0933075933075933,1.0,0.13024691358024693,0.9552542372881356,0.17068864037669218
pflwiki,False,5.0,0.09397278029812055,1.0,0.13703703703703704,0.9477966101694916,0.1718009478672986
pflwiki,False,6.0,0.09520682862770848,1.0,0.14938271604938272,0.9342372881355933,0.17386091127098321
pflwiki,False,7.0,0.09790681971640783,1.0,0.17530864197530865,0.9057627118644068,0.17835178351783515
pflwiki,False,8.0,0.10461760461760462,1.0,0.2339506172839506,0.8413559322033898,0.18941868060091444
pflwiki,False,9.0,0.1176948051948052,1.0,0.32901234567901233,0.7369491525423729,0.21060275962236746
pflwiki,False,10.0,0.1268591426071741,1.0,0.38395061728395063,0.6766101694915254,0.22515527950310557
pflwiki,False,11.0,0.13193812556869883,1.0,0.4111111111111111,0.6467796610169492,0.23311897106109325
pflwiki,False,12.0,0.13488372093023257,1.0,0.42592592592592593,0.6305084745762712,0.23770491803278693
pflwiki,False,13.0,0.14105058365758755,1.0,0.45493827160493827,0.5986440677966102,0.247229326513214
pflwiki,False,14.0,0.14257620452310718,1.0,0.4617283950617284,0.5911864406779661,0.2495697074010327
pflwiki,False,15.0,0.1441351888667992,1.0,0.4685185185185185,0.583728813559322,0.2519548218940052
pflwiki,False,16.0,0.1441351888667992,1.0,0.4685185185185185,0.583728813559322,0.2519548218940052
pflwiki,False,17.0,0.1441351888667992,1.0,0.4685185185185185,0.583728813559322,0.2519548218940052
pflwiki,False,18.0,0.14735772357723578,1.0,0.4820987654320988,0.5688135593220339,0.25686448184233834
pflwiki,False,19.0,0.14933058702368693,1.0,0.4901234567901235,0.56,0.25985663082437277
pflwiki,False,20.0,0.14933058702368693,1.0,0.4901234567901235,0.56,0.25985663082437277
pflwiki,False,21.0,0.14933058702368693,1.0,0.4901234567901235,0.56,0.25985663082437277
pflwiki,False,22.0,0.15119916579770595,1.0,0.49753086419753084,0.551864406779661,0.2626811594202899
pflwiki,False,23.0,0.15658747300215983,1.0,0.5179012345679013,0.5294915254237288,0.2707749766573296
pflwiki,False,24.0,0.16057585825027684,1.0,0.5320987654320988,0.5138983050847458,0.2767175572519084
pflwiki,False,25.0,0.16292134831460675,1.0,0.5401234567901234,0.5050847457627119,0.28019323671497587
pflwiki,False,26.0,0.1668584579976985,1.0,0.5530864197530864,0.4908474576271186,0.2859960552268245
pflwiki,False,27.0,0.1668584579976985,1.0,0.5530864197530864,0.4908474576271186,0.2859960552268245
pflwiki,False,28.0,0.1751207729468599,1.0,0.578395061728395,0.46305084745762715,0.2980472764645426
pflwiki,False,29.0,0.18012422360248448,1.0,0.5925925925925926,0.44745762711864406,0.30526315789473685
pflwiki,False,30.0,0.18012422360248448,1.0,0.5925925925925926,0.44745762711864406,0.30526315789473685
pflwiki,False,31.0,0.1830808080808081,1.0,0.6006172839506173,0.4386440677966102,0.3094983991462113
pflwiki,False,32.0,0.1830808080808081,1.0,0.6006172839506173,0.4386440677966102,0.3094983991462113
pflwiki,False,33.0,0.1880674448767834,1.0,0.6135802469135803,0.424406779661017,0.3165938864628821
pflwiki,False,34.0,0.19333333333333333,1.0,0.6265432098765432,0.4101694915254237,0.3240223463687151
pflwiki,False,35.0,0.19333333333333333,1.0,0.6265432098765432,0.4101694915254237,0.3240223463687151
pflwiki,False,36.0,0.19333333333333333,1.0,0.6265432098765432,0.4101694915254237,0.3240223463687151
pflwiki,False,37.0,0.19835841313269495,1.0,0.6382716049382716,0.39728813559322035,0.3310502283105023
pflwiki,False,38.0,0.19835841313269495,1.0,0.6382716049382716,0.39728813559322035,0.3310502283105023
pflwiki,False,39.0,0.2013888888888889,1.0,0.6450617283950617,0.3898305084745763,0.3352601156069364
pflwiki,False,40.0,0.21106259097525473,1.0,0.6654320987654321,0.36745762711864405,0.3485576923076923
pflwiki,False,41.0,0.21106259097525473,1.0,0.6654320987654321,0.36745762711864405,0.3485576923076923
pflwiki,False,42.0,0.21386430678466076,1.0,0.6709876543209876,0.36135593220338985,0.35236938031591736
pflwiki,False,43.0,0.21386430678466076,1.0,0.6709876543209876,0.36135593220338985,0.35236938031591736
pflwiki,False,44.0,0.2241112828438949,1.0,0.6901234567901234,0.3403389830508475,0.36616161616161613
pflwiki,False,45.0,0.2241112828438949,1.0,0.6901234567901234,0.3403389830508475,0.36616161616161613
pflwiki,False,46.0,0.2353896103896104,1.0,0.7092592592592593,0.3193220338983051,0.38107752956636004
pflwiki,False,47.0,0.25528169014084506,1.0,0.7388888888888889,0.28677966101694913,0.4067321178120617
pflwiki,False,48.0,0.25528169014084506,1.0,0.7388888888888889,0.28677966101694913,0.4067321178120617
pflwiki,False,49.0,0.25985663082437277,1.0,0.7450617283950617,0.28,0.41251778093883357
pflwiki,False,50.0,0.28431372549019607,1.0,0.7746913580246914,0.24745762711864408,0.44274809160305345
pflwiki,False,51.0,0.2905811623246493,1.0,0.7814814814814814,0.24,0.4503105590062112
pflwiki,False,52.0,0.2905811623246493,1.0,0.7814814814814814,0.24,0.4503105590062112
pflwiki,False,53.0,0.2965235173824131,1.0,0.7876543209876543,0.23322033898305083,0.45741324921135657
pflwiki,False,54.0,0.2965235173824131,1.0,0.7876543209876543,0.23322033898305083,0.45741324921135657
pflwiki,False,55.0,0.30982905982905984,1.0,0.8006172839506173,0.21898305084745762,0.4730831973898858
pflwiki,False,56.0,0.30982905982905984,1.0,0.8006172839506173,0.21898305084745762,0.4730831973898858
pflwiki,False,57.0,0.30982905982905984,1.0,0.8006172839506173,0.21898305084745762,0.4730831973898858
pflwiki,False,58.0,0.30982905982905984,1.0,0.8006172839506173,0.21898305084745762,0.4730831973898858
pflwiki,False,59.0,0.3172866520787746,1.0,0.8074074074074075,0.21152542372881356,0.4817275747508305
pflwiki,False,60.0,0.3172866520787746,1.0,0.8074074074074075,0.21152542372881356,0.4817275747508305
pflwiki,False,61.0,0.3172866520787746,1.0,0.8074074074074075,0.21152542372881356,0.4817275747508305
pflwiki,False,62.0,0.3251121076233184,1.0,0.8141975308641975,0.2040677966101695,0.4906937394247039
pflwiki,False,63.0,0.3251121076233184,1.0,0.8141975308641975,0.2040677966101695,0.4906937394247039
pflwiki,False,64.0,0.3348729792147806,1.0,0.8222222222222222,0.1952542372881356,0.5017301038062284
pflwiki,False,65.0,0.34441805225653205,1.0,0.8296296296296296,0.1871186440677966,0.5123674911660777
pflwiki,False,66.0,0.34441805225653205,1.0,0.8296296296296296,0.1871186440677966,0.5123674911660777
pflwiki,False,67.0,0.34441805225653205,1.0,0.8296296296296296,0.1871186440677966,0.5123674911660777
pflwiki,False,68.0,0.3553921568627451,1.0,0.8376543209876544,0.1783050847457627,0.5244122965641953
pflwiki,False,69.0,0.38461538461538464,1.0,0.8567901234567902,0.15728813559322033,0.5555555555555556
pflwiki,False,70.0,0.38461538461538464,1.0,0.8567901234567902,0.15728813559322033,0.5555555555555556
pflwiki,False,71.0,0.4084507042253521,1.0,0.8703703703703703,0.1423728813559322,0.5800000000000001
pflwiki,False,72.0,0.4227405247813411,1.0,0.8777777777777778,0.1342372881355932,0.5942622950819672
pflwiki,False,73.0,0.43543543543543545,1.0,0.8839506172839506,0.12745762711864406,0.606694560669456
pflwiki,False,74.0,0.43543543543543545,1.0,0.8839506172839506,0.12745762711864406,0.606694560669456
pflwiki,False,75.0,0.4161490683229814,0.9241379310344827,0.8771604938271605,0.12745762711864406,0.5738758029978586
pflwiki,False,76.0,0.4511784511784512,0.9241379310344827,0.8925925925925926,0.11050847457627119,0.6063348416289592
pflwiki,False,77.0,0.46689895470383275,0.9241379310344827,0.8987654320987655,0.10372881355932204,0.6203703703703703
pflwiki,False,78.0,0.467680608365019,0.8482758620689655,0.9,0.09491525423728814,0.6029411764705883
pflwiki,False,79.0,0.5125,0.8482758620689655,0.9141975308641975,0.07932203389830508,0.638961038961039
pflwiki,False,80.0,0.5694444444444444,0.8482758620689655,0.9290123456790124,0.06305084745762712,0.6814404432132964
pflwiki,False,81.0,0.6059113300492611,0.8482758620689655,0.937037037037037,0.05423728813559322,0.706896551724138
pflwiki,False,82.0,0.6871508379888268,0.8482758620689655,0.9518518518518518,0.03796610169491525,0.7592592592592592
pflwiki,False,83.0,0.6871508379888268,0.8482758620689655,0.9518518518518518,0.03796610169491525,0.7592592592592592
pflwiki,False,84.0,0.7987012987012987,0.8482758620689655,0.967283950617284,0.021016949152542375,0.822742474916388
pflwiki,False,85.0,0.7987012987012987,0.8482758620689655,0.967283950617284,0.021016949152542375,0.822742474916388
pflwiki,False,86.0,0.8461538461538461,0.7586206896551724,0.9660493827160493,0.013559322033898305,0.8
pflwiki,False,87.0,0.8690476190476191,0.503448275862069,0.9487654320987654,0.007457627118644068,0.6375545851528385
pflwiki,False,88.0,0.7708333333333334,0.25517241379310346,0.9265432098765433,0.007457627118644068,0.383419689119171
pflwiki,False,89.0,0.7708333333333334,0.25517241379310346,0.9265432098765433,0.007457627118644068,0.383419689119171
pflwiki,False,90.0,0.7027027027027027,0.1793103448275862,0.9197530864197531,0.007457627118644068,0.2857142857142857
pflwiki,False,91.0,0.7027027027027027,0.1793103448275862,0.9197530864197531,0.007457627118644068,0.2857142857142857
pflwiki,False,92.0,0.7027027027027027,0.1793103448275862,0.9197530864197531,0.007457627118644068,0.2857142857142857
pflwiki,False,93.0,0.7027027027027027,0.1793103448275862,0.9197530864197531,0.007457627118644068,0.2857142857142857
pflwiki,False,94.0,1.0,0.1793103448275862,0.9265432098765433,0.0,0.304093567251462
pflwiki,False,95.0,1.0,0.0896551724137931,0.9185185185185185,0.0,0.16455696202531647
pflwiki,False,96.0,1.0,0.0896551724137931,0.9185185185185185,0.0,0.16455696202531647
pflwiki,False,97.0,1.0,0.0896551724137931,0.9185185185185185,0.0,0.16455696202531647
pflwiki,False,98.0,1.0,0.0896551724137931,0.9185185185185185,0.0,0.16455696202531647
pflwiki,False,99.0,1.0,0.0896551724137931,0.9185185185185185,0.0,0.16455696202531647
