wiki_db,user_is_bot,threshold,precision,recall,accuracy,fpr,F1
ptwiki,True,0.0,0.062165709191759115,1.0,0.062165709191759115,1.0,0.11705463404399166
ptwiki,True,1.0,0.062169172955604944,1.0,0.06222142432646593,0.9999405917066022,0.11706077438231849
ptwiki,True,2.0,0.06231535043074555,0.9998008364867557,0.06474098652931855,0.9972408148177485,0.11731850103413219
ptwiki,True,3.0,0.06362046487964641,0.9962158932483569,0.08825896394611728,0.9719262809088148,0.1196028382360853
ptwiki,True,4.0,0.06629146130278407,0.9911372236606254,0.131611529318542,0.9253633807279497,0.12427114157645679
ptwiki,True,5.0,0.06856181478159913,0.9820752838080063,0.16947924920760699,0.8843848601264737,0.12817530201516739
ptwiki,True,6.0,0.0701496727932442,0.9703246365265883,0.1985873118066561,0.8525684185512298,0.13084024304273387
ptwiki,True,7.0,0.07191208268626328,0.963752240589524,0.22452580229793978,0.8244748966955787,0.13383763301826124
ptwiki,True,8.0,0.07371024355025768,0.9556861183031269,0.2506500099049128,0.7960843333729388,0.13686439771536144
ptwiki,True,9.0,0.07574290431138485,0.9503087034455288,0.27602515847860537,0.7686707064306177,0.1403031595042416
ptwiki,True,10.0,0.07774378992775076,0.944035052778331,0.3003355289223455,0.7423330296909448,0.14365704154385858
ptwiki,True,11.0,0.0799217300703921,0.9395538737303326,0.3238349346275753,0.7169788902530794,0.14731254147312542
ptwiki,True,12.0,0.08219370099434929,0.9342760406293567,0.34737148375594296,0.6915323379143729,0.15109472005926547
ptwiki,True,13.0,0.0843515037593985,0.9294961163114918,0.36837608954041207,0.6688185670719633,0.1546670201660342
ptwiki,True,14.0,0.08681605975723623,0.925911173073093,0.3899440372424723,0.6455833234319511,0.15874750303051
ptwiki,True,15.0,0.08953620073766445,0.9210316669986058,0.41286771988906495,0.6208166660065745,0.16320660661190567
ptwiki,True,16.0,0.09216834309162789,0.9170483967337184,0.4333213648969889,0.598743184548563,0.16750184162900045
ptwiki,True,17.0,0.09481427757343418,0.9112726548496316,0.45365119849445323,0.5766829049335287,0.17175783852773635
ptwiki,True,18.0,0.09756909756909757,0.9045010953993229,0.47399341323296357,0.5545434142606308,0.17613807145973726
ptwiki,True,19.0,0.10042725532956517,0.8988249352718582,0.49320275356576865,0.533684502356529,0.18066814788126265
ptwiki,True,20.0,0.10356121413414522,0.8942441744672376,0.5122201862123613,0.51310282915495,0.18562540050023774
ptwiki,True,21.0,0.10680831209848186,0.8890659231228839,0.5309095186212361,0.4928313992633372,0.1907060695709754
ptwiki,True,22.0,0.1102858988052361,0.8842859988050189,0.5493264659270999,0.472876813603179,0.196113074204947
ptwiki,True,23.0,0.11366033076982433,0.880103565026887,0.5658924326465927,0.454935508997056,0.20132118451025058
ptwiki,True,24.0,0.11712972216669998,0.8753236407090221,0.5820931557052298,0.4373440532298309,0.20661205589573023
ptwiki,True,25.0,0.1209763391435573,0.8701453893646683,0.5988819829635499,0.41909910623523045,0.2124199292581833
ptwiki,True,26.0,0.12444973400823069,0.8642700657239594,0.613566016244057,0.40305226609634703,0.21757059951617552
ptwiki,True,27.0,0.12810838111649187,0.8587930691097391,0.6278724247226625,0.38743448585422524,0.2229576008273009
ptwiki,True,28.0,0.13176423564137252,0.8535152360087632,0.6412688193343898,0.3728002429139108,0.22828605673192168
ptwiki,True,29.0,0.13554739068887087,0.848635729934276,0.654139015451664,0.35875348198608525,0.2337580404043175
ptwiki,True,30.0,0.13895463510848127,0.8418641704839673,0.6658701465927099,0.3457958731038853,0.2385372873225925
ptwiki,True,31.0,0.14270665194121146,0.836387173869747,0.6774774663232963,0.3330560946308105,0.2438132284424576
ptwiki,True,32.0,0.1468764818489963,0.8328022306313483,0.6888928783676703,0.32064636223216764,0.2497126050671086
ptwiki,True,33.0,0.15061518111149366,0.8277235610436168,0.6991073197305864,0.3094181947799913,0.25485596897085655
ptwiki,True,34.0,0.1539336740403626,0.8218482374029078,0.7081145998415214,0.2994243996461906,0.2592999874324494
ptwiki,True,35.0,0.15710857252567917,0.8148775144393547,0.7167133022979397,0.28979365519426514,0.2634281391343538
ptwiki,True,36.0,0.1607810552555048,0.8093009360685123,0.7255410558637084,0.2800110895481009,0.2682665170245424
ptwiki,True,37.0,0.16460695889406926,0.8051185022903804,0.7338735637876387,0.2708490105218688,0.2733311922108217
ptwiki,True,38.0,0.16802009208874005,0.7994423421629158,0.7414446315372425,0.2623998310164099,0.27767977586385806
ptwiki,True,39.0,0.17160374314294935,0.7943636725751843,0.7488299821711569,0.25418828468454197,0.2822368071894847
ptwiki,True,40.0,0.17561461794019934,0.7895837482573193,0.7565000990491284,0.2456928987286625,0.2873242498912886
ptwiki,True,41.0,0.17929494337214866,0.7835092611033658,0.7635883022979397,0.2377321874133629,0.29181270282800187
ptwiki,True,42.0,0.18340171140546244,0.7790280820553674,0.7706331715530903,0.22992329729230201,0.2969049471506917
ptwiki,True,43.0,0.18727667793336553,0.7724556861183032,0.7774613708399366,0.22220682007208206,0.30146515875791846
ptwiki,True,44.0,0.19097187717380504,0.76548496315475,0.7838252773375595,0.21495900827755554,0.30568258639201495
ptwiki,True,45.0,0.19482644036603447,0.7590121489743079,0.7900158478605388,0.20792902689215415,0.3100642746725247
ptwiki,True,46.0,0.19876984544211965,0.7530372435769767,0.7959464144215531,0.20120928881671882,0.3145198186582373
ptwiki,True,47.0,0.20240280777537797,0.7465644293965346,0.8013569730586371,0.19501102353888602,0.3184656556645852
ptwiki,True,48.0,0.20625849585263684,0.740390360485959,0.8067365788431062,0.18886556563296236,0.3226366378094557
ptwiki,True,49.0,0.2102831722131919,0.7343158733320055,0.8120480883518225,0.18279931878490238,0.3269414085880866
ptwiki,True,50.0,0.21428152836380684,0.7282413861780522,0.8171057844690967,0.17700370971787663,0.3311297260584107
ptwiki,True,51.0,0.21844528301886793,0.7205735909181438,0.8223615788431062,0.17089125641939615,0.3352560984085065
ptwiki,True,52.0,0.22254272510157874,0.7144991037641903,0.8270787935816165,0.1654586980342456,0.33937989262824303
ptwiki,True,53.0,0.2264825034291365,0.7070304720175263,0.8316721969096672,0.16006574517802685,0.3430697494624435
ptwiki,True,54.0,0.23063299442440144,0.7002589125672177,0.8361479793977813,0.15484441628051276,0.3469850981940195
ptwiki,True,55.0,0.23535758842768992,0.6950806612228639,0.8406609053090333,0.14968909659788507,0.35164613718229676
ptwiki,True,56.0,0.23941954699729862,0.6884086835291775,0.8446785855784469,0.14496283681201896,0.3552780347414945
ptwiki,True,57.0,0.2435079970078011,0.680740888269269,0.8486838847068146,0.14018376965424373,0.358703922340286
ptwiki,True,58.0,0.24738497549557456,0.6735710017924716,0.8523177496038035,0.13583376239323008,0.36186603894714314
ptwiki,True,59.0,0.25177011147936124,0.6657040430193188,0.8562301901743264,0.1311405072148072,0.36536044160244846
ptwiki,True,60.0,0.25641323723165155,0.6589324835690101,0.8600064381933439,0.1266650824455094,0.36916982816335636
ptwiki,True,61.0,0.2605367040153116,0.6506671977693687,0.8634793482567353,0.12241408900682535,0.37208507730417695
ptwiki,True,62.0,0.265059746232497,0.6428002389962159,0.8669955923137876,0.11814329280367539,0.3753452536705916
ptwiki,True,63.0,0.27011567306470063,0.634833698466441,0.8706604100633915,0.11370747356330944,0.37897928246589185
ptwiki,True,64.0,0.2741745540192786,0.6259709221270663,0.8737309330427893,0.10984593449245515,0.38132791410112526
ptwiki,True,65.0,0.27947401603170313,0.6180043815972914,0.8772038431061807,0.10561474381823703,0.3848920863309352
ptwiki,True,66.0,0.28428140236823773,0.6096395140410277,0.8803177000792393,0.10174000290440545,0.38775057795230705
ptwiki,True,67.0,0.2895367795147214,0.601274646484764,0.8834934627575277,0.09779925277568749,0.3908596582081823
ptwiki,True,68.0,0.295124249789197,0.5925114519020116,0.8866939877179081,0.0938056952750604,0.39400059596728804
ptwiki,True,69.0,0.3009121656246797,0.584744074885481,0.889733557844691,0.09004977094802434,0.3973474083096495
ptwiki,True,70.0,0.30657824933687,0.5754829715196176,0.8926926505546752,0.086280644778011,0.4000415339886474
ptwiki,True,71.0,0.31264772165118454,0.5664210316669986,0.8956331715530903,0.08254452321544088,0.4029041969187179
ptwiki,True,72.0,0.31880838459785826,0.5573590918143796,0.898449881141046,0.07894042008264354,0.4056091021088485
ptwiki,True,73.0,0.32593513257575757,0.5483967337183828,0.9014213549920761,0.07517789483411884,0.4088648006533522
ptwiki,True,74.0,0.33140856317955647,0.5372435769766979,0.9038542492076069,0.07184442948235574,0.40993883211124194
ptwiki,True,75.0,0.3378067484662577,0.5263891655048795,0.9064109548335975,0.06839874846528575,0.4115219929933826
ptwiki,True,76.0,0.34414546423338216,0.5145389364668392,0.9088624207606973,0.06499927389863625,0.41243614303959125
ptwiki,True,77.0,0.3507115584866366,0.5030870344552878,0.9112086469889065,0.061738418683248183,0.4133022456743159
ptwiki,True,78.0,0.35668095618687784,0.48884684325831507,0.9134124900950872,0.05844455886041691,0.41243436252888055
ptwiki,True,79.0,0.3640717652425118,0.47689703246365267,0.9156968106180665,0.055216708252472047,0.4129160200034489
ptwiki,True,80.0,0.3728189530974868,0.4638518223461462,0.9181606576862124,0.051724820784981584,0.4133830315938942
ptwiki,True,81.0,0.3822684246112238,0.450408285202151,0.9205873613312203,0.0482461351604684,0.413550333729542
ptwiki,True,82.0,0.392221725525257,0.43686516630153355,0.9229088252773375,0.04487306427977346,0.4133414990342488
ptwiki,True,83.0,0.402624572080639,0.42162915753833896,0.9251560023771791,0.04146698879163531,0.41190777312968185
ptwiki,True,84.0,0.41278715186013415,0.40440151364270066,0.9272112717908082,0.038133523439872204,0.40855130784708243
ptwiki,True,85.0,0.4237122364703325,0.3882692690699064,0.9291427297939778,0.035004686654256933,0.40521721055913534
ptwiki,True,86.0,0.43542131860383126,0.36895040828520215,0.9310308538034865,0.03171082683142567,0.39943938332165385
ptwiki,True,87.0,0.44948979591836735,0.3509261103365863,0.9329313589540412,0.028489577144969438,0.3941393580136451
ptwiki,True,88.0,0.4662134036353545,0.3345947022505477,0.9348194829635499,0.025393744966797364,0.3895878021914314
ptwiki,True,89.0,0.4766412213740458,0.31089424417446726,0.9359399762282092,0.022627958863057282,0.37632594021215043
ptwiki,True,90.0,0.48678151117175505,0.2842063333997212,0.9368747523771791,0.0198621727593172,0.35888085507701983
ptwiki,True,91.0,0.5007821666014861,0.2550288787094204,0.9378838153724247,0.016852152560497446,0.33795196621799944
ptwiki,True,92.0,0.5190822353475693,0.22754431388169688,0.9388743066561014,0.013974150791450486,0.31639435059540294
ptwiki,True,93.0,0.5323624595469255,0.19657438757219678,0.9393200277337559,0.011445997861301438,0.28712727272727273
ptwiki,True,94.0,0.5485599464166109,0.163114917347142,0.939629556259905,0.00889804216668647,0.25145839729812713
ptwiki,True,95.0,0.5742272529386155,0.13134833698466442,0.9399452753565769,0.006455701215889738,0.21379366237134292
ptwiki,True,96.0,0.5996298581122764,0.09679346743676559,0.9398338450871633,0.004283998046127239,0.16668095687215984
ptwiki,True,97.0,0.6554054054054054,0.06761601274646485,0.9398276545166403,0.0023565289714444137,0.12258530420653548
ptwiki,True,98.0,0.7328918322295805,0.033061143198566026,0.9391405011885895,0.0007987115001254176,0.06326822296331587
ptwiki,True,99.0,0.8125,0.003883688508265286,0.9380200079239303,5.940829339775833e-05,0.007730426164519327
ptwiki,False,0.0,0.09308119756919216,1.0,0.09308119756919216,1.0,0.17030975882887256
ptwiki,False,1.0,0.09308369543901658,1.0,0.0931080322346258,0.999970411170921,0.1703139399616262
ptwiki,False,2.0,0.0932582689412115,0.9999334708269576,0.0950339355307484,0.9978400154772337,0.17060513934266508
ptwiki,False,3.0,0.09371041975596213,0.9992349145100127,0.10041325384767819,0.9918368972698615,0.17135115606936419
ptwiki,False,4.0,0.09452649595984522,0.9981482713503205,0.10984976715767224,0.9813203445960555,0.17269815568522234
ptwiki,False,5.0,0.09569006800114932,0.9970394517996142,0.12267364092740604,0.9670664952031955,0.17462102233666965
ptwiki,False,6.0,0.09718606682563616,0.9955758099926818,0.13873212398441112,0.9492096368540246,0.17708541861224214
ptwiki,False,7.0,0.09888365700772428,0.9940567272082141,0.15624896789748333,0.9297390492881611,0.1798743387636724
ptwiki,False,8.0,0.10072555542421632,0.9920941166034639,0.1748082353524011,0.9090735282402613,0.18288329444613075
ptwiki,False,9.0,0.10269697732910575,0.9901536823897279,0.19380511427439065,0.8879277577357717,0.18609274628405306
ptwiki,False,10.0,0.10473013477393102,0.9879582196793294,0.21276999801836316,0.8667910914863834,0.18938427791664542
ptwiki,False,11.0,0.106840976622977,0.9855631694498037,0.2317586201202193,0.8456077659296013,0.19278310490893752
ptwiki,False,12.0,0.10903734863440404,0.9829574435056438,0.250793686835326,0.8243516063320094,0.19629960551416573
ptwiki,False,13.0,0.11120002113710052,0.9800079835007651,0.26903300251007334,0.8039375903312811,0.19973627029244168
ptwiki,False,14.0,0.1134289506512165,0.9769698179318298,0.2870803471167184,0.783726144006555,0.20325896260855422
ptwiki,False,15.0,0.11583573652334556,0.9740536225134722,0.30553846852500166,0.7630742793413071,0.20704894096184917
ptwiki,False,16.0,0.11815028277565565,0.9705941055152685,0.32295313428892264,0.7435172013519818,0.21065728422633373
ptwiki,False,17.0,0.12059173069482063,0.9676113809238684,0.3401809894973248,0.724215042505491,0.21445616139076415
ptwiki,False,18.0,0.1230374680312335,0.9639190118200164,0.3571332733337737,0.7051439041321937,0.2182206128763014
ptwiki,False,19.0,0.12554042909671706,0.9604373184307986,0.37360562949996695,0.6866235731925209,0.22205558695989347
ptwiki,False,20.0,0.12809163275033372,0.9565342736123124,0.38989839982825814,0.6682580145895688,0.225928656451784
ptwiki,False,21.0,0.1305016123416735,0.9517663495442752,0.4052478284563049,0.6508438506446951,0.2295310358658956
ptwiki,False,22.0,0.13307698177972768,0.9474530414920276,0.42059932128938504,0.6334740699434398,0.23337471134399335
ptwiki,False,23.0,0.13569204362002846,0.9431729980263012,0.4355101063478433,0.6165936429538755,0.2372513088275081
ptwiki,False,24.0,0.1383852547696793,0.9389040427560819,0.4501783473148821,0.5999817914897976,0.24121742499344795
ptwiki,False,25.0,0.1410283459925786,0.9338589138003681,0.46440484840478236,0.5837773554414994,0.2450500306963563
ptwiki,False,26.0,0.1437824278694375,0.9292018716874015,0.4783588744302794,0.5679131909276098,0.2490304865545944
ptwiki,False,27.0,0.146528980094037,0.924356330250815,0.4918102665301539,0.5525839014009173,0.25295890980426666
ptwiki,False,28.0,0.14937989579655106,0.9193888186636506,0.5051873472488275,0.5373240318193716,0.25700266871650546
ptwiki,False,29.0,0.15230814683506905,0.9145987182045994,0.518237251469714,0.5224431268564145,0.2611302643784052
ptwiki,False,30.0,0.15533269351990142,0.9098862351140975,0.5310673178545479,0.5078125889087413,0.2653634401299993
ptwiki,False,31.0,0.1584088889923455,0.9054842214977934,0.5434226170817095,0.49373741052224285,0.2696450387980849
ptwiki,False,32.0,0.16160700079554494,0.9009824141219258,0.5557067012352203,0.47973051404900363,0.2740570603690475
ptwiki,False,33.0,0.16478305894632125,0.8963031956179451,0.5674809267454918,0.46626759681806285,0.27838562922095145
ptwiki,False,34.0,0.1680099155174504,0.8913024194442596,0.5790446033423607,0.4530038351674614,0.2827261408161399
ptwiki,False,35.0,0.17121632736993625,0.8863016432705741,0.5900798434506903,0.4403227458433385,0.2869914583310893
ptwiki,False,36.0,0.17439905165411718,0.8808906038631273,0.6007538476781822,0.42799786050005123,0.2911551063190377
ptwiki,False,37.0,0.1778233966069495,0.8759674450579913,0.6114681039038246,0.4156786653162022,0.29563268200588644
ptwiki,False,38.0,0.1811874016765163,0.8709555806887987,0.6216229605654271,0.40396717916036007,0.2999709759711593
ptwiki,False,39.0,0.18457063810165644,0.8654780121083095,0.6315672683136271,0.39244005417031785,0.3042560531378087
ptwiki,False,40.0,0.18812030111669364,0.8598119442042003,0.6415518280599776,0.380849199394567,0.3086995033689302
ptwiki,False,41.0,0.19173587027371292,0.8545561395338522,0.6511472851575402,0.3697294898203048,0.3131994960783517
ptwiki,False,42.0,0.1953642130521909,0.8485906903510523,0.6605837984675342,0.3587122031159313,0.31760807269241226
ptwiki,False,43.0,0.1989578969417679,0.8425476237997028,0.6695888929255565,0.34816264751738346,0.3219022846564119
ptwiki,False,44.0,0.20281410922805407,0.8371698489787772,0.6785506390778784,0.33772917117137624,0.3265239927084482
ptwiki,False,45.0,0.2066063301014768,0.8310048122768501,0.6872326854481802,0.3275233012028997,0.33093487058678067
ptwiki,False,46.0,0.2104041437885582,0.8251502450491207,0.695490537684127,0.31781702723310307,0.3353083771898205
ptwiki,False,47.0,0.21429607201689055,0.8193178542124054,0.7035677719796551,0.3083121849074211,0.339733421610413
ptwiki,False,48.0,0.21809884212154748,0.8128756126228017,0.7113229902899795,0.2990998167768661,0.3439216734925572
ptwiki,False,49.0,0.22198609495369565,0.8061339897545073,0.7189698378360526,0.28997621513354804,0.34811213020088916
ptwiki,False,50.0,0.22615067939507677,0.8003792162863416,0.7264918009776075,0.2810916001866372,0.3526566626034829
ptwiki,False,51.0,0.23003195915401484,0.7933049475528352,0.7335957625999076,0.27253246235959533,0.3566479232717194
ptwiki,False,52.0,0.23397418980259685,0.7864413545339631,0.740457180130788,0.2642623846320174,0.3606510696070904
ptwiki,False,53.0,0.23815733320688512,0.7796664670791476,0.7473392397120021,0.25597865052178764,0.36486332219431705
ptwiki,False,54.0,0.24272378770416744,0.7729691969928814,0.7543936604135015,0.2475128313095333,0.3694384309028615
ptwiki,False,55.0,0.24728697425622126,0.7663384560796576,0.7611250330272805,0.23941004426944043,0.3739162660852488
ptwiki,False,56.0,0.25164381748109793,0.7587541303528264,0.7675127155030055,0.23158835110559797,0.37794175314956063
ptwiki,False,57.0,0.2560631313990272,0.7512474219945446,0.7736877848602947,0.22400905873382573,0.3819413321607658
ptwiki,False,58.0,0.26050074186857664,0.7436630962677134,0.7796378558689477,0.21666989109034834,0.3858429888046393
ptwiki,False,59.0,0.2653649691881897,0.7367551504668131,0.7856457246185349,0.20933641360630925,0.39019076449672174
ptwiki,False,60.0,0.2702641661294098,0.7297695872973632,0.7914358197371029,0.20223509462735145,0.394447823989308
ptwiki,False,61.0,0.27523935878043215,0.7223072317211097,0.7971134156813527,0.1952088857529788,0.39859266964449613
ptwiki,False,62.0,0.28023654014350796,0.7141019670458829,0.8026671593236013,0.18824299256865176,0.40251375785549326
ptwiki,False,63.0,0.2852746445433939,0.7061295544763045,0.8079731983618469,0.18157412570700232,0.40637483249314016
ptwiki,False,64.0,0.2901004357137582,0.696915264009935,0.8130470143338397,0.17503385644865768,0.40967012338597714
ptwiki,False,65.0,0.2954595243311204,0.6879116492581997,0.8182632604531342,0.1683581613956823,0.4133740222011967
ptwiki,False,66.0,0.3010083051338595,0.6795733262368882,0.8232844391967765,0.16196583628273264,0.41721608604639293
ptwiki,False,67.0,0.3065557650588975,0.6706251524626882,0.8281384173327169,0.1556952805817619,0.42076958932509617
ptwiki,False,68.0,0.3121036106750392,0.6613332446277693,0.8327993922980382,0.1496022578552651,0.4240737185640238
ptwiki,False,69.0,0.317937207604316,0.6518195728827091,0.8374325004954092,0.14351720135198187,0.42740138359246915
ptwiki,False,70.0,0.32411197602111574,0.6426607233938749,0.8419933615166127,0.13754822410123932,0.4309059142782796
ptwiki,False,71.0,0.3302017307747967,0.632515024504912,0.846368444084814,0.13168280775227323,0.43389201379777215
ptwiki,False,72.0,0.3370852512466436,0.6236222917082473,0.8508095812140828,0.12587315496580215,0.4376230381972812
ptwiki,False,73.0,0.34385138410670113,0.6134544164282705,0.8550577151727327,0.12014544047524212,0.44068917175128647
ptwiki,False,74.0,0.3503412980282707,0.6026766903954051,0.8589910578637955,0.11470223395659547,0.4431029352420626
ptwiki,False,75.0,0.3569348392236676,0.5911671434590735,0.8628077729704736,0.10931251493666852,0.44511698774811637
ptwiki,False,76.0,0.3639767925133541,0.5787483644911627,0.8666544190501354,0.10379647437721205,0.44689795708683666
ptwiki,False,77.0,0.37116898585248237,0.5666844077794779,0.8703018693440782,0.0985364909924776,0.44854702955090003
ptwiki,False,78.0,0.37862394281950135,0.5544763045262014,0.8738285636435695,0.09339486292405913,0.4499795283880518
ptwiki,False,79.0,0.3863639966393482,0.5405051781873018,0.8773242948675606,0.08810642874213336,0.4506175122023369
ptwiki,False,80.0,0.39441086609989373,0.5267558157585435,0.8806662428165665,0.08301032194922102,0.4510762744856006
ptwiki,False,81.0,0.4033610509398365,0.5120528685161777,0.8840804379417398,0.07773668218183473,0.4512541895892981
ptwiki,False,82.0,0.41319191677186906,0.497194686536713,0.887472958914063,0.07247100863766202,0.45131776937903545
ptwiki,False,83.0,0.4239658356868532,0.481050273878429,0.8908582551687694,0.06708128961773509,0.45070773705944994
ptwiki,False,84.0,0.4347355381364313,0.46306522076597256,0.8939772689741726,0.06179626953147227,0.4484534145149773
ptwiki,False,85.0,0.44563011529626906,0.44313973343978,0.8968537386881564,0.05657953135846867,0.444381435274757
ptwiki,False,86.0,0.4565188680377961,0.42160645776506334,0.8994432839025035,0.05151415142652297,0.4383686410145554
ptwiki,False,87.0,0.4678994390193227,0.39952986051050055,0.901816087588348,0.04663199462848949,0.43102025192291593
ptwiki,False,88.0,0.4817287520553382,0.3768323243075422,0.9042580421428099,0.04160985990827463,0.42287257207560325
ptwiki,False,89.0,0.49431676242817885,0.3510522697536203,0.9061674317986657,0.0368585767773213,0.4105450160146272
ptwiki,False,90.0,0.5082867151147592,0.3233983101590047,0.9079003319241694,0.032109569710143275,0.3952916302425339
ptwiki,False,91.0,0.5224357067792913,0.29215177522010066,0.9092544504260519,0.027409498014134358,0.37474310015005086
ptwiki,False,92.0,0.5372437774524158,0.26039518328787176,0.9102793282251139,0.023020109023454836,0.35077447011904583
ptwiki,False,93.0,0.5563811899983728,0.22748541902290823,0.9112102846951582,0.018615925618235822,0.32293404690697314
ptwiki,False,94.0,0.5782255618829396,0.19027343490120419,0.9117108544157474,0.01424474513775876,0.2863268898659303
ptwiki,False,95.0,0.6028600432537405,0.151453662430976,0.9117294322610476,0.010240010925106121,0.24208856552909794
ptwiki,False,96.0,0.6316924403918428,0.11368726853391879,0.9113310406896096,0.0068031546243925755,0.19269477621056788
ptwiki,False,97.0,0.673190582307916,0.07704078238307498,0.9106085689279345,0.0038385815570552285,0.1382590267344563
ptwiki,False,98.0,0.7434238896075894,0.038232098108353846,0.9092492899134685,0.0013542579463076555,0.07272420484265586
ptwiki,False,99.0,0.8564668769716088,0.006020890160335307,0.9073853127683467,0.00010356090177646778,0.011957718564192907
