wiki_db,user_is_bot,threshold,precision,recall,accuracy,fpr,F1
scnwiki,True,0.0,0.03541315345699832,1.0,0.03541315345699832,1.0,0.06840390879478828
scnwiki,True,1.0,0.03541315345699832,1.0,0.03541315345699832,1.0,0.06840390879478828
scnwiki,True,2.0,0.03541315345699832,1.0,0.03541315345699832,1.0,0.06840390879478828
scnwiki,True,3.0,0.03541315345699832,1.0,0.03541315345699832,1.0,0.06840390879478828
scnwiki,True,4.0,0.03541315345699832,1.0,0.03541315345699832,1.0,0.06840390879478828
scnwiki,True,5.0,0.03541315345699832,1.0,0.03541315345699832,1.0,0.06840390879478828
scnwiki,True,6.0,0.03541315345699832,1.0,0.03541315345699832,1.0,0.06840390879478828
scnwiki,True,7.0,0.03541315345699832,1.0,0.03541315345699832,1.0,0.06840390879478828
scnwiki,True,8.0,0.03541315345699832,1.0,0.03541315345699832,1.0,0.06840390879478828
scnwiki,True,9.0,0.03547297297297297,1.0,0.03709949409780776,0.9982517482517482,0.06851549755301793
scnwiki,True,10.0,0.03547297297297297,1.0,0.03709949409780776,0.9982517482517482,0.06851549755301793
scnwiki,True,11.0,0.03559322033898305,1.0,0.04047217537942664,0.9947552447552448,0.06873977086743044
scnwiki,True,12.0,0.035653650254668934,1.0,0.04215851602023609,0.993006993006993,0.06885245901639345
scnwiki,True,13.0,0.035653650254668934,1.0,0.04215851602023609,0.993006993006993,0.06885245901639345
scnwiki,True,14.0,0.035653650254668934,1.0,0.04215851602023609,0.993006993006993,0.06885245901639345
scnwiki,True,15.0,0.03571428571428571,1.0,0.04384485666104553,0.9912587412587412,0.0689655172413793
scnwiki,True,16.0,0.035897435897435895,1.0,0.048903878583473864,0.986013986013986,0.0693069306930693
scnwiki,True,17.0,0.035897435897435895,1.0,0.048903878583473864,0.986013986013986,0.0693069306930693
scnwiki,True,18.0,0.03595890410958904,1.0,0.050590219224283306,0.9842657342657343,0.06942148760330577
scnwiki,True,19.0,0.03608247422680412,1.0,0.05396290050590219,0.9807692307692307,0.06965174129353233
scnwiki,True,20.0,0.03608247422680412,1.0,0.05396290050590219,0.9807692307692307,0.06965174129353233
scnwiki,True,21.0,0.03677758318739054,1.0,0.07251264755480608,0.9615384615384616,0.07094594594594596
scnwiki,True,22.0,0.037102473498233215,1.0,0.08094435075885328,0.9527972027972028,0.07155025553662692
scnwiki,True,23.0,0.0374331550802139,1.0,0.0893760539629005,0.9440559440559441,0.07216494845360824
scnwiki,True,24.0,0.03770197486535009,1.0,0.09612141652613827,0.9370629370629371,0.0726643598615917
scnwiki,True,25.0,0.03776978417266187,1.0,0.09780775716694773,0.9353146853146853,0.07279029462738301
scnwiki,True,26.0,0.038181818181818185,1.0,0.10792580101180438,0.9248251748251748,0.0735551663747811
scnwiki,True,27.0,0.03903345724907063,1.0,0.1281618887015177,0.9038461538461539,0.07513416815742396
scnwiki,True,28.0,0.04030710172744722,1.0,0.15682967959527824,0.8741258741258742,0.07749077490774908
scnwiki,True,29.0,0.04085603112840467,1.0,0.16863406408094436,0.8618881118881119,0.07850467289719626
scnwiki,True,30.0,0.04276985743380855,1.0,0.20741989881956155,0.8216783216783217,0.08203125
scnwiki,True,31.0,0.043568464730290454,1.0,0.22259696458684655,0.8059440559440559,0.0834990059642147
scnwiki,True,32.0,0.04468085106382979,1.0,0.24283305227655985,0.784965034965035,0.08553971486761712
scnwiki,True,33.0,0.04585152838427948,1.0,0.2630691399662732,0.763986013986014,0.08768267223382047
scnwiki,True,34.0,0.046875,1.0,0.2799325463743676,0.7465034965034965,0.08955223880597014
scnwiki,True,35.0,0.04861111111111111,1.0,0.3069139966273187,0.7185314685314685,0.09271523178807947
scnwiki,True,36.0,0.05,1.0,0.327150084317032,0.6975524475524476,0.09523809523809523
scnwiki,True,37.0,0.05172413793103448,1.0,0.35075885328836426,0.6730769230769231,0.09836065573770492
scnwiki,True,38.0,0.053164556962025315,1.0,0.36930860033726814,0.6538461538461539,0.10096153846153845
scnwiki,True,39.0,0.05614973262032086,1.0,0.40472175379426645,0.6171328671328671,0.10632911392405063
scnwiki,True,40.0,0.0584958217270195,1.0,0.4300168634064081,0.5909090909090909,0.11052631578947368
scnwiki,True,41.0,0.06069364161849711,1.0,0.45193929173693087,0.5681818181818182,0.11444141689373297
scnwiki,True,42.0,0.0625,1.0,0.4688026981450253,0.5506993006993007,0.11764705882352941
scnwiki,True,43.0,0.06481481481481481,1.0,0.48903878583473864,0.5297202797202797,0.1217391304347826
scnwiki,True,44.0,0.06862745098039216,1.0,0.5193929173693086,0.4982517482517482,0.12844036697247707
scnwiki,True,45.0,0.07394366197183098,1.0,0.5564924114671164,0.4597902097902098,0.1377049180327869
scnwiki,True,46.0,0.07526881720430108,1.0,0.5649241146711635,0.45104895104895104,0.14
scnwiki,True,47.0,0.07777777777777778,1.0,0.5801011804384486,0.4353146853146853,0.1443298969072165
scnwiki,True,48.0,0.08300395256916997,1.0,0.6087689713322091,0.40559440559440557,0.15328467153284672
scnwiki,True,49.0,0.08713692946058091,1.0,0.6290050590219224,0.38461538461538464,0.1603053435114504
scnwiki,True,50.0,0.08898305084745763,1.0,0.6374367622259697,0.3758741258741259,0.16342412451361868
scnwiki,True,51.0,0.09130434782608696,1.0,0.6475548060708263,0.36538461538461536,0.16733067729083667
scnwiki,True,52.0,0.09292035398230089,1.0,0.654300168634064,0.3583916083916084,0.1700404858299595
scnwiki,True,53.0,0.09502262443438914,1.0,0.6627318718381113,0.34965034965034963,0.17355371900826444
scnwiki,True,54.0,0.09813084112149532,1.0,0.6745362563237775,0.3374125874125874,0.17872340425531913
scnwiki,True,55.0,0.1,1.0,0.6812816188870152,0.3304195804195804,0.18181818181818182
scnwiki,True,56.0,0.1,1.0,0.6812816188870152,0.3304195804195804,0.18181818181818182
scnwiki,True,57.0,0.10047846889952153,1.0,0.6829679595278246,0.32867132867132864,0.1826086956521739
scnwiki,True,58.0,0.10194174757281553,1.0,0.688026981450253,0.32342657342657344,0.18502202643171806
scnwiki,True,59.0,0.10344827586206896,1.0,0.6930860033726813,0.3181818181818182,0.1875
scnwiki,True,60.0,0.10344827586206896,1.0,0.6930860033726813,0.3181818181818182,0.1875
scnwiki,True,61.0,0.105,1.0,0.6981450252951096,0.3129370629370629,0.19004524886877827
scnwiki,True,62.0,0.10606060606060606,1.0,0.7015177065767285,0.3094405594405594,0.19178082191780824
scnwiki,True,63.0,0.10606060606060606,1.0,0.7015177065767285,0.3094405594405594,0.19178082191780824
scnwiki,True,64.0,0.10880829015544041,1.0,0.7099494097807757,0.3006993006993007,0.19626168224299065
scnwiki,True,65.0,0.1099476439790576,1.0,0.7133220910623946,0.2972027972027972,0.19811320754716982
scnwiki,True,66.0,0.11351351351351352,1.0,0.7234401349072512,0.2867132867132867,0.2038834951456311
scnwiki,True,67.0,0.11602209944751381,1.0,0.730185497470489,0.27972027972027974,0.2079207920792079
scnwiki,True,68.0,0.11864406779661017,1.0,0.7369308600337268,0.2727272727272727,0.21212121212121215
scnwiki,True,69.0,0.1206896551724138,1.0,0.7419898819561551,0.2674825174825175,0.21538461538461542
scnwiki,True,70.0,0.12280701754385964,1.0,0.7470489038785835,0.26223776223776224,0.21875
scnwiki,True,71.0,0.12574850299401197,1.0,0.7537942664418212,0.25524475524475526,0.22340425531914893
scnwiki,True,72.0,0.12574850299401197,1.0,0.7537942664418212,0.25524475524475526,0.22340425531914893
scnwiki,True,73.0,0.12195121951219512,0.9523809523809523,0.7554806070826307,0.2517482517482518,0.21621621621621623
scnwiki,True,74.0,0.11875,0.9047619047619048,0.7588532883642496,0.2465034965034965,0.20994475138121546
scnwiki,True,75.0,0.12101910828025478,0.9047619047619048,0.7639123102866779,0.24125874125874125,0.2134831460674157
scnwiki,True,76.0,0.125,0.9047619047619048,0.7723440134907251,0.23251748251748253,0.21965317919075147
scnwiki,True,77.0,0.12751677852348994,0.9047619047619048,0.7774030354131535,0.22727272727272727,0.2235294117647059
scnwiki,True,78.0,0.13194444444444445,0.9047619047619048,0.7858347386172007,0.21853146853146854,0.2303030303030303
scnwiki,True,79.0,0.13380281690140844,0.9047619047619048,0.7892074198988196,0.21503496503496503,0.2331288343558282
scnwiki,True,80.0,0.1357142857142857,0.9047619047619048,0.7925801011804384,0.21153846153846154,0.23602484472049687
scnwiki,True,81.0,0.13970588235294118,0.9047619047619048,0.7993254637436762,0.20454545454545456,0.24203821656050953
scnwiki,True,82.0,0.1484375,0.9047619047619048,0.8128161888701517,0.19055944055944055,0.2550335570469799
scnwiki,True,83.0,0.1557377049180328,0.9047619047619048,0.8229342327150084,0.18006993006993008,0.2657342657342658
scnwiki,True,84.0,0.16964285714285715,0.9047619047619048,0.8397976391231029,0.16258741258741258,0.28571428571428575
scnwiki,True,85.0,0.17592592592592593,0.9047619047619048,0.8465430016863407,0.1555944055944056,0.29457364341085274
scnwiki,True,86.0,0.1958762886597938,0.9047619047619048,0.8650927487352446,0.13636363636363635,0.3220338983050847
scnwiki,True,87.0,0.2235294117647059,0.9047619047619048,0.8853288364249579,0.11538461538461539,0.3584905660377359
scnwiki,True,88.0,0.24675324675324675,0.9047619047619048,0.8988195615514334,0.10139860139860139,0.3877551020408163
scnwiki,True,89.0,0.2727272727272727,0.8571428571428571,0.9139966273187183,0.08391608391608392,0.41379310344827586
scnwiki,True,90.0,0.29508196721311475,0.8571428571428571,0.9224283305227656,0.07517482517482517,0.43902439024390244
scnwiki,True,91.0,0.2978723404255319,0.6666666666666666,0.9325463743676222,0.057692307692307696,0.4117647058823529
scnwiki,True,92.0,0.35,0.6666666666666666,0.9443507588532883,0.045454545454545456,0.4590163934426229
scnwiki,True,93.0,0.34285714285714286,0.5714285714285714,0.9460370994940978,0.04020979020979021,0.42857142857142855
scnwiki,True,94.0,0.37037037037037035,0.47619047619047616,0.9527824620573356,0.02972027972027972,0.4166666666666667
scnwiki,True,95.0,0.42105263157894735,0.38095238095238093,0.9595278246205734,0.019230769230769232,0.4
scnwiki,True,96.0,0.5,0.2857142857142857,0.9645868465430016,0.01048951048951049,0.36363636363636365
scnwiki,True,97.0,0.4444444444444444,0.19047619047619047,0.9629005059021922,0.008741258741258742,0.26666666666666666
scnwiki,True,98.0,0.8,0.19047619047619047,0.96964586846543,0.0017482517482517483,0.3076923076923077
scnwiki,True,99.0,1.0,0.09523809523809523,0.9679595278246206,0.0,0.17391304347826084
scnwiki,False,0.0,0.09805794333014964,1.0,0.09805794333014964,1.0,0.17860249347636997
scnwiki,False,1.0,0.09805794333014964,1.0,0.09805794333014964,1.0,0.17860249347636997
scnwiki,False,2.0,0.09805794333014964,1.0,0.09805794333014964,1.0,0.17860249347636997
scnwiki,False,3.0,0.09805794333014964,1.0,0.09805794333014964,1.0,0.17860249347636997
scnwiki,False,4.0,0.09805794333014964,1.0,0.09805794333014964,1.0,0.17860249347636997
scnwiki,False,5.0,0.09805794333014964,1.0,0.09805794333014964,1.0,0.17860249347636997
scnwiki,False,6.0,0.09805794333014964,1.0,0.09805794333014964,1.0,0.17860249347636997
scnwiki,False,7.0,0.09805794333014964,1.0,0.09805794333014964,1.0,0.17860249347636997
scnwiki,False,8.0,0.09805794333014964,1.0,0.09805794333014964,1.0,0.17860249347636997
scnwiki,False,9.0,0.0983397190293742,1.0,0.10092327284304362,0.9968231556653724,0.17906976744186046
scnwiki,False,10.0,0.09862311879602946,1.0,0.1037886023559376,0.9936463113307448,0.17953949285922474
scnwiki,False,11.0,0.09887640449438202,1.0,0.10633556192295447,0.9908224496999647,0.17995910020449898
scnwiki,False,12.0,0.09900353584056573,1.0,0.1076090417064629,0.9894105188845747,0.18016964024568588
scnwiki,False,13.0,0.09900353584056573,1.0,0.1076090417064629,0.9894105188845747,0.18016964024568588
scnwiki,False,14.0,0.09913099452848406,1.0,0.10888252148997135,0.9879985880691846,0.1803806734992679
scnwiki,False,15.0,0.09938689899967731,1.0,0.11142948105698822,0.9851747264384045,0.18080422659230994
scnwiki,False,16.0,0.099935107073329,1.0,0.11684177013689907,0.9791740204729968,0.18171091445427728
scnwiki,False,17.0,0.10022779043280182,1.0,0.11970709964979306,0.9759971761383692,0.1821946169772257
scnwiki,False,18.0,0.10048939641109299,1.0,0.12225405921680993,0.9731733145075891,0.18262674177290247
scnwiki,False,19.0,0.10078534031413612,1.0,0.1251193887297039,0.9699964701729615,0.18311533888228299
scnwiki,False,20.0,0.10091743119266056,1.0,0.12639286851321235,0.9685845393575715,0.18333333333333332
scnwiki,False,21.0,0.10175090849025438,1.0,0.1343521171601401,0.9597599717613837,0.18470764617691154
scnwiki,False,22.0,0.10246174318030606,1.0,0.14103788602355938,0.952347334980586,0.18587809293904647
scnwiki,False,23.0,0.10304449648711944,1.0,0.14645017510347022,0.9463466290151783,0.18683651804670912
scnwiki,False,24.0,0.10377358490566038,1.0,0.15313594396688954,0.9389339922343806,0.18803418803418803
scnwiki,False,25.0,0.10405405405405406,1.0,0.1556829035339064,0.9361101306036004,0.18849449204406366
scnwiki,False,26.0,0.10486891385767791,1.0,0.16300541228907992,0.9279915284151077,0.18983050847457628
scnwiki,False,27.0,0.10606060606060606,1.0,0.17351162050302452,0.9163430991881398,0.19178082191780824
scnwiki,False,28.0,0.10784313725490197,1.0,0.18879337790512576,0.8993999294034593,0.19469026548672566
scnwiki,False,29.0,0.10918114143920596,1.0,0.1999363260108246,0.8870455347687963,0.1968680089485459
scnwiki,False,30.0,0.10844250363901019,0.9675324675324676,0.21680993314231137,0.8648076244264031,0.1950261780104712
scnwiki,False,31.0,0.10963944076526858,0.9675324675324676,0.22636103151862463,0.8542181433109778,0.19695968274950426
scnwiki,False,32.0,0.11115255501678478,0.9675324675324676,0.23814071951607768,0.8411577832686198,0.1993977919036467
scnwiki,False,33.0,0.11374045801526718,0.9675324675324676,0.25756128621458135,0.8196258383339217,0.20355191256830601
scnwiki,False,34.0,0.11613406079501169,0.9675324675324676,0.2747532632919452,0.800564772326156,0.20737647877522616
scnwiki,False,35.0,0.1182070606902023,0.9675324675324676,0.28907991085641516,0.784680550653018,0.21067515022976316
scnwiki,False,36.0,0.12016129032258065,0.9675324675324676,0.30213307863737665,0.7702082597952701,0.21377331420373027
scnwiki,False,37.0,0.12198117069177242,0.9675324675324676,0.3139127666348297,0.7571478997529121,0.21664849145765175
scnwiki,False,38.0,0.1241149521032903,0.9675324675324676,0.3272843043616683,0.7423226261913166,0.22000738279808046
scnwiki,False,39.0,0.12707889125799574,0.9675324675324676,0.34511302133078636,0.722555594775856,0.22465133810780247
scnwiki,False,40.0,0.12906019922044176,0.9675324675324676,0.3565743393823623,0.7098482174373456,0.22774168895682081
scnwiki,False,41.0,0.13150926743159752,0.9675324675324676,0.370264247055078,0.6946699611719026,0.23154623154623152
scnwiki,False,42.0,0.13447653429602888,0.9675324675324676,0.38618274434893346,0.677020825979527,0.23613312202852613
scnwiki,False,43.0,0.13701149425287357,0.9675324675324676,0.39923591212989495,0.662548535121779,0.2400322190898107
scnwiki,False,44.0,0.14056603773584905,0.9675324675324676,0.41674625915313596,0.6431344864101659,0.2454695222405272
scnwiki,False,45.0,0.14244186046511628,0.9545454545454546,0.4320280165552372,0.6247793858100953,0.24789207419898818
scnwiki,False,46.0,0.14383561643835616,0.9545454545454546,0.4383954154727794,0.6177197317331451,0.25
scnwiki,False,47.0,0.1467065868263473,0.9545454545454546,0.45113021330786374,0.6036004235792446,0.25432525951557095
scnwiki,False,48.0,0.1513903192584964,0.9545454545454546,0.4708691499522445,0.5817154959406989,0.2613333333333333
scnwiki,False,49.0,0.1550632911392405,0.9545454545454546,0.4855141674625915,0.5654782915637134,0.26678765880217786
scnwiki,False,50.0,0.15738758029978586,0.9545454545454546,0.4944285259471506,0.555594775855983,0.27022058823529405
scnwiki,False,51.0,0.1587473002159827,0.9545454545454546,0.4995224450811843,0.5499470525944229,0.27222222222222225
scnwiki,False,52.0,0.1618942731277533,0.9545454545454546,0.5109837631327603,0.5372396752559124,0.27683615819209045
scnwiki,False,53.0,0.16535433070866143,0.9545454545454546,0.5230818210760905,0.523826332509707,0.2818791946308725
scnwiki,False,54.0,0.16857798165137614,0.9545454545454546,0.5339063992359121,0.5118249205788916,0.28654970760233917
scnwiki,False,55.0,0.17172897196261683,0.9545454545454546,0.5440942375039797,0.5005294740557713,0.29108910891089107
scnwiki,False,56.0,0.17028772753963595,0.9415584415584416,0.5444126074498568,0.49876456053653373,0.28841372451516656
scnwiki,False,57.0,0.17210682492581603,0.9415584415584416,0.5501432664756447,0.4924108718672785,0.29101856497742096
scnwiki,False,58.0,0.17490952955367914,0.9415584415584416,0.5587392550143266,0.4828803388633957,0.2950152594099694
scnwiki,False,59.0,0.17737003058103976,0.9415584415584416,0.5660617637695001,0.47476173667490296,0.29850746268656714
scnwiki,False,60.0,0.17890191239975323,0.9415584415584416,0.5705189430117796,0.46981997882103776,0.3006739243131156
scnwiki,False,61.0,0.18023617153511498,0.9415584415584416,0.574339382362305,0.46558418637486765,0.30255607720396455
scnwiki,False,62.0,0.18170426065162906,0.9415584415584416,0.5784781916587074,0.46099541122485,0.30462184873949577
scnwiki,False,63.0,0.18366054464851173,0.9415584415584416,0.5838904807386183,0.4549947052594423,0.30736618971913093
scnwiki,False,64.0,0.18818948734587929,0.9415584415584416,0.5959885386819485,0.4415813625132369,0.3136830719307734
scnwiki,False,65.0,0.19192587690271343,0.9415584415584416,0.6055396370582617,0.4309918813978115,0.3188565145684442
scnwiki,False,66.0,0.19594594594594594,0.9415584415584416,0.6154091053804521,0.42004941757853864,0.3243847874720358
scnwiki,False,67.0,0.2013888888888889,0.9415584415584416,0.6281439032155365,0.4059301094246382,0.3318077803203661
scnwiki,False,68.0,0.20422535211267606,0.9415584415584416,0.6345113021330786,0.39887045534768795,0.33564814814814814
scnwiki,False,69.0,0.20758768790264853,0.9415584415584416,0.6418338108882522,0.3907518531591952,0.34017595307917886
scnwiki,False,70.0,0.213078618662748,0.9415584415584416,0.6532951289398281,0.3780444758206848,0.34751348112642305
scnwiki,False,71.0,0.218209179834462,0.9415584415584416,0.6634829672078956,0.3667490292975644,0.354306658521686
scnwiki,False,72.0,0.2164009111617312,0.9253246753246753,0.6641197070996498,0.3642781503706318,0.3507692307692308
scnwiki,False,73.0,0.21089494163424125,0.8798701298701299,0.6653931868831582,0.35792446170137665,0.3402385436283742
scnwiki,False,74.0,0.21601941747572814,0.8668831168831169,0.6784463546641197,0.34204024002823863,0.34585492227979275
scnwiki,False,75.0,0.22102649006622516,0.8668831168831169,0.6873607131486787,0.3321567243205083,0.3522427440633245
scnwiki,False,76.0,0.22801024765157984,0.8668831168831169,0.6991404011461319,0.31909636427815036,0.3610547667342799
scnwiki,False,77.0,0.2256913470115968,0.8214285714285714,0.7061445399554283,0.30638898693963995,0.35409377186843943
scnwiki,False,78.0,0.23800564440263405,0.8214285714285714,0.7246099968163006,0.2859159901164843,0.36907366885485055
scnwiki,False,79.0,0.24361493123772102,0.8051948051948052,0.7357529449219994,0.27179668196258383,0.3740573152337859
scnwiki,False,80.0,0.25,0.788961038961039,0.7472142629735753,0.25732439110483585,0.37968750000000007
scnwiki,False,81.0,0.2572658772874058,0.775974025974026,0.7583572110792741,0.2435580656547829,0.3864187550525464
scnwiki,False,82.0,0.2608695652173913,0.7597402597402597,0.7653613498885705,0.2340275326509001,0.3883817427385892
scnwiki,False,83.0,0.27824019024970276,0.7597402597402597,0.7831900668576887,0.21426050123543947,0.4073107049608355
scnwiki,False,84.0,0.29140722291407223,0.7597402597402597,0.7952881248010187,0.20084715848923404,0.4212421242124213
scnwiki,False,85.0,0.3038961038961039,0.7597402597402597,0.8057943330149634,0.18919872926226614,0.43413729128014844
scnwiki,False,86.0,0.325452016689847,0.7597402597402597,0.822031200254696,0.17119661136604306,0.45569620253164556
scnwiki,False,87.0,0.3490853658536585,0.7435064935064936,0.8389048073861828,0.1507236145428874,0.47510373443983406
scnwiki,False,88.0,0.37264957264957266,0.7077922077922078,0.8545049347341611,0.1295446523120367,0.4882418812989921
scnwiki,False,89.0,0.373015873015873,0.6103896103896104,0.8611907035975804,0.11154253441581362,0.4630541871921182
scnwiki,False,90.0,0.3876146788990826,0.5487012987012987,0.8707418019738936,0.09424638192728556,0.4543010752688172
scnwiki,False,91.0,0.4057142857142857,0.461038961038961,0.8809296402419612,0.07342040240028239,0.43161094224924007
scnwiki,False,92.0,0.4440677966101695,0.4253246753246753,0.8914358484559057,0.05788916343099188,0.4344941956882255
scnwiki,False,93.0,0.4980694980694981,0.41883116883116883,0.9016236867239733,0.04588775150017649,0.455026455026455
scnwiki,False,94.0,0.48125,0.25,0.9000318369945877,0.02929756441934345,0.3290598290598291
scnwiki,False,95.0,0.44329896907216493,0.1396103896103896,0.8984399872652021,0.01906106600776562,0.21234567901234566
scnwiki,False,96.0,0.5238095238095238,0.10714285714285714,0.9028971665074816,0.010589481115425344,0.1778975741239892
scnwiki,False,97.0,0.4878048780487805,0.06493506493506493,0.9016236867239733,0.007412636780797741,0.11461318051575929
scnwiki,False,98.0,0.6666666666666666,0.06493506493506493,0.9051257561286215,0.0035298270384751147,0.11834319526627217
scnwiki,False,99.0,0.75,0.01948051948051948,0.9032155364533588,0.0007059654076950229,0.0379746835443038
