wiki_db,user_is_bot,threshold,precision,recall,accuracy,fpr,F1
scowiki,True,0.0,0.11447330859263488,1.0,0.11447330859263488,1.0,0.20543032786885246
scowiki,True,1.0,0.11447330859263488,1.0,0.11447330859263488,1.0,0.20543032786885246
scowiki,True,2.0,0.11447330859263488,1.0,0.11447330859263488,1.0,0.20543032786885246
scowiki,True,3.0,0.11466971690020017,1.0,0.11618612617756209,0.9980657640232108,0.2057465366854797
scowiki,True,4.0,0.11483390607101947,1.0,0.11761347416500142,0.9964539007092199,0.20601078859491392
scowiki,True,5.0,0.11494911853232048,1.0,0.11861261775620896,0.9953255963894262,0.2061961691734156
scowiki,True,6.0,0.11509758897818599,1.0,0.11989723094490437,0.9938749194068343,0.20643500643500642
scowiki,True,7.0,0.11571201846775357,1.0,0.12517841849842992,0.9879110251450677,0.2074227337385232
scowiki,True,8.0,0.1172171879567378,1.0,0.13788181558664003,0.973565441650548,0.2098377812663527
scowiki,True,9.0,0.11915020056455207,1.0,0.15372537824721666,0.9556737588652482,0.21292977565378995
scowiki,True,10.0,0.1221408966148216,0.9987531172069826,0.17813302883242935,0.9279497098646035,0.21766304347826085
scowiki,True,11.0,0.12586641461877757,0.9962593516209476,0.2075363973736797,0.8944229529335912,0.22349650349650352
scowiki,True,12.0,0.1292207792207792,0.9925187032418953,0.23351413074507565,0.8646034816247582,0.22866992243608156
scowiki,True,13.0,0.13302139037433156,0.9925187032418953,0.258635455324008,0.8362346872985171,0.23460064839375183
scowiki,True,14.0,0.13535113076007482,0.9925187032418953,0.2733371395946332,0.8196324951644101,0.23821636989376027
scowiki,True,15.0,0.13747190039771745,0.9912718204488778,0.2870396802740508,0.8039974210186976,0.24145785876993164
scowiki,True,16.0,0.13929386966450027,0.9887780548628429,0.2993148729660291,0.7898130238555771,0.24418783679753656
scowiki,True,17.0,0.14074995557135242,0.9875311720698254,0.3084499000856409,0.7793359123146357,0.24638357442837142
scowiki,True,18.0,0.14311528731478135,0.9875311720698254,0.32172423636882674,0.7643455834945196,0.25
scowiki,True,19.0,0.1460217832748754,0.986284289276808,0.3381387382243791,0.7456479690522244,0.25438173339765235
scowiki,True,20.0,0.1491608523477277,0.986284289276808,0.35441050528118756,0.7272727272727273,0.2591318591318591
scowiki,True,21.0,0.15521978021978022,0.986284289276808,0.38395660862118186,0.6939071566731141,0.268226517463547
scowiki,True,22.0,0.16441488256079817,0.986284289276808,0.42463602626320296,0.6479690522243714,0.2818457153037591
scowiki,True,23.0,0.17207580047919843,0.9850374064837906,0.4557522123893805,0.6126692456479691,0.2929723715928055
scowiki,True,24.0,0.1815028901734104,0.9788029925187033,0.4922923208678276,0.5705996131528046,0.3062219621611078
scowiki,True,25.0,0.18558900213320692,0.9763092269326683,0.5068512703397088,0.5538362346872985,0.3118900617406891
scowiki,True,26.0,0.19046460715154465,0.9763092269326683,0.5222666286040537,0.536428110896196,0.31874618359454515
scowiki,True,27.0,0.1940928270042194,0.9750623441396509,0.5336854125035684,0.5233720180528691,0.32374249637756153
scowiki,True,28.0,0.20493308842823407,0.9738154613466334,0.5645161290322581,0.488394584139265,0.338608280945155
scowiki,True,29.0,0.2073916511566073,0.972568578553616,0.5713673993719669,0.4804964539007092,0.34188034188034194
scowiki,True,30.0,0.2118413905486149,0.972568578553616,0.5826434484727376,0.4677627337201805,0.34790365744870655
scowiki,True,31.0,0.21291735084838534,0.970074812967581,0.586069083642592,0.463571889103804,0.34919210053859967
scowiki,True,32.0,0.2151793160967473,0.9650872817955112,0.5930630887810449,0.45502901353965186,0.3518981586724256
scowiki,True,33.0,0.21907727144070197,0.9650872817955112,0.6021981159006565,0.4447130883301096,0.35709342560553636
scowiki,True,34.0,0.22231809030773655,0.9638403990024937,0.609905795032829,0.43584784010315925,0.3612993690114512
scowiki,True,35.0,0.22788915094339623,0.9638403990024937,0.6220382529260634,0.422147001934236,0.36862184072484505
scowiki,True,36.0,0.23160108140582758,0.9613466334164589,0.6304596060519555,0.41231463571889104,0.3732752360203341
scowiki,True,37.0,0.23373052245646195,0.9538653366583542,0.6367399371966885,0.40425531914893614,0.37546012269938644
scowiki,True,38.0,0.23667905824039653,0.9526184538653366,0.6428775335426777,0.3971631205673759,0.3791563275434243
scowiki,True,39.0,0.24161922833649588,0.9526184538653366,0.6522980302597773,0.38652482269503546,0.38546922300706354
scowiki,True,40.0,0.24603944390559326,0.9488778054862843,0.6612903225806451,0.375886524822695,0.3907573812580231
scowiki,True,41.0,0.2523209549071618,0.9488778054862843,0.6722809020839281,0.36347517730496454,0.3986380303823991
scowiki,True,42.0,0.2585796805980292,0.9488778054862843,0.6827005423922352,0.35170857511283043,0.4064085447263017
scowiki,True,43.0,0.2664796633941094,0.9476309226932669,0.6954039394804453,0.3372018052869117,0.4159824849480022
scowiki,True,44.0,0.27308659719726913,0.9476309226932669,0.7052526405937768,0.32607994842037397,0.4239888423988843
scowiki,True,45.0,0.2777777777777778,0.9413965087281796,0.7131030545246931,0.31640876853642813,0.4289772727272727
scowiki,True,46.0,0.2852807283763278,0.9376558603491272,0.7239508992292321,0.3036750483558994,0.4374636416521234
scowiki,True,47.0,0.29660347551342814,0.9364089775561097,0.7385098487011134,0.2870728562217924,0.4505098980203959
scowiki,True,48.0,0.3073130649137223,0.9326683291770573,0.7516414501855553,0.27176015473887816,0.46229913473423984
scowiki,True,49.0,0.3162356930902925,0.9301745635910225,0.7617756208963745,0.25999355254674406,0.4720025308446694
scowiki,True,50.0,0.3254696373962429,0.928927680798005,0.771481587210962,0.2488716956802063,0.48204464574571343
scowiki,True,51.0,0.3367992766726944,0.928927680798005,0.7824721667142449,0.23646034816247583,0.4943596549435965
scowiki,True,52.0,0.3464419475655431,0.9226932668329177,0.7918926634313446,0.22501611863313992,0.5037440435670524
scowiki,True,53.0,0.3570391872278665,0.9201995012468828,0.8011704253497003,0.2142166344294004,0.5144649703729522
scowiki,True,54.0,0.3643104300543747,0.9189526184538653,0.8071652868969454,0.2072856221792392,0.5217699115044249
scowiki,True,55.0,0.37302798982188295,0.9139650872817955,0.8143020268341422,0.19858156028368795,0.5298156848572462
scowiki,True,56.0,0.3821689259645464,0.9139650872817955,0.8210105623751071,0.19100580270793036,0.5389705882352941
scowiki,True,57.0,0.3936627282491944,0.9139650872817955,0.8290037111047673,0.1819793681495809,0.5503003003003002
scowiki,True,58.0,0.40331491712707185,0.9102244389027432,0.8355695118469882,0.17408123791102514,0.55895865237366
scowiki,True,59.0,0.4115319389485585,0.9077306733167082,0.8408506994005138,0.16779497098646035,0.5663166083236094
scowiki,True,60.0,0.41916859122401845,0.9052369077306733,0.8455609477590637,0.16215344938749193,0.5730071033938438
scowiki,True,61.0,0.427224513847967,0.9039900249376559,0.8502711961176135,0.15667311411992263,0.5802320928371348
scowiki,True,62.0,0.4365175332527207,0.9002493765586035,0.8555523836711391,0.15022566086395875,0.5879478827361564
scowiki,True,63.0,0.44226044226044225,0.8977556109725686,0.8586925492435056,0.1463571889103804,0.5925925925925926
scowiki,True,64.0,0.4544303797468354,0.8952618453865336,0.8649728803882386,0.13894261766602192,0.6028547439126785
scowiki,True,65.0,0.45801033591731266,0.8840399002493765,0.8669711675706537,0.1352353320438427,0.6034042553191489
scowiki,True,66.0,0.46790205162144277,0.8815461346633416,0.8716814159292036,0.12959381044487428,0.6113272805879809
scowiki,True,67.0,0.47891156462585033,0.8778054862842892,0.8766771338852413,0.12346872985170858,0.6197183098591549
scowiki,True,68.0,0.4847222222222222,0.8703241895261845,0.879246360262632,0.11960025789813024,0.6226583407671722
scowiki,True,69.0,0.4897381457891012,0.8628428927680798,0.881387382243791,0.11621534493874919,0.6248306997742663
scowiki,True,70.0,0.4956772334293948,0.85785536159601,0.8838138738224379,0.11283043197936815,0.628310502283105
scowiki,True,71.0,0.5047829286239882,0.8553615960099751,0.8873822437910363,0.10847840103159252,0.6348912540490513
scowiki,True,72.0,0.5124340617935192,0.8478802992518704,0.8902369397659149,0.10428755641521599,0.6387975575387506
scowiki,True,73.0,0.5215384615384615,0.8453865336658354,0.8935198401370255,0.10025789813023855,0.6450999048525214
scowiki,True,74.0,0.5300632911392406,0.8354114713216958,0.8963745361119041,0.09574468085106383,0.648596321393998
scowiki,True,75.0,0.534035656401945,0.8216957605985037,0.8975164145018556,0.09268214055448099,0.6473477406679764
scowiki,True,76.0,0.5372384937238494,0.800498753117207,0.8982300884955752,0.08913604126370084,0.6429644466700051
scowiki,True,77.0,0.5469422911283376,0.7917705735660848,0.9010847844704539,0.08478401031592521,0.6469689251146205
scowiki,True,78.0,0.5568383658969804,0.7817955112219451,0.9037967456465886,0.08043197936814958,0.650414937759336
scowiki,True,79.0,0.5575139146567718,0.7493765586034913,0.9032258064516129,0.07688588007736943,0.6393617021276596
scowiki,True,80.0,0.5600384245917387,0.726932668329177,0.9033685412503568,0.07382333978078659,0.6326641345632121
scowiki,True,81.0,0.5628042843232717,0.7206982543640897,0.9039394804453326,0.07237266279819471,0.6320393657736468
scowiki,True,82.0,0.5723076923076923,0.6957605985037406,0.9056522980302598,0.0672147001934236,0.6280247608328644
scowiki,True,83.0,0.5817204301075268,0.6745635910224439,0.907222380816443,0.06270148291424887,0.6247113163972287
scowiki,True,84.0,0.583710407239819,0.6433915211970075,0.9066514416214673,0.05931656995486783,0.6120996441281139
scowiki,True,85.0,0.5833333333333334,0.6109725685785536,0.9055095632315159,0.056415215989684075,0.5968331303288673
scowiki,True,86.0,0.5943627450980392,0.6047381546134664,0.9075078504139309,0.053352675693101224,0.5995055624227441
scowiki,True,87.0,0.5954907161803713,0.559850374064838,0.9060805024264916,0.04916183107672469,0.577120822622108
scowiki,True,88.0,0.6129496402877698,0.5311720698254364,0.9079360548101627,0.04335912314635719,0.5691382765531062
scowiki,True,89.0,0.6144200626959248,0.48877805486284287,0.9063659720239794,0.039651837524177946,0.5444444444444444
scowiki,True,90.0,0.6179966044142614,0.4538653366583541,0.9053668284327719,0.0362669245647969,0.5233644859813084
scowiki,True,91.0,0.6193293885601578,0.3915211970074813,0.9027976020553811,0.03110896196002579,0.479755538579068
scowiki,True,92.0,0.6441441441441441,0.3566084788029925,0.9037967456465886,0.025467440361057383,0.45906902086677365
scowiki,True,93.0,0.7026239067055393,0.300498753117207,0.9053668284327719,0.01644100580270793,0.42096069868995634
scowiki,True,94.0,0.7061068702290076,0.23067331670822944,0.90094204967171,0.012411347517730497,0.34774436090225563
scowiki,True,95.0,0.7285714285714285,0.19077306733167082,0.8992292320867827,0.00918762088974855,0.30237154150197626
scowiki,True,96.0,0.7960526315789473,0.15087281795511223,0.8983728232943191,0.004996776273372018,0.2536687631027254
scowiki,True,97.0,0.8311688311688312,0.0798004987531172,0.8928061661433058,0.0020954223081882657,0.14562002275312855
scowiki,True,98.0,0.9111111111111111,0.05112219451371571,0.8908078789608906,0.0006447453255963894,0.09681227863046045
scowiki,True,99.0,0.9629629629629629,0.032418952618453865,0.8890950613759635,0.00016118633139909736,0.06272617611580217
scowiki,False,0.0,0.12505263157894736,1.0,0.12505263157894736,1.0,0.22230538922155688
scowiki,False,1.0,0.12505263157894736,1.0,0.12505263157894736,1.0,0.22230538922155688
scowiki,False,2.0,0.12505263157894736,1.0,0.12505263157894736,1.0,0.22230538922155688
scowiki,False,3.0,0.12517121483510693,1.0,0.126,0.9989172281039461,0.2224927427661766
scowiki,False,4.0,0.12532967612617366,1.0,0.12726315789473686,0.9974735322425409,0.2227430392800225
scowiki,False,5.0,0.12558139534883722,1.0,0.12926315789473683,0.9951876804619827,0.22314049586776863
scowiki,False,6.0,0.12594084596628857,1.0,0.13210526315789473,0.9919393647738209,0.2237077487995481
scowiki,False,7.0,0.12658497602557273,1.0,0.13715789473684212,0.9861645813282002,0.22472335193417198
scowiki,False,8.0,0.1279758698696542,1.0,0.14789473684210527,0.973893166506256,0.22691242479228343
scowiki,False,9.0,0.12989284933304177,1.0,0.16231578947368422,0.9574109720885466,0.22992065028062705
scowiki,False,10.0,0.13206285523236375,0.9974747474747475,0.17989473684210527,0.936958614051973,0.2332447593740773
scowiki,False,11.0,0.13518455033710433,0.9957912457912458,0.2028421052631579,0.9104908565928778,0.23805211791930775
scowiki,False,12.0,0.13800350262697023,0.9949494949494949,0.22221052631578947,0.8882338787295476,0.24238695785912026
scowiki,False,13.0,0.1404467680608365,0.9949494949494949,0.23789473684210527,0.8703079884504331,0.24614743856726362
scowiki,False,14.0,0.14249547920433997,0.9949494949494949,0.2506315789473684,0.8557507218479307,0.2492881999367289
scowiki,False,15.0,0.14422018348623852,0.9924242424242424,0.26263157894736844,0.84167468719923,0.25184235821851975
scowiki,False,16.0,0.14512725015518313,0.984006734006734,0.2731578947368421,0.8284408084696824,0.25294817699880995
scowiki,False,17.0,0.14653440482169763,0.9823232323232324,0.2823157894736842,0.8177333974975939,0.2550262237762238
scowiki,False,18.0,0.14811512990320938,0.9789562289562289,0.29326315789473684,0.8047401347449471,0.2573008849557522
scowiki,False,19.0,0.1503174808863548,0.9764309764309764,0.3068421052631579,0.7888594802694899,0.2605277933745087
scowiki,False,20.0,0.15273206056616195,0.9764309764309764,0.3196842105263158,0.7741819056785371,0.26414664693157236
scowiki,False,21.0,0.15703262488154868,0.9764309764309764,0.34157894736842104,0.749157844080847,0.2705539358600584
scowiki,False,22.0,0.1611558766323979,0.9764309764309764,0.36147368421052634,0.7264196342637151,0.2766515621273551
scowiki,False,23.0,0.16427658668181172,0.9739057239057239,0.3771578947368421,0.7081328200192493,0.28113230470173733
scowiki,False,24.0,0.16917678023102792,0.9739057239057239,0.39863157894736845,0.683589990375361,0.28827706490594246
scowiki,False,25.0,0.1719261685025305,0.9722222222222222,0.4109473684210526,0.6692733397497593,0.292183152036428
scowiki,False,26.0,0.17478813559322035,0.9722222222222222,0.4225263157894737,0.6560394610202117,0.2963057978450488
scowiki,False,27.0,0.1770753414147614,0.9713804713804713,0.4318947368421053,0.6452117420596728,0.2995457495133031
scowiki,False,28.0,0.1806543385490754,0.9621212121212122,0.4495789473684211,0.6236766121270453,0.30419161676646705
scowiki,False,29.0,0.18386733215263243,0.9612794612794613,0.46157894736842103,0.6098411934552455,0.30869036356264357
scowiki,False,30.0,0.1866013071895425,0.9612794612794613,0.4711578947368421,0.598893166506256,0.3125342090859332
scowiki,False,31.0,0.18764453254046912,0.9562289562289562,0.4768421052631579,0.59167468719923,0.3137254901960784
scowiki,False,32.0,0.18957425410660408,0.952020202020202,0.48505263157894735,0.5816891241578441,0.3161867486720716
scowiki,False,33.0,0.1936312275295326,0.952020202020202,0.4982105263157895,0.5666506256015399,0.32180964575330767
scowiki,False,34.0,0.1963382737576286,0.9478114478114478,0.5083157894736842,0.5544995187680462,0.3252925032500361
scowiki,False,35.0,0.20028459622909997,0.9478114478114478,0.5202105263157895,0.5409047160731473,0.33069016152716596
scowiki,False,36.0,0.20327272727272727,0.9410774410774411,0.5313684210526316,0.5271896053897979,0.3343301435406699
scowiki,False,37.0,0.20600778787316892,0.9351851851851852,0.5411578947368421,0.5151588065447545,0.3376386567390974
scowiki,False,38.0,0.20805874599887028,0.9301346801346801,0.5485263157894736,0.5060153994225216,0.34005231574088324
scowiki,False,39.0,0.2133204633204633,0.9301346801346801,0.5623157894736842,0.4902550529355149,0.34704773869346733
scowiki,False,40.0,0.2162428543268283,0.9234006734006734,0.5718947368421052,0.47834456207892206,0.3504232550710749
scowiki,False,41.0,0.22256035707039967,0.9234006734006734,0.5870526315789474,0.46102021174205965,0.3586725519045284
scowiki,False,42.0,0.22707513972262472,0.9234006734006734,0.5973684210526315,0.4492300288739172,0.3645123774713408
scowiki,False,43.0,0.23335474202526227,0.9175084175084175,0.6127368421052631,0.430822906641001,0.37207714627069466
scowiki,False,44.0,0.23982398239823982,0.9175084175084175,0.626,0.4156641000962464,0.38025466596895163
scowiki,False,45.0,0.24486107973797153,0.9124579124579124,0.6371578947368421,0.40218960538979787,0.38610863757791625
scowiki,False,46.0,0.2517697026899481,0.8981481481481481,0.6534736842105263,0.3814966313763234,0.3932915591596019
scowiki,False,47.0,0.25894378194207834,0.8956228956228957,0.6664210526315789,0.3663378248315688,0.40173683216915235
scowiki,False,48.0,0.2673043040523534,0.8939393939393939,0.6803157894736842,0.3502165543792108,0.41154814958341407
scowiki,False,49.0,0.2744996100857811,0.8888888888888888,0.6923157894736842,0.3357795957651588,0.41946375372393246
scowiki,False,50.0,0.28018162393162394,0.882996632996633,0.7016842105263158,0.3242300288739172,0.4253852392538524
scowiki,False,51.0,0.2877914951989026,0.882996632996633,0.7121052631578947,0.31231953801732437,0.4340989033726464
scowiki,False,52.0,0.2948645598194131,0.8796296296296297,0.7218947368421053,0.30064966313763236,0.4416737109044801
scowiki,False,53.0,0.3004613610149942,0.877104377104377,0.7292631578947368,0.29186717998075073,0.447594501718213
scowiki,False,54.0,0.30479552809649896,0.8720538720538721,0.7352631578947368,0.28428777670837346,0.4517113581861783
scowiki,False,55.0,0.3098887886985272,0.8678451178451179,0.7417894736842106,0.2762271414821944,0.4566998892580289
scowiki,False,56.0,0.31693821088226254,0.8678451178451179,0.749578947368421,0.26732435033686236,0.4643098401260978
scowiki,False,57.0,0.32564750473783954,0.8678451178451179,0.7587368421052632,0.2568575553416747,0.47358750574184655
scowiki,False,58.0,0.3325777202072539,0.8644781144781145,0.7661052631578947,0.24795476419634263,0.4803554724041161
scowiki,False,59.0,0.33944648216072026,0.8569023569023569,0.773578947368421,0.238330125120308,0.48626701695724867
scowiki,False,60.0,0.3438133874239351,0.8560606060606061,0.7776842105263158,0.23351780558229066,0.49059334298118673
scowiki,False,61.0,0.3509499136442142,0.8552188552188552,0.7841052631578947,0.2260587102983638,0.49767327945138384
scowiki,False,62.0,0.35944700460829493,0.8535353535353535,0.7914736842105263,0.21739653512993262,0.5058618109254178
scowiki,False,63.0,0.3645533141210375,0.8518518518518519,0.7957894736842105,0.212223291626564,0.5105953582240161
scowiki,False,64.0,0.37177597641857035,0.8493265993265994,0.8016842105263158,0.20512512030798846,0.5171706817016914
scowiki,False,65.0,0.37124624624624625,0.8324915824915825,0.8027368421052632,0.20151588065447545,0.5134994807892004
scowiki,False,66.0,0.3774961597542243,0.8274410774410774,0.8077894736842105,0.19501924927815206,0.5184599156118144
scowiki,False,67.0,0.38699444885011897,0.8215488215488216,0.8149473684210526,0.1859961501443696,0.526145552560647
scowiki,False,68.0,0.390452876376989,0.8055555555555556,0.8184210526315789,0.17974013474494707,0.5259686727122836
scowiki,False,69.0,0.39648682559598497,0.797979797979798,0.8228421052631579,0.17360442733397496,0.5297569153394802
scowiki,False,70.0,0.404018811457888,0.7954545454545454,0.8276842105263158,0.16770933589990375,0.5358661752197335
scowiki,False,71.0,0.41186813186813187,0.7887205387205387,0.8327368421052631,0.1609720885466795,0.5411492925209356
scowiki,False,72.0,0.41926729986431477,0.7803030303030303,0.8373684210526315,0.1544754571703561,0.5454545454545454
scowiki,False,73.0,0.42592592592592593,0.7744107744107744,0.8412631578947368,0.14918190567853706,0.5495818399044207
scowiki,False,74.0,0.43573817486860966,0.7676767676767676,0.8466315789473684,0.1420837343599615,0.5559280707101494
scowiki,False,75.0,0.4426955238563699,0.7575757575757576,0.850421052631579,0.1363089509143407,0.55883266066439
scowiki,False,76.0,0.4478744939271255,0.7449494949494949,0.8532631578947368,0.13125601539942253,0.5594184576485463
scowiki,False,77.0,0.4537375849451124,0.7306397306397306,0.8563157894736843,0.1257218479307026,0.5598194130925508
scowiki,False,78.0,0.46141392336751214,0.7196969696969697,0.8598947368421053,0.12006737247353225,0.5623150279513318
scowiki,False,79.0,0.47189097103918226,0.6994949494949495,0.8645263157894737,0.1118864292589028,0.5635808748728383
scowiki,False,80.0,0.4768056371109806,0.6835016835016835,0.8666315789473684,0.1071944177093359,0.5617433414043583
scowiki,False,81.0,0.48342374924653403,0.6750841750841751,0.8691578947368421,0.10310394610202117,0.5634000702493853
scowiki,False,82.0,0.4936548223350254,0.6548821548821548,0.8728421052631579,0.09600577478344562,0.5629522431259044
scowiki,False,83.0,0.5100133511348465,0.6430976430976431,0.8781052631578947,0.0883060635226179,0.5688756515264334
scowiki,False,84.0,0.5170940170940171,0.6111111111111112,0.88,0.08156881616939365,0.5601851851851852
scowiki,False,85.0,0.5185735512630015,0.5875420875420876,0.8802105263157894,0.07795957651588066,0.5509076558800315
scowiki,False,86.0,0.5292758089368259,0.5782828282828283,0.8829473684210526,0.07350818094321462,0.5526950925181013
scowiki,False,87.0,0.5358024691358024,0.547979797979798,0.8841052631578947,0.06785370548604427,0.5418227215980025
scowiki,False,88.0,0.5517241379310345,0.5252525252525253,0.8872631578947369,0.060996150144369585,0.5381630012936611
scowiki,False,89.0,0.5700293829578844,0.4898989898989899,0.89,0.052815206929740136,0.526935264825713
scowiki,False,90.0,0.5899893503727369,0.4663299663299663,0.8927368421052632,0.046318575553416744,0.5209214856605547
scowiki,False,91.0,0.578443113772455,0.4065656565656566,0.8887368421052632,0.04234841193455245,0.47750865051903113
scowiki,False,92.0,0.6102635228848821,0.37037037037037035,0.8916842105263157,0.033806544754571705,0.4609743321110529
scowiki,False,93.0,0.6339434276206323,0.3207070707070707,0.8918947368421053,0.026467757459095284,0.4259362772498603
scowiki,False,94.0,0.6652078774617067,0.2558922558922559,0.8908421052631579,0.018407122232916264,0.3696048632218845
scowiki,False,95.0,0.734375,0.1978114478114478,0.8907368421052632,0.010226179018286815,0.3116710875331565
scowiki,False,96.0,0.7663934426229508,0.1574074074074074,0.8886315789473684,0.006857555341674687,0.2611731843575419
scowiki,False,97.0,0.8809523809523809,0.09343434343434344,0.8850526315789473,0.0018046198267564965,0.1689497716894977
scowiki,False,98.0,0.9242424242424242,0.05134680134680135,0.8808421052631579,0.0006015399422521655,0.09728867623604465
scowiki,False,99.0,0.9333333333333333,0.02356902356902357,0.8776842105263158,0.00024061597690086623,0.04597701149425287
