wiki_db,user_is_bot,threshold,precision,recall,accuracy,fpr,F1
srwiki,True,0.0,0.01112976503420295,1.0,0.01112976503420295,1.0,0.02201451370354322
srwiki,True,1.0,0.011130051876424393,1.0,0.011155536901632464,0.9999739380694066,0.022015074827950336
srwiki,True,2.0,0.012588175526554678,1.0,0.12698535421590934,0.8828404525840404,0.02486336662979245
srwiki,True,3.0,0.013270837543159874,0.9993384055573933,0.1730065460543271,0.8362938445443071,0.026193830880280926
srwiki,True,4.0,0.022036440640578817,0.9913992722461131,0.5102203862834758,0.49519529693846775,0.043114547743211655
srwiki,True,5.0,0.03640738162410386,0.9861065167052597,0.7093669693020241,0.29374774285065397,0.07022213846552497
srwiki,True,6.0,0.045509166538283775,0.9771749917300695,0.7716428460977711,0.23067042454884937,0.08696804204142317
srwiki,True,7.0,0.04847411624520058,0.968905061197486,0.7879748466573888,0.21406152849499796,0.09232903052941825
srwiki,True,8.0,0.05153491331318594,0.9646046973205425,0.8020205144064739,0.1998093755933743,0.0978424990772741
srwiki,True,9.0,0.06205760964865385,0.9599735362222958,0.8380716752450168,0.16330033396502489,0.11657895793998312
srwiki,True,10.0,0.06610192711663165,0.9576579556731724,0.8489437216049246,0.15227986045697733,0.12366774172878531
srwiki,True,11.0,0.06976406884548443,0.9546807806814422,0.8578166073913716,0.14327360187050198,0.13002635669392443
srwiki,True,12.0,0.07343076491442854,0.9523652001323188,0.8657212073015382,0.13525397351363225,0.13634856736916884
srwiki,True,13.0,0.07701612903225806,0.9477340390340722,0.8730072823933965,0.1278337695604097,0.1424558088655744
srwiki,True,14.0,0.08042933205623011,0.9444260668210387,0.879203575662521,0.12153050548975952,0.14823468328141226
srwiki,True,15.0,0.08415006069937524,0.9401257029440953,0.8854550943618518,0.11516022502615501,0.15447331231655614
srwiki,True,16.0,0.08834651082846338,0.9351637446245451,0.8918759710471478,0.10861123418133892,0.16144137970418593
srwiki,True,17.0,0.09229912906816842,0.9325173668541185,0.8971812940422806,0.10321641454851428,0.16797259049605243
srwiki,True,18.0,0.095865500085778,0.9242474363215349,0.9021405376747885,0.09810827615221657,0.17371300671474757
srwiki,True,19.0,0.09966252602857759,0.9182930863380747,0.9067610653353656,0.09336872791716774,0.17981021472293293
srwiki,True,20.0,0.10407478608315428,0.9133311280185247,0.9115288608098258,0.08849142376326831,0.1868570655116405
srwiki,True,21.0,0.11101236163852307,0.9090307641415812,0.9179681459718572,0.0819312635196265,0.19786154012312343
srwiki,True,22.0,0.11550820226619313,0.9037380086007277,0.9219075599932257,0.07788794114471445,0.2048359887535145
srwiki,True,23.0,0.12026943188868208,0.8977836586172676,0.9257733401076528,0.07391163516275676,0.21212239634217828
srwiki,True,24.0,0.12483227687040208,0.8924909030764142,0.9291641815223074,0.070423059596189,0.21902906315960383
srwiki,True,25.0,0.12990468818036674,0.8881905391994708,0.9325439778509208,0.0669568228272727,0.22665878777646462
srwiki,True,26.0,0.13468030432811004,0.8842209725438306,0.9354819707378854,0.06394108514432725,0.23375601224311326
srwiki,True,27.0,0.13958377128442295,0.8785974197816738,0.938372101585338,0.06095513252491707,0.24089610448505738
srwiki,True,28.0,0.14444140945096967,0.8746278531260337,0.9409456066329424,0.05830798500322051,0.24793698424606148
srwiki,True,29.0,0.14960540509850678,0.8716506781343036,0.9434270692968698,0.05576508520389738,0.2553789494088002
srwiki,True,30.0,0.15471208817115578,0.8683427059212703,0.9457318105841378,0.05339717265284392,0.26263131565782893
srwiki,True,31.0,0.16012269938650306,0.8633807476017201,0.9480770505202235,0.05096968997471993,0.2701443875174662
srwiki,True,32.0,0.16559495766218885,0.8604035726099901,0.9501940253447908,0.04879538033664568,0.2777362520021356
srwiki,True,33.0,0.1709153348302734,0.8561032087330467,0.9521784591368634,0.04674021095271249,0.28494357280484445
srwiki,True,34.0,0.17636189433342458,0.8524644392987099,0.9540487603731767,0.04480790495586226,0.2922597108023816
srwiki,True,35.0,0.18213473564525298,0.8478332782004632,0.9559337883908783,0.04284953702841868,0.2998537584088915
srwiki,True,36.0,0.18812758417011222,0.842871319880913,0.9577672726737207,0.04093956982921989,0.3075994446791815
srwiki,True,37.0,0.19372609028309104,0.8375785643400595,0.9593945820171272,0.03923437494182605,0.3146709749580563
srwiki,True,38.0,0.19988890652277416,0.8332782004631161,0.9610218913605337,0.037540349453257925,0.32243199999999994
srwiki,True,39.0,0.20570866141732283,0.8296394310287794,0.9624503891551982,0.03605481940943665,0.3296746631613539
srwiki,True,40.0,0.21162001696352842,0.8253390671518359,0.9638347066056978,0.034606520695034455,0.3368662661175994
srwiki,True,41.0,0.21749036102348404,0.8210387032748925,0.9651306633678677,0.03324757717123805,0.34388638725320403
srwiki,True,42.0,0.22275351858534825,0.816738339397949,0.9662425353626838,0.032074790294537046,0.3500389877365847
srwiki,True,43.0,0.22809625569079253,0.8121071782997022,0.9673212720993764,0.030931788481371306,0.35615842158711736
srwiki,True,44.0,0.2337029248709616,0.8087992060866689,0.9683558284919039,0.029848356795276088,0.36262513904338156
srwiki,True,45.0,0.2400551398188263,0.8064836255375455,0.9694308835332494,0.02873514004564561,0.36998254799301916
srwiki,True,46.0,0.2459963511048044,0.8028448561032088,0.970417577886265,0.02769638595485329,0.37660020172239894
srwiki,True,47.0,0.25176862255513943,0.8005292755540854,0.9713011847695627,0.026776772118202025,0.3830629204590424
srwiki,True,48.0,0.25733489811159715,0.7978828977836586,0.97212220283196,0.025916728408621286,0.3891577928363989
srwiki,True,49.0,0.26316939890710384,0.7965597088984453,0.9729137673315809,0.025101362294343444,0.39562967222541695
srwiki,True,50.0,0.2692436974789916,0.7949057227919285,0.9737053318312017,0.024282273047123694,0.40224305323066617
srwiki,True,51.0,0.2749598347486803,0.7925901422428051,0.9744306258145751,0.02352275392697447,0.4082815029394224
srwiki,True,52.0,0.2802301009626673,0.7896129672510751,0.9750859675863541,0.022826528066837683,0.4136556624209341
srwiki,True,53.0,0.28520028783881024,0.786635792259345,0.9756824022325801,0.022189872333771423,0.4186251210280785
srwiki,True,54.0,0.2905951506245408,0.7849818061528283,0.9762788368788059,0.02156810913247279,0.42416659218875674
srwiki,True,55.0,0.29560535870790033,0.7810122394971882,0.9768494996576024,0.020946345931174164,0.42888283378746594
srwiki,True,56.0,0.3007144679765246,0.7796890506119749,0.9773686187015397,0.02040649165459751,0.43403001565233407
srwiki,True,57.0,0.30508254257116857,0.7763810783989414,0.9778288306199239,0.019903868707439938,0.4380365808137364
srwiki,True,58.0,0.311134789557805,0.7727423089646047,0.9784289469614968,0.019256043575547954,0.4436425790523217
srwiki,True,59.0,0.3169473112438892,0.772080714521998,0.9789443843100871,0.01872735869779702,0.44940791373832684
srwiki,True,60.0,0.3209808513569362,0.7707575256367847,0.9793015087587532,0.018351322270664317,0.4532192180509628
srwiki,True,61.0,0.32639865054821476,0.7681111478663579,0.9797764474585257,0.01784125305762293,0.45812370523823615
srwiki,True,62.0,0.3313253012048193,0.7641415812107178,0.9802108875094804,0.017357245775174893,0.46223111555777885
srwiki,True,63.0,0.3366466890805438,0.7618260006615944,0.980641645865088,0.016895577290378307,0.4669505271695053
srwiki,True,64.0,0.34219964136282127,0.757525636784651,0.981094494392778,0.016389231210278826,0.47143592382913024
srwiki,True,65.0,0.34688594487589464,0.7535560701290109,0.9814663456228324,0.015968517187843225,0.4750782064650678
srwiki,True,66.0,0.3517712865133623,0.7489249090307641,0.9818455602435809,0.015532910633639995,0.47869753673749865
srwiki,True,67.0,0.35549589387239416,0.7446245451538207,0.9821327324806527,0.015194105535926372,0.4812399786210582
srwiki,True,68.0,0.36116473616473616,0.7426397618260007,0.9825156287967484,0.014784560912316495,0.4859833315293863
srwiki,True,69.0,0.3649754500818331,0.7376778035064505,0.9827954376431259,0.014445755814602872,0.4883389904741049
srwiki,True,70.0,0.3714765100671141,0.7323850479655971,0.9832298776940805,0.013946856000387206,0.4929310920627853
srwiki,True,71.0,0.37598223436966177,0.7280846840886537,0.9835244133218465,0.013600604636789766,0.4958882505350907
srwiki,True,72.0,0.38310893512851896,0.7247767118756202,0.9839478082867599,0.01313521301905127,0.5012582932967284
srwiki,True,73.0,0.38706218727662617,0.7165067813430367,0.9842165720470962,0.012770345990744291,0.5026105116602854
srwiki,True,74.0,0.3934005499541705,0.7098908369169699,0.9845884232771507,0.012319846904773429,0.5062514744043406
srwiki,True,75.0,0.39928463855421686,0.7016209063843863,0.9849308209444285,0.01188051721762829,0.5089382123575285
srwiki,True,76.0,0.40600193610842206,0.6936817730731062,0.9852953087837888,0.011422571865773612,0.5122129946262823
srwiki,True,77.0,0.4135518688786728,0.6844194508766126,0.9856855684905785,0.010923672051557944,0.5155743832544231
srwiki,True,78.0,0.41964839710444674,0.671187562024479,0.986009557681121,0.010447111034993727,0.5164163909391702
srwiki,True,79.0,0.4257234726688103,0.6569632815084353,0.9863188200902752,0.009974273151371416,0.5166493236212278
srwiki,True,80.0,0.4327693677649154,0.643069798213695,0.9866464909761647,0.009486542735981474,0.5173652694610779
srwiki,True,81.0,0.439962695266962,0.6242143565994046,0.9869741618620542,0.008942965326462911,0.5161378555798687
srwiki,True,82.0,0.4470102090422946,0.6083360899768442,0.987265015794473,0.008470127442840602,0.5153425809163513
srwiki,True,83.0,0.4571209800918836,0.5924578233542839,0.9876331853291804,0.007919103767438224,0.5160639677279931
srwiki,True,84.0,0.46928281461434374,0.5736023817399933,0.9880344901220114,0.007301063699081503,0.5162250669842215
srwiki,True,85.0,0.48244099021301096,0.5544161429043996,0.9884210681334541,0.006694193029550506,0.5159304294289672
srwiki,True,86.0,0.4981308411214953,0.5289447568640423,0.9888260546216322,0.005997967169413718,0.5130755655382641
srwiki,True,87.0,0.5125,0.5018193847171684,0.9891426804214805,0.005372480835173181,0.5071034598027745
srwiki,True,88.0,0.5272121436504998,0.47105524313595765,0.9894114441818168,0.0047544407668164606,0.49755415793151636
srwiki,True,89.0,0.5467980295566502,0.4406218987760503,0.9897096615049298,0.004110338767866384,0.4880014654698663
srwiki,True,90.0,0.5630213160333642,0.40191862388355937,0.989871656100201,0.0035109143642192034,0.4690214244354372
srwiki,True,91.0,0.5849056603773585,0.35891498511412506,0.9900299690001252,0.002866812365269127,0.44485444854448547
srwiki,True,92.0,0.6165413533834586,0.3255044657624876,0.9902398256349083,0.0022785573604476696,0.4260662481056506
srwiki,True,93.0,0.6486692015209126,0.28217002977174993,0.9903097778465028,0.001720087419161476,0.3932687874596588
srwiki,True,94.0,0.6744868035190615,0.22825008269930533,0.9901846002047022,0.0012398032696553495,0.3410776075135937
srwiki,True,95.0,0.715258855585831,0.17366854118425407,0.9900336506954722,0.0007781347848587629,0.2794783071599681
srwiki,True,96.0,0.7391304347826086,0.12371816076744956,0.9897612052397888,0.0004914535483318503,0.2119580617738736
srwiki,True,97.0,0.7727272727272727,0.07872973867019517,0.9894887597841053,0.000260619305933557,0.1429000300210147
srwiki,True,98.0,0.8625954198473282,0.03738008600727754,0.989219996023769,6.701639295434321e-05,0.07165504121750159
srwiki,True,99.0,0.9318181818181818,0.013562686073436983,0.9890101393889859,1.116939882572387e-05,0.026736224323443105
srwiki,False,0.0,0.03448071432259644,1.0,0.03448071432259644,1.0,0.06666284609312463
srwiki,False,1.0,0.03448460529184725,1.0,0.03459354638832207,0.9998831384650733,0.0666701178837137
srwiki,False,2.0,0.03605030405195979,0.9998890737659456,0.07811803764001217,0.9548003351351138,0.06959153382782388
srwiki,False,3.0,0.03708079072208444,0.9992789794786467,0.1052206823088883,0.9267080105611136,0.0715080916424397
srwiki,False,4.0,0.04340844553480016,0.9970604547975597,0.24228104363923572,0.7846737087295567,0.08319488344756412
srwiki,False,5.0,0.04934065692145122,0.9944536882972823,0.33914450345285246,0.684257958963775,0.09401660103507402
srwiki,False,6.0,0.05254783158575861,0.990904048807543,0.3836443227303065,0.6380421929562206,0.09980308637664966
srwiki,False,7.0,0.054670676525430756,0.9870770937326677,0.41104147821480547,0.6095299591380768,0.10360314471083738
srwiki,False,8.0,0.0567589641753279,0.9828618968386024,0.4362164157268775,0.5833054384189229,0.10732032279065541
srwiki,False,9.0,0.05923871435670826,0.9784803105934553,0.4634586661719905,0.5549338345834877,0.11171408489054653
srwiki,False,10.0,0.06134810646440992,0.9734886300610094,0.48550299196214963,0.53192399642681,0.11542242754040145
srwiki,False,11.0,0.06352900110535807,0.9690515806988352,0.506388398568754,0.5101342719229268,0.11924082251052706
srwiki,False,12.0,0.06586529548197671,0.9655019412090959,0.5266580098336013,0.4890140253648952,0.1233179965075958
srwiki,False,13.0,0.06830079788072788,0.9609539656128674,0.5466637088091245,0.46813146328468064,0.12753678662652462
srwiki,False,14.0,0.07080876832375349,0.9572379367720466,0.5653995689432608,0.44859379920811454,0.13186334620718107
srwiki,False,15.0,0.07338252593305529,0.9514697726012202,0.5840608451695445,0.42906009653951205,0.13625623001926093
srwiki,False,16.0,0.07613273372950015,0.9464780920687743,0.6021273625409016,0.4101701226649976,0.1409293990370719
srwiki,False,17.0,0.07897513117595936,0.9424847476428175,0.619023486281342,0.3925279922990229,0.14573818927182364
srwiki,False,18.0,0.08182567783867682,0.9356627842484747,0.6357627925745026,0.37494726375648435,0.15049063336306867
srwiki,False,19.0,0.08490174230145867,0.9297282307265669,0.6520488581968671,0.35786765332134346,0.15559474636840395
srwiki,False,20.0,0.08776268302606618,0.9211869107043816,0.6671243696225481,0.3419487354195428,0.1602574308058221
srwiki,False,21.0,0.09083286444025199,0.9132556849694953,0.6818212242852854,0.3264437846499403,0.1652317016878399
srwiki,False,22.0,0.09409453808135851,0.9059900166389351,0.6959998164088422,0.3114993731071898,0.17048300910077646
srwiki,False,23.0,0.09757153942864705,0.8996117581808097,0.7096448467300693,0.29713926923907297,0.17604888558450507
srwiki,False,24.0,0.10120347012085029,0.8922351636161953,0.7230584756961643,0.2829831778810825,0.18178736291366032
srwiki,False,25.0,0.1049879641687384,0.8853577371048252,0.7358008494915863,0.26954013995654336,0.18771607987017566
srwiki,False,26.0,0.10861397495689921,0.8770382695507487,0.7475755448928191,0.2570478399432726,0.19329051027081207
srwiki,False,27.0,0.11253633851344076,0.8695507487520798,0.7590576418863226,0.24488829819894586,0.19928183291493215
srwiki,False,28.0,0.11627994039997903,0.8613422074320577,0.7695032138014652,0.23377654886099616,0.20489883697150812
srwiki,False,29.0,0.12022067154790464,0.853300055463117,0.7796275011904739,0.22300349990393586,0.2107490941966946
srwiki,False,30.0,0.12427623101890362,0.8452024403771492,0.7893023727244737,0.21269393567861888,0.21669083980320222
srwiki,False,31.0,0.1288457936764681,0.8394342762063228,0.7987649669822777,0.20268741916251876,0.22340142882446715
srwiki,False,32.0,0.13353857652575477,0.8323904603438713,0.8079923350691622,0.1928789730445995,0.23015404433471098
srwiki,False,33.0,0.1385138588193754,0.8267886855241264,0.8167205646958028,0.18363898896945952,0.2372762652107822
srwiki,False,34.0,0.14336955784126493,0.8202440377149196,0.8248138749017501,0.17502292664858946,0.24407713953277274
srwiki,False,35.0,0.14859047213865337,0.8135884636716584,0.8328306887919511,0.1664821310790281,0.2512869268785706
srwiki,False,36.0,0.1539628808217579,0.8047143649473101,0.8407939552611298,0.15791756706168505,0.2584731042960086
srwiki,False,37.0,0.15993252915783515,0.7993344425956739,0.8483097182831932,0.14994127212693936,0.26653597551390285
srwiki,False,38.0,0.16594555092855734,0.7934553521907931,0.8553703282265668,0.14241855840402795,0.27448459789522156
srwiki,False,39.0,0.17195002479408814,0.7885191347753744,0.8617768946703105,0.13560691741058606,0.28233261510659213
srwiki,False,40.0,0.17776769166761225,0.7820299500831946,0.8677627313774501,0.12917557158165155,0.28968535239914944
srwiki,False,41.0,0.1838831588063932,0.7772046589018303,0.8733794733611142,0.12318592274066048,0.297402266649688
srwiki,False,42.0,0.18999713345800515,0.7719911259012756,0.8786558067397079,0.1175349742805588,0.30494364052624084
srwiki,False,43.0,0.19557509573110196,0.7648363838047698,0.8834196148028021,0.11234552984821865,0.31149762819064825
srwiki,False,44.0,0.2017317802288424,0.7597892401552967,0.8880495543133404,0.10737000144591391,0.3188149458324121
srwiki,False,45.0,0.20744859613210717,0.7531891292290627,0.8922702385346366,0.10276288398422567,0.32530062760503997
srwiki,False,46.0,0.2135948457361764,0.7483638380476982,0.8963188060455038,0.09839741240831816,0.332335808672307
srwiki,False,47.0,0.21915767763900937,0.7425956738768719,0.8998950088066383,0.09448750274822677,0.33843509472593303
srwiki,False,48.0,0.2254040788694254,0.7386577925679423,0.9034635619361983,0.09065087913546233,0.3454062115023017
srwiki,False,49.0,0.2313053833490946,0.7325568496949528,0.9068351370527117,0.08694102057753367,0.35159452696587334
srwiki,False,50.0,0.23772422540315274,0.7276760953965613,0.9101550771560964,0.08332821651471366,0.3583720295001366
srwiki,False,51.0,0.24384079676501422,0.7224070992789795,0.9131843312596457,0.08000261452925599,0.3646110349074826
srwiki,False,52.0,0.25018842400231905,0.7180255130338326,0.9160778044027454,0.07684933379021572,0.3710784664994626
srwiki,False,53.0,0.25626257996372986,0.7132002218524681,0.918739876190713,0.07391987260111989,0.3770470172557874
srwiki,False,54.0,0.26226915096859016,0.7080976150859678,0.9212566049787627,0.07113104139473252,0.38276694299120056
srwiki,False,55.0,0.26828183570173025,0.7026067665002773,0.923670063740555,0.06843530327549018,0.38829713865346593
srwiki,False,56.0,0.27419389954496964,0.6985024958402662,0.9258502087393216,0.06603072864157379,0.3938024733822173
srwiki,False,57.0,0.2806026365348399,0.6941763727121464,0.9280896383827913,0.06355682936829408,0.39965513938116676
srwiki,False,58.0,0.28733934793142435,0.6906821963394343,0.9302678709736643,0.0611760231821594,0.4058400821261549
srwiki,False,59.0,0.2934209901742061,0.6856905158069884,0.9322280890646604,0.05896753824244213,0.4109766637856525
srwiki,False,60.0,0.2996482485710098,0.6803660565723794,0.9341481465898899,0.05678876386245199,0.416056166056166
srwiki,False,61.0,0.3055040352899895,0.6760399334442596,0.9358387151678808,0.05488332663195153,0.42083275790636654
srwiki,False,62.0,0.3120284294285788,0.6720465890183028,0.9376000428379369,0.05291648757801498,0.4261822274589803
srwiki,False,63.0,0.3189600339234602,0.6674986134220743,0.9393919690342913,0.050898150220551386,0.4316559664287507
srwiki,False,64.0,0.32546296296296295,0.6628397115917914,0.9410060412965361,0.04906005692543244,0.4365662100456621
srwiki,False,65.0,0.33135697505313794,0.6571270105379923,0.9424556464799264,0.047354670797094704,0.44056074071319673
srwiki,False,66.0,0.3374522256386678,0.6513033832501387,0.9438842151764866,0.04566711100459325,0.4445664313161332
srwiki,False,67.0,0.343380073800738,0.645146977260122,0.9452267255178323,0.04405679866738236,0.4482034486080339
srwiki,False,68.0,0.3492145326620974,0.6386577925679423,0.9465023015829,0.04250392674564394,0.45153321308132693
srwiki,False,69.0,0.3556684958842604,0.6326677759290072,0.9478142133979472,0.04093124778408742,0.45535108378907035
srwiki,False,70.0,0.361868452247461,0.6264559068219634,0.949028592410418,0.03945166190967594,0.4587454054383364
srwiki,False,71.0,0.3682423523206751,0.6195784803105935,0.9502314969755269,0.0379601918113736,0.4619360707935327
srwiki,False,72.0,0.37438390156021617,0.6108707709373267,0.9513846789354008,0.036454856785198594,0.464245821829754
srwiki,False,73.0,0.38145816480849715,0.601552967276761,0.9526277440662764,0.034834640928078656,0.46686610851645394
srwiki,False,74.0,0.3882232984960489,0.5912922906267333,0.9537790136182566,0.0332758268943948,0.4687080961069222
srwiki,False,75.0,0.39531815440289503,0.5816417082640044,0.9548977722360447,0.03177247257220161,0.470712329996858
srwiki,False,76.0,0.40210008587711765,0.5713255684969495,0.955926647682831,0.03033844288937174,0.4720032991202346
srwiki,False,77.0,0.40837993354404734,0.5589572933998891,0.9568713771822964,0.028918278134414534,0.471949049358434
srwiki,False,78.0,0.4163995275856251,0.5475318912922906,0.9579385007869559,0.027405020292312295,0.4730461449997604
srwiki,False,79.0,0.4242864054184809,0.5350526899611758,0.95893486529955,0.02592741512188262,0.47327495278043513
srwiki,False,80.0,0.4336927472122385,0.5220188574597893,0.9600153757594649,0.024342851936435247,0.4737742877277761
srwiki,False,81.0,0.44399728471683475,0.5078757626178592,0.9611016234430609,0.022712732559406264,0.4737931391317846
srwiki,False,82.0,0.4546899026140441,0.4920133111480865,0.9621381485214219,0.021072709662468235,0.4726158763985083
srwiki,False,83.0,0.4641546634536393,0.4700499168053245,0.9630159437446094,0.019379207758021356,0.46708368927223126
srwiki,False,84.0,0.4767250499588574,0.44986134220743207,0.9640046586256289,0.017634207550047437,0.462903778107522
srwiki,False,85.0,0.4902035140942991,0.4301719356627842,0.9649264392303706,0.015976358317273124,0.45822994210090984
srwiki,False,86.0,0.5057384372208096,0.408153078202995,0.9658386577956439,0.014245223037171871,0.45173567416592497
srwiki,False,87.0,0.5192809726262401,0.38613422074320575,0.9665080005584231,0.012765637162760388,0.44291758119413427
srwiki,False,88.0,0.533120445427004,0.36112035496394895,0.9670664236633704,0.011293974104276142,0.4305789769533445
srwiki,False,89.0,0.5505771153321821,0.3359955629506378,0.9676477956630414,0.009794581190046567,0.41731822408982877
srwiki,False,90.0,0.5704182041820418,0.3086522462562396,0.9681469341232853,0.008301130387762418,0.4005614338155906
srwiki,False,91.0,0.5902025435704192,0.2779811425402108,0.9684490945704828,0.006892849856696067,0.3779503808159264
srwiki,False,92.0,0.6109414051652319,0.24403771491957849,0.968575313491464,0.00554993255702942,0.3487634749524413
srwiki,False,93.0,0.6401900882552614,0.20920687742651137,0.9686785835177213,0.0041990924414355354,0.3153582476381574
srwiki,False,94.0,0.6690507152145644,0.17121464226289518,0.968502641991505,0.0030245349802226706,0.2726550079491256
srwiki,False,95.0,0.7025298051759232,0.13399889073765944,0.9681832698732648,0.0020262601733908267,0.22506870371232937
srwiki,False,96.0,0.7459847844463229,0.09789240155296727,0.9677453284656178,0.001190403093067338,0.17307315159835263
srwiki,False,97.0,0.78995756718529,0.06195230171935663,0.9670874601502005,0.0005882690825973367,0.11489405472125078
srwiki,False,98.0,0.8529886914378029,0.029284525790349417,0.9663550079269307,0.00018024406234463854,0.0566250201083168
srwiki,False,99.0,0.8862559241706162,0.010371602884082086,0.9658310081640693,4.753689556342115e-05,0.02050326188257223
