wiki_db,user_is_bot,threshold,precision,recall,accuracy,fpr,F1
stqwiki,True,0.0,0.041884816753926704,1.0,0.041884816753926704,1.0,0.08040201005025126
stqwiki,True,1.0,0.041884816753926704,1.0,0.041884816753926704,1.0,0.08040201005025126
stqwiki,True,2.0,0.041884816753926704,1.0,0.041884816753926704,1.0,0.08040201005025126
stqwiki,True,3.0,0.041884816753926704,1.0,0.041884816753926704,1.0,0.08040201005025126
stqwiki,True,4.0,0.041884816753926704,1.0,0.041884816753926704,1.0,0.08040201005025126
stqwiki,True,5.0,0.041884816753926704,1.0,0.041884816753926704,1.0,0.08040201005025126
stqwiki,True,6.0,0.041884816753926704,1.0,0.041884816753926704,1.0,0.08040201005025126
stqwiki,True,7.0,0.041884816753926704,1.0,0.041884816753926704,1.0,0.08040201005025126
stqwiki,True,8.0,0.041884816753926704,1.0,0.041884816753926704,1.0,0.08040201005025126
stqwiki,True,9.0,0.041884816753926704,1.0,0.041884816753926704,1.0,0.08040201005025126
stqwiki,True,10.0,0.042105263157894736,1.0,0.04712041884816754,0.994535519125683,0.08080808080808081
stqwiki,True,11.0,0.0425531914893617,1.0,0.05759162303664921,0.9836065573770492,0.08163265306122448
stqwiki,True,12.0,0.0427807486631016,1.0,0.06282722513089005,0.9781420765027322,0.08205128205128205
stqwiki,True,13.0,0.0427807486631016,1.0,0.06282722513089005,0.9781420765027322,0.08205128205128205
stqwiki,True,14.0,0.0427807486631016,1.0,0.06282722513089005,0.9781420765027322,0.08205128205128205
stqwiki,True,15.0,0.043243243243243246,1.0,0.07329842931937172,0.9672131147540983,0.08290155440414508
stqwiki,True,16.0,0.043478260869565216,1.0,0.07853403141361257,0.9617486338797814,0.08333333333333333
stqwiki,True,17.0,0.04395604395604396,1.0,0.08900523560209424,0.9508196721311475,0.08421052631578947
stqwiki,True,18.0,0.04419889502762431,1.0,0.09424083769633508,0.9453551912568307,0.08465608465608467
stqwiki,True,19.0,0.04419889502762431,1.0,0.09424083769633508,0.9453551912568307,0.08465608465608467
stqwiki,True,20.0,0.04419889502762431,1.0,0.09424083769633508,0.9453551912568307,0.08465608465608467
stqwiki,True,21.0,0.0446927374301676,1.0,0.10471204188481675,0.9344262295081968,0.08556149732620322
stqwiki,True,22.0,0.0449438202247191,1.0,0.1099476439790576,0.9289617486338798,0.08602150537634408
stqwiki,True,23.0,0.04519774011299435,1.0,0.11518324607329843,0.9234972677595629,0.08648648648648648
stqwiki,True,24.0,0.045714285714285714,1.0,0.1256544502617801,0.912568306010929,0.08743169398907102
stqwiki,True,25.0,0.045714285714285714,1.0,0.1256544502617801,0.912568306010929,0.08743169398907102
stqwiki,True,26.0,0.04597701149425287,1.0,0.13089005235602094,0.907103825136612,0.08791208791208792
stqwiki,True,27.0,0.03508771929824561,0.75,0.1256544502617801,0.9016393442622951,0.0670391061452514
stqwiki,True,28.0,0.03550295857988166,0.75,0.13612565445026178,0.8907103825136612,0.06779661016949153
stqwiki,True,29.0,0.03614457831325301,0.75,0.1518324607329843,0.8743169398907104,0.0689655172413793
stqwiki,True,30.0,0.03680981595092025,0.75,0.16753926701570682,0.8579234972677595,0.07017543859649122
stqwiki,True,31.0,0.03773584905660377,0.75,0.18848167539267016,0.8360655737704918,0.0718562874251497
stqwiki,True,32.0,0.038461538461538464,0.75,0.20418848167539266,0.819672131147541,0.07317073170731708
stqwiki,True,33.0,0.038461538461538464,0.75,0.20418848167539266,0.819672131147541,0.07317073170731708
stqwiki,True,34.0,0.03896103896103896,0.75,0.21465968586387435,0.8087431693989071,0.07407407407407407
stqwiki,True,35.0,0.04054054054054054,0.75,0.24607329842931938,0.7759562841530054,0.07692307692307693
stqwiki,True,36.0,0.041666666666666664,0.75,0.2670157068062827,0.7540983606557377,0.07894736842105264
stqwiki,True,37.0,0.041666666666666664,0.75,0.2670157068062827,0.7540983606557377,0.07894736842105264
stqwiki,True,38.0,0.041666666666666664,0.75,0.2670157068062827,0.7540983606557377,0.07894736842105264
stqwiki,True,39.0,0.0425531914893617,0.75,0.28272251308900526,0.7377049180327869,0.08053691275167785
stqwiki,True,40.0,0.043478260869565216,0.75,0.29842931937172773,0.7213114754098361,0.0821917808219178
stqwiki,True,41.0,0.043478260869565216,0.75,0.29842931937172773,0.7213114754098361,0.0821917808219178
stqwiki,True,42.0,0.043478260869565216,0.75,0.29842931937172773,0.7213114754098361,0.0821917808219178
stqwiki,True,43.0,0.043795620437956206,0.75,0.3036649214659686,0.7158469945355191,0.08275862068965519
stqwiki,True,44.0,0.04411764705882353,0.75,0.3089005235602094,0.7103825136612022,0.08333333333333334
stqwiki,True,45.0,0.03759398496240601,0.625,0.31413612565445026,0.6994535519125683,0.07092198581560283
stqwiki,True,46.0,0.03787878787878788,0.625,0.3193717277486911,0.6939890710382514,0.07142857142857144
stqwiki,True,47.0,0.03787878787878788,0.625,0.3193717277486911,0.6939890710382514,0.07142857142857144
stqwiki,True,48.0,0.038461538461538464,0.625,0.3298429319371728,0.6830601092896175,0.07246376811594203
stqwiki,True,49.0,0.038461538461538464,0.625,0.3298429319371728,0.6830601092896175,0.07246376811594203
stqwiki,True,50.0,0.03968253968253968,0.625,0.3507853403141361,0.6612021857923497,0.07462686567164178
stqwiki,True,51.0,0.04065040650406504,0.625,0.36649214659685864,0.644808743169399,0.07633587786259542
stqwiki,True,52.0,0.0423728813559322,0.625,0.39267015706806285,0.6174863387978142,0.07936507936507936
stqwiki,True,53.0,0.04310344827586207,0.625,0.4031413612565445,0.6065573770491803,0.08064516129032258
stqwiki,True,54.0,0.04424778761061947,0.625,0.418848167539267,0.5901639344262295,0.08264462809917357
stqwiki,True,55.0,0.045871559633027525,0.625,0.4397905759162304,0.5683060109289617,0.08547008547008549
stqwiki,True,56.0,0.04716981132075472,0.625,0.45549738219895286,0.5519125683060109,0.08771929824561404
stqwiki,True,57.0,0.04716981132075472,0.625,0.45549738219895286,0.5519125683060109,0.08771929824561404
stqwiki,True,58.0,0.047619047619047616,0.625,0.4607329842931937,0.546448087431694,0.08849557522123892
stqwiki,True,59.0,0.04807692307692308,0.625,0.46596858638743455,0.5409836065573771,0.08928571428571429
stqwiki,True,60.0,0.049019607843137254,0.625,0.47643979057591623,0.5300546448087432,0.0909090909090909
stqwiki,True,61.0,0.05,0.625,0.4869109947643979,0.5191256830601093,0.09259259259259259
stqwiki,True,62.0,0.05154639175257732,0.625,0.5026178010471204,0.5027322404371585,0.09523809523809522
stqwiki,True,63.0,0.05154639175257732,0.625,0.5026178010471204,0.5027322404371585,0.09523809523809522
stqwiki,True,64.0,0.05154639175257732,0.625,0.5026178010471204,0.5027322404371585,0.09523809523809522
stqwiki,True,65.0,0.05154639175257732,0.625,0.5026178010471204,0.5027322404371585,0.09523809523809522
stqwiki,True,66.0,0.05154639175257732,0.625,0.5026178010471204,0.5027322404371585,0.09523809523809522
stqwiki,True,67.0,0.053763440860215055,0.625,0.5235602094240838,0.4808743169398907,0.09900990099009901
stqwiki,True,68.0,0.05555555555555555,0.625,0.5392670157068062,0.4644808743169399,0.10204081632653061
stqwiki,True,69.0,0.056818181818181816,0.625,0.5497382198952879,0.453551912568306,0.10416666666666666
stqwiki,True,70.0,0.060240963855421686,0.625,0.5759162303664922,0.4262295081967213,0.10989010989010989
stqwiki,True,71.0,0.06329113924050633,0.625,0.5968586387434555,0.40437158469945356,0.1149425287356322
stqwiki,True,72.0,0.06756756756756757,0.625,0.6230366492146597,0.3770491803278688,0.12195121951219512
stqwiki,True,73.0,0.07936507936507936,0.625,0.680628272251309,0.31693989071038253,0.14084507042253522
stqwiki,True,74.0,0.08928571428571429,0.625,0.7172774869109948,0.2786885245901639,0.15625
stqwiki,True,75.0,0.08928571428571429,0.625,0.7172774869109948,0.2786885245901639,0.15625
stqwiki,True,76.0,0.08928571428571429,0.625,0.7172774869109948,0.2786885245901639,0.15625
stqwiki,True,77.0,0.125,0.625,0.8010471204188482,0.1912568306010929,0.20833333333333334
stqwiki,True,78.0,0.13513513513513514,0.625,0.8167539267015707,0.17486338797814208,0.22222222222222224
stqwiki,True,79.0,0.1388888888888889,0.625,0.8219895287958116,0.16939890710382513,0.2272727272727273
stqwiki,True,80.0,0.15151515151515152,0.625,0.837696335078534,0.15300546448087432,0.24390243902439024
stqwiki,True,81.0,0.15625,0.625,0.8429319371727748,0.14754098360655737,0.25
stqwiki,True,82.0,0.20833333333333334,0.625,0.8848167539267016,0.10382513661202186,0.3125
stqwiki,True,83.0,0.22727272727272727,0.625,0.8952879581151832,0.09289617486338798,0.3333333333333333
stqwiki,True,84.0,0.25,0.625,0.9057591623036649,0.08196721311475409,0.35714285714285715
stqwiki,True,85.0,0.25,0.625,0.9057591623036649,0.08196721311475409,0.35714285714285715
stqwiki,True,86.0,0.25,0.5,0.9162303664921466,0.06557377049180328,0.3333333333333333
stqwiki,True,87.0,0.4,0.5,0.9476439790575916,0.03278688524590164,0.4444444444444445
stqwiki,True,88.0,0.4,0.5,0.9476439790575916,0.03278688524590164,0.4444444444444445
stqwiki,True,89.0,0.375,0.375,0.9476439790575916,0.0273224043715847,0.375
stqwiki,True,90.0,0.375,0.375,0.9476439790575916,0.0273224043715847,0.375
stqwiki,True,91.0,0.42857142857142855,0.375,0.9528795811518325,0.02185792349726776,0.39999999999999997
stqwiki,True,92.0,0.42857142857142855,0.375,0.9528795811518325,0.02185792349726776,0.39999999999999997
stqwiki,True,93.0,0.5,0.375,0.9581151832460733,0.01639344262295082,0.42857142857142855
stqwiki,True,94.0,0.5,0.375,0.9581151832460733,0.01639344262295082,0.42857142857142855
stqwiki,True,95.0,0.5,0.375,0.9581151832460733,0.01639344262295082,0.42857142857142855
stqwiki,True,96.0,0.6,0.375,0.9633507853403142,0.01092896174863388,0.4615384615384615
stqwiki,True,97.0,0.75,0.375,0.9685863874345549,0.00546448087431694,0.5
stqwiki,True,98.0,1.0,0.375,0.9738219895287958,0.0,0.5454545454545454
stqwiki,True,99.0,1.0,0.375,0.9738219895287958,0.0,0.5454545454545454
stqwiki,False,0.0,0.036694101508916326,1.0,0.036694101508916326,1.0,0.07079060535891499
stqwiki,False,1.0,0.036694101508916326,1.0,0.036694101508916326,1.0,0.07079060535891499
stqwiki,False,2.0,0.036694101508916326,1.0,0.036694101508916326,1.0,0.07079060535891499
stqwiki,False,3.0,0.036694101508916326,1.0,0.036694101508916326,1.0,0.07079060535891499
stqwiki,False,4.0,0.036694101508916326,1.0,0.036694101508916326,1.0,0.07079060535891499
stqwiki,False,5.0,0.036694101508916326,1.0,0.036694101508916326,1.0,0.07079060535891499
stqwiki,False,6.0,0.036694101508916326,1.0,0.036694101508916326,1.0,0.07079060535891499
stqwiki,False,7.0,0.036694101508916326,1.0,0.036694101508916326,1.0,0.07079060535891499
stqwiki,False,8.0,0.036694101508916326,1.0,0.036694101508916326,1.0,0.07079060535891499
stqwiki,False,9.0,0.036694101508916326,1.0,0.036694101508916326,1.0,0.07079060535891499
stqwiki,False,10.0,0.03690927906174543,1.0,0.04252400548696845,0.9939480242079032,0.0711909514304724
stqwiki,False,11.0,0.037347294938917974,1.0,0.0541838134430727,0.9818440726237095,0.07200538358008075
stqwiki,False,12.0,0.037570224719101125,1.0,0.06001371742112483,0.9757920968316127,0.07241962774957698
stqwiki,False,13.0,0.037570224719101125,1.0,0.06001371742112483,0.9757920968316127,0.07241962774957698
stqwiki,False,14.0,0.037570224719101125,1.0,0.06001371742112483,0.9757920968316127,0.07241962774957698
stqwiki,False,15.0,0.037970191625266145,1.0,0.07030178326474623,0.9651121395514418,0.07316239316239316
stqwiki,False,16.0,0.038187009279086366,1.0,0.07578875171467764,0.9594161623353507,0.07356479889996562
stqwiki,False,17.0,0.038614218693612416,1.0,0.08641975308641975,0.9483802064791741,0.07435719249478805
stqwiki,False,18.0,0.039237257059039236,1.0,0.10150891632373114,0.9327162691349234,0.07551164431898377
stqwiki,False,19.0,0.039237257059039236,1.0,0.10150891632373114,0.9327162691349234,0.07551164431898377
stqwiki,False,20.0,0.039454277286135694,1.0,0.10665294924554183,0.927376290494838,0.07591344448385953
stqwiki,False,21.0,0.04013503375843961,1.0,0.12242798353909465,0.911000355998576,0.07717273710782546
stqwiki,False,22.0,0.04036212749905696,1.0,0.12757201646090535,0.9056603773584906,0.07759245830311821
stqwiki,False,23.0,0.04085528827796869,1.0,0.13854595336076816,0.8942684229263083,0.07850330154071901
stqwiki,False,24.0,0.04132869833912708,1.0,0.14883401920438957,0.8835884656461375,0.07937685459940653
stqwiki,False,25.0,0.041585697629226585,1.0,0.15432098765432098,0.8778924884300463,0.07985074626865672
stqwiki,False,26.0,0.0418295543393276,1.0,0.15946502057613168,0.8725525097899608,0.08030018761726078
stqwiki,False,27.0,0.03715415019762846,0.8785046728971962,0.16015089163237312,0.8672125311498754,0.07129313613955252
stqwiki,False,28.0,0.0378726833199033,0.8785046728971962,0.17661179698216736,0.850124599501602,0.07261490923136345
stqwiki,False,29.0,0.03833605220228385,0.8785046728971962,0.18689986282578874,0.8394446422214311,0.07346619773348964
stqwiki,False,30.0,0.03879488237721832,0.8785046728971962,0.19684499314128945,0.829120683517266,0.07430830039525692
stqwiki,False,31.0,0.040085287846481875,0.8785046728971962,0.22359396433470508,0.8013527945888217,0.07667210440456769
stqwiki,False,32.0,0.041209995615957916,0.8785046728971962,0.24554183813443073,0.7785688857244571,0.07872696817420435
stqwiki,False,33.0,0.041209995615957916,0.8785046728971962,0.24554183813443073,0.7785688857244571,0.07872696817420435
stqwiki,False,34.0,0.041796353935082256,0.8785046728971962,0.25651577503429357,0.7671769312922748,0.0797962648556876
stqwiki,False,35.0,0.04390471742176553,0.8785046728971962,0.2935528120713306,0.7287290850836596,0.08362989323843416
stqwiki,False,36.0,0.04478323010957599,0.8785046728971962,0.30795610425240055,0.7137771448914204,0.08522212148685403
stqwiki,False,37.0,0.045105566218809984,0.8785046728971962,0.31310013717421126,0.708437166251335,0.08580556823368325
stqwiki,False,38.0,0.04578665367754506,0.8785046728971962,0.32373113854595337,0.6974012103951585,0.08703703703703704
stqwiki,False,39.0,0.046906187624750496,0.8785046728971962,0.3405349794238683,0.6799572801708793,0.08905731880625295
stqwiki,False,40.0,0.047691527143581935,0.8785046728971962,0.35185185185185186,0.6682093271626913,0.09047160731472569
stqwiki,False,41.0,0.047691527143581935,0.8785046728971962,0.35185185185185186,0.6682093271626913,0.09047160731472569
stqwiki,False,42.0,0.04808184143222506,0.8785046728971962,0.35733882030178327,0.6625133499466002,0.09117361784675072
stqwiki,False,43.0,0.04885654885654886,0.8785046728971962,0.3679698216735254,0.6514773940904236,0.09256523879862137
stqwiki,False,44.0,0.049682875264270614,0.8785046728971962,0.3789437585733882,0.6400854396582414,0.09404702351175588
stqwiki,False,45.0,0.04245029554003224,0.7383177570093458,0.3792866941015089,0.6343894624421502,0.08028455284552845
stqwiki,False,46.0,0.04312227074235808,0.7383177570093458,0.3892318244170096,0.6240655037379851,0.08148530170190821
stqwiki,False,47.0,0.043550165380374865,0.7383177570093458,0.39540466392318246,0.6176575293698825,0.08224882873503384
stqwiki,False,48.0,0.044282511210762335,0.7383177570093458,0.4056927297668038,0.6069775720897116,0.08355367530407193
stqwiki,False,49.0,0.04509132420091324,0.7383177570093458,0.4166666666666667,0.5955856176575294,0.0849919311457773
stqwiki,False,50.0,0.04724880382775119,0.7383177570093458,0.4441015089163237,0.5671057315770737,0.08881394041596401
stqwiki,False,51.0,0.04906832298136646,0.7383177570093458,0.46536351165980794,0.5450338198647205,0.09202096680256261
stqwiki,False,52.0,0.05109961190168176,0.7383177570093458,0.4873113854595336,0.522249911000356,0.0955837870538415
stqwiki,False,53.0,0.05163398692810457,0.7383177570093458,0.492798353909465,0.5165539337842648,0.09651802076970066
stqwiki,False,54.0,0.0525965379494008,0.7383177570093458,0.502400548696845,0.5065859736561054,0.09819763828464885
stqwiki,False,55.0,0.05536089698668535,0.7383177570093458,0.5281207133058985,0.47988608045567815,0.1029986962190352
stqwiki,False,56.0,0.057329462989840346,0.7383177570093458,0.5449245541838135,0.46244215023139906,0.1063973063973064
stqwiki,False,57.0,0.05800293685756241,0.7383177570093458,0.5504115226337448,0.45674617301530795,0.10755616065350579
stqwiki,False,58.0,0.058692421991084695,0.7383177570093458,0.5558984910836763,0.4510501957992168,0.10874053682037163
stqwiki,False,59.0,0.059443190368698266,0.7383177570093458,0.5617283950617284,0.44499822000711997,0.11002785515320333
stqwiki,False,60.0,0.06095679012345679,0.7383177570093458,0.573045267489712,0.433250266998932,0.11261582323592302
stqwiki,False,61.0,0.0625494853523357,0.7383177570093458,0.5843621399176955,0.42150231399074406,0.11532846715328467
stqwiki,False,62.0,0.0632506004803843,0.7383177570093458,0.5891632373113854,0.4165183339266643,0.11651917404129794
stqwiki,False,63.0,0.0632506004803843,0.7383177570093458,0.5891632373113854,0.4165183339266643,0.11651917404129794
stqwiki,False,64.0,0.0632506004803843,0.7383177570093458,0.5891632373113854,0.4165183339266643,0.11651917404129794
stqwiki,False,65.0,0.0632506004803843,0.7383177570093458,0.5891632373113854,0.4165183339266643,0.11651917404129794
stqwiki,False,66.0,0.0632506004803843,0.7383177570093458,0.5891632373113854,0.4165183339266643,0.11651917404129794
stqwiki,False,67.0,0.06672297297297297,0.7383177570093458,0.6114540466392319,0.39337842648629406,0.12238574748257165
stqwiki,False,68.0,0.06851691240242845,0.7383177570093458,0.622085048010974,0.3823424706301175,0.12539682539682542
stqwiki,False,69.0,0.06942003514938488,0.7383177570093458,0.6272290809327846,0.37700249199003205,0.12690763052208834
stqwiki,False,70.0,0.07369402985074627,0.7383177570093458,0.6498628257887518,0.3535065859736561,0.13401187446988974
stqwiki,False,71.0,0.0769980506822612,0.7383177570093458,0.6656378600823045,0.33713065147739407,0.13945278022947924
stqwiki,False,72.0,0.08324552160168598,0.7383177570093458,0.6920438957475995,0.3097187611249555,0.14962121212121213
stqwiki,False,73.0,0.09657701711491443,0.7383177570093458,0.7369684499314129,0.26308294766820933,0.17081081081081081
stqwiki,False,74.0,0.10675675675675676,0.7383177570093458,0.7637174211248285,0.23531505873976505,0.18654073199527743
stqwiki,False,75.0,0.10675675675675676,0.7383177570093458,0.7637174211248285,0.23531505873976505,0.18654073199527743
stqwiki,False,76.0,0.10675675675675676,0.7383177570093458,0.7637174211248285,0.23531505873976505,0.18654073199527743
stqwiki,False,77.0,0.13122923588039867,0.7383177570093458,0.8110425240054869,0.18618725525097898,0.22284908321579688
stqwiki,False,78.0,0.14259927797833935,0.7383177570093458,0.8275034293552812,0.16909932360270558,0.23903177004538578
stqwiki,False,79.0,0.14684014869888476,0.7383177570093458,0.8329903978052127,0.16340334638661444,0.24496124031007752
stqwiki,False,80.0,0.16188524590163936,0.7383177570093458,0.8501371742112482,0.14560341758632966,0.26554621848739496
stqwiki,False,81.0,0.16772823779193205,0.7383177570093458,0.8559670781893004,0.13955144179423282,0.27335640138408307
stqwiki,False,82.0,0.2344213649851632,0.7383177570093458,0.901920438957476,0.09184763260946956,0.35585585585585583
stqwiki,False,83.0,0.2581699346405229,0.7383177570093458,0.9125514403292181,0.08081167675329298,0.3825665859564165
stqwiki,False,84.0,0.2893772893772894,0.7383177570093458,0.9238683127572016,0.06906372374510501,0.41578947368421054
stqwiki,False,85.0,0.2893772893772894,0.7383177570093458,0.9238683127572016,0.06906372374510501,0.41578947368421054
stqwiki,False,86.0,0.30288461538461536,0.5887850467289719,0.9351851851851852,0.051619793520825914,0.39999999999999997
stqwiki,False,87.0,0.391304347826087,0.5887850467289719,0.9513031550068587,0.034887860448558204,0.4701492537313433
stqwiki,False,88.0,0.391304347826087,0.5887850467289719,0.9513031550068587,0.034887860448558204,0.4701492537313433
stqwiki,False,89.0,0.3643410852713178,0.4392523364485981,0.9513031550068587,0.02919188323246707,0.39830508474576276
stqwiki,False,90.0,0.3643410852713178,0.4392523364485981,0.9513031550068587,0.02919188323246707,0.39830508474576276
stqwiki,False,91.0,0.415929203539823,0.4392523364485981,0.9567901234567902,0.023495906016375936,0.4272727272727273
stqwiki,False,92.0,0.415929203539823,0.4392523364485981,0.9567901234567902,0.023495906016375936,0.4272727272727273
stqwiki,False,93.0,0.4845360824742268,0.4392523364485981,0.9622770919067215,0.0177999288002848,0.46078431372549017
stqwiki,False,94.0,0.4845360824742268,0.4392523364485981,0.9622770919067215,0.0177999288002848,0.46078431372549017
stqwiki,False,95.0,0.4845360824742268,0.4392523364485981,0.9622770919067215,0.0177999288002848,0.46078431372549017
stqwiki,False,96.0,0.5875,0.4392523364485981,0.9681069958847737,0.011747953008187968,0.5026737967914439
stqwiki,False,97.0,0.746031746031746,0.4392523364485981,0.9739368998628258,0.005695977216091136,0.5529411764705883
stqwiki,False,98.0,1.0,0.4392523364485981,0.9794238683127572,0.0,0.6103896103896104
stqwiki,False,99.0,1.0,0.4392523364485981,0.9794238683127572,0.0,0.6103896103896104
