wiki_db,user_is_bot,threshold,precision,recall,accuracy,fpr,F1
suwiki,True,0.0,0.005681818181818182,1.0,0.005681818181818182,1.0,0.01129943502824859
suwiki,True,1.0,0.005681818181818182,1.0,0.005681818181818182,1.0,0.01129943502824859
suwiki,True,2.0,0.005686433793663688,1.0,0.006493506493506494,0.9991836734693877,0.011308562197092083
suwiki,True,3.0,0.005686433793663688,1.0,0.006493506493506494,0.9991836734693877,0.011308562197092083
suwiki,True,4.0,0.005691056910569106,1.0,0.007305194805194805,0.9983673469387755,0.011317704122877931
suwiki,True,5.0,0.005695687550854353,1.0,0.008116883116883116,0.9975510204081632,0.011326860841423949
suwiki,True,6.0,0.005723630417007359,1.0,0.012987012987012988,0.9926530612244898,0.01138211382113821
suwiki,True,7.0,0.00502092050209205,0.8571428571428571,0.03409090909090909,0.9706122448979592,0.009983361064891847
suwiki,True,8.0,0.0051813471502590676,0.8571428571428571,0.06412337662337662,0.9404081632653061,0.010300429184549357
suwiki,True,9.0,0.0053523639607493305,0.8571428571428571,0.09415584415584416,0.9102040816326531,0.010638297872340424
suwiki,True,10.0,0.005494505494505495,0.8571428571428571,0.1176948051948052,0.8865306122448979,0.010919017288444043
suwiki,True,11.0,0.005655042412818096,0.8571428571428571,0.14285714285714285,0.8612244897959184,0.011235955056179777
suwiki,True,12.0,0.005791505791505791,0.8571428571428571,0.16314935064935066,0.8408163265306122,0.011505273250239693
suwiki,True,13.0,0.005911330049261084,0.8571428571428571,0.18019480519480519,0.8236734693877551,0.011741682974559688
suwiki,True,14.0,0.00510204081632653,0.7142857142857143,0.2069805194805195,0.7959183673469388,0.010131712259371834
suwiki,True,15.0,0.005434782608695652,0.7142857142857143,0.2556818181818182,0.746938775510204,0.010787486515641855
suwiki,True,16.0,0.005681818181818182,0.7142857142857143,0.28814935064935066,0.7142857142857143,0.011273957158962795
suwiki,True,17.0,0.006097560975609756,0.7142857142857143,0.33685064935064934,0.6653061224489796,0.012091898428053206
suwiki,True,18.0,0.00651890482398957,0.7142857142857143,0.37987012987012986,0.6220408163265306,0.012919896640826874
suwiki,True,19.0,0.007112375533428165,0.7142857142857143,0.4318181818181818,0.5697959183673469,0.014084507042253521
suwiki,True,20.0,0.007633587786259542,0.7142857142857143,0.4707792207792208,0.5306122448979592,0.015105740181268881
suwiki,True,21.0,0.008488964346349746,0.7142857142857143,0.5243506493506493,0.476734693877551,0.016778523489932886
suwiki,True,22.0,0.009671179883945842,0.7142857142857143,0.5827922077922078,0.4179591836734694,0.019083969465648856
suwiki,True,23.0,0.01098901098901099,0.7142857142857143,0.6331168831168831,0.3673469387755102,0.021645021645021648
suwiki,True,24.0,0.013054830287206266,0.7142857142857143,0.6915584415584416,0.30857142857142855,0.02564102564102564
suwiki,True,25.0,0.01440922190201729,0.7142857142857143,0.7207792207792207,0.27918367346938777,0.028248587570621465
suwiki,True,26.0,0.016286644951140065,0.7142857142857143,0.7532467532467533,0.24653061224489795,0.03184713375796178
suwiki,True,27.0,0.01818181818181818,0.7142857142857143,0.7792207792207793,0.22040816326530613,0.035460992907801414
suwiki,True,28.0,0.020080321285140562,0.7142857142857143,0.8003246753246753,0.19918367346938776,0.0390625
suwiki,True,29.0,0.022727272727272728,0.7142857142857143,0.8238636363636364,0.17551020408163265,0.04405286343612335
suwiki,True,30.0,0.025252525252525252,0.7142857142857143,0.8417207792207793,0.15755102040816327,0.048780487804878044
suwiki,True,31.0,0.026881720430107527,0.7142857142857143,0.851461038961039,0.14775510204081632,0.05181347150259068
suwiki,True,32.0,0.03048780487804878,0.7142857142857143,0.8693181818181818,0.12979591836734694,0.058479532163742694
suwiki,True,33.0,0.03225806451612903,0.7142857142857143,0.8766233766233766,0.12244897959183673,0.0617283950617284
suwiki,True,34.0,0.034482758620689655,0.7142857142857143,0.8847402597402597,0.11428571428571428,0.06578947368421054
suwiki,True,35.0,0.03731343283582089,0.7142857142857143,0.8936688311688312,0.10530612244897959,0.07092198581560283
suwiki,True,36.0,0.038461538461538464,0.7142857142857143,0.8969155844155844,0.10204081632653061,0.07299270072992702
suwiki,True,37.0,0.040983606557377046,0.7142857142857143,0.9034090909090909,0.09551020408163265,0.07751937984496123
suwiki,True,38.0,0.041666666666666664,0.7142857142857143,0.9050324675324676,0.09387755102040816,0.07874015748031496
suwiki,True,39.0,0.045871559633027525,0.7142857142857143,0.913961038961039,0.08489795918367347,0.08620689655172413
suwiki,True,40.0,0.04807692307692308,0.7142857142857143,0.9180194805194806,0.08081632653061224,0.09009009009009009
suwiki,True,41.0,0.049019607843137254,0.7142857142857143,0.9196428571428571,0.07918367346938776,0.09174311926605504
suwiki,True,42.0,0.05102040816326531,0.7142857142857143,0.9228896103896104,0.07591836734693877,0.09523809523809523
suwiki,True,43.0,0.053763440860215055,0.7142857142857143,0.926948051948052,0.07183673469387755,0.1
suwiki,True,44.0,0.054945054945054944,0.7142857142857143,0.9285714285714286,0.07020408163265306,0.1020408163265306
suwiki,True,45.0,0.056179775280898875,0.7142857142857143,0.9301948051948052,0.06857142857142857,0.10416666666666666
suwiki,True,46.0,0.056179775280898875,0.7142857142857143,0.9301948051948052,0.06857142857142857,0.10416666666666666
suwiki,True,47.0,0.05952380952380952,0.7142857142857143,0.9342532467532467,0.06448979591836734,0.10989010989010989
suwiki,True,48.0,0.060240963855421686,0.7142857142857143,0.935064935064935,0.0636734693877551,0.1111111111111111
suwiki,True,49.0,0.060240963855421686,0.7142857142857143,0.935064935064935,0.0636734693877551,0.1111111111111111
suwiki,True,50.0,0.06097560975609756,0.7142857142857143,0.9358766233766234,0.06285714285714286,0.11235955056179776
suwiki,True,51.0,0.06097560975609756,0.7142857142857143,0.9358766233766234,0.06285714285714286,0.11235955056179776
suwiki,True,52.0,0.0625,0.7142857142857143,0.9375,0.061224489795918366,0.11494252873563218
suwiki,True,53.0,0.05128205128205128,0.5714285714285714,0.9375,0.060408163265306125,0.09411764705882351
suwiki,True,54.0,0.05128205128205128,0.5714285714285714,0.9375,0.060408163265306125,0.09411764705882351
suwiki,True,55.0,0.05194805194805195,0.5714285714285714,0.9383116883116883,0.05959183673469388,0.09523809523809525
suwiki,True,56.0,0.05333333333333334,0.5714285714285714,0.939935064935065,0.05795918367346939,0.0975609756097561
suwiki,True,57.0,0.05333333333333334,0.5714285714285714,0.939935064935065,0.05795918367346939,0.0975609756097561
suwiki,True,58.0,0.056338028169014086,0.5714285714285714,0.9431818181818182,0.054693877551020405,0.10256410256410255
suwiki,True,59.0,0.05714285714285714,0.5714285714285714,0.9439935064935064,0.053877551020408164,0.10389610389610389
suwiki,True,60.0,0.058823529411764705,0.5714285714285714,0.9456168831168831,0.052244897959183675,0.10666666666666666
suwiki,True,61.0,0.058823529411764705,0.5714285714285714,0.9456168831168831,0.052244897959183675,0.10666666666666666
suwiki,True,62.0,0.05970149253731343,0.5714285714285714,0.9464285714285714,0.05142857142857143,0.10810810810810811
suwiki,True,63.0,0.06060606060606061,0.5714285714285714,0.9472402597402597,0.05061224489795919,0.10958904109589043
suwiki,True,64.0,0.06153846153846154,0.5714285714285714,0.948051948051948,0.04979591836734694,0.11111111111111112
suwiki,True,65.0,0.0625,0.5714285714285714,0.9488636363636364,0.04897959183673469,0.11267605633802817
suwiki,True,66.0,0.06666666666666667,0.5714285714285714,0.9521103896103896,0.045714285714285714,0.11940298507462686
suwiki,True,67.0,0.06666666666666667,0.5714285714285714,0.9521103896103896,0.045714285714285714,0.11940298507462686
suwiki,True,68.0,0.07017543859649122,0.5714285714285714,0.9545454545454546,0.04326530612244898,0.125
suwiki,True,69.0,0.07142857142857142,0.5714285714285714,0.9553571428571429,0.04244897959183674,0.12698412698412698
suwiki,True,70.0,0.07407407407407407,0.5714285714285714,0.9569805194805194,0.04081632653061224,0.13114754098360656
suwiki,True,71.0,0.07692307692307693,0.5714285714285714,0.9586038961038961,0.03918367346938775,0.13559322033898308
suwiki,True,72.0,0.0784313725490196,0.5714285714285714,0.9594155844155844,0.03836734693877551,0.13793103448275862
suwiki,True,73.0,0.08163265306122448,0.5714285714285714,0.961038961038961,0.036734693877551024,0.14285714285714285
suwiki,True,74.0,0.08888888888888889,0.5714285714285714,0.9642857142857143,0.03346938775510204,0.15384615384615385
suwiki,True,75.0,0.09523809523809523,0.5714285714285714,0.9667207792207793,0.031020408163265307,0.16326530612244897
suwiki,True,76.0,0.0975609756097561,0.5714285714285714,0.9675324675324676,0.030204081632653063,0.16666666666666669
suwiki,True,77.0,0.08571428571428572,0.42857142857142855,0.9707792207792207,0.026122448979591838,0.14285714285714285
suwiki,True,78.0,0.09375,0.42857142857142855,0.9732142857142857,0.0236734693877551,0.15384615384615383
suwiki,True,79.0,0.0967741935483871,0.42857142857142855,0.974025974025974,0.022857142857142857,0.15789473684210525
suwiki,True,80.0,0.10344827586206896,0.42857142857142855,0.9756493506493507,0.02122448979591837,0.16666666666666663
suwiki,True,81.0,0.11538461538461539,0.42857142857142855,0.9780844155844156,0.018775510204081632,0.18181818181818182
suwiki,True,82.0,0.13043478260869565,0.42857142857142855,0.9805194805194806,0.0163265306122449,0.2
suwiki,True,83.0,0.14285714285714285,0.42857142857142855,0.9821428571428571,0.014693877551020407,0.21428571428571427
suwiki,True,84.0,0.15789473684210525,0.42857142857142855,0.9837662337662337,0.013061224489795919,0.23076923076923078
suwiki,True,85.0,0.1875,0.42857142857142855,0.9862012987012987,0.010612244897959184,0.26086956521739124
suwiki,True,86.0,0.15384615384615385,0.2857142857142857,0.987012987012987,0.008979591836734694,0.2
suwiki,True,87.0,0.16666666666666666,0.2857142857142857,0.9878246753246753,0.00816326530612245,0.2105263157894737
suwiki,True,88.0,0.16666666666666666,0.2857142857142857,0.9878246753246753,0.00816326530612245,0.2105263157894737
suwiki,True,89.0,0.1111111111111111,0.14285714285714285,0.9886363636363636,0.006530612244897959,0.125
suwiki,True,90.0,0.125,0.14285714285714285,0.989448051948052,0.005714285714285714,0.13333333333333333
suwiki,True,91.0,0.0,0.0,0.9886363636363636,0.005714285714285714,0.13333333333333333
suwiki,True,92.0,0.0,0.0,0.9886363636363636,0.005714285714285714,0.13333333333333333
suwiki,True,93.0,0.0,0.0,0.9886363636363636,0.005714285714285714,0.13333333333333333
suwiki,True,94.0,0.0,0.0,0.989448051948052,0.004897959183673469,0.13333333333333333
suwiki,True,95.0,0.0,0.0,0.9902597402597403,0.004081632653061225,0.13333333333333333
suwiki,True,96.0,0.0,0.0,0.9910714285714286,0.0032653061224489797,0.13333333333333333
suwiki,True,97.0,0.0,0.0,0.9918831168831169,0.0024489795918367346,0.13333333333333333
suwiki,True,98.0,0.0,0.0,0.9918831168831169,0.0024489795918367346,0.13333333333333333
suwiki,True,99.0,0.0,0.0,0.9926948051948052,0.0016326530612244899,0.13333333333333333
suwiki,False,0.0,0.019617706237424547,1.0,0.019617706237424547,1.0,0.038480513073507645
suwiki,False,1.0,0.019617706237424547,1.0,0.019617706237424547,1.0,0.038480513073507645
suwiki,False,2.0,0.019642407454041805,1.0,0.020875251509054327,0.9987172909184197,0.038528031612743895
suwiki,False,3.0,0.019691996970462006,1.0,0.023390342052313884,0.9961518727552591,0.03862342163901956
suwiki,False,4.0,0.019751835907824766,1.0,0.02640845070422535,0.9930733709594664,0.03873851502359076
suwiki,False,5.0,0.01992846193152785,1.0,0.035211267605633804,0.9840944073884043,0.03907815631262525
suwiki,False,6.0,0.02027027027027027,1.0,0.05181086519114688,0.9671626475115443,0.03973509933774835
suwiki,False,7.0,0.020626841682293062,0.9871794871794872,0.08023138832997988,0.9379168804515136,0.040409341380215166
suwiki,False,8.0,0.02131782945736434,0.9871794871794872,0.11066398390342053,0.9068753206772704,0.04173441734417344
suwiki,False,9.0,0.02195897139555042,0.9743589743589743,0.14813883299798794,0.8683940482298614,0.042949985871715175
suwiki,False,10.0,0.022666269012824338,0.9743589743589743,0.17530181086519114,0.8406875320677271,0.044301952783445064
suwiki,False,11.0,0.023241590214067277,0.9743589743589743,0.19617706237424548,0.8193945613134941,0.04540023894862604
suwiki,False,12.0,0.02383192223267482,0.9743589743589743,0.21654929577464788,0.7986146741918932,0.04652586470768289
suwiki,False,13.0,0.02383252818035427,0.9487179487179487,0.23667002012072436,0.7775782452539765,0.046497015394282123
suwiki,False,14.0,0.02432522492502499,0.9358974358974359,0.2623239436619718,0.7511544381734223,0.04741799285482299
suwiki,False,15.0,0.02411298656562177,0.8974358974358975,0.2854627766599598,0.7267829656233966,0.04696410600469641
suwiki,False,16.0,0.024347212420606917,0.8846153846153846,0.3023138832997988,0.7093381221139046,0.047390109890109895
suwiki,False,17.0,0.025200876552227903,0.8846153846153846,0.32645875251509054,0.6847101077475628,0.049005681818181816
suwiki,False,18.0,0.026126467247254828,0.8846153846153846,0.35085513078470826,0.6598255515649051,0.050753953659433616
suwiki,False,19.0,0.02716535433070866,0.8846153846153846,0.3762575452716298,0.6339148281169831,0.052711993888464474
suwiki,False,20.0,0.028243962341383544,0.8846153846153846,0.40065392354124746,0.6090302719343252,0.0547401824672749
suwiki,False,21.0,0.029193899782135078,0.8589743589743589,0.4368712273641851,0.5715751667521806,0.05646860514117152
suwiki,False,22.0,0.030975496994914472,0.8589743589743589,0.47007042253521125,0.5377116469984607,0.05979473449352968
suwiki,False,23.0,0.03239845261121857,0.8589743589743589,0.4939637826961771,0.513340174448435,0.06244175209692451
suwiki,False,24.0,0.033367556468172486,0.8333333333333334,0.5231388329979879,0.4830682401231401,0.06416584402764068
suwiki,False,25.0,0.03511615343057806,0.8333333333333334,0.5475352112676056,0.4581836839404823,0.06739243131156039
suwiki,False,26.0,0.03645541222658441,0.8333333333333334,0.5646378269617707,0.44073884043099026,0.06985491671144546
suwiki,False,27.0,0.03830288744843842,0.8333333333333334,0.5862676056338029,0.41867624422780914,0.0732394366197183
suwiki,False,28.0,0.040726817042606514,0.8333333333333334,0.6116700201207244,0.39276552077988713,0.07765830346475507
suwiki,False,29.0,0.04226267880364109,0.8333333333333334,0.6262575452716298,0.37788609543355567,0.08044554455445545
suwiki,False,30.0,0.04403794037940379,0.8333333333333334,0.641851106639839,0.36198050282196,0.08365508365508365
suwiki,False,31.0,0.04526462395543175,0.8333333333333334,0.6519114688128773,0.3517188301693176,0.08586525759577278
suwiki,False,32.0,0.04716981132075472,0.8333333333333334,0.6664989939637826,0.33683940482298613,0.0892857142857143
suwiki,False,33.0,0.048327137546468404,0.8333333333333334,0.6747987927565392,0.3283735248845562,0.09135628952916375
suwiki,False,34.0,0.04980842911877394,0.8333333333333334,0.6848591549295775,0.3181118522319138,0.09399855386840202
suwiki,False,35.0,0.05090054815974941,0.8333333333333334,0.6919014084507042,0.31092868137506413,0.0959409594095941
suwiki,False,36.0,0.05250403877221325,0.8333333333333334,0.7017102615694165,0.3009235505387378,0.09878419452887538
suwiki,False,37.0,0.053674649050371594,0.8333333333333334,0.7085010060362174,0.2939969214982042,0.1008533747090768
suwiki,False,38.0,0.05499153976311337,0.8333333333333334,0.71579476861167,0.2865572088250385,0.1031746031746032
suwiki,False,39.0,0.05721830985915493,0.8333333333333334,0.727364185110664,0.27475628527449975,0.1070840197693575
suwiki,False,40.0,0.0580875781948168,0.8333333333333334,0.7316398390342053,0.27039507439712673,0.1086048454469507
suwiki,False,41.0,0.059144676979071886,0.8333333333333334,0.7366700201207244,0.2652642380708055,0.11045029736618522
suwiki,False,42.0,0.06091846298031865,0.8333333333333334,0.7447183098591549,0.25705489994869163,0.11353711790393013
suwiki,False,43.0,0.06243996157540826,0.8333333333333334,0.7512575452716298,0.2503848127244741,0.1161751563896336
suwiki,False,44.0,0.06385068762278978,0.8333333333333334,0.7570422535211268,0.24448435094920473,0.1186131386861314
suwiki,False,45.0,0.06559031281533804,0.8333333333333334,0.7638329979879276,0.2375577219086711,0.1216089803554724
suwiki,False,46.0,0.0668724279835391,0.8333333333333334,0.7686116700201208,0.232683427398666,0.12380952380952381
suwiki,False,47.0,0.06792058516196448,0.8333333333333334,0.77238430583501,0.2288353001539251,0.12560386473429952
suwiki,False,48.0,0.07004310344827586,0.8333333333333334,0.7796780684104627,0.22139558748075935,0.12922465208747513
suwiki,False,49.0,0.0712719298245614,0.8333333333333334,0.783702213279678,0.2172909184197024,0.1313131313131313
suwiki,False,50.0,0.0703125,0.8076923076923077,0.7867203219315896,0.21369933299127758,0.1293634496919918
suwiki,False,51.0,0.06952491309385864,0.7692307692307693,0.7935110663983903,0.2060030785017958,0.1275239107332625
suwiki,False,52.0,0.07100591715976332,0.7692307692307693,0.7980382293762576,0.20138532580810672,0.13001083423618634
suwiki,False,53.0,0.06875753920386007,0.7307692307692307,0.8005533199195171,0.19805028219599793,0.1256890848952591
suwiki,False,54.0,0.06968215158924206,0.7307692307692307,0.8033199195171026,0.19522832221652128,0.12723214285714285
suwiki,False,55.0,0.07142857142857142,0.7307692307692307,0.8083501006036218,0.1900974858902001,0.13013698630136986
suwiki,False,56.0,0.07133757961783439,0.717948717948718,0.8111167002012073,0.1870189840944074,0.12977983777520277
suwiki,False,57.0,0.07235142118863049,0.717948717948718,0.8138832997987927,0.18419702411493075,0.13145539906103285
suwiki,False,58.0,0.07349081364829396,0.717948717948718,0.8169014084507042,0.18111852231913803,0.13333333333333333
suwiki,False,59.0,0.07352941176470588,0.7051282051282052,0.8199195171026157,0.17778347870702924,0.13317191283292978
suwiki,False,60.0,0.07534246575342465,0.7051282051282052,0.8244466800804829,0.17316572601334018,0.13613861386138615
suwiki,False,61.0,0.07735583684950774,0.7051282051282052,0.829225352112676,0.16829143150333503,0.1394169835234474
suwiki,False,62.0,0.0804093567251462,0.7051282051282052,0.8360160965794768,0.16136480246280144,0.1443569553805774
suwiki,False,63.0,0.08245877061469266,0.7051282051282052,0.8402917505030181,0.15700359158542843,0.1476510067114094
suwiki,False,64.0,0.08191653786707882,0.6794871794871795,0.8443158953722334,0.15238583889173934,0.14620689655172414
suwiki,False,65.0,0.08507223113964688,0.6794871794871795,0.8503521126760564,0.14622883530015393,0.15121255349500715
suwiki,False,66.0,0.08848080133555926,0.6794871794871795,0.8563883299798792,0.1400718317085685,0.15657311669128507
suwiki,False,67.0,0.0920138888888889,0.6794871794871795,0.8621730382293763,0.13417136993329912,0.16207951070336393
suwiki,False,68.0,0.09272727272727273,0.6538461538461539,0.8677062374245473,0.1280143663417137,0.1624203821656051
suwiki,False,69.0,0.096045197740113,0.6538461538461539,0.8724849094567404,0.12314007183170857,0.16748768472906406
suwiki,False,70.0,0.10119047619047619,0.6538461538461539,0.8792756539235412,0.11621344279117496,0.1752577319587629
suwiki,False,71.0,0.10515463917525773,0.6538461538461539,0.8840543259557344,0.11133914828116984,0.18117229129662524
suwiki,False,72.0,0.10300429184549356,0.6153846153846154,0.8873239436619719,0.10723447922011288,0.17647058823529413
suwiki,False,73.0,0.10321100917431193,0.5769230769230769,0.8933601609657947,0.10030785017957927,0.17509727626459146
suwiki,False,74.0,0.10411622276029056,0.5512820512820513,0.8981388329979879,0.09492047203694202,0.17515274949083506
suwiki,False,75.0,0.10512820512820513,0.5256410256410257,0.9029175050301811,0.08953309389430478,0.17521367521367523
suwiki,False,76.0,0.10723860589812333,0.5128205128205128,0.9066901408450704,0.08542842483324782,0.17738359201773837
suwiki,False,77.0,0.10764872521246459,0.48717948717948717,0.9107142857142857,0.08081067213955875,0.1763341067285383
suwiki,False,78.0,0.11314984709480122,0.47435897435897434,0.9167505030181087,0.07439712673165726,0.18271604938271602
suwiki,False,79.0,0.11428571428571428,0.46153846153846156,0.9192655935613682,0.0715751667521806,0.18320610687022898
suwiki,False,80.0,0.11295681063122924,0.4358974358974359,0.9217806841046278,0.06849666495638788,0.1794195250659631
suwiki,False,81.0,0.11498257839721254,0.4230769230769231,0.9247987927565392,0.06516162134427912,0.18082191780821916
suwiki,False,82.0,0.11851851851851852,0.41025641025641024,0.9285714285714286,0.061056952283222166,0.18390804597701146
suwiki,False,83.0,0.128,0.41025641025641024,0.9336016096579477,0.055926115956900974,0.1951219512195122
suwiki,False,84.0,0.13852813852813853,0.41025641025641024,0.9383802816901409,0.051051821446895844,0.20711974110032363
suwiki,False,85.0,0.15228426395939088,0.38461538461538464,0.9459255533199196,0.04284248332478194,0.21818181818181823
suwiki,False,86.0,0.16091954022988506,0.358974358974359,0.9507042253521126,0.03745510518214469,0.22222222222222224
suwiki,False,87.0,0.1891891891891892,0.358974358974359,0.9572434607645876,0.03078501795792714,0.24778761061946902
suwiki,False,88.0,0.19402985074626866,0.3333333333333333,0.959758551307847,0.027706516162134428,0.2452830188679245
suwiki,False,89.0,0.20353982300884957,0.2948717948717949,0.9635311871227364,0.023088763468445357,0.2408376963350785
suwiki,False,90.0,0.22,0.28205128205128205,0.966297786720322,0.020010261672652643,0.24719101123595508
suwiki,False,91.0,0.20224719101123595,0.23076923076923078,0.9670523138832998,0.018214468958440224,0.2155688622754491
suwiki,False,92.0,0.2535211267605634,0.23076923076923078,0.971579476861167,0.013596716264751155,0.24161073825503357
suwiki,False,93.0,0.25862068965517243,0.19230769230769232,0.9733400402414487,0.011031298101590559,0.22058823529411764
suwiki,False,94.0,0.32608695652173914,0.19230769230769232,0.9763581488933601,0.007952796305797845,0.24193548387096775
suwiki,False,95.0,0.325,0.16666666666666666,0.9768611670020121,0.006926629040533607,0.22033898305084745
suwiki,False,96.0,0.40625,0.16666666666666666,0.9788732394366197,0.0048742945100051305,0.23636363636363636
suwiki,False,97.0,0.4642857142857143,0.16666666666666666,0.9798792756539235,0.0038481272447408927,0.24528301886792456
suwiki,False,98.0,0.5,0.14102564102564102,0.9803822937625755,0.0028219599794766545,0.22000000000000003
suwiki,False,99.0,0.6923076923076923,0.11538461538461539,0.9816398390342053,0.001026167265264238,0.19780219780219782
