wiki_db,user_is_bot,threshold,precision,recall,accuracy,fpr,F1
szywiki,True,0.0,0.014354066985645933,1.0,0.014354066985645933,1.0,0.02830188679245283
szywiki,True,1.0,0.014354066985645933,1.0,0.014354066985645933,1.0,0.02830188679245283
szywiki,True,2.0,0.014354066985645933,1.0,0.014354066985645933,1.0,0.02830188679245283
szywiki,True,3.0,0.014405762304921969,1.0,0.017942583732057416,0.9963592233009708,0.02840236686390532
szywiki,True,4.0,0.015037593984962405,1.0,0.05980861244019139,0.9538834951456311,0.029629629629629624
szywiki,True,5.0,0.015957446808510637,1.0,0.11483253588516747,0.8980582524271845,0.031413612565445025
szywiki,True,6.0,0.01662049861495845,1.0,0.1507177033492823,0.8616504854368932,0.0326975476839237
szywiki,True,7.0,0.017094017094017096,1.0,0.17464114832535885,0.837378640776699,0.033613445378151266
szywiki,True,8.0,0.017699115044247787,1.0,0.20334928229665072,0.808252427184466,0.034782608695652174
szywiki,True,9.0,0.0182370820668693,1.0,0.22727272727272727,0.7839805825242718,0.035820895522388055
szywiki,True,10.0,0.0189873417721519,1.0,0.2583732057416268,0.7524271844660194,0.03726708074534161
szywiki,True,11.0,0.019672131147540985,1.0,0.284688995215311,0.7257281553398058,0.03858520900321544
szywiki,True,12.0,0.02003338898163606,1.0,0.29784688995215314,0.712378640776699,0.03927986906710311
szywiki,True,13.0,0.020761245674740483,1.0,0.3229665071770335,0.6868932038834952,0.04067796610169491
szywiki,True,14.0,0.021937842778793418,1.0,0.36004784688995217,0.6492718446601942,0.04293381037567084
szywiki,True,15.0,0.02247191011235955,1.0,0.37559808612440193,0.633495145631068,0.04395604395604395
szywiki,True,16.0,0.022988505747126436,1.0,0.38995215311004783,0.6189320388349514,0.0449438202247191
szywiki,True,17.0,0.0234375,1.0,0.4019138755980861,0.6067961165048543,0.04580152671755725
szywiki,True,18.0,0.02390438247011952,1.0,0.4138755980861244,0.5946601941747572,0.04669260700389105
szywiki,True,19.0,0.02459016393442623,1.0,0.430622009569378,0.5776699029126213,0.048
szywiki,True,20.0,0.025,1.0,0.44019138755980863,0.5679611650485437,0.04878048780487806
szywiki,True,21.0,0.025423728813559324,1.0,0.44976076555023925,0.558252427184466,0.04958677685950414
szywiki,True,22.0,0.025974025974025976,1.0,0.46172248803827753,0.5461165048543689,0.05063291139240507
szywiki,True,23.0,0.0273972602739726,1.0,0.4904306220095694,0.5169902912621359,0.05333333333333332
szywiki,True,24.0,0.028985507246376812,1.0,0.5191387559808612,0.4878640776699029,0.05633802816901409
szywiki,True,25.0,0.029850746268656716,1.0,0.5334928229665071,0.4733009708737864,0.05797101449275362
szywiki,True,26.0,0.030303030303030304,1.0,0.5406698564593302,0.46601941747572817,0.05882352941176471
szywiki,True,27.0,0.031088082901554404,1.0,0.5526315789473685,0.4538834951456311,0.06030150753768843
szywiki,True,28.0,0.031914893617021274,1.0,0.5645933014354066,0.441747572815534,0.06185567010309278
szywiki,True,29.0,0.033426183844011144,1.0,0.5849282296650717,0.4211165048543689,0.0646900269541779
szywiki,True,30.0,0.028409090909090908,0.8333333333333334,0.5885167464114832,0.41504854368932037,0.05494505494505494
szywiki,True,31.0,0.029069767441860465,0.8333333333333334,0.5980861244019139,0.4053398058252427,0.056179775280898875
szywiki,True,32.0,0.02932551319648094,0.8333333333333334,0.6016746411483254,0.4016990291262136,0.056657223796034
szywiki,True,33.0,0.029850746268656716,0.8333333333333334,0.6088516746411483,0.39441747572815533,0.05763688760806917
szywiki,True,34.0,0.03058103975535168,0.8333333333333334,0.618421052631579,0.38470873786407767,0.05899705014749263
szywiki,True,35.0,0.03184713375796178,0.8333333333333334,0.6339712918660287,0.36893203883495146,0.06134969325153374
szywiki,True,36.0,0.032679738562091505,0.8333333333333334,0.6435406698564593,0.3592233009708738,0.06289308176100629
szywiki,True,37.0,0.034013605442176874,0.8333333333333334,0.6578947368421053,0.3446601941747573,0.06535947712418301
szywiki,True,38.0,0.03496503496503497,0.8333333333333334,0.6674641148325359,0.33495145631067963,0.06711409395973154
szywiki,True,39.0,0.03496503496503497,0.8333333333333334,0.6674641148325359,0.33495145631067963,0.06711409395973154
szywiki,True,40.0,0.03597122302158273,0.8333333333333334,0.6770334928229665,0.32524271844660196,0.06896551724137931
szywiki,True,41.0,0.03773584905660377,0.8333333333333334,0.6925837320574163,0.3094660194174757,0.07220216606498195
szywiki,True,42.0,0.0390625,0.8333333333333334,0.7033492822966507,0.29854368932038833,0.0746268656716418
szywiki,True,43.0,0.04048582995951417,0.8333333333333334,0.7141148325358851,0.28762135922330095,0.0772200772200772
szywiki,True,44.0,0.04081632653061224,0.8333333333333334,0.7165071770334929,0.28519417475728154,0.07782101167315174
szywiki,True,45.0,0.04149377593360996,0.8333333333333334,0.7212918660287081,0.2803398058252427,0.07905138339920949
szywiki,True,46.0,0.04219409282700422,0.8333333333333334,0.7260765550239234,0.27548543689320387,0.08032128514056223
szywiki,True,47.0,0.042735042735042736,0.8333333333333334,0.7296650717703349,0.27184466019417475,0.08130081300813008
szywiki,True,48.0,0.04291845493562232,0.8333333333333334,0.7308612440191388,0.27063106796116504,0.0816326530612245
szywiki,True,49.0,0.04329004329004329,0.8333333333333334,0.7332535885167464,0.2682038834951456,0.08230452674897118
szywiki,True,50.0,0.043478260869565216,0.8333333333333334,0.7344497607655502,0.2669902912621359,0.08264462809917356
szywiki,True,51.0,0.043859649122807015,0.8333333333333334,0.7368421052631579,0.2645631067961165,0.08333333333333333
szywiki,True,52.0,0.044444444444444446,0.8333333333333334,0.7404306220095693,0.2609223300970874,0.08438818565400845
szywiki,True,53.0,0.045662100456621,0.8333333333333334,0.7476076555023924,0.2536407766990291,0.08658008658008658
szywiki,True,54.0,0.045871559633027525,0.8333333333333334,0.7488038277511961,0.2524271844660194,0.08695652173913043
szywiki,True,55.0,0.046511627906976744,0.8333333333333334,0.7523923444976076,0.2487864077669903,0.0881057268722467
szywiki,True,56.0,0.046511627906976744,0.8333333333333334,0.7523923444976076,0.2487864077669903,0.0881057268722467
szywiki,True,57.0,0.04739336492890995,0.8333333333333334,0.757177033492823,0.24393203883495146,0.08968609865470852
szywiki,True,58.0,0.047619047619047616,0.8333333333333334,0.7583732057416268,0.24271844660194175,0.09009009009009009
szywiki,True,59.0,0.04784688995215311,0.8333333333333334,0.7595693779904307,0.24150485436893204,0.09049773755656108
szywiki,True,60.0,0.04807692307692308,0.8333333333333334,0.7607655502392344,0.24029126213592233,0.09090909090909091
szywiki,True,61.0,0.04854368932038835,0.8333333333333334,0.7631578947368421,0.23786407766990292,0.09174311926605504
szywiki,True,62.0,0.04878048780487805,0.8333333333333334,0.7643540669856459,0.2366504854368932,0.09216589861751152
szywiki,True,63.0,0.04950495049504951,0.8333333333333334,0.7679425837320574,0.23300970873786409,0.09345794392523366
szywiki,True,64.0,0.04477611940298507,0.75,0.7667464114832536,0.23300970873786409,0.08450704225352113
szywiki,True,65.0,0.04568527918781726,0.75,0.7715311004784688,0.22815533980582525,0.08612440191387559
szywiki,True,66.0,0.04712041884816754,0.75,0.7787081339712919,0.220873786407767,0.08866995073891626
szywiki,True,67.0,0.047872340425531915,0.75,0.7822966507177034,0.21723300970873785,0.09000000000000001
szywiki,True,68.0,0.04945054945054945,0.75,0.7894736842105263,0.2099514563106796,0.09278350515463916
szywiki,True,69.0,0.05202312138728324,0.75,0.8002392344497608,0.19902912621359223,0.0972972972972973
szywiki,True,70.0,0.054878048780487805,0.75,0.8110047846889952,0.18810679611650485,0.10227272727272727
szywiki,True,71.0,0.055900621118012424,0.75,0.8145933014354066,0.18446601941747573,0.10404624277456648
szywiki,True,72.0,0.055900621118012424,0.75,0.8145933014354066,0.18446601941747573,0.10404624277456648
szywiki,True,73.0,0.05844155844155844,0.75,0.8229665071770335,0.17597087378640777,0.10843373493975904
szywiki,True,74.0,0.06293706293706294,0.75,0.8361244019138756,0.16262135922330098,0.11612903225806454
szywiki,True,75.0,0.06870229007633588,0.75,0.8504784688995215,0.14805825242718446,0.1258741258741259
szywiki,True,76.0,0.072,0.75,0.8576555023923444,0.1407766990291262,0.1313868613138686
szywiki,True,77.0,0.08256880733944955,0.75,0.8767942583732058,0.12135922330097088,0.1487603305785124
szywiki,True,78.0,0.0967741935483871,0.75,0.895933014354067,0.10194174757281553,0.1714285714285714
szywiki,True,79.0,0.09333333333333334,0.5833333333333334,0.9126794258373205,0.0825242718446602,0.16091954022988506
szywiki,True,80.0,0.04477611940298507,0.25,0.9126794258373205,0.07766990291262135,0.07594936708860758
szywiki,True,81.0,0.03636363636363636,0.16666666666666666,0.9246411483253588,0.06432038834951456,0.05970149253731343
szywiki,True,82.0,0.022222222222222223,0.08333333333333333,0.9342105263157895,0.05339805825242718,0.03508771929824561
szywiki,True,83.0,0.027777777777777776,0.08333333333333333,0.9449760765550239,0.04247572815533981,0.041666666666666664
szywiki,True,84.0,0.03225806451612903,0.08333333333333333,0.9509569377990431,0.03640776699029126,0.046511627906976744
szywiki,True,85.0,0.03225806451612903,0.08333333333333333,0.9509569377990431,0.03640776699029126,0.046511627906976744
szywiki,True,86.0,0.03333333333333333,0.08333333333333333,0.9521531100478469,0.03519417475728155,0.04761904761904761
szywiki,True,87.0,0.04,0.08333333333333333,0.9581339712918661,0.02912621359223301,0.05405405405405406
szywiki,True,88.0,0.0,0.0,0.9569377990430622,0.02912621359223301,0.05405405405405406
szywiki,True,89.0,0.0,0.0,0.9569377990430622,0.02912621359223301,0.05405405405405406
szywiki,True,90.0,0.0,0.0,0.9617224880382775,0.024271844660194174,0.05405405405405406
szywiki,True,91.0,0.0,0.0,0.965311004784689,0.02063106796116505,0.05405405405405406
szywiki,True,92.0,0.0,0.0,0.9665071770334929,0.019417475728155338,0.05405405405405406
szywiki,True,93.0,0.0,0.0,0.9736842105263158,0.012135922330097087,0.05405405405405406
szywiki,True,94.0,0.0,0.0,0.9772727272727273,0.00849514563106796,0.05405405405405406
szywiki,True,95.0,0.0,0.0,0.9808612440191388,0.0048543689320388345,0.05405405405405406
szywiki,True,96.0,0.0,0.0,0.9832535885167464,0.0024271844660194173,0.05405405405405406
szywiki,True,97.0,0.0,0.0,0.9856459330143541,0.0,0.05405405405405406
szywiki,True,98.0,0.0,0.0,0.9856459330143541,0.0,0.05405405405405406
szywiki,True,99.0,0.0,0.0,0.9856459330143541,0.0,0.05405405405405406
szywiki,False,0.0,0.011089401700374927,1.0,0.011089401700374927,1.0,0.0219355512612942
szywiki,False,1.0,0.011089401700374927,1.0,0.011089401700374927,1.0,0.0219355512612942
szywiki,False,2.0,0.011089401700374927,1.0,0.011089401700374927,1.0,0.0219355512612942
szywiki,False,3.0,0.011177347242921014,1.0,0.018957596240164756,0.9920435734500987,0.02210759027266028
szywiki,False,4.0,0.011817005233245175,1.0,0.07266198447483761,0.9377369573343302,0.02335798898837662
szywiki,False,5.0,0.01278149726110773,1.0,0.14347573533294608,0.8661291183852192,0.025240384615384616
szywiki,False,6.0,0.013358778625954198,1.0,0.1809684744151661,0.8282159448924014,0.026365348399246705
szywiki,False,7.0,0.013784954706577392,1.0,0.20663251835031948,0.802264110642388,0.027195027195027196
szywiki,False,8.0,0.014236322961155175,1.0,0.23213814226118182,0.7764724729000908,0.02807298977341087
szywiki,False,9.0,0.014675052410901468,1.0,0.2554258858319692,0.7529235862658195,0.028925619834710748
szywiki,False,10.0,0.01533518329195268,1.0,0.2879547974864023,0.720029903348107,0.030207134637514385
szywiki,False,11.0,0.015892235507794762,1.0,0.31330200137297354,0.694398462113526,0.031287246722288435
szywiki,False,12.0,0.016375545851528384,1.0,0.3338966045308127,0.6735729161104288,0.032223415682062294
szywiki,False,13.0,0.016856638304703804,1.0,0.3532238474943233,0.6540289421690607,0.03315440479949479
szywiki,False,14.0,0.01758646679507579,1.0,0.3805248983471511,0.6264217440059807,0.03456505637396099
szywiki,False,15.0,0.017930327868852458,1.0,0.39261762686803614,0.6141934105836493,0.035228988424760944
szywiki,False,16.0,0.018273581621997912,1.0,0.40423509531604795,0.6024456666844663,0.03589130063237054
szywiki,False,17.0,0.01863188714399787,1.0,0.4159053704388235,0.5906445239493779,0.036582179252678336
szywiki,False,18.0,0.0191483541533692,1.0,0.4319585995669853,0.5744112778341433,0.037577167397333806
szywiki,False,19.0,0.019787053613492887,1.0,0.45065216243333156,0.5555080899236396,0.038806245957682714
szywiki,False,20.0,0.020404197434900895,1.0,0.4676031050324761,0.5383670635980136,0.03999238240335174
szywiki,False,21.0,0.020943452677770022,1.0,0.481596873844854,0.5242163720830886,0.04102764481781772
szywiki,False,22.0,0.021748135874067938,1.0,0.501188150182183,0.5044054039621936,0.04257044394891547
szywiki,False,23.0,0.0230566534914361,1.0,0.5301262079526852,0.4751428418860469,0.045074050225370255
szywiki,False,24.0,0.024976213130352046,1.0,0.5670908802872683,0.4377636567522828,0.04873520538407983
szywiki,False,25.0,0.026064291920069503,1.0,0.5856260231293235,0.4190206653494954,0.050804403048264175
szywiki,False,26.0,0.026545316647705725,1.0,0.5933357976448224,0.4112244353073103,0.05171776874769117
szywiki,False,27.0,0.027301092043681748,1.0,0.6049004594180705,0.3995300902440327,0.05315110098709187
szywiki,False,28.0,0.028393726338561385,1.0,0.6205312351481227,0.383724034816041,0.05521956350249803
szywiki,False,29.0,0.03005151688609044,1.0,0.6420763584517083,0.36193730976664706,0.05834954153931648
szywiki,False,30.0,0.02838235294117647,0.919047619047619,0.6502085863653165,0.35280610882682756,0.0550641940085592
szywiki,False,31.0,0.029574011645724794,0.919047619047619,0.6646776152505677,0.3381748277887542,0.0573040380047506
szywiki,False,32.0,0.029987569919204475,0.919047619047619,0.6694302159792997,0.33336893255727024,0.058080048149262715
szywiki,False,33.0,0.03080114905841047,0.919047619047619,0.678407350689127,0.3242911304533561,0.05960469425571341
szywiki,False,34.0,0.031753866403422176,0.919047619047619,0.6883350055447008,0.3142521493031452,0.06138676844783715
szywiki,False,35.0,0.03272850602001017,0.919047619047619,0.6978930136769288,0.30458696000427193,0.06320615686916653
szywiki,False,36.0,0.03357105583579753,0.919047619047619,0.7057084015419549,0.29668393229027606,0.06477596912233596
szywiki,False,37.0,0.03431111111111111,0.919047619047619,0.7122564292126525,0.29006247663800927,0.06615252784918595
szywiki,False,38.0,0.03495110467222021,0.919047619047619,0.7176955167133126,0.28456239653975546,0.06734124214933704
szywiki,False,39.0,0.035206129149945274,0.919047619047619,0.7198077837038601,0.28242644310354037,0.06781447645818693
szywiki,False,40.0,0.03629183903723204,0.919047619047619,0.7284680783651053,0.2736690340150585,0.06982633863965268
szywiki,False,41.0,0.037570566478489394,0.919047619047619,0.7380260864973333,0.2640038447161852,0.07219001309145315
szywiki,False,42.0,0.038082083662194156,0.919047619047619,0.7416697470560278,0.26031932503871413,0.0731337627889352
szywiki,False,43.0,0.039179861956963054,0.919047619047619,0.7491682948724718,0.25273669034015056,0.07515576323987538
szywiki,False,44.0,0.03978561121418264,0.919047619047619,0.7531287954797486,0.2487317776472473,0.07626951195415925
szywiki,False,45.0,0.04057178894261089,0.919047619047619,0.7580926229075355,0.24371228707214182,0.07771290517414939
szywiki,False,46.0,0.04101147471313217,0.919047619047619,0.7607857633204838,0.24098894644096758,0.07851912123677786
szywiki,False,47.0,0.041666666666666664,0.919047619047619,0.7646934572529968,0.23703743258396967,0.07971912432878975
szywiki,False,48.0,0.042185792349726775,0.919047619047619,0.7677034377145271,0.23399369893736316,0.0806687565308255
szywiki,False,49.0,0.04285079928952042,0.919047619047619,0.7714527116227491,0.23020238158808137,0.08188375053033517
szywiki,False,50.0,0.04302273740526081,0.919047619047619,0.7724032317684956,0.2292412025417846,0.0821976149914821
szywiki,False,51.0,0.04373442102877861,0.919047619047619,0.7762581190262449,0.22534308752069204,0.08349556565001082
szywiki,False,52.0,0.0446242774566474,0.919047619047619,0.7809051064054496,0.22064398996101886,0.08511576626240352
szywiki,False,53.0,0.04616120545324085,0.919047619047619,0.788509267571421,0.21295455759064452,0.08790708266909587
szywiki,False,54.0,0.04657335907335907,0.919047619047619,0.7904631145376776,0.21097880066214555,0.08865411116214975
szywiki,False,55.0,0.04736196319018405,0.919047619047619,0.7941067750963722,0.20729428098467453,0.09008168028004668
szywiki,False,56.0,0.04799801044516289,0.919047619047619,0.7969583355336114,0.20441074384578417,0.09123138737887024
szywiki,False,57.0,0.04932277025300281,0.919047619047619,0.80266145640809,0.19864366956800342,0.09362114964831433
szywiki,False,58.0,0.05027350872623079,0.919047619047619,0.8065691503406031,0.1946921557110055,0.09533218078537911
szywiki,False,59.0,0.050722733245729304,0.919047619047619,0.8083645772825685,0.19287659529022266,0.09613947696139477
szywiki,False,60.0,0.05118005833996288,0.919047619047619,0.8101600042245339,0.19106103486943984,0.09696056267269532
szywiki,False,61.0,0.052162162162162164,0.919047619047619,0.8139092781327559,0.18726971752015806,0.09872122762148337
szywiki,False,62.0,0.052417164584464965,0.919047619047619,0.8148597982785024,0.18630853847386128,0.09917780061664953
szywiki,False,63.0,0.05370061213133,0.919047619047619,0.8195067856577072,0.18160944091418807,0.10147213459516298
szywiki,False,64.0,0.04943502824858757,0.8333333333333334,0.8204573058034536,0.17968708282159448,0.09333333333333334
szywiki,False,65.0,0.05038871292830406,0.8333333333333334,0.8239953530126208,0.1761093608159342,0.09503122454520772
szywiki,False,66.0,0.05245803357314149,0.8333333333333334,0.8312298674552463,0.16879372029689751,0.09870276367738297
szywiki,False,67.0,0.048668503213957756,0.7571428571428571,0.8331837144215029,0.16596358199391253,0.091458153580673
szywiki,False,68.0,0.05,0.7571428571428571,0.8377778951259439,0.1613178832701447,0.09380530973451327
szywiki,False,69.0,0.052199606040709126,0.7571428571428571,0.8448539895442784,0.15416243925882417,0.09766584766584765
szywiki,False,70.0,0.05490331491712707,0.7571428571428571,0.8527749907588319,0.14615261387301756,0.10238248551191242
szywiki,False,71.0,0.05688729874776386,0.7571428571428571,0.8581084649099646,0.14075933144657446,0.10582362728785356
szywiki,False,72.0,0.05800802626778548,0.7571428571428571,0.8609600253472038,0.1378757943076841,0.10776008132836326
szywiki,False,73.0,0.06150870406189555,0.7571428571428571,0.8691978666103396,0.12954557590644525,0.11377459749552771
szywiki,False,74.0,0.06675062972292191,0.7571428571428571,0.8799176215873686,0.11870561221765366,0.12268518518518517
szywiki,False,75.0,0.07237141556668183,0.7571428571428571,0.8896868564186513,0.10882682757515887,0.13211466555878687
szywiki,False,76.0,0.07585877862595419,0.7571428571428571,0.895020330569784,0.10343354514871576,0.13790112749349523
szywiki,False,77.0,0.08466453674121406,0.7571428571428571,0.9065321856682684,0.09179259892134352,0.15229885057471265
szywiki,False,78.0,0.08786346396965866,0.6619047619047619,0.9200506944077731,0.07705452021145939,0.1551339285714286
szywiki,False,79.0,0.09255079006772009,0.5857142857142857,0.9317209695305486,0.06439899610188497,0.15984405458089668
szywiki,False,80.0,0.058922558922558925,0.3333333333333333,0.9335692031472779,0.05969989854221178,0.10014306151645208
szywiki,False,81.0,0.05211406096361849,0.2523809523809524,0.9408037175899033,0.05147647781278368,0.08638956805215975
szywiki,False,82.0,0.020761245674740483,0.08571428571428572,0.9450282515709986,0.045335611683665296,0.033426183844011144
szywiki,False,83.0,0.02452316076294278,0.08571428571428572,0.9520515393145693,0.03823356650825012,0.03813559322033898
szywiki,False,84.0,0.027692307692307693,0.08571428571428572,0.9564872999947194,0.03374806429219843,0.04186046511627907
szywiki,False,85.0,0.029315960912052116,0.08571428571428572,0.9583883402862122,0.03182570619960485,0.043689320388349516
szywiki,False,86.0,0.03015075376884422,0.08571428571428572,0.9592860537571949,0.030917925989213436,0.04460966542750929
szywiki,False,87.0,0.03501945525291829,0.08571428571428572,0.9636690077625812,0.026485822609067122,0.04972375690607735
szywiki,False,88.0,0.0,0.0,0.9645667212335639,0.024616863352378917,0.04972375690607735
szywiki,False,89.0,0.0,0.0,0.965570048054074,0.02360228547017675,0.04972375690607735
szywiki,False,90.0,0.0,0.0,0.9702698421080425,0.018849789074598174,0.04972375690607735
szywiki,False,91.0,0.0,0.0,0.9731214025452817,0.0159662519357078,0.04972375690607735
szywiki,False,92.0,0.0,0.0,0.9740719226910282,0.015005072889411011,0.04972375690607735
szywiki,False,93.0,0.0,0.0,0.9784548766964144,0.010572969509264698,0.04972375690607735
szywiki,False,94.0,0.0,0.0,0.9832074774251466,0.005767074277780744,0.04972375690607735
szywiki,False,95.0,0.0,0.0,0.9861118445371495,0.002830138302984995,0.04972375690607735
szywiki,False,96.0,0.0,0.0,0.9870095580081323,0.0019223580925935816,0.04972375690607735
szywiki,False,97.0,0.0,0.0,0.988910598299625,0.0,0.04972375690607735
szywiki,False,98.0,0.0,0.0,0.988910598299625,0.0,0.04972375690607735
szywiki,False,99.0,0.0,0.0,0.988910598299625,0.0,0.04972375690607735
