wiki_db,user_is_bot,threshold,precision,recall,accuracy,fpr,F1
trwiki,True,0.0,0.01469477602130111,1.0,0.01469477602130111,1.0,0.028963933526731052
trwiki,True,1.0,0.01470713428869942,1.0,0.015535066669072407,0.9991471773138701,0.028987939064819897
trwiki,True,2.0,0.015249336985348463,0.9843887037361866,0.06564577367312693,0.9480562967613666,0.03003342101108593
trwiki,True,3.0,0.014965408638108888,0.7417996842659182,0.2787213147713301,0.7281850049704389,0.0293389203776805
trwiki,True,4.0,0.017020105387924336,0.6725135941062972,0.42443699237809984,0.5792628054203945,0.03319997921754039
trwiki,True,5.0,0.018234057238246577,0.5977898614278196,0.5211168132879336,0.4800266834091979,0.03538867313243754
trwiki,True,6.0,0.019013745683538676,0.5476232239957902,0.5781689396614608,0.4213755035839481,0.03675146264229126
trwiki,True,7.0,0.019786745849642327,0.5142957375898966,0.6184745373890674,0.37997174697849634,0.03810736868099375
trwiki,True,8.0,0.020606269583077222,0.4821961059463252,0.6556122909261498,0.34180139172291113,0.03952353224496251
trwiki,True,9.0,0.0210903138331294,0.4474653569549202,0.6866824242642946,0.3097499084392822,0.04028202152269515
trwiki,True,10.0,0.0214190093708166,0.406946149798281,0.7180747549367076,0.2772850939151363,0.0406960426606792
trwiki,True,11.0,0.022357234730050506,0.37502192597789863,0.7498356793595232,0.24457437346308794,0.04219875653804401
trwiki,True,12.0,0.02331671571866178,0.3404665848096825,0.7807408476625228,0.21269293151258306,0.04364445843545522
trwiki,True,13.0,0.025279422833851702,0.3122259252762673,0.8129863568760778,0.17954533563543137,0.046771947342144675
trwiki,True,14.0,0.027331297607462838,0.28573934397474127,0.8400741311626684,0.1516585570030869,0.04989051039002802
trwiki,True,15.0,0.029944949688451534,0.26048061743553763,0.865135928611381,0.12584628263485587,0.053714823120885484
trwiki,True,16.0,0.032703277579038965,0.23732678477460095,0.8856405669642051,0.10469052477371422,0.057485182588745146
trwiki,True,17.0,0.03575934847442074,0.21873355551657603,0.9018483816672295,0.08796368963532675,0.0614694501269317
trwiki,True,18.0,0.03934280030184537,0.2011927731976846,0.916071460791162,0.07326688641238947,0.06581552144599054
trwiki,True,19.0,0.0432293959892727,0.18944044904402738,0.9264771458986857,0.06253073824098782,0.07039499413375049
trwiki,True,20.0,0.04684193199454451,0.17470619189615857,0.935632705349249,0.053018887668079315,0.07387627948375612
trwiki,True,21.0,0.05176314772915402,0.16453253815120156,0.943432458417212,0.04495108041647047,0.0787507346150617
trwiki,True,22.0,0.056021341463414635,0.15470970005262236,0.9492706741141507,0.03887929681368702,0.08225693634879924
trwiki,True,23.0,0.06035357194609477,0.14611471671636556,0.9540237291892741,0.03392716998901271,0.0854227554735169
trwiki,True,24.0,0.06478896370504188,0.1383967724960533,0.957982890032761,0.029793857583843456,0.08825996979696851
trwiki,True,25.0,0.06795131845841786,0.12927556569022977,0.9611481566446112,0.02644535133155444,0.08907959146673113
trwiki,True,26.0,0.07164333851736651,0.12120680582353972,0.9640066913942381,0.023423847642965522,0.09005604066206177
trwiki,True,27.0,0.07556851311953353,0.11366426942641641,0.9665430288095969,0.020737194579605503,0.09078173157747267
trwiki,True,28.0,0.07970063025210083,0.10647254867567094,0.9688035653068221,0.018335687751791976,0.09116167304948561
trwiki,True,29.0,0.0837914128658446,0.09893001227854763,0.970863050667464,0.016132998482708105,0.09073359073359075
trwiki,True,30.0,0.08566666666666667,0.09015962111910192,0.9724895028108496,0.014351488515669962,0.0878557388257414
trwiki,True,31.0,0.08850553159572473,0.08279249254516752,0.9739922311778761,0.012716475697169466,0.08555374297625522
trwiki,True,32.0,0.09159983115238497,0.07612699526398878,0.9753299945097574,0.011259352273321822,0.08314972698534341
trwiki,True,33.0,0.09494855004677269,0.07121557621469918,0.9763764914514603,0.010123999372155077,0.08138719053823795
trwiki,True,34.0,0.09927045336112558,0.06683038063497632,0.9773765919770286,0.00904358290168995,0.07988258727329908
trwiki,True,35.0,0.1046037296037296,0.06297140852482021,0.9783096754570692,0.008039031026003243,0.0786160078834994
trwiki,True,36.0,0.10947230416256964,0.05858621294509735,0.9791628539982111,0.007107727724585361,0.0763254113345521
trwiki,True,37.0,0.11466165413533834,0.05349938607261884,0.9800211876967014,0.006160728300109873,0.07295778016983613
trwiki,True,38.0,0.12263339070567986,0.04999122960884055,0.9807841509842484,0.005334065819076021,0.07102803738317758
trwiki,True,39.0,0.12554744525547445,0.04525521838273987,0.9813383303991896,0.004700988855752629,0.06652913873130478
trwiki,True,40.0,0.12841987716359576,0.040343799333450274,0.9818744667634118,0.004083608015486842,0.06139882541377469
trwiki,True,41.0,0.13485342019543975,0.03630941940010524,0.9824157582849823,0.003474075236749856,0.0572139303482587
trwiki,True,42.0,0.13854089904200442,0.03297667075951587,0.9827766192993626,0.0030581279757233297,0.053272881836214224
trwiki,True,43.0,0.14143094841930118,0.02981932994211542,0.9830833511615858,0.0026997331659080206,0.049253947559032306
trwiki,True,44.0,0.14272300469483568,0.02666198912471496,0.9833436866076745,0.002388426725265526,0.04493053502808158
trwiki,True,45.0,0.14866310160427806,0.024381687423259076,0.9836117547897856,0.0020823523256422332,0.04189270644966847
trwiki,True,46.0,0.15384615384615385,0.02210138572180319,0.9838437368704587,0.0018129022131533512,0.03865030674846625
trwiki,True,47.0,0.15838926174496645,0.02069812313629188,0.9839932364335591,0.0016402448595196986,0.03661185231151102
trwiki,True,48.0,0.16519174041297935,0.019645676197158395,0.9841350032606371,0.00148066760843405,0.035115221821602136
trwiki,True,49.0,0.17696160267111852,0.018593229258024906,0.9843077010318048,0.001289698111233192,0.033650793650793646
trwiki,True,50.0,0.18097014925373134,0.01701455884932468,0.9844236920721413,0.0011484330037147491,0.031104697771364438
trwiki,True,51.0,0.19222903885480572,0.016488335379757937,0.9845293727977812,0.0010333281012923142,0.03037156704361874
trwiki,True,52.0,0.20261437908496732,0.01631292755656902,0.9846015450006573,0.000957463506513891,0.03019480519480519
trwiki,True,53.0,0.21739130434782608,0.01578670408700228,0.984702070568949,0.0008475906451106577,0.0294358135731807
trwiki,True,54.0,0.232620320855615,0.015260480617435538,0.9847897082438699,0.0007507978862554282,0.028641975308641977
trwiki,True,55.0,0.23880597014925373,0.014032625855113138,0.9848541477107235,0.0006670852299482028,0.026507620941020545
trwiki,True,56.0,0.25245901639344265,0.013506402385546396,0.984916009598903,0.0005964526761889814,0.02564102564102564
trwiki,True,57.0,0.25357142857142856,0.01245395544641291,0.9849495181216669,0.0005467482865065662,0.023741849189098812
trwiki,True,58.0,0.2734375,0.012278547623223996,0.9850062248524981,0.00048657981478574794,0.023501762632197415
trwiki,True,59.0,0.28879310344827586,0.011752324153657253,0.9850526212686327,0.0004316433840841312,0.02258553851339963
trwiki,True,60.0,0.2904761904761905,0.010699877214523769,0.9850783970553741,0.0003897870559305185,0.020639485704618512
trwiki,True,61.0,0.29743589743589743,0.010173653744957024,0.9851015952634414,0.00035839480981530894,0.019674355495251015
trwiki,True,62.0,0.29444444444444445,0.009296614629012453,0.9851144831568122,0.000332234604719301,0.0180241455534773
trwiki,True,63.0,0.31097560975609756,0.008945798982634626,0.9851454141009018,0.0002956103175848899,0.017391304347826087
trwiki,True,64.0,0.31543624161073824,0.008244167689878968,0.9851634571516209,0.0002668340919792811,0.01606837606837607
trwiki,True,65.0,0.3284671532846715,0.00789335204350114,0.985184077781014,0.00024067388688327315,0.015416238437821172
trwiki,True,66.0,0.32786885245901637,0.007016312927556569,0.9851969656743848,0.0002145136817872652,0.013738622703074016
trwiki,True,67.0,0.33636363636363636,0.006490089457989827,0.9852124311464296,0.00019096949720085805,0.012734469110308035
trwiki,True,68.0,0.3465346534653465,0.006139273811611998,0.9852253190398004,0.0001726573536336525,0.012064805239572561
trwiki,True,69.0,0.3595505617977528,0.0056130503420452555,0.9852407845118453,0.00014911316904724534,0.011053540587219345
trwiki,True,70.0,0.379746835443038,0.005262234695667427,0.9852562499838902,0.00012818500497043897,0.01038062283737024
trwiki,True,71.0,0.38571428571428573,0.004736011226100684,0.9852639827199126,0.0001124888819128342,0.00935713047998614
trwiki,True,72.0,0.375,0.004209787756533942,0.9852639827199126,0.00010464082038403181,0.008326105810928014
trwiki,True,73.0,0.4,0.004209787756533942,0.9852742930346091,9.417673834562863e-05,0.008331886825203957
trwiki,True,74.0,0.4,0.003858972110156113,0.9852768706132833,8.632867681682625e-05,0.007644197359277276
trwiki,True,75.0,0.4090909090909091,0.003157340817400456,0.9852846033493057,6.801653324962068e-05,0.006266318537859008
trwiki,True,76.0,0.4,0.0028065251710226277,0.9852846033493057,6.278449223041909e-05,0.005573941821982234
trwiki,True,77.0,0.42857142857142855,0.0026311173478337133,0.9852923360853282,5.232041019201591e-05,0.005230125523012552
trwiki,True,78.0,0.4375,0.0024557095246447993,0.9852949136640023,4.7088369172814315e-05,0.004884004884004884
trwiki,True,79.0,0.4,0.002104893878266971,0.985289758506654,4.7088369172814315e-05,0.004187750828825685
trwiki,True,80.0,0.46153846153846156,0.002104893878266971,0.9853000688213506,3.662428713441113e-05,0.0041906757464641176
trwiki,True,81.0,0.48,0.002104893878266971,0.9853026464000247,3.400826662481034e-05,0.0041914076143905
trwiki,True,82.0,0.4090909090909091,0.001578670408700228,0.9852949136640023,3.400826662481034e-05,0.0031452035645640397
trwiki,True,83.0,0.42857142857142855,0.001578670408700228,0.9852974912426764,3.1392246115209545e-05,0.0031457532331352674
trwiki,True,84.0,0.47368421052631576,0.001578670408700228,0.9853026464000247,2.6160205096007953e-05,0.003146853146853147
trwiki,True,85.0,0.47058823529411764,0.0014032625855113139,0.9853026464000247,2.3544184586407157e-05,0.0027981811822315496
trwiki,True,86.0,0.42857142857142855,0.0010524469391334855,0.9853000688213506,2.092816407680636e-05,0.0020997375328083994
trwiki,True,87.0,0.5,0.0008770391159445711,0.9853052239786989,1.3080102548003977e-05,0.0017510068289266327
trwiki,True,88.0,0.5,0.0008770391159445711,0.9853052239786989,1.3080102548003977e-05,0.0017510068289266327
trwiki,True,89.0,0.5,0.0008770391159445711,0.9853052239786989,1.3080102548003977e-05,0.0017510068289266327
trwiki,True,90.0,0.5714285714285714,0.0007016312927556569,0.9853078015573731,7.848061528802386e-06,0.001401541695865452
trwiki,True,91.0,0.6666666666666666,0.0007016312927556569,0.9853103791360471,5.23204101920159e-06,0.0014017872787804452
trwiki,True,92.0,0.6,0.0005262234695667427,0.9853078015573731,5.23204101920159e-06,0.0010515247108307047
trwiki,True,93.0,0.5,0.00035081564637782847,0.9853052239786989,5.23204101920159e-06,0.0007011393514460999
trwiki,True,94.0,0.6666666666666666,0.00035081564637782847,0.9853078015573731,2.616020509600795e-06,0.0007012622720897616
trwiki,True,95.0,0.6666666666666666,0.00035081564637782847,0.9853078015573731,2.616020509600795e-06,0.0007012622720897616
trwiki,True,96.0,0.6666666666666666,0.0,0.9853052239786989,0.0,0.0
trwiki,True,97.0,0.6666666666666666,0.0,0.9853052239786989,0.0,0.0
trwiki,True,98.0,0.6666666666666666,0.0,0.9853052239786989,0.0,0.0
trwiki,True,99.0,0.6666666666666666,0.0,0.9853052239786989,0.0,0.0
trwiki,False,0.0,0.08620102456399267,1.0,0.08620102456399267,1.0,0.15872020485083646
trwiki,False,1.0,0.08621754156879165,1.0,0.08639259816373157,0.9997903547663232,0.1587482033189599
trwiki,False,2.0,0.0865636918450853,0.9999588443493291,0.09042451290638437,0.995374216742113,0.15933425470069498
trwiki,False,3.0,0.08738852678145761,0.9995678656679562,0.10014155160425152,0.9847036625798787,0.16072542340354073
trwiki,False,4.0,0.08887582654427127,0.9987447526545394,0.11729803175864564,0.9658511208255364,0.16322652788404138
trwiki,False,5.0,0.09039196482448901,0.9894847312536011,0.14077998836367764,0.9392805286165744,0.16565126249446652
trwiki,False,6.0,0.09189589553970635,0.9778376821137542,0.16513999063417956,0.9115238879096818,0.16800308294973232
trwiki,False,7.0,0.09454484504917601,0.9750185200428019,0.19292348408520058,0.8808535666865959,0.17237496703076827
trwiki,False,8.0,0.09779995153804574,0.9717466458144703,0.22483113141948943,0.8456273439501821,0.17771413625766538
trwiki,False,9.0,0.10082412689966506,0.9669725903366532,0.2537800309355887,0.8134972707296431,0.18260810430085586
trwiki,False,10.0,0.10405624517629998,0.9627129804922215,0.28225354411159514,0.7819359572634309,0.18781250062725938
trwiki,False,11.0,0.10711569699183686,0.9593793727878838,0.30714037378137904,0.7543870206306439,0.1927146090173506
trwiki,False,12.0,0.11027766561364338,0.9553872746728126,0.33170968794789196,0.7271234344548059,0.19773171552322585
trwiki,False,13.0,0.11331622035495524,0.9501810848629517,0.3547978543756829,0.701366188106127,0.2024846300242938
trwiki,False,14.0,0.11659812828051945,0.9457774302411721,0.3776394584852914,0.6759544681611007,0.2076024382366824
trwiki,False,15.0,0.1201537253171307,0.9412297308420446,0.4008092210759341,0.6501700455784267,0.2131034884398113
trwiki,False,16.0,0.12368605656550276,0.93608527450819,0.422792291645972,0.6256279651212449,0.21850128007454694
trwiki,False,17.0,0.12734745583784926,0.930879084698329,0.4441758078020122,0.6017361731203752,0.22404481193400047
trwiki,False,18.0,0.131072025579014,0.9245411144950202,0.46515666463267535,0.5781782605657315,0.22959448306875466
trwiki,False,19.0,0.13500322062652526,0.9186558564490904,0.4856053725751749,0.5552454013929761,0.23541105840849824
trwiki,False,20.0,0.1390889544978719,0.9132027327352046,0.5052753693113284,0.5332054756229181,0.24140913566412267
trwiki,False,21.0,0.14335722295353712,0.9076055642439707,0.5245267422554598,0.5116100753946378,0.24760498623200405
trwiki,False,22.0,0.1474407764897651,0.9008766153592889,0.5424158140458926,0.4913987219405384,0.2534078871967631
trwiki,False,23.0,0.15184348451570776,0.8948473125360112,0.5600707403255332,0.4715096009752386,0.2596310857565906
trwiki,False,24.0,0.15607076471311504,0.8880772080006585,0.5764023897032737,0.45299870330540654,0.265485146931268
trwiki,False,25.0,0.1604873516364944,0.8814717260679892,0.5923100938001107,0.4349672720496316,0.27153669637536926
trwiki,False,26.0,0.16475842027461676,0.8738373528685488,0.6072617037278804,0.4178850678241154,0.27724368913973824
trwiki,False,27.0,0.16913803496081978,0.8661206683677669,0.621702450723013,0.4013541529167864,0.28300935295818397
trwiki,False,28.0,0.17362371194086998,0.8584862951683266,0.6355808937263194,0.3854463502317744,0.2888327333148712
trwiki,False,29.0,0.17818314955203307,0.8512429006502593,0.6487427095602322,0.37035965804532994,0.29468292752425584
trwiki,False,30.0,0.18278653410206522,0.8428883035640794,0.6616136173352822,0.3554864934117044,0.30042392771225723
trwiki,False,31.0,0.1875155858909588,0.8355625977446703,0.6737430643261576,0.34152179145734496,0.3062933264941276
trwiki,False,32.0,0.19249913849216985,0.8276401349905342,0.6858689636577786,0.3275046781945663,0.3123495332618859
trwiki,False,33.0,0.19742450978448361,0.8196147831097209,0.6972356639089529,0.31430867543035507,0.3182021538363212
trwiki,False,34.0,0.20261992126874492,0.8113219194995472,0.7085101250195122,0.30118837788941605,0.3242591968155538
trwiki,False,35.0,0.20803182441115775,0.8027821219853486,0.7195557621081611,0.2882951960182935,0.3304351508734781
trwiki,False,36.0,0.21367247140043813,0.794839081405877,0.7301721324270246,0.27592806839093403,0.3368037389696907
trwiki,False,37.0,0.21926214216420695,0.7860111943369825,0.7402953781095233,0.26401711326277866,0.3428768912447319
trwiki,False,38.0,0.2248342733938069,0.776792328586715,0.7498988917112489,0.2526380358570996,0.34873182966654814
trwiki,False,39.0,0.23079963439638349,0.7690344884352621,0.7591565085356682,0.24177530689732818,0.35504465133954016
trwiki,False,40.0,0.2365561098694196,0.7601037122396905,0.7678606905163973,0.23140757362818254,0.36081955603311444
trwiki,False,41.0,0.24264788919520378,0.7516462260268335,0.776360882089997,0.2213077203798461,0.36686402418508424
trwiki,False,42.0,0.24837568482779507,0.7425919828792493,0.7841001007535229,0.21198433095994224,0.37224583264565114
trwiki,False,43.0,0.2543645699614891,0.7339492962383736,0.7916069477358839,0.20295405663527163,0.37779637318871284
trwiki,False,44.0,0.2605902726384654,0.7245863857107581,0.7990321985553932,0.19394513506588296,0.3833224472022643
trwiki,False,45.0,0.2667744605198627,0.7163758334019261,0.805825966027615,0.1857359712397798,0.3887722511334956
trwiki,False,46.0,0.27293661759334253,0.7073010124290064,0.812353659055755,0.1777364526473534,0.3938807081877041
trwiki,False,47.0,0.27912855178546436,0.6976088566960243,0.8186312421064582,0.16995240276731707,0.3987203688348653
trwiki,False,48.0,0.2855618442731409,0.6883488352950861,0.8246835487945053,0.1624556445038008,0.4036636357602708
trwiki,False,49.0,0.2917260361261317,0.6783068565314018,0.8303101363720218,0.15535100047364295,0.40798569209537777
trwiki,False,50.0,0.2984072841306082,0.6696847477158614,0.83580191289787,0.14852782458129188,0.4128508451999619
trwiki,False,51.0,0.30520978722192155,0.6614741954070293,0.8410169720018732,0.14204629277345115,0.41769265253350835
trwiki,False,52.0,0.31201416904457346,0.6525228413861223,0.8460209453802381,0.13572587721001017,0.4221639396642392
trwiki,False,53.0,0.3187301004163605,0.6427072187011277,0.850781904099675,0.12958987180582193,0.4261331077577974
trwiki,False,54.0,0.32586659330427054,0.6337352868548852,0.8554151470859527,0.12367321743316588,0.4304142441860465
trwiki,False,55.0,0.3326392846184193,0.6246193102312948,0.859619123302445,0.11821273555971396,0.43409987986957266
trwiki,False,56.0,0.33913971656976744,0.6145773314676105,0.863542834437838,0.11297160471779422,0.4370847358407727
trwiki,False,57.0,0.3456543221495459,0.604617664005268,0.8672536860179654,0.10797117766268859,0.4398502994011976
trwiki,False,58.0,0.35219482496194826,0.5951930200016462,0.8707357135761824,0.10327163034110055,0.4425302744012056
trwiki,False,59.0,0.35874648615260496,0.5856243312206766,0.87404567966056,0.09874678738090986,0.44493257768223565
trwiki,False,60.0,0.36497169245219024,0.5757263972343403,0.8770771544934652,0.09449564792024163,0.4467402238651061
trwiki,False,61.0,0.3721565921054412,0.5659313523746811,0.8802824646298373,0.09006398061946284,0.4490305726764358
trwiki,False,62.0,0.3785056553000042,0.5557247510083134,0.8830460911890334,0.08607683886046169,0.4503063904289466
trwiki,False,63.0,0.3848542900267038,0.5456827722446291,0.8856518469114079,0.08227798957985542,0.4513702127659574
trwiki,False,64.0,0.3920883884757805,0.5360111943369825,0.8883658062410421,0.07839567043769266,0.45289055029122843
trwiki,False,65.0,0.3993380791807169,0.5263807720800066,0.8909236685634818,0.07468805565692722,0.4541419593083123
trwiki,False,66.0,0.4064216170681527,0.5162564820149806,0.8933059217528275,0.07112602784399288,0.45480172218445497
trwiki,False,67.0,0.41389947072110034,0.5052885011112026,0.8956775319644099,0.0674960594460707,0.45505087007283035
trwiki,False,68.0,0.421455871524247,0.4946703432381266,0.8979054619761881,0.0640563246861145,0.45513755040990583
trwiki,False,69.0,0.4292279076552755,0.4843608527450819,0.900030509869588,0.06075829457484723,0.45513080805151107
trwiki,False,70.0,0.4369502023445367,0.4732488270639559,0.9020260682002015,0.05752626388899673,0.4543757223720476
trwiki,False,71.0,0.4446096801697301,0.4614165774960902,0.903888589308774,0.054371879585989484,0.4528572438376637
trwiki,False,72.0,0.45327151166401025,0.4506132191949955,0.9057901346691453,0.05127184775097252,0.4519384564582538
trwiki,False,73.0,0.46152846936566355,0.4386780805004527,0.907494784940896,0.04828052085193611,0.4498132635621294
trwiki,False,74.0,0.4696859684153204,0.42596098444316405,0.909059302672097,0.045368781495314044,0.44675616178184485
trwiki,False,75.0,0.477987571132646,0.4130998436085275,0.9105191644552924,0.0425579824363882,0.4431811910149567
trwiki,False,76.0,0.485827224737935,0.39960079018849287,0.9117892264683761,0.039894711504864545,0.43851547416080483
trwiki,False,77.0,0.4946029907329402,0.3865956045765084,0.9130717052888504,0.03726444028604928,0.433980133980134
trwiki,False,78.0,0.5034379505378729,0.37365215244053007,0.9142388851835559,0.03476616791806754,0.4289426438627988
trwiki,False,79.0,0.5131760627515497,0.35945345295909126,0.9153901006116164,0.032166955252389565,0.422774853270406
trwiki,False,80.0,0.5215635098185434,0.34541937608033585,0.9162610509585776,0.029889975075511107,0.41559792027729636
trwiki,False,81.0,0.5305913783436129,0.33103547617087825,0.9170894293944856,0.027626583015630216,0.40770449217512517
trwiki,False,82.0,0.5413925342152482,0.3166515762614207,0.9179727965488371,0.025303015009045804,0.3995897116295979
trwiki,False,83.0,0.5527863660357439,0.3016914972425714,0.9187656983922008,0.023024093672596262,0.3903458558534572
trwiki,False,84.0,0.5594480266130026,0.28031113671907154,0.918934212206786,0.020822818718989975,0.3734868736719446
trwiki,False,85.0,0.5710529833786373,0.26370483167338876,0.9194557181171863,0.018685602031229376,0.3607978940552107
trwiki,False,86.0,0.584718093660153,0.24691332619968723,0.9199665810498233,0.016542561864755532,0.34720835684419177
trwiki,False,87.0,0.5959199052642911,0.2278171042884188,0.9201209042273908,0.014572284900107929,0.3296215797778902
trwiki,False,88.0,0.6091207153502235,0.21026421927730676,0.9202929657012303,0.012728183307580616,0.3126156858545838
trwiki,False,89.0,0.6232835420992698,0.19147666474606964,0.9203284422937745,0.010917081427761688,0.2929555293191657
trwiki,False,90.0,0.6362326533707439,0.17264795456416165,0.9201723452865799,0.009311742462477386,0.2715957464027321
trwiki,False,91.0,0.6484197660206041,0.1528315087661536,0.919829996168528,0.007817049592744723,0.24736053288925897
trwiki,False,92.0,0.6687091503267973,0.13474360029632068,0.9196597085243157,0.006297121648588,0.2242926628759334
trwiki,False,93.0,0.6894478527607362,0.11562680055971684,0.9192765613248379,0.0049130748744069756,0.19804039051210656
trwiki,False,94.0,0.7119878603945372,0.09655115647378384,0.9187550554144376,0.0036843208659124616,0.17004312688000578
trwiki,False,95.0,0.7470646766169154,0.07724915630916125,0.9182033944003747,0.0024672138148444356,0.14001976837433097
trwiki,False,96.0,0.7751091703056768,0.05844102395258869,0.9173750159644667,0.001599515486571058,0.10868733256792959
trwiki,False,97.0,0.823240589198036,0.04140258457486213,0.9166016262470023,0.0008385809347071566,0.07884012539184952
trwiki,False,98.0,0.8848484848484849,0.02403489999176887,0.9156011863372546,0.00029505625480436996,0.046798621684429845
trwiki,False,99.0,0.935969868173258,0.010227179191703021,0.9146202585534065,6.599942541676696e-05,0.020233272945630713
