wiki_db,user_is_bot,threshold,precision,recall,accuracy,fpr,F1
uzwiki,True,0.0,0.00771992669801073,1.0,0.00771992669801073,1.0,0.01532157198341123
uzwiki,True,1.0,0.007719990712793128,1.0,0.0077282187782448985,0.9999916434074841,0.015321698058867577
uzwiki,True,2.0,0.007730480536644971,0.9989258861439313,0.010141214126387887,0.9975515183928602,0.015342230727353712
uzwiki,True,3.0,0.00803223336118073,0.99140708915145,0.054727729545511083,0.9525596242876004,0.015935360790034787
uzwiki,True,4.0,0.009090101560418085,0.9892588614393125,0.16740880784762474,0.8389851754048769,0.018014669926650365
uzwiki,True,5.0,0.010782085877952942,0.9785177228786252,0.3067738003432921,0.6984523590660672,0.02132915022886108
uzwiki,True,6.0,0.013073895933537385,0.9634801288936627,0.43823644037579707,0.5658499490247857,0.02579773083504695
uzwiki,True,7.0,0.017148732274146927,0.949516648764769,0.5794920271648548,0.42338675981481794,0.0336890243902439
uzwiki,True,8.0,0.02030409574591939,0.9366272824919442,0.650621491413551,0.35160363010378887,0.039746570035097316
uzwiki,True,9.0,0.02348700021848372,0.9237379162191193,0.7029196414504507,0.2987983219962228,0.045809252403654084
uzwiki,True,10.0,0.026855391614798902,0.9129967776584318,0.7439239782084132,0.25739140608025673,0.05217604812473145
uzwiki,True,11.0,0.02990164405197789,0.8947368421052632,0.775093907808652,0.22583691274046094,0.05786932508944389
uzwiki,True,12.0,0.03325098213924102,0.8818474758324383,0.8011559159846431,0.19947186335299918,0.06408555147919756
uzwiki,True,13.0,0.03715028980877185,0.874328678839957,0.8240918099123528,0.17629903230658667,0.07127221784432186
uzwiki,True,14.0,0.0401297728974295,0.8635875402792696,0.8394819108269692,0.16070563067203716,0.07669560240389203
uzwiki,True,15.0,0.04367264598440652,0.8603651987110634,0.8534789422622453,0.14657463272775892,0.08312577833125777
uzwiki,True,16.0,0.04733516155955646,0.8528464017185822,0.8663565428659088,0.13353834840305517,0.08969217735103079
uzwiki,True,17.0,0.05091544284143107,0.8453276047261009,0.8771611234110301,0.12259121220731034,0.09604588723456188
uzwiki,True,18.0,0.054247910863509746,0.8367346938775511,0.8861248621441661,0.11349088295756522,0.10189000065397945
uzwiki,True,19.0,0.05826629576723555,0.832438238453276,0.894839838470277,0.10467467785335852,0.10890949971894323
uzwiki,True,20.0,0.06248478454921691,0.8270676691729323,0.902866572136952,0.09654371333545034,0.11619133846385996
uzwiki,True,21.0,0.06646971935007386,0.8216970998925887,0.9095334046452234,0.08978322999013923,0.1229903536977492
uzwiki,True,22.0,0.07027127117859458,0.8152524167561761,0.9153046924882046,0.08391690204402252,0.12938970337538358
uzwiki,True,23.0,0.07456487341772151,0.8098818474758325,0.9209350149672049,0.07820099276319088,0.1365570949923028
uzwiki,True,24.0,0.07844367743959837,0.8055853920515574,0.9254376145343582,0.07362993665702873,0.14296606938619902
uzwiki,True,25.0,0.0819762323943662,0.8002148227712137,0.9292768476827782,0.0697190513596176,0.1487174368699471
uzwiki,True,26.0,0.08545918367346939,0.7916219119226638,0.9329916996276856,0.06590844517239651,0.15426478283621142
uzwiki,True,27.0,0.08892128279883382,0.7862513426423201,0.9361592742771379,0.06267444386876807,0.15977300010913456
uzwiki,True,28.0,0.09298469387755103,0.7830290010741139,0.9393600172475269,0.05942372938010797,0.16622962033975602
uzwiki,True,29.0,0.09804713804713805,0.7819548872180451,0.9427846463842384,0.055964100078551966,0.1742460507419818
uzwiki,True,30.0,0.10186614283709836,0.7798066595059077,0.9452225179730839,0.05349054869386459,0.18019359642591215
uzwiki,True,31.0,0.10618043350908025,0.7787325456498388,0.9476852658026319,0.05100028412414554,0.1868797525454311
uzwiki,True,32.0,0.10990522775909507,0.7722878625134264,0.949957295786794,0.04866043821971153,0.19242606717516392
uzwiki,True,33.0,0.11395422759059123,0.7701396348012889,0.9519971475243995,0.046588003275784266,0.19853246573445937
uzwiki,True,34.0,0.11801757003149345,0.7647690655209453,0.9540618755027074,0.04446542877676199,0.20448018380241237
uzwiki,True,35.0,0.121740632015196,0.757250268528464,0.9559524697960977,0.04250162953554059,0.2097590002975305
uzwiki,True,36.0,0.12621011115095015,0.7561761546723953,0.9577020987255073,0.04073003192218341,0.21631587033338454
uzwiki,True,37.0,0.13049935028772972,0.7551020408163265,0.9592693018897651,0.03914227934417462,0.22253877809433364
uzwiki,True,38.0,0.13435406698564592,0.7540279269602578,0.960596034727232,0.03779686794912507,0.22807017543859648
uzwiki,True,39.0,0.13785601265822786,0.748657357679914,0.9619144754844647,0.036426386776528,0.23283781526641056
uzwiki,True,40.0,0.1423875077049517,0.7443609022556391,0.9634153420068493,0.03488041716109839,0.23904794756812695
uzwiki,True,41.0,0.14546612868974304,0.7357679914070892,0.9645928174001012,0.03362692828372303,0.2429078014184397
uzwiki,True,42.0,0.14973730297723292,0.7346938775510204,0.9657454165526506,0.03245700533150603,0.24877250409165302
uzwiki,True,43.0,0.1540193650078811,0.7346938775510204,0.96679851074239,0.031395718081994886,0.2546537602382725
uzwiki,True,44.0,0.15905915230554263,0.7336197636949516,0.9680008623763443,0.030175655574682866,0.26143540669856463
uzwiki,True,45.0,0.16350084154844916,0.7303974221267454,0.9690705407265521,0.029072585362592548,0.26719056974459726
uzwiki,True,46.0,0.16761433868974043,0.728249194414608,0.9699826695523106,0.028136647000818946,0.27250803858520906
uzwiki,True,47.0,0.17198264863485582,0.723952738990333,0.9709611350199424,0.027117142713886985,0.2779381443298969
uzwiki,True,48.0,0.17526853549908306,0.7185821697099892,0.9717240064014859,0.026306553239850917,0.28180286436394275
uzwiki,True,49.0,0.17893605588393338,0.715359828141783,0.9724620015423269,0.02553774672839403,0.28626692456479697
uzwiki,True,50.0,0.1834205453043239,0.715359828141783,0.9732165808436363,0.024777296809452978,0.29197720298114865
uzwiki,True,51.0,0.18785310734463276,0.7142857142857143,0.9739545759844772,0.024025203483027762,0.29747260120778346
uzwiki,True,52.0,0.192586156964958,0.7142857142857143,0.9746759869648499,0.02329817993415005,0.3033759124087591
uzwiki,True,53.0,0.19602609727164888,0.7099892588614393,0.9752813088219442,0.022654722310430697,0.3072275156867302
uzwiki,True,54.0,0.19921283681501664,0.706766917293233,0.9758037098766967,0.02210318720438554,0.3108171941426547
uzwiki,True,55.0,0.20265678097003398,0.7046186895810956,0.9763178188512152,0.02156836528337205,0.3147792706333973
uzwiki,True,56.0,0.20586380832282472,0.7013963480128894,0.9768070515850311,0.021050256547390237,0.3183036802339752
uzwiki,True,57.0,0.2095115681233933,0.7003222341568206,0.9772879922386128,0.02055721758895593,0.3225327726935444
uzwiki,True,58.0,0.21356043236161154,0.7003222341568206,0.9777772249724288,0.02006417863052162,0.32730923694779124
uzwiki,True,59.0,0.21679491468718634,0.6960257787325457,0.9782415814655423,0.019562783079571475,0.33061224489795915
uzwiki,True,60.0,0.21798365122615804,0.6874328678839957,0.9785483884342064,0.019186736416358867,0.33100594776312386
uzwiki,True,61.0,0.22125435540069685,0.682062298603652,0.9790127449273199,0.018676984272892886,0.3341225993159695
uzwiki,True,62.0,0.22465066284485846,0.673469387755102,0.9795351459820725,0.018083666204268548,0.33691563675443303
uzwiki,True,63.0,0.22807017543859648,0.6702470461868958,0.9799414579135468,0.017649123393445088,0.34033269702754293
uzwiki,True,64.0,0.23231571109456442,0.6702470461868958,0.9803560619252552,0.0172312937676533,0.34503732374896323
uzwiki,True,65.0,0.23504920514761543,0.6670247046186896,0.9806711609741536,0.016888673474504037,0.34760705289672544
uzwiki,True,66.0,0.2379853902345252,0.664876476906552,0.9809779679428178,0.01656276636638644,0.3505096262740657
uzwiki,True,67.0,0.24291338582677166,0.6627282491944146,0.9814506165161654,0.016069727407952133,0.3555171420339959
uzwiki,True,68.0,0.24848729326341268,0.6616541353383458,0.9819398492499813,0.01556833185700199,0.3612903225806452
uzwiki,True,69.0,0.2524671052631579,0.6595059076262084,0.9822964087000505,0.01519228519378938,0.3651501635444544
uzwiki,True,70.0,0.25673400673400676,0.6552094522019334,0.9826944285512906,0.014757742382965922,0.36891442394919877
uzwiki,True,71.0,0.25859106529209624,0.6466165413533834,0.9829597751187841,0.014423478682332493,0.3694384780607548
uzwiki,True,72.0,0.26132864056313243,0.6380236305048335,0.9832831662479166,0.014030718834088213,0.37078651685393255
uzwiki,True,73.0,0.26512050932241926,0.6262083780880774,0.9837143544200934,0.01350425350559056,0.37252396166134183
uzwiki,True,74.0,0.266076421248835,0.6133190118152524,0.9839548247468842,0.013161633212441294,0.3711407214819629
uzwiki,True,75.0,0.2702960840496657,0.6079484425349087,0.9843030921167193,0.012768873364197015,0.37421487603305786
uzwiki,True,76.0,0.2752562225475842,0.6058002148227712,0.9846430674063202,0.012409539886016079,0.3785234899328859
uzwiki,True,77.0,0.280561122244489,0.6015037593984962,0.9850162110168578,0.012000066852740127,0.38264434574649814
uzwiki,True,78.0,0.2821041774110366,0.5875402792696026,0.985273265504117,0.011632376782043354,0.38118466898954706
uzwiki,True,79.0,0.2883172561629153,0.5778732545649838,0.9857293299169962,0.011097554861029866,0.3846978905970683
uzwiki,True,80.0,0.2961926091825308,0.5682062298603652,0.9862434388915147,0.010504236792405528,0.3894000736105999
uzwiki,True,81.0,0.30176470588235293,0.5510204081632653,0.9866912112241598,0.009919275316297027,0.3899657924743444
uzwiki,True,82.0,0.31004366812227074,0.5338345864661654,0.9872301964393807,0.009242391322514332,0.39226519337016574
uzwiki,True,83.0,0.31627296587926507,0.5177228786251342,0.987636508370855,0.008707569401500845,0.39266802443991844
uzwiki,True,84.0,0.3157529493407356,0.48872180451127817,0.9878769786976459,0.008239600220614042,0.3836424957841484
uzwiki,True,85.0,0.31723625557206536,0.45864661654135336,0.9882003698267784,0.007679708522053048,0.37505489679402715
uzwiki,True,86.0,0.3341503267973856,0.439312567132116,0.9889134887269169,0.00681062290040613,0.37958236658932715
uzwiki,True,87.0,0.3423180592991914,0.4092373791621912,0.9893695531397961,0.006117025721591764,0.3727984344422701
uzwiki,True,88.0,0.35678889990089196,0.3866809881847476,0.9898836621143147,0.005423428542777397,0.3711340206185567
uzwiki,True,89.0,0.3658810325476992,0.3501611170784103,0.990298266126023,0.004721474771447195,0.35784851811196483
uzwiki,True,90.0,0.38783269961977185,0.32867883995703545,0.9908123751005414,0.004036234185148663,0.3558139534883721
uzwiki,True,91.0,0.3925373134328358,0.2824919441460795,0.991086013748269,0.003401133153945147,0.32854465958775764
uzwiki,True,92.0,0.4283121597096189,0.2534908700322234,0.99162499896349,0.002632326642488259,0.31848852901484487
uzwiki,True,93.0,0.4360730593607306,0.20515574650912996,0.9918157168088758,0.0020640783514114286,0.27903579254930605
uzwiki,True,94.0,0.4740061162079511,0.16648764769065522,0.9921391079380084,0.0014373339127237478,0.246422893481717
uzwiki,True,95.0,0.4977973568281938,0.12137486573576799,0.9922717812217551,0.0009526515468052747,0.19516407599309155
uzwiki,True,96.0,0.5324675324675324,0.08807733619763695,0.9923629941043309,0.0006016746611401735,0.1511520737327189
uzwiki,True,97.0,0.6111111111111112,0.05907626208378088,0.9924459149066727,0.000292480738054251,0.10773751224289911
uzwiki,True,98.0,0.75,0.045112781954887216,0.9925122515485459,0.0001169922952217004,0.0851063829787234
uzwiki,True,99.0,0.6774193548387096,0.022556390977443608,0.9923712861845652,8.356592515835742e-05,0.043659043659043655
uzwiki,False,0.0,0.014234233806779765,1.0,0.014234233806779765,1.0,0.02806892793068846
uzwiki,False,1.0,0.014234233806779765,1.0,0.014234233806779765,1.0,0.02806892793068846
uzwiki,False,2.0,0.014254987938635581,0.9996666666666667,0.016013513032627238,0.9981902151285501,0.028109146720091856
uzwiki,False,3.0,0.01442480893051865,0.9943333333333333,0.032876335349059,0.9810068853650495,0.028437080694863833
uzwiki,False,4.0,0.014870372736313921,0.9893333333333333,0.06691987787027394,0.9463995629562065,0.029300340833648006
uzwiki,False,5.0,0.015497789417660418,0.9803333333333333,0.11326891551744998,0.8992512977745903,0.030513204924028238
uzwiki,False,6.0,0.016113347536868702,0.9693333333333334,0.15707002531321246,0.8546588723981334,0.03169974628212011
uzwiki,False,7.0,0.017079845603900908,0.958,0.2146475010616366,0.7960863402154895,0.03356133789926344
uzwiki,False,8.0,0.01799258116738263,0.941,0.2681136556122025,0.7416026703953369,0.035310010131458805
uzwiki,False,9.0,0.019133456027795457,0.927,0.32251926959401594,0.6862092948818225,0.037493048416724246
uzwiki,False,10.0,0.02036816217021911,0.911,0.37505070945793667,0.6326882765890368,0.03984545852165039
uzwiki,False,11.0,0.021699291286226302,0.892,0.42602824546461726,0.5807002808535832,0.04236791691075189
uzwiki,False,12.0,0.02313475233527554,0.8755,0.47201668252202156,0.5338095249555376,0.045078327133239796
uzwiki,False,13.0,0.02463197854263981,0.8586666666666667,0.5140076722520218,0.49096912535888854,0.04789016494778281
uzwiki,False,14.0,0.026116752979476732,0.8396666666666667,0.5520320554945328,0.45212132297199403,0.050657858353066576
uzwiki,False,15.0,0.027506133010720166,0.8185,0.5854991115465732,0.4178653683706401,0.05322365640342036
uzwiki,False,16.0,0.029002046990199808,0.8005,0.6156685701000429,0.3870003537744363,0.055976085170358195
uzwiki,False,17.0,0.030757723577235774,0.7881666666666667,0.6434514221185759,0.3586382331493867,0.05920500782472613
uzwiki,False,18.0,0.032487196304720974,0.776,0.6678536436079987,0.3337079652194003,0.062363546256981754
uzwiki,False,19.0,0.03431757793495752,0.7641666666666667,0.6905596189021136,0.31050325015221925,0.06568532645678879
uzwiki,False,20.0,0.036169786364182936,0.752,0.71123247113416,0.2893562027247851,0.0690198477953268
uzwiki,False,21.0,0.03797078380529383,0.7395,0.7295993774895082,0.27054358525121597,0.07223266831090816
uzwiki,False,22.0,0.03989836435831117,0.7301666666666666,0.7460565241424467,0.25371402992402275,0.07566232599910193
uzwiki,False,23.0,0.04186195142735407,0.7205,0.761287154315701,0.2381238884383145,0.07912655123183367
uzwiki,False,24.0,0.04383451929889413,0.7115,0.774978114865522,0.22410527557103285,0.08258131909584192
uzwiki,False,25.0,0.04579292409383973,0.7043333333333334,0.7868826790725922,0.21192532712102213,0.08599481100880094
uzwiki,False,26.0,0.04767949861616231,0.6948333333333333,0.7981111171738403,0.20039757508080255,0.08923564288619193
uzwiki,False,27.0,0.04975884341059165,0.6895,0.8081533691245234,0.19013330317025215,0.09281924142650408
uzwiki,False,28.0,0.05179564997470915,0.6826666666666666,0.8175930385107195,0.180458655320214,0.09628584861307005
uzwiki,False,29.0,0.05385636532589937,0.6761666666666667,0.8263043896004688,0.17152765577506685,0.09976638386819132
uzwiki,False,30.0,0.055924803248143716,0.6703333333333333,0.8342328578308451,0.16340047025527113,0.10323673605585357
uzwiki,False,31.0,0.058036884887684645,0.664,0.8418149597052564,0.1556174326565091,0.10674383088176191
uzwiki,False,32.0,0.060175454628529655,0.6585,0.8487470315691582,0.14850584449808552,0.11027380055262498
uzwiki,False,33.0,0.0625437981779958,0.6545,0.8554418662029469,0.14165657888086947,0.11417689131825318
uzwiki,False,34.0,0.0648528263001313,0.6503333333333333,0.8615412353891521,0.13540897046825776,0.11794399020659845
uzwiki,False,35.0,0.06727531502759745,0.646,0.8674745385142781,0.12932741944411688,0.12185996793158739
uzwiki,False,36.0,0.06951861976573673,0.64,0.8729428566683827,0.12369350138020163,0.12541437366298153
uzwiki,False,37.0,0.07191328934967012,0.6358333333333334,0.8780126162758974,0.1184903698747831,0.1292125317527519
uzwiki,False,38.0,0.07427294818531002,0.6316666666666667,0.8826909344537257,0.11368433212440346,0.13291716349863222
uzwiki,False,39.0,0.07668774219865389,0.6266666666666667,0.8872885919733156,0.10894808660975791,0.13665273487188806
uzwiki,False,40.0,0.07895127590522454,0.6203333333333333,0.891584958210662,0.10449822992450405,0.14007489227179498
uzwiki,False,41.0,0.0814629723813104,0.614,0.8959596127339455,0.09996895448824242,0.14384163364113778
uzwiki,False,42.0,0.08406550439302636,0.6091666666666666,0.8999618048059518,0.09583917943583807,0.1477424309794252
uzwiki,False,43.0,0.08700535270502772,0.6068333333333333,0.903762345232362,0.09195006726527548,0.15219026918575487
uzwiki,False,44.0,0.09000596065964633,0.604,0.9074395222991134,0.08817887990681533,0.15666609026456857
uzwiki,False,45.0,0.09290012655285519,0.5995,0.9109767294000982,0.08452561736045765,0.1608712180504931
uzwiki,False,46.0,0.09563911387652202,0.5943333333333334,0.9142292518249474,0.08115152375703638,0.1647645890126138
uzwiki,False,47.0,0.0986950109908456,0.5911666666666666,0.9173346871671265,0.077955520686178,0.16915043277140612
uzwiki,False,48.0,0.10151038207179369,0.5858333333333333,0.9202954077989367,0.07487503579860368,0.17303763507027348
uzwiki,False,49.0,0.10408077911214673,0.5806666666666667,0.9228836659794695,0.0721747982643393,0.17652125449663067
uzwiki,False,50.0,0.10726098111341226,0.5783333333333334,0.9254814136492068,0.06950584690471434,0.1809600792678157
uzwiki,False,51.0,0.10989959710941996,0.5728333333333333,0.9278798820456492,0.06699332641828652,0.18441809304072543
uzwiki,False,52.0,0.1134868964605572,0.5723333333333334,0.9302736056974893,0.06455781805404807,0.1894150417827298
uzwiki,False,53.0,0.11663369038684587,0.5698333333333333,0.9324443263530232,0.06231965325291984,0.19363425270430992
uzwiki,False,54.0,0.11981112129114102,0.5666666666666667,0.9345747166794379,0.06011277462643104,0.19780091919250684
uzwiki,False,55.0,0.12270138914076385,0.5638333333333333,0.9364085604682114,0.05821153785988126,0.20154299842125645
uzwiki,False,56.0,0.1258082601382919,0.561,0.938263755607695,0.05628864143396572,0.2055258739123798
uzwiki,False,57.0,0.12941902155056093,0.5595,0.9401569087039967,0.05434649197750283,0.2102132189486208
uzwiki,False,58.0,0.13277184061022607,0.557,0.9419077194622306,0.052534300477234494,0.21443007924031957
uzwiki,False,59.0,0.13606725445970883,0.553,0.9436585302204645,0.0507004493176004,0.21839723547803194
uzwiki,False,60.0,0.13919181672161637,0.5488333333333333,0.9452646262683295,0.04901099588707135,0.22206487288421337
uzwiki,False,61.0,0.1423348132671716,0.545,0.9467781997964505,0.04742021423809742,0.22571961068544213
uzwiki,False,62.0,0.1453436210299659,0.54,0.9482538153677533,0.04585109224848924,0.22904001131061782
uzwiki,False,63.0,0.14864802403512825,0.536,0.9496985900991415,0.04432769620643099,0.2327483263976841
uzwiki,False,64.0,0.15164772457083076,0.5315,0.9510081396093651,0.04293425812056729,0.23596877427947757
uzwiki,False,65.0,0.15519693922597733,0.5273333333333333,0.9524125840116341,0.041449368139603725,0.23981506044643194
uzwiki,False,66.0,0.1582057887558721,0.522,0.9536604518420285,0.04010646925892679,0.24281893243400396
uzwiki,False,67.0,0.16238336026690298,0.5191666666666667,0.9550364277766838,0.03866971185433157,0.24738911170233885
uzwiki,False,68.0,0.16688227684346701,0.516,0.956443244551254,0.03719685501746009,0.25219941348973607
uzwiki,False,69.0,0.1712660980097006,0.512,0.9577883796459946,0.03577453738577538,0.25667376864268704
uzwiki,False,70.0,0.17490516151281757,0.5071666666666667,0.9589294907228381,0.03454715668838248,0.2601077015129498
uzwiki,False,71.0,0.17920209287115763,0.5023333333333333,0.9601654966917268,0.03322351083825288,0.2641658267233446
uzwiki,False,72.0,0.18252595155709342,0.49233333333333335,0.9613872684268088,0.03183969926766285,0.26631806707536965
uzwiki,False,73.0,0.18712737996025386,0.4865,0.9626090401618906,0.030516053417533252,0.27029029121718595
uzwiki,False,74.0,0.19145390307312846,0.4786666666666667,0.9638047158016602,0.029190000938585238,0.2735107852007047
uzwiki,False,75.0,0.19676456293827674,0.4723333333333333,0.96504309414285,0.027842288800271467,0.2778022839778464
uzwiki,False,76.0,0.20154145357631637,0.4663333333333333,0.9661059169337562,0.026677480452157423,0.281446461801539
uzwiki,False,77.0,0.20638011082821625,0.4593333333333333,0.9671616226077591,0.025505452217588126,0.28479900795701146
uzwiki,False,78.0,0.20987557711871038,0.447,0.9681746255803416,0.024299731179560982,0.2856382128973854
uzwiki,False,79.0,0.21638483007716303,0.43933333333333335,0.9693726735924122,0.022973678700612968,0.28995710042899575
uzwiki,False,80.0,0.22255886426592797,0.4285,0.9705588597429772,0.02161393341820711,0.29295806745670006
uzwiki,False,81.0,0.22734806629834253,0.4115,0.9717165774259287,0.020194022415340816,0.2928825622775801
uzwiki,False,82.0,0.23261532408773483,0.39416666666666667,0.9728671779919766,0.018776518041292937,0.29257128718995484
uzwiki,False,83.0,0.23838002308257267,0.37866666666666665,0.9739347455274852,0.01746971859289226,0.2925761380464877
uzwiki,False,84.0,0.2427862939585212,0.359,0.9749382590108631,0.01616773240212842,0.2896718665949435
uzwiki,False,85.0,0.2477615601619036,0.33666666666666667,0.9760081989186727,0.014759854543354215,0.285451847664806
uzwiki,False,86.0,0.25615363808493374,0.31566666666666665,0.9772109916753456,0.01323645850129597,0.28281319994027176
uzwiki,False,87.0,0.2621388144176348,0.29333333333333333,0.9781884090634111,0.011922439166440042,0.2768601541607677
uzwiki,False,88.0,0.2714285714285714,0.2723333333333333,0.9792369976205105,0.010555473997578932,0.2718801996672213
uzwiki,False,89.0,0.2809052871814378,0.24616666666666667,0.9802998204114168,0.009099463562436376,0.26239118848818616
uzwiki,False,90.0,0.291520979020979,0.22233333333333333,0.9812392798426642,0.00780229062930937,0.2522692889561271
uzwiki,False,91.0,0.30030959752321984,0.194,0.982093333871071,0.006526777355548121,0.23572296476306198
uzwiki,False,92.0,0.32017823042647997,0.16766666666666666,0.9830849854929434,0.005140559156139671,0.22008313279369943
uzwiki,False,93.0,0.3373934226552984,0.1385,0.9838654959800152,0.003927618231657277,0.19638426090038993
uzwiki,False,94.0,0.3689373297002725,0.11283333333333333,0.9846246551163768,0.002786876171727406,0.17281429483088703
uzwiki,False,95.0,0.4018619084561676,0.08633333333333333,0.9851655560010344,0.0018555108189998533,0.14213197969543145
uzwiki,False,96.0,0.45308924485125857,0.066,0.9855712316645275,0.0011503685752035405,0.1152167588012802
uzwiki,False,97.0,0.5102803738317757,0.0455,0.9857918622885327,0.0006305367504253716,0.08355011476664116
uzwiki,False,98.0,0.5541795665634675,0.029833333333333333,0.9858487992237598,0.0003465545498521127,0.05661869365807369
uzwiki,False,99.0,0.5454545454545454,0.016,0.9858037241500384,0.00019253030547339593,0.031088082901554407
