wiki_db,user_is_anonymous,threshold,precision,recall,accuracy,fpr,F1
awawiki,True,0.0,0.25,1.0,0.25,1.0,0.4
awawiki,True,1.0,0.25,1.0,0.25,1.0,0.4
awawiki,True,2.0,0.25,1.0,0.25,1.0,0.4
awawiki,True,3.0,0.25,1.0,0.25,1.0,0.4
awawiki,True,4.0,0.25,1.0,0.25,1.0,0.4
awawiki,True,5.0,0.25,1.0,0.25,1.0,0.4
awawiki,True,6.0,0.25,1.0,0.25,1.0,0.4
awawiki,True,7.0,0.25,1.0,0.25,1.0,0.4
awawiki,True,8.0,0.25,1.0,0.25,1.0,0.4
awawiki,True,9.0,0.25,1.0,0.25,1.0,0.4
awawiki,True,10.0,0.25,1.0,0.25,1.0,0.4
awawiki,True,11.0,0.25,1.0,0.25,1.0,0.4
awawiki,True,12.0,0.25,1.0,0.25,1.0,0.4
awawiki,True,13.0,0.25,1.0,0.25,1.0,0.4
awawiki,True,14.0,0.25,1.0,0.25,1.0,0.4
awawiki,True,15.0,0.25,1.0,0.25,1.0,0.4
awawiki,True,16.0,0.25,1.0,0.25,1.0,0.4
awawiki,True,17.0,0.25,1.0,0.25,1.0,0.4
awawiki,True,18.0,0.25,1.0,0.25,1.0,0.4
awawiki,True,19.0,0.25,1.0,0.25,1.0,0.4
awawiki,True,20.0,0.25,1.0,0.25,1.0,0.4
awawiki,True,21.0,0.25,1.0,0.25,1.0,0.4
awawiki,True,22.0,0.25,1.0,0.25,1.0,0.4
awawiki,True,23.0,0.25,1.0,0.25,1.0,0.4
awawiki,True,24.0,0.25,1.0,0.25,1.0,0.4
awawiki,True,25.0,0.25,1.0,0.25,1.0,0.4
awawiki,True,26.0,0.25,1.0,0.25,1.0,0.4
awawiki,True,27.0,0.25,1.0,0.25,1.0,0.4
awawiki,True,28.0,0.25,1.0,0.25,1.0,0.4
awawiki,True,29.0,0.25,1.0,0.25,1.0,0.4
awawiki,True,30.0,0.25,1.0,0.25,1.0,0.4
awawiki,True,31.0,0.25,1.0,0.25,1.0,0.4
awawiki,True,32.0,0.25,1.0,0.25,1.0,0.4
awawiki,True,33.0,0.25,1.0,0.25,1.0,0.4
awawiki,True,34.0,0.25,1.0,0.25,1.0,0.4
awawiki,True,35.0,0.25,1.0,0.25,1.0,0.4
awawiki,True,36.0,0.25,1.0,0.25,1.0,0.4
awawiki,True,37.0,0.25,1.0,0.25,1.0,0.4
awawiki,True,38.0,0.25,1.0,0.25,1.0,0.4
awawiki,True,39.0,0.25,1.0,0.25,1.0,0.4
awawiki,True,40.0,0.25,1.0,0.25,1.0,0.4
awawiki,True,41.0,0.25,1.0,0.25,1.0,0.4
awawiki,True,42.0,0.25,1.0,0.25,1.0,0.4
awawiki,True,43.0,0.25,1.0,0.25,1.0,0.4
awawiki,True,44.0,0.25,1.0,0.25,1.0,0.4
awawiki,True,45.0,0.25,1.0,0.25,1.0,0.4
awawiki,True,46.0,0.25,1.0,0.25,1.0,0.4
awawiki,True,47.0,0.25,1.0,0.25,1.0,0.4
awawiki,True,48.0,0.25,1.0,0.25,1.0,0.4
awawiki,True,49.0,0.25,1.0,0.25,1.0,0.4
awawiki,True,50.0,0.25,1.0,0.25,1.0,0.4
awawiki,True,51.0,0.25,1.0,0.25,1.0,0.4
awawiki,True,52.0,0.25,1.0,0.25,1.0,0.4
awawiki,True,53.0,0.25,1.0,0.25,1.0,0.4
awawiki,True,54.0,0.25,1.0,0.25,1.0,0.4
awawiki,True,55.0,0.25,1.0,0.25,1.0,0.4
awawiki,True,56.0,0.25,1.0,0.25,1.0,0.4
awawiki,True,57.0,0.25,1.0,0.25,1.0,0.4
awawiki,True,58.0,0.25,1.0,0.25,1.0,0.4
awawiki,True,59.0,0.25,1.0,0.25,1.0,0.4
awawiki,True,60.0,0.25,1.0,0.25,1.0,0.4
awawiki,True,61.0,0.25,1.0,0.25,1.0,0.4
awawiki,True,62.0,0.25,1.0,0.25,1.0,0.4
awawiki,True,63.0,0.25,1.0,0.25,1.0,0.4
awawiki,True,64.0,0.25,1.0,0.25,1.0,0.4
awawiki,True,65.0,0.25,1.0,0.25,1.0,0.4
awawiki,True,66.0,0.25,1.0,0.25,1.0,0.4
awawiki,True,67.0,0.25,1.0,0.25,1.0,0.4
awawiki,True,68.0,0.25,1.0,0.25,1.0,0.4
awawiki,True,69.0,0.25,1.0,0.25,1.0,0.4
awawiki,True,70.0,0.25,1.0,0.25,1.0,0.4
awawiki,True,71.0,0.25,1.0,0.25,1.0,0.4
awawiki,True,72.0,0.25,1.0,0.25,1.0,0.4
awawiki,True,73.0,0.25,1.0,0.25,1.0,0.4
awawiki,True,74.0,0.25,1.0,0.25,1.0,0.4
awawiki,True,75.0,0.25,1.0,0.25,1.0,0.4
awawiki,True,76.0,0.25,1.0,0.25,1.0,0.4
awawiki,True,77.0,0.25,1.0,0.25,1.0,0.4
awawiki,True,78.0,0.25,1.0,0.25,1.0,0.4
awawiki,True,79.0,0.25,1.0,0.25,1.0,0.4
awawiki,True,80.0,0.25,1.0,0.25,1.0,0.4
awawiki,True,81.0,0.2857142857142857,1.0,0.375,0.8333333333333334,0.4444444444444445
awawiki,True,82.0,0.3333333333333333,1.0,0.5,0.6666666666666666,0.5
awawiki,True,83.0,0.2,0.5,0.375,0.6666666666666666,0.28571428571428575
awawiki,True,84.0,0.2,0.5,0.375,0.6666666666666666,0.28571428571428575
awawiki,True,85.0,0.2,0.5,0.375,0.6666666666666666,0.28571428571428575
awawiki,True,86.0,0.25,0.5,0.5,0.5,0.3333333333333333
awawiki,True,87.0,0.0,0.0,0.5,0.3333333333333333,0.3333333333333333
awawiki,True,88.0,0.0,0.0,0.5,0.3333333333333333,0.3333333333333333
awawiki,True,89.0,0.0,0.0,0.5,0.3333333333333333,0.3333333333333333
awawiki,True,90.0,0.0,0.0,0.5,0.3333333333333333,0.3333333333333333
awawiki,True,91.0,0.0,0.0,0.5,0.3333333333333333,0.3333333333333333
awawiki,True,92.0,0.0,0.0,0.625,0.16666666666666666,0.3333333333333333
awawiki,True,93.0,0.0,0.0,0.625,0.16666666666666666,0.3333333333333333
awawiki,True,94.0,0.0,0.0,0.625,0.16666666666666666,0.3333333333333333
awawiki,True,95.0,0.0,0.0,0.75,0.0,0.3333333333333333
awawiki,True,96.0,0.0,0.0,0.75,0.0,0.3333333333333333
awawiki,True,97.0,0.0,0.0,0.75,0.0,0.3333333333333333
awawiki,True,98.0,0.0,0.0,0.75,0.0,0.3333333333333333
awawiki,True,99.0,0.0,0.0,0.75,0.0,0.3333333333333333
awawiki,False,0.0,0.125,1.0,0.125,1.0,0.2222222222222222
awawiki,False,1.0,0.125,1.0,0.125,1.0,0.2222222222222222
awawiki,False,2.0,0.125,1.0,0.125,1.0,0.2222222222222222
awawiki,False,3.0,0.125,1.0,0.125,1.0,0.2222222222222222
awawiki,False,4.0,0.125,1.0,0.125,1.0,0.2222222222222222
awawiki,False,5.0,0.125,1.0,0.125,1.0,0.2222222222222222
awawiki,False,6.0,0.125,1.0,0.125,1.0,0.2222222222222222
awawiki,False,7.0,0.125,1.0,0.125,1.0,0.2222222222222222
awawiki,False,8.0,0.125,1.0,0.125,1.0,0.2222222222222222
awawiki,False,9.0,0.125,1.0,0.125,1.0,0.2222222222222222
awawiki,False,10.0,0.125,1.0,0.125,1.0,0.2222222222222222
awawiki,False,11.0,0.125,1.0,0.125,1.0,0.2222222222222222
awawiki,False,12.0,0.125,1.0,0.125,1.0,0.2222222222222222
awawiki,False,13.0,0.125,1.0,0.125,1.0,0.2222222222222222
awawiki,False,14.0,0.125,1.0,0.125,1.0,0.2222222222222222
awawiki,False,15.0,0.125,1.0,0.125,1.0,0.2222222222222222
awawiki,False,16.0,0.125,1.0,0.125,1.0,0.2222222222222222
awawiki,False,17.0,0.125,1.0,0.125,1.0,0.2222222222222222
awawiki,False,18.0,0.125,1.0,0.125,1.0,0.2222222222222222
awawiki,False,19.0,0.125,1.0,0.125,1.0,0.2222222222222222
awawiki,False,20.0,0.125,1.0,0.125,1.0,0.2222222222222222
awawiki,False,21.0,0.125,1.0,0.125,1.0,0.2222222222222222
awawiki,False,22.0,0.125,1.0,0.125,1.0,0.2222222222222222
awawiki,False,23.0,0.125,1.0,0.125,1.0,0.2222222222222222
awawiki,False,24.0,0.125,1.0,0.125,1.0,0.2222222222222222
awawiki,False,25.0,0.125,1.0,0.125,1.0,0.2222222222222222
awawiki,False,26.0,0.125,1.0,0.125,1.0,0.2222222222222222
awawiki,False,27.0,0.125,1.0,0.125,1.0,0.2222222222222222
awawiki,False,28.0,0.125,1.0,0.125,1.0,0.2222222222222222
awawiki,False,29.0,0.125,1.0,0.125,1.0,0.2222222222222222
awawiki,False,30.0,0.125,1.0,0.125,1.0,0.2222222222222222
awawiki,False,31.0,0.125,1.0,0.125,1.0,0.2222222222222222
awawiki,False,32.0,0.125,1.0,0.125,1.0,0.2222222222222222
awawiki,False,33.0,0.125,1.0,0.125,1.0,0.2222222222222222
awawiki,False,34.0,0.125,1.0,0.125,1.0,0.2222222222222222
awawiki,False,35.0,0.125,1.0,0.125,1.0,0.2222222222222222
awawiki,False,36.0,0.125,1.0,0.125,1.0,0.2222222222222222
awawiki,False,37.0,0.1276595744680851,1.0,0.14583333333333334,0.9761904761904762,0.22641509433962262
awawiki,False,38.0,0.13636363636363635,1.0,0.20833333333333334,0.9047619047619048,0.24000000000000002
awawiki,False,39.0,0.15384615384615385,1.0,0.3125,0.7857142857142857,0.2666666666666667
awawiki,False,40.0,0.15384615384615385,1.0,0.3125,0.7857142857142857,0.2666666666666667
awawiki,False,41.0,0.15384615384615385,1.0,0.3125,0.7857142857142857,0.2666666666666667
awawiki,False,42.0,0.15789473684210525,1.0,0.3333333333333333,0.7619047619047619,0.2727272727272727
awawiki,False,43.0,0.15789473684210525,1.0,0.3333333333333333,0.7619047619047619,0.2727272727272727
awawiki,False,44.0,0.15789473684210525,1.0,0.3333333333333333,0.7619047619047619,0.2727272727272727
awawiki,False,45.0,0.15789473684210525,1.0,0.3333333333333333,0.7619047619047619,0.2727272727272727
awawiki,False,46.0,0.15789473684210525,1.0,0.3333333333333333,0.7619047619047619,0.2727272727272727
awawiki,False,47.0,0.15789473684210525,1.0,0.3333333333333333,0.7619047619047619,0.2727272727272727
awawiki,False,48.0,0.15789473684210525,1.0,0.3333333333333333,0.7619047619047619,0.2727272727272727
awawiki,False,49.0,0.16666666666666666,1.0,0.375,0.7142857142857143,0.2857142857142857
awawiki,False,50.0,0.16666666666666666,1.0,0.375,0.7142857142857143,0.2857142857142857
awawiki,False,51.0,0.16666666666666666,1.0,0.375,0.7142857142857143,0.2857142857142857
awawiki,False,52.0,0.16666666666666666,1.0,0.375,0.7142857142857143,0.2857142857142857
awawiki,False,53.0,0.16666666666666666,1.0,0.375,0.7142857142857143,0.2857142857142857
awawiki,False,54.0,0.16666666666666666,1.0,0.375,0.7142857142857143,0.2857142857142857
awawiki,False,55.0,0.16666666666666666,1.0,0.375,0.7142857142857143,0.2857142857142857
awawiki,False,56.0,0.17142857142857143,1.0,0.3958333333333333,0.6904761904761905,0.2926829268292683
awawiki,False,57.0,0.17142857142857143,1.0,0.3958333333333333,0.6904761904761905,0.2926829268292683
awawiki,False,58.0,0.17142857142857143,1.0,0.3958333333333333,0.6904761904761905,0.2926829268292683
awawiki,False,59.0,0.17647058823529413,1.0,0.4166666666666667,0.6666666666666666,0.3
awawiki,False,60.0,0.17647058823529413,1.0,0.4166666666666667,0.6666666666666666,0.3
awawiki,False,61.0,0.17647058823529413,1.0,0.4166666666666667,0.6666666666666666,0.3
awawiki,False,62.0,0.1935483870967742,1.0,0.4791666666666667,0.5952380952380952,0.3243243243243243
awawiki,False,63.0,0.1935483870967742,1.0,0.4791666666666667,0.5952380952380952,0.3243243243243243
awawiki,False,64.0,0.2,1.0,0.5,0.5714285714285714,0.33333333333333337
awawiki,False,65.0,0.20689655172413793,1.0,0.5208333333333334,0.5476190476190477,0.34285714285714286
awawiki,False,66.0,0.21428571428571427,1.0,0.5416666666666666,0.5238095238095238,0.35294117647058826
awawiki,False,67.0,0.2222222222222222,1.0,0.5625,0.5,0.3636363636363636
awawiki,False,68.0,0.2222222222222222,1.0,0.5625,0.5,0.3636363636363636
awawiki,False,69.0,0.2222222222222222,1.0,0.5625,0.5,0.3636363636363636
awawiki,False,70.0,0.2222222222222222,1.0,0.5625,0.5,0.3636363636363636
awawiki,False,71.0,0.23076923076923078,1.0,0.5833333333333334,0.47619047619047616,0.375
awawiki,False,72.0,0.24,1.0,0.6041666666666666,0.4523809523809524,0.3870967741935484
awawiki,False,73.0,0.20833333333333334,0.8333333333333334,0.5833333333333334,0.4523809523809524,0.33333333333333337
awawiki,False,74.0,0.21739130434782608,0.8333333333333334,0.6041666666666666,0.42857142857142855,0.3448275862068966
awawiki,False,75.0,0.23809523809523808,0.8333333333333334,0.6458333333333334,0.38095238095238093,0.37037037037037035
awawiki,False,76.0,0.25,0.8333333333333334,0.6666666666666666,0.35714285714285715,0.3846153846153846
awawiki,False,77.0,0.25,0.8333333333333334,0.6666666666666666,0.35714285714285715,0.3846153846153846
awawiki,False,78.0,0.25,0.8333333333333334,0.6666666666666666,0.35714285714285715,0.3846153846153846
awawiki,False,79.0,0.2631578947368421,0.8333333333333334,0.6875,0.3333333333333333,0.39999999999999997
awawiki,False,80.0,0.2631578947368421,0.8333333333333334,0.6875,0.3333333333333333,0.39999999999999997
awawiki,False,81.0,0.29411764705882354,0.8333333333333334,0.7291666666666666,0.2857142857142857,0.4347826086956522
awawiki,False,82.0,0.3333333333333333,0.8333333333333334,0.7708333333333334,0.23809523809523808,0.47619047619047616
awawiki,False,83.0,0.23076923076923078,0.5,0.7291666666666666,0.23809523809523808,0.3157894736842105
awawiki,False,84.0,0.2727272727272727,0.5,0.7708333333333334,0.19047619047619047,0.3529411764705882
awawiki,False,85.0,0.14285714285714285,0.16666666666666666,0.7708333333333334,0.14285714285714285,0.15384615384615383
awawiki,False,86.0,0.0,0.0,0.7916666666666666,0.09523809523809523,0.15384615384615383
awawiki,False,87.0,0.0,0.0,0.8125,0.07142857142857142,0.15384615384615383
awawiki,False,88.0,0.0,0.0,0.8333333333333334,0.047619047619047616,0.15384615384615383
awawiki,False,89.0,0.0,0.0,0.8333333333333334,0.047619047619047616,0.15384615384615383
awawiki,False,90.0,0.0,0.0,0.8333333333333334,0.047619047619047616,0.15384615384615383
awawiki,False,91.0,0.0,0.0,0.8333333333333334,0.047619047619047616,0.15384615384615383
awawiki,False,92.0,0.0,0.0,0.8541666666666666,0.023809523809523808,0.15384615384615383
awawiki,False,93.0,0.0,0.0,0.8541666666666666,0.023809523809523808,0.15384615384615383
awawiki,False,94.0,0.0,0.0,0.8541666666666666,0.023809523809523808,0.15384615384615383
awawiki,False,95.0,0.0,0.0,0.875,0.0,0.15384615384615383
awawiki,False,96.0,0.0,0.0,0.875,0.0,0.15384615384615383
awawiki,False,97.0,0.0,0.0,0.875,0.0,0.15384615384615383
awawiki,False,98.0,0.0,0.0,0.875,0.0,0.15384615384615383
awawiki,False,99.0,0.0,0.0,0.875,0.0,0.15384615384615383
