wiki_db,user_is_anonymous,threshold,precision,recall,accuracy,fpr,F1
banwiki,True,0.0,0.05470459518599562,1.0,0.05470459518599562,1.0,0.10373443983402489
banwiki,True,1.0,0.05470459518599562,1.0,0.05470459518599562,1.0,0.10373443983402489
banwiki,True,2.0,0.05470459518599562,1.0,0.05470459518599562,1.0,0.10373443983402489
banwiki,True,3.0,0.05470459518599562,1.0,0.05470459518599562,1.0,0.10373443983402489
banwiki,True,4.0,0.05470459518599562,1.0,0.05470459518599562,1.0,0.10373443983402489
banwiki,True,5.0,0.05470459518599562,1.0,0.05470459518599562,1.0,0.10373443983402489
banwiki,True,6.0,0.05470459518599562,1.0,0.05470459518599562,1.0,0.10373443983402489
banwiki,True,7.0,0.05470459518599562,1.0,0.05470459518599562,1.0,0.10373443983402489
banwiki,True,8.0,0.05470459518599562,1.0,0.05470459518599562,1.0,0.10373443983402489
banwiki,True,9.0,0.05470459518599562,1.0,0.05470459518599562,1.0,0.10373443983402489
banwiki,True,10.0,0.05473453749315818,1.0,0.05525164113785558,0.9994212962962963,0.10378827192527243
banwiki,True,11.0,0.054914881933003847,1.0,0.058533916849015315,0.9959490740740741,0.10411244143675169
banwiki,True,12.0,0.05506607929515418,1.0,0.061269146608315096,0.9930555555555556,0.10438413361169101
banwiki,True,13.0,0.055248618784530384,1.0,0.06455142231947483,0.9895833333333334,0.10471204188481674
banwiki,True,14.0,0.0556792873051225,1.0,0.07221006564551423,0.9814814814814815,0.10548523206751056
banwiki,True,15.0,0.05583472920156337,1.0,0.07494529540481401,0.9785879629629629,0.10576414595452142
banwiki,True,16.0,0.05630630630630631,1.0,0.08315098468271334,0.9699074074074074,0.10660980810234542
banwiki,True,17.0,0.05649717514124294,1.0,0.08643326039387308,0.9664351851851852,0.10695187165775402
banwiki,True,18.0,0.056915196357427436,1.0,0.09354485776805252,0.9589120370370371,0.10770059235325795
banwiki,True,19.0,0.05743825387708214,1.0,0.10229759299781181,0.9496527777777778,0.10863661053775123
banwiki,True,20.0,0.05803830528148578,1.0,0.11214442013129103,0.9392361111111112,0.10970927043335162
banwiki,True,21.0,0.058445353594389245,1.0,0.1187089715536105,0.9322916666666666,0.11043622308117063
banwiki,True,22.0,0.05917159763313609,1.0,0.1301969365426696,0.9201388888888888,0.11173184357541897
banwiki,True,23.0,0.05938242280285035,1.0,0.13347921225382933,0.9166666666666666,0.11210762331838564
banwiki,True,24.0,0.059988002399520096,1.0,0.1427789934354486,0.9068287037037037,0.11318619128466327
banwiki,True,25.0,0.06067961165048544,1.0,0.15317286652078774,0.8958333333333334,0.11441647597254004
banwiki,True,26.0,0.06108735491753207,1.0,0.15919037199124728,0.8894675925925926,0.11514104778353482
banwiki,True,27.0,0.06199628022318661,1.0,0.17231947483588622,0.8755787037037037,0.11675423234092236
banwiki,True,28.0,0.06285355122564425,1.0,0.18435448577680524,0.8628472222222222,0.11827321111768184
banwiki,True,29.0,0.06353240152477764,1.0,0.1936542669584245,0.8530092592592593,0.11947431302270013
banwiki,True,30.0,0.06451612903225806,1.0,0.20678336980306344,0.8391203703703703,0.12121212121212122
banwiki,True,31.0,0.06493506493506493,1.0,0.212253829321663,0.8333333333333334,0.12195121951219512
banwiki,True,32.0,0.06540222367560497,1.0,0.21827133479212255,0.8269675925925926,0.12277470841006753
banwiki,True,33.0,0.06635700066357,1.0,0.23030634573304157,0.8142361111111112,0.12445550715619165
banwiki,True,34.0,0.06697923643670463,1.0,0.23796498905908095,0.8061342592592593,0.125549278091651
banwiki,True,35.0,0.0681198910081744,1.0,0.25164113785557984,0.7916666666666666,0.12755102040816327
banwiki,True,36.0,0.06860706860706861,0.99,0.26422319474835887,0.7777777777777778,0.1283214517174336
banwiki,True,37.0,0.07006369426751592,0.99,0.28063457330415753,0.7604166666666666,0.13086582947785855
banwiki,True,38.0,0.07127429805615551,0.99,0.2937636761487965,0.7465277777777778,0.13297515110812627
banwiki,True,39.0,0.07242136064374542,0.99,0.3057986870897155,0.7337962962962963,0.13496932515337423
banwiki,True,40.0,0.0727136431784108,0.97,0.32166301969365424,0.7158564814814815,0.13528591352859137
banwiki,True,41.0,0.07438650306748466,0.97,0.33807439824945296,0.6984953703703703,0.13817663817663817
banwiki,True,42.0,0.07784911717495988,0.97,0.36980306345733044,0.6649305555555556,0.14413075780089155
banwiki,True,43.0,0.0802675585284281,0.96,0.39606126914660833,0.6365740740740741,0.14814814814814817
banwiki,True,44.0,0.08333333333333333,0.96,0.4201312910284464,0.6111111111111112,0.15335463258785942
banwiki,True,45.0,0.08444444444444445,0.95,0.4338074398249453,0.5960648148148148,0.15510204081632653
banwiki,True,46.0,0.0878003696857671,0.95,0.4573304157549234,0.5711805555555556,0.16074450084602368
banwiki,True,47.0,0.0923226433430515,0.95,0.4863238512035011,0.5405092592592593,0.1682905225863596
banwiki,True,48.0,0.09634888438133875,0.95,0.5098468271334792,0.515625,0.17495395948434625
banwiki,True,49.0,0.10095642933049948,0.95,0.5344638949671773,0.4895833333333333,0.1825168107588857
banwiki,True,50.0,0.10508849557522124,0.95,0.5547045951859956,0.4681712962962963,0.18924302788844624
banwiki,True,51.0,0.10665137614678899,0.93,0.5700218818380745,0.4508101851851852,0.19135802469135801
banwiki,True,52.0,0.1099290780141844,0.93,0.5842450765864332,0.4357638888888889,0.19661733615221988
banwiki,True,53.0,0.11272727272727273,0.93,0.5957330415754923,0.4236111111111111,0.2010810810810811
banwiki,True,54.0,0.11625,0.93,0.6094091903719913,0.40914351851851855,0.20666666666666667
banwiki,True,55.0,0.11818181818181818,0.91,0.6236323851203501,0.3929398148148148,0.20919540229885053
banwiki,True,56.0,0.1214574898785425,0.9,0.638402625820569,0.3767361111111111,0.2140309155766944
banwiki,True,57.0,0.12569832402234637,0.9,0.6520787746170679,0.36226851851851855,0.22058823529411764
banwiki,True,58.0,0.12987012987012986,0.9,0.6646608315098468,0.3489583333333333,0.2269861286254729
banwiki,True,59.0,0.13363363363363365,0.89,0.6783369803063457,0.33391203703703703,0.2323759791122716
banwiki,True,60.0,0.13538461538461538,0.88,0.6859956236323851,0.32523148148148145,0.2346666666666667
banwiki,True,61.0,0.13836477987421383,0.88,0.6936542669584245,0.31712962962962965,0.23913043478260868
banwiki,True,62.0,0.14308943089430895,0.88,0.7051422319474836,0.30497685185185186,0.24615384615384617
banwiki,True,63.0,0.14915254237288136,0.88,0.7188183807439825,0.29050925925925924,0.25507246376811593
banwiki,True,64.0,0.14982578397212543,0.86,0.725382932166302,0.2824074074074074,0.2551928783382789
banwiki,True,65.0,0.1524822695035461,0.86,0.7308533916849015,0.27662037037037035,0.25903614457831325
banwiki,True,66.0,0.1560798548094374,0.86,0.7379649890590809,0.2690972222222222,0.2642089093701997
banwiki,True,67.0,0.16195856873822975,0.86,0.7489059080962801,0.25752314814814814,0.27258320126782887
banwiki,True,68.0,0.16470588235294117,0.84,0.7582056892778993,0.2465277777777778,0.27540983606557373
banwiki,True,69.0,0.1656686626746507,0.83,0.7620350109409191,0.24189814814814814,0.276206322795341
banwiki,True,70.0,0.17364016736401675,0.83,0.774617067833698,0.22858796296296297,0.28719723183391
banwiki,True,71.0,0.1788793103448276,0.83,0.7822757111597374,0.2204861111111111,0.2943262411347518
banwiki,True,72.0,0.18526785714285715,0.83,0.7910284463894968,0.21122685185185186,0.3029197080291971
banwiki,True,73.0,0.1930232558139535,0.83,0.8008752735229759,0.20081018518518517,0.31320754716981136
banwiki,True,74.0,0.19230769230769232,0.8,0.8052516411378556,0.19444444444444445,0.31007751937984496
banwiki,True,75.0,0.1975,0.79,0.812910284463895,0.1857638888888889,0.31600000000000006
banwiki,True,76.0,0.20103092783505155,0.78,0.8183807439824945,0.17939814814814814,0.319672131147541
banwiki,True,77.0,0.2064343163538874,0.77,0.8254923413566739,0.1712962962962963,0.3255813953488372
banwiki,True,78.0,0.21448467966573817,0.77,0.8331509846827133,0.16319444444444445,0.33551198257080617
banwiki,True,79.0,0.21005917159763313,0.71,0.838074398249453,0.1545138888888889,0.32420091324200917
banwiki,True,80.0,0.2182410423452769,0.67,0.850656455142232,0.1388888888888889,0.3292383292383293
banwiki,True,81.0,0.22105263157894736,0.63,0.8583150984682714,0.1284722222222222,0.32727272727272727
banwiki,True,82.0,0.23106060606060605,0.61,0.8676148796498906,0.11747685185185185,0.33516483516483514
banwiki,True,83.0,0.23481781376518218,0.58,0.8736323851203501,0.109375,0.33429394812680113
banwiki,True,84.0,0.23214285714285715,0.52,0.8796498905908097,0.09953703703703703,0.32098765432098764
banwiki,True,85.0,0.25125628140703515,0.5,0.8911378555798687,0.08622685185185185,0.33444816053511706
banwiki,True,86.0,0.25287356321839083,0.44,0.8982494529540481,0.07523148148148148,0.32116788321167883
banwiki,True,87.0,0.24489795918367346,0.36,0.9042669584245077,0.0642361111111111,0.291497975708502
banwiki,True,88.0,0.2457627118644068,0.29,0.912472647702407,0.05150462962962963,0.2660550458715596
banwiki,True,89.0,0.2608695652173913,0.24,0.9212253829321663,0.03935185185185185,0.24999999999999994
banwiki,True,90.0,0.27631578947368424,0.21,0.9266958424507659,0.031828703703703706,0.23863636363636365
banwiki,True,91.0,0.3220338983050847,0.19,0.9338074398249453,0.023148148148148147,0.23899371069182387
banwiki,True,92.0,0.38461538461538464,0.15,0.9403719912472648,0.013888888888888888,0.21582733812949642
banwiki,True,93.0,0.5769230769230769,0.15,0.9474835886214442,0.00636574074074074,0.23809523809523805
banwiki,True,94.0,0.5714285714285714,0.12,0.9469365426695843,0.005208333333333333,0.1983471074380165
banwiki,True,95.0,0.6111111111111112,0.11,0.9474835886214442,0.004050925925925926,0.1864406779661017
banwiki,True,96.0,0.7857142857142857,0.11,0.949671772428884,0.001736111111111111,0.19298245614035087
banwiki,True,97.0,0.75,0.06,0.9474835886214442,0.0011574074074074073,0.1111111111111111
banwiki,True,98.0,0.6666666666666666,0.02,0.9458424507658644,0.0005787037037037037,0.038834951456310676
banwiki,True,99.0,0.5,0.01,0.9452954048140044,0.0005787037037037037,0.0196078431372549
banwiki,False,0.0,0.008786488333496045,1.0,0.008786488333496045,1.0,0.017419916771508757
banwiki,False,1.0,0.008788204276926082,1.0,0.008981743629795959,0.9998030138875209,0.017423289129803506
banwiki,False,2.0,0.00881316098707403,1.0,0.011812945426144684,0.9969467152565744,0.017472335468841
banwiki,False,3.0,0.00899370440691516,1.0,0.03182661329688568,0.9767556387274697,0.017827077349707832
banwiki,False,4.0,0.009178990311065782,1.0,0.051547398223176805,0.9568600413670836,0.01819100555836281
banwiki,False,5.0,0.009417181123783614,1.0,0.07575905496436591,0.9324337634196789,0.018658650357624134
banwiki,False,6.0,0.009765625,1.0,0.10905008298350093,0.8988476312419974,0.019342359767891684
banwiki,False,7.0,0.010325837540156035,1.0,0.15786390705847897,0.8496011031222299,0.020440608675902795
banwiki,False,8.0,0.010896180215475025,0.9888888888888889,0.21116860294835496,0.7957254013592042,0.0215548558973117
banwiki,False,9.0,0.011725955204216074,0.9888888888888889,0.26759738357902957,0.7387964148527529,0.02317708333333333
banwiki,False,10.0,0.012835304297663686,0.9888888888888889,0.33164112076540075,0.6741849699596179,0.025341685649202736
banwiki,False,11.0,0.013479226133840786,0.9444444444444444,0.3921702626183735,0.6127253028661479,0.0265791119449656
banwiki,False,12.0,0.014415651278530976,0.9333333333333333,0.4387386507859026,0.5656456219836502,0.028392766604698326
banwiki,False,13.0,0.015364679748241392,0.9222222222222223,0.48003514595333396,0.5238845661380873,0.030225782957028404
banwiki,False,14.0,0.016220600162206,0.8888888888888888,0.5253343746949136,0.47788830887422434,0.03185981680605336
banwiki,False,15.0,0.01733216322948662,0.8777777777777778,0.5616518598066973,0.4411503988968778,0.03399311531841653
banwiki,False,16.0,0.018632075471698113,0.8777777777777778,0.5926974519183833,0.4098296070127056,0.03648960739030023
banwiki,False,17.0,0.019706922688226377,0.8666666666666667,0.620033193400371,0.3821530582093962,0.038537549407114624
banwiki,False,18.0,0.02035896062148406,0.8444444444444444,0.6416089036415112,0.36018910666797993,0.039759351294794666
banwiki,False,19.0,0.021865889212827987,0.8333333333333334,0.6709948257346481,0.3304442036836403,0.04261363636363637
banwiki,False,20.0,0.02376425855513308,0.8333333333333334,0.697744801327736,0.3034571062740077,0.046210720887245836
banwiki,False,21.0,0.025703369225425494,0.8222222222222222,0.7245924045689739,0.27627302275189597,0.0498484338160997
banwiki,False,22.0,0.026184058529072005,0.7555555555555555,0.750951869569462,0.2490889392297843,0.05061406773353182
banwiki,False,23.0,0.02825811893715732,0.7444444444444445,0.7728204627550522,0.2269280015758889,0.05444941080861438
banwiki,False,24.0,0.030612244897959183,0.7333333333333333,0.7936151518109928,0.20585048754062837,0.05877114870881567
banwiki,False,25.0,0.03294475418144957,0.7222222222222222,0.811285756126135,0.187924751305033,0.06301502666020359
banwiki,False,26.0,0.03508771929824561,0.7111111111111111,0.8256370204041784,0.1733477789815818,0.06687565308254963
banwiki,False,27.0,0.037892243931320305,0.7111111111111111,0.8388167529044225,0.16005121638924455,0.07195053400786959
banwiki,False,28.0,0.04007633587786259,0.7,0.8500439324416674,0.14862602186545848,0.07581227436823104
banwiki,False,29.0,0.04360056258790436,0.6888888888888889,0.864492824367861,0.13395055648576776,0.08201058201058202
banwiki,False,30.0,0.045662100456621,0.6666666666666666,0.8746460997754564,0.12351029252437704,0.08547008547008547
banwiki,False,31.0,0.04817275747508306,0.6444444444444445,0.8849946304793518,0.11287304245050724,0.08964451313755796
banwiki,False,32.0,0.051630434782608696,0.6333333333333333,0.8945621399980475,0.10312222988279326,0.09547738693467338
banwiki,False,33.0,0.053816046966731895,0.6111111111111112,0.902177096553744,0.09524278538363046,0.0989208633093525
banwiki,False,34.0,0.057651991614255764,0.6111111111111112,0.908815776627941,0.08854525755934206,0.1053639846743295
banwiki,False,35.0,0.05941704035874439,0.5888888888888889,0.9144781802206385,0.08263567418496996,0.10794297352342158
banwiki,False,36.0,0.06339712918660287,0.5888888888888889,0.919945328517036,0.07712006303555599,0.11447084233261338
banwiki,False,37.0,0.06521739130434782,0.5666666666666667,0.9248267109245338,0.07199842411110016,0.11697247706422018
banwiki,False,38.0,0.06919945725915876,0.5666666666666667,0.9292199550912819,0.06756623658032108,0.12333736396614269
banwiki,False,39.0,0.07204610951008646,0.5555555555555556,0.93322268866543,0.06342952821826062,0.12755102040816327
banwiki,False,40.0,0.07633587786259542,0.5555555555555556,0.9370301669432783,0.059588299024918745,0.1342281879194631
banwiki,False,41.0,0.08183306055646482,0.5555555555555556,0.9413257834618765,0.0552546045503792,0.14265335235378035
banwiki,False,42.0,0.08726003490401396,0.5555555555555556,0.9450356340915748,0.051511868413276866,0.15082956259426847
banwiki,False,43.0,0.09057301293900184,0.5444444444444444,0.9479644635360734,0.04845858366985128,0.1553090332805071
banwiki,False,44.0,0.0962671905697446,0.5444444444444444,0.9510885482768721,0.04530680587018615,0.16360601001669448
banwiki,False,45.0,0.1031578947368421,0.5444444444444444,0.9544078883139705,0.04195804195804196,0.17345132743362832
banwiki,False,46.0,0.1101123595505618,0.5444444444444444,0.9573367177584692,0.0390032502708559,0.18317757009345795
banwiki,False,47.0,0.10955710955710955,0.5222222222222223,0.9585082495362687,0.037624347483502414,0.1811175337186898
banwiki,False,48.0,0.11435523114355231,0.5222222222222223,0.9602655472029679,0.03585147247119078,0.187624750499002
banwiki,False,49.0,0.11989795918367346,0.5222222222222223,0.9621204725178171,0.03398010440263961,0.19502074688796683
banwiki,False,50.0,0.12169312169312169,0.5111111111111111,0.9632920042956166,0.032699694671525656,0.19658119658119658
banwiki,False,51.0,0.12813370473537605,0.5111111111111111,0.9651469296104657,0.03082832660297449,0.20489977728285075
banwiki,False,52.0,0.13119533527696792,0.5,0.9665137166845651,0.029350930759381465,0.20785219399538105
banwiki,False,53.0,0.13392857142857142,0.5,0.9671971102216148,0.028661479365704717,0.2112676056338028
banwiki,False,54.0,0.13975155279503104,0.5,0.9685638972957141,0.027282576578351227,0.21844660194174756
banwiki,False,55.0,0.1490066225165563,0.5,0.9705164502587132,0.025312715453560525,0.2295918367346939
banwiki,False,56.0,0.1506849315068493,0.4888888888888889,0.9712974714439129,0.024426277947404706,0.23036649214659682
banwiki,False,57.0,0.15714285714285714,0.4888888888888889,0.9724690032217124,0.023244361272530288,0.23783783783783785
banwiki,False,58.0,0.16117216117216118,0.4888888888888889,0.9731523967587621,0.02255490987885354,0.24242424242424243
banwiki,False,59.0,0.16730038022813687,0.4888888888888889,0.9741286732402616,0.02156997931645819,0.2492917847025496
banwiki,False,60.0,0.1746031746031746,0.4888888888888889,0.9752025773699111,0.020486555697823303,0.2573099415204678
banwiki,False,61.0,0.18032786885245902,0.4888888888888889,0.9759835985551109,0.019698611247907023,0.2634730538922156
banwiki,False,62.0,0.18803418803418803,0.4888888888888889,0.9769598750366104,0.01871368068551167,0.2716049382716049
banwiki,False,63.0,0.19457013574660634,0.4777777777777778,0.9780337791662599,0.01753176401063725,0.2765273311897106
banwiki,False,64.0,0.20187793427230047,0.4777777777777778,0.9788148003514595,0.01674381956072097,0.2838283828382839
banwiki,False,65.0,0.21354166666666666,0.45555555555555555,0.9804744703700088,0.014872451492169802,0.2907801418439716
banwiki,False,66.0,0.21808510638297873,0.45555555555555555,0.9808649809626087,0.014478479267211661,0.29496402877697847
banwiki,False,67.0,0.2247191011235955,0.4444444444444444,0.9816460021478083,0.013592041761055846,0.29850746268656714
banwiki,False,68.0,0.23529411764705882,0.4444444444444444,0.9824270233330079,0.012804097311139564,0.30769230769230765
banwiki,False,69.0,0.24242424242424243,0.4444444444444444,0.9829151615737577,0.012311632029941889,0.3137254901960784
banwiki,False,70.0,0.2564102564102564,0.4444444444444444,0.9837938104071073,0.011425194523786073,0.3252032520325203
banwiki,False,71.0,0.2653061224489796,0.43333333333333335,0.9844772039441569,0.010637250073869791,0.3291139240506329
banwiki,False,72.0,0.2733812949640288,0.4222222222222222,0.9850629698330567,0.009947798680193047,0.3318777292576419
banwiki,False,73.0,0.2748091603053435,0.4,0.9854534804256565,0.009356840342755836,0.3257918552036199
banwiki,False,74.0,0.29508196721311475,0.4,0.9863321292590062,0.00847040283660002,0.33962264150943394
banwiki,False,75.0,0.30357142857142855,0.37777777777777777,0.9869178951479058,0.0076824583866837385,0.33663366336633654
banwiki,False,76.0,0.3148148148148148,0.37777777777777777,0.9873084057405057,0.0072884861617255985,0.34343434343434337
banwiki,False,77.0,0.34375,0.36666666666666664,0.9882846822220053,0.006205062543090712,0.3548387096774193
banwiki,False,78.0,0.34831460674157305,0.34444444444444444,0.9885775651664551,0.005712597261893037,0.34636871508379885
banwiki,False,79.0,0.35,0.3111111111111111,0.988870448110905,0.005121638924455826,0.32941176470588235
banwiki,False,80.0,0.35135135135135137,0.28888888888888886,0.9890657034072049,0.004727666699497686,0.31707317073170727
banwiki,False,81.0,0.36231884057971014,0.2777777777777778,0.9893585863516547,0.004333694474539545,0.3144654088050315
banwiki,False,82.0,0.3793103448275862,0.24444444444444444,0.9898467245924045,0.0035457500246232642,0.29729729729729726
banwiki,False,83.0,0.37735849056603776,0.2222222222222222,0.9899443522405545,0.0032502708559046588,0.27972027972027974
banwiki,False,84.0,0.3829787234042553,0.2,0.9901396075368545,0.0028562986309465183,0.2627737226277372
banwiki,False,85.0,0.38095238095238093,0.17777777777777778,0.9902372351850044,0.002560819462227913,0.24242424242424243
banwiki,False,86.0,0.4,0.15555555555555556,0.9905301181294542,0.0020683541810302374,0.224
banwiki,False,87.0,0.43333333333333335,0.14444444444444443,0.9908230010739041,0.0016743819560720969,0.21666666666666667
banwiki,False,88.0,0.4,0.1111111111111111,0.9907253734257542,0.0014773958435930267,0.1739130434782609
banwiki,False,89.0,0.43478260869565216,0.1111111111111111,0.9909206287220541,0.0012804097311139564,0.17699115044247787
banwiki,False,90.0,0.42105263157894735,0.08888888888888889,0.9909206287220541,0.0010834236186348862,0.14678899082568808
banwiki,False,91.0,0.36363636363636365,0.044444444444444446,0.9909206287220541,0.0006894513936767458,0.07920792079207921
banwiki,False,92.0,0.14285714285714285,0.011111111111111112,0.9907253734257542,0.0005909583374372107,0.02061855670103093
banwiki,False,93.0,0.2,0.011111111111111112,0.9909206287220541,0.00039397222495814047,0.021052631578947368
banwiki,False,94.0,0.0,0.0,0.9909206287220541,0.00029547916871860535,0.021052631578947368
banwiki,False,95.0,0.0,0.0,0.991018256370204,0.00019698611247907023,0.021052631578947368
banwiki,False,96.0,0.0,0.0,0.991018256370204,0.00019698611247907023,0.021052631578947368
banwiki,False,97.0,0.0,0.0,0.991115884018354,9.849305623953512e-05,0.021052631578947368
banwiki,False,98.0,0.0,0.0,0.991115884018354,9.849305623953512e-05,0.021052631578947368
banwiki,False,99.0,0.0,0.0,0.991213511666504,0.0,0.021052631578947368
