wiki_db,user_is_anonymous,threshold,precision,recall,accuracy,fpr,F1
bhwiki,True,0.0,0.5380577427821522,1.0,0.5380577427821522,1.0,0.6996587030716723
bhwiki,True,1.0,0.5380577427821522,1.0,0.5380577427821522,1.0,0.6996587030716723
bhwiki,True,2.0,0.5380577427821522,1.0,0.5380577427821522,1.0,0.6996587030716723
bhwiki,True,3.0,0.5380577427821522,1.0,0.5380577427821522,1.0,0.6996587030716723
bhwiki,True,4.0,0.5380577427821522,1.0,0.5380577427821522,1.0,0.6996587030716723
bhwiki,True,5.0,0.5380577427821522,1.0,0.5380577427821522,1.0,0.6996587030716723
bhwiki,True,6.0,0.5380577427821522,1.0,0.5380577427821522,1.0,0.6996587030716723
bhwiki,True,7.0,0.5380577427821522,1.0,0.5380577427821522,1.0,0.6996587030716723
bhwiki,True,8.0,0.5380577427821522,1.0,0.5380577427821522,1.0,0.6996587030716723
bhwiki,True,9.0,0.5380577427821522,1.0,0.5380577427821522,1.0,0.6996587030716723
bhwiki,True,10.0,0.5380577427821522,1.0,0.5380577427821522,1.0,0.6996587030716723
bhwiki,True,11.0,0.5380577427821522,1.0,0.5380577427821522,1.0,0.6996587030716723
bhwiki,True,12.0,0.5380577427821522,1.0,0.5380577427821522,1.0,0.6996587030716723
bhwiki,True,13.0,0.5380577427821522,1.0,0.5380577427821522,1.0,0.6996587030716723
bhwiki,True,14.0,0.5380577427821522,1.0,0.5380577427821522,1.0,0.6996587030716723
bhwiki,True,15.0,0.5380577427821522,1.0,0.5380577427821522,1.0,0.6996587030716723
bhwiki,True,16.0,0.5380577427821522,1.0,0.5380577427821522,1.0,0.6996587030716723
bhwiki,True,17.0,0.5380577427821522,1.0,0.5380577427821522,1.0,0.6996587030716723
bhwiki,True,18.0,0.5380577427821522,1.0,0.5380577427821522,1.0,0.6996587030716723
bhwiki,True,19.0,0.5380577427821522,1.0,0.5380577427821522,1.0,0.6996587030716723
bhwiki,True,20.0,0.5380577427821522,1.0,0.5380577427821522,1.0,0.6996587030716723
bhwiki,True,21.0,0.5380577427821522,1.0,0.5380577427821522,1.0,0.6996587030716723
bhwiki,True,22.0,0.5380577427821522,1.0,0.5380577427821522,1.0,0.6996587030716723
bhwiki,True,23.0,0.5394736842105263,1.0,0.5406824146981627,0.9943181818181818,0.7008547008547009
bhwiki,True,24.0,0.5394736842105263,1.0,0.5406824146981627,0.9943181818181818,0.7008547008547009
bhwiki,True,25.0,0.5394736842105263,1.0,0.5406824146981627,0.9943181818181818,0.7008547008547009
bhwiki,True,26.0,0.5394736842105263,1.0,0.5406824146981627,0.9943181818181818,0.7008547008547009
bhwiki,True,27.0,0.5408970976253298,1.0,0.5433070866141733,0.9886363636363636,0.7020547945205479
bhwiki,True,28.0,0.5423280423280423,1.0,0.5459317585301837,0.9829545454545454,0.7032590051457976
bhwiki,True,29.0,0.5423280423280423,1.0,0.5459317585301837,0.9829545454545454,0.7032590051457976
bhwiki,True,30.0,0.5423280423280423,1.0,0.5459317585301837,0.9829545454545454,0.7032590051457976
bhwiki,True,31.0,0.5423280423280423,1.0,0.5459317585301837,0.9829545454545454,0.7032590051457976
bhwiki,True,32.0,0.5423280423280423,1.0,0.5459317585301837,0.9829545454545454,0.7032590051457976
bhwiki,True,33.0,0.5423280423280423,1.0,0.5459317585301837,0.9829545454545454,0.7032590051457976
bhwiki,True,34.0,0.5423280423280423,1.0,0.5459317585301837,0.9829545454545454,0.7032590051457976
bhwiki,True,35.0,0.5437665782493368,1.0,0.5485564304461942,0.9772727272727273,0.70446735395189
bhwiki,True,36.0,0.5452127659574468,1.0,0.5511811023622047,0.9715909090909091,0.7056798623063684
bhwiki,True,37.0,0.5452127659574468,1.0,0.5511811023622047,0.9715909090909091,0.7056798623063684
bhwiki,True,38.0,0.5481283422459893,1.0,0.5564304461942258,0.9602272727272727,0.7081174438687392
bhwiki,True,39.0,0.5481283422459893,1.0,0.5564304461942258,0.9602272727272727,0.7081174438687392
bhwiki,True,40.0,0.5481283422459893,1.0,0.5564304461942258,0.9602272727272727,0.7081174438687392
bhwiki,True,41.0,0.5481283422459893,1.0,0.5564304461942258,0.9602272727272727,0.7081174438687392
bhwiki,True,42.0,0.5481283422459893,1.0,0.5564304461942258,0.9602272727272727,0.7081174438687392
bhwiki,True,43.0,0.5481283422459893,1.0,0.5564304461942258,0.9602272727272727,0.7081174438687392
bhwiki,True,44.0,0.5510752688172043,1.0,0.5616797900262467,0.9488636363636364,0.7105719237435009
bhwiki,True,45.0,0.5510752688172043,1.0,0.5616797900262467,0.9488636363636364,0.7105719237435009
bhwiki,True,46.0,0.5540540540540541,1.0,0.5669291338582677,0.9375,0.7130434782608697
bhwiki,True,47.0,0.5555555555555556,1.0,0.5695538057742782,0.9318181818181818,0.7142857142857143
bhwiki,True,48.0,0.5570652173913043,1.0,0.5721784776902887,0.9261363636363636,0.7155322862129145
bhwiki,True,49.0,0.5570652173913043,1.0,0.5721784776902887,0.9261363636363636,0.7155322862129145
bhwiki,True,50.0,0.5570652173913043,1.0,0.5721784776902887,0.9261363636363636,0.7155322862129145
bhwiki,True,51.0,0.5573770491803278,0.9951219512195122,0.5721784776902887,0.9204545454545454,0.7145359019264448
bhwiki,True,52.0,0.5589041095890411,0.9951219512195122,0.5748031496062992,0.9147727272727273,0.7157894736842106
bhwiki,True,53.0,0.5589041095890411,0.9951219512195122,0.5748031496062992,0.9147727272727273,0.7157894736842106
bhwiki,True,54.0,0.5604395604395604,0.9951219512195122,0.5774278215223098,0.9090909090909091,0.7170474516695957
bhwiki,True,55.0,0.5604395604395604,0.9951219512195122,0.5774278215223098,0.9090909090909091,0.7170474516695957
bhwiki,True,56.0,0.559228650137741,0.9902439024390244,0.5748031496062992,0.9090909090909091,0.7147887323943662
bhwiki,True,57.0,0.5580110497237569,0.9853658536585366,0.5721784776902887,0.9090909090909091,0.7125220458553793
bhwiki,True,58.0,0.5580110497237569,0.9853658536585366,0.5721784776902887,0.9090909090909091,0.7125220458553793
bhwiki,True,59.0,0.5580110497237569,0.9853658536585366,0.5721784776902887,0.9090909090909091,0.7125220458553793
bhwiki,True,60.0,0.556786703601108,0.9804878048780488,0.5695538057742782,0.9090909090909091,0.7102473498233215
bhwiki,True,61.0,0.5583333333333333,0.9804878048780488,0.5721784776902887,0.9034090909090909,0.7115044247787611
bhwiki,True,62.0,0.5571030640668524,0.975609756097561,0.5695538057742782,0.9034090909090909,0.7092198581560284
bhwiki,True,63.0,0.5571030640668524,0.975609756097561,0.5695538057742782,0.9034090909090909,0.7092198581560284
bhwiki,True,64.0,0.5558659217877095,0.9707317073170731,0.5669291338582677,0.9034090909090909,0.7069271758436945
bhwiki,True,65.0,0.5558659217877095,0.9707317073170731,0.5669291338582677,0.9034090909090909,0.7069271758436945
bhwiki,True,66.0,0.5558659217877095,0.9707317073170731,0.5669291338582677,0.9034090909090909,0.7069271758436945
bhwiki,True,67.0,0.5549295774647888,0.9609756097560975,0.5643044619422573,0.8977272727272727,0.7035714285714285
bhwiki,True,68.0,0.5580736543909348,0.9609756097560975,0.5695538057742782,0.8863636363636364,0.7060931899641577
bhwiki,True,69.0,0.5571428571428572,0.9512195121951219,0.5669291338582677,0.8806818181818182,0.7027027027027027
bhwiki,True,70.0,0.5606936416184971,0.9463414634146341,0.5721784776902887,0.8636363636363636,0.7041742286751361
bhwiki,True,71.0,0.5626822157434402,0.9414634146341463,0.5748031496062992,0.8522727272727273,0.7043795620437957
bhwiki,True,72.0,0.5659824046920822,0.9414634146341463,0.5800524934383202,0.8409090909090909,0.706959706959707
bhwiki,True,73.0,0.5727002967359051,0.9414634146341463,0.5905511811023622,0.8181818181818182,0.7121771217712177
bhwiki,True,74.0,0.5705705705705706,0.926829268292683,0.5853018372703412,0.8125,0.7063197026022304
bhwiki,True,75.0,0.5749235474006116,0.9170731707317074,0.5905511811023622,0.7897727272727273,0.7067669172932332
bhwiki,True,76.0,0.5763239875389408,0.9024390243902439,0.5905511811023622,0.7727272727272727,0.7034220532319392
bhwiki,True,77.0,0.580952380952381,0.8926829268292683,0.5958005249343832,0.75,0.7038461538461539
bhwiki,True,78.0,0.5857605177993528,0.8829268292682927,0.6010498687664042,0.7272727272727273,0.7042801556420234
bhwiki,True,79.0,0.5849673202614379,0.8731707317073171,0.5984251968503937,0.7215909090909091,0.7005870841487281
bhwiki,True,80.0,0.5906040268456376,0.8585365853658536,0.6036745406824147,0.6931818181818182,0.6998011928429424
bhwiki,True,81.0,0.5958188153310104,0.8341463414634146,0.6062992125984252,0.6590909090909091,0.6951219512195121
bhwiki,True,82.0,0.6094890510948905,0.8146341463414634,0.6194225721784777,0.6079545454545454,0.697286012526096
bhwiki,True,83.0,0.6153846153846154,0.7804878048780488,0.6194225721784777,0.5681818181818182,0.6881720430107527
bhwiki,True,84.0,0.625,0.7560975609756098,0.6246719160104987,0.5284090909090909,0.684326710816777
bhwiki,True,85.0,0.6307053941908713,0.7414634146341463,0.6272965879265092,0.5056818181818182,0.6816143497757847
bhwiki,True,86.0,0.6387665198237885,0.7073170731707317,0.6272965879265092,0.4659090909090909,0.6712962962962963
bhwiki,True,87.0,0.6394230769230769,0.6487804878048781,0.6141732283464567,0.42613636363636365,0.6440677966101696
bhwiki,True,88.0,0.6479591836734694,0.6195121951219512,0.6141732283464567,0.39204545454545453,0.6334164588528679
bhwiki,True,89.0,0.632768361581921,0.5463414634146342,0.5853018372703412,0.3693181818181818,0.5863874345549739
bhwiki,True,90.0,0.6217948717948718,0.47317073170731705,0.5616797900262467,0.3352272727272727,0.5373961218836565
bhwiki,True,91.0,0.6159420289855072,0.4146341463414634,0.5459317585301837,0.30113636363636365,0.49562682215743437
bhwiki,True,92.0,0.5934959349593496,0.35609756097560974,0.5223097112860893,0.2840909090909091,0.44512195121951215
bhwiki,True,93.0,0.5957446808510638,0.2731707317073171,0.5091863517060368,0.2159090909090909,0.37458193979933113
bhwiki,True,94.0,0.6438356164383562,0.22926829268292684,0.5170603674540682,0.14772727272727273,0.33812949640287776
bhwiki,True,95.0,0.75,0.16097560975609757,0.5196850393700787,0.0625,0.2650602409638554
bhwiki,True,96.0,0.8571428571428571,0.08780487804878048,0.5013123359580053,0.017045454545454544,0.1592920353982301
bhwiki,True,97.0,0.9230769230769231,0.05853658536585366,0.49081364829396323,0.005681818181818182,0.11009174311926606
bhwiki,True,98.0,0.9230769230769231,0.05853658536585366,0.49081364829396323,0.005681818181818182,0.11009174311926606
bhwiki,True,99.0,1.0,0.05365853658536585,0.49081364829396323,0.0,0.10185185185185185
bhwiki,False,0.0,0.05912596401028278,1.0,0.05912596401028278,1.0,0.11165048543689321
bhwiki,False,1.0,0.05914116739521728,1.0,0.05938303341902314,0.9997267759562841,0.11167759164845835
bhwiki,False,2.0,0.06319290465631928,0.991304347826087,0.13059125964010282,0.9234972677595629,0.11881188118811879
bhwiki,False,3.0,0.06832871652816251,0.9652173913043478,0.21979434447300772,0.8270491803278689,0.12762288013797068
bhwiki,False,4.0,0.07394843962008141,0.9478260869565217,0.29511568123393317,0.7459016393442623,0.13719320327249843
bhwiki,False,5.0,0.078684891023273,0.9260869565217391,0.3544987146529563,0.6814207650273224,0.1450459652706844
bhwiki,False,6.0,0.08333333333333333,0.9217391304347826,0.39588688946015427,0.6371584699453552,0.1528478731074261
bhwiki,False,7.0,0.0872093023255814,0.9130434782608695,0.42982005141388174,0.6005464480874317,0.15921152388172857
bhwiki,False,8.0,0.08981521272024065,0.908695652173913,0.4501285347043702,0.578688524590164,0.16347281971059835
bhwiki,False,9.0,0.09317877842175658,0.908695652173913,0.4717223650385604,0.5557377049180328,0.16902547513141936
bhwiki,False,10.0,0.09468822170900693,0.8913043478260869,0.4897172236503856,0.5355191256830601,0.17118997912317327
bhwiki,False,11.0,0.09836852207293666,0.8913043478260869,0.5105398457583548,0.5133879781420765,0.17718236819360414
bhwiki,False,12.0,0.10215322984476716,0.8869565217391304,0.5323907455012854,0.48989071038251364,0.18320610687022904
bhwiki,False,13.0,0.10617154811715482,0.8826086956521739,0.5537275064267352,0.4669398907103825,0.18954248366013074
bhwiki,False,14.0,0.11031439602868175,0.8695652173913043,0.5776349614395887,0.4407103825136612,0.19579050416054822
bhwiki,False,15.0,0.11514104778353483,0.8695652173913043,0.5971722365038561,0.4199453551912568,0.20335536349771224
bhwiki,False,16.0,0.11987951807228915,0.8652173913043478,0.616452442159383,0.39918032786885244,0.2105820105820106
bhwiki,False,17.0,0.12555485098287889,0.8608695652173913,0.6372750642673521,0.376775956284153,0.21914775871610404
bhwiki,False,18.0,0.13066666666666665,0.8521739130434782,0.6560411311053984,0.35628415300546445,0.2265895953757225
bhwiki,False,19.0,0.1348314606741573,0.8347826086956521,0.6735218508997429,0.3366120218579235,0.2321644498186215
bhwiki,False,20.0,0.14023494860499267,0.8304347826086956,0.6889460154241646,0.31994535519125683,0.2399497487437186
bhwiki,False,21.0,0.14618973561430793,0.8173913043478261,0.7069408740359897,0.3,0.24802110817941952
bhwiki,False,22.0,0.1526530612244898,0.8130434782608695,0.722107969151671,0.2836065573770492,0.2570446735395189
bhwiki,False,23.0,0.16131830008673026,0.808695652173913,0.7401028277634961,0.26420765027322407,0.26898047722342733
bhwiki,False,24.0,0.1686526122823098,0.8,0.755012853470437,0.24781420765027323,0.2785768357305072
bhwiki,False,25.0,0.1769825918762089,0.7956521739130434,0.7691516709511568,0.23251366120218578,0.28955696202531644
bhwiki,False,26.0,0.18107833163784334,0.7739130434782608,0.7796915167095115,0.21994535519125682,0.29348722176422093
bhwiki,False,27.0,0.18904403866809882,0.7652173913043478,0.7920308483290488,0.2062841530054645,0.3031869078380706
bhwiki,False,28.0,0.19886363636363635,0.7608695652173914,0.8046272493573264,0.19262295081967212,0.3153153153153153
bhwiki,False,29.0,0.20714285714285716,0.7565217391304347,0.8143958868894602,0.1819672131147541,0.3252336448598131
bhwiki,False,30.0,0.2123456790123457,0.7478260869565218,0.8210796915167096,0.17431693989071037,0.33076923076923076
bhwiki,False,31.0,0.2187902187902188,0.7391304347826086,0.82853470437018,0.16584699453551913,0.33763654419066536
bhwiki,False,32.0,0.22506738544474394,0.7260869565217392,0.8359897172236503,0.15710382513661203,0.3436213991769548
bhwiki,False,33.0,0.2315202231520223,0.7217391304347827,0.8419023136246787,0.1505464480874317,0.3505807814149947
bhwiki,False,34.0,0.23768115942028986,0.7130434782608696,0.847814910025707,0.14371584699453552,0.3565217391304348
bhwiki,False,35.0,0.242152466367713,0.7043478260869566,0.8521850899742931,0.13852459016393442,0.36040044493882095
bhwiki,False,36.0,0.24961479198767333,0.7043478260869566,0.8573264781491002,0.13306010928961748,0.36860068259385664
bhwiki,False,37.0,0.25961538461538464,0.7043478260869566,0.8637532133676092,0.12622950819672132,0.3793911007025761
bhwiki,False,38.0,0.26865671641791045,0.7043478260869566,0.8691516709511569,0.12049180327868853,0.38895558223289317
bhwiki,False,39.0,0.27597955706984667,0.7043478260869566,0.8732647814910026,0.11612021857923498,0.39657282741738065
bhwiki,False,40.0,0.28146853146853146,0.7,0.8766066838046273,0.11229508196721312,0.4014962593516209
bhwiki,False,41.0,0.28520499108734404,0.6956521739130435,0.8789203084832905,0.10956284153005465,0.40455120101137804
bhwiki,False,42.0,0.2888086642599278,0.6956521739130435,0.880719794344473,0.10765027322404372,0.4081632653061224
bhwiki,False,43.0,0.29174311926605506,0.691304347826087,0.8825192802056555,0.10546448087431694,0.4103225806451613
bhwiki,False,44.0,0.2945590994371482,0.6826086956521739,0.8845758354755784,0.10273224043715846,0.4115334207077326
bhwiki,False,45.0,0.29904761904761906,0.6826086956521739,0.8866323907455013,0.1005464480874317,0.41589403973509936
bhwiki,False,46.0,0.3048543689320388,0.6826086956521739,0.8892030848329049,0.09781420765027322,0.42147651006711406
bhwiki,False,47.0,0.30544747081712065,0.6826086956521739,0.8894601542416453,0.09754098360655737,0.4220430107526882
bhwiki,False,48.0,0.3090551181102362,0.6826086956521739,0.8910025706940874,0.0959016393442623,0.4254742547425474
bhwiki,False,49.0,0.3102766798418972,0.6826086956521739,0.8915167095115681,0.0953551912568306,0.42663043478260865
bhwiki,False,50.0,0.31388329979879276,0.6782608695652174,0.8933161953727506,0.09316939890710382,0.42916093535075656
bhwiki,False,51.0,0.3169734151329243,0.6739130434782609,0.8948586118251928,0.0912568306010929,0.43115438108484005
bhwiki,False,52.0,0.3202479338842975,0.6739130434782609,0.8961439588688946,0.08989071038251366,0.4341736694677871
bhwiki,False,53.0,0.32563025210084034,0.6739130434782609,0.8982005141388175,0.08770491803278689,0.43909348441926344
bhwiki,False,54.0,0.33047210300429186,0.6695652173913044,0.9002570694087404,0.08524590163934426,0.442528735632184
bhwiki,False,55.0,0.3333333333333333,0.6652173913043479,0.9015424164524422,0.08360655737704918,0.44412191582002897
bhwiki,False,56.0,0.33849557522123896,0.6652173913043479,0.9033419023136247,0.08169398907103825,0.44868035190615835
bhwiki,False,57.0,0.3431818181818182,0.6565217391304348,0.9053984575835475,0.07896174863387978,0.4507462686567164
bhwiki,False,58.0,0.345707656612529,0.6478260869565218,0.9066838046272494,0.07704918032786885,0.45083207261724656
bhwiki,False,59.0,0.3547619047619048,0.6478260869565218,0.9095115681233933,0.07404371584699454,0.4584615384615385
bhwiki,False,60.0,0.36049382716049383,0.6347826086956522,0.9118251928020565,0.07076502732240438,0.45984251968503936
bhwiki,False,61.0,0.369620253164557,0.6347826086956522,0.9143958868894602,0.0680327868852459,0.4672
bhwiki,False,62.0,0.37628865979381443,0.6347826086956522,0.9161953727506427,0.06612021857923497,0.4724919093851133
bhwiki,False,63.0,0.3815789473684211,0.6304347826086957,0.9177377892030848,0.06420765027322405,0.47540983606557374
bhwiki,False,64.0,0.39402173913043476,0.6304347826086957,0.9208226221079692,0.06092896174863388,0.48494983277591974
bhwiki,False,65.0,0.4,0.6260869565217392,0.9223650385604113,0.05901639344262295,0.488135593220339
bhwiki,False,66.0,0.4067796610169492,0.6260869565217392,0.9239074550128534,0.05737704918032787,0.4931506849315068
bhwiki,False,67.0,0.4114285714285714,0.6260869565217392,0.9249357326478149,0.05628415300546448,0.496551724137931
bhwiki,False,68.0,0.4186046511627907,0.6260869565217392,0.926478149100257,0.0546448087431694,0.5017421602787457
bhwiki,False,69.0,0.42729970326409494,0.6260869565217392,0.9282776349614396,0.05273224043715847,0.5079365079365079
bhwiki,False,70.0,0.43597560975609756,0.6217391304347826,0.9300771208226221,0.050546448087431695,0.5125448028673836
bhwiki,False,71.0,0.4392523364485981,0.6130434782608696,0.9308483290488432,0.04918032786885246,0.5117967332123412
bhwiki,False,72.0,0.44025157232704404,0.6086956521739131,0.9311053984575836,0.048633879781420766,0.5109489051094891
bhwiki,False,73.0,0.45307443365695793,0.6086956521739131,0.9334190231362468,0.04617486338797814,0.5194805194805195
bhwiki,False,74.0,0.46511627906976744,0.6086956521739131,0.9354755784061697,0.043989071038251365,0.5273069679849341
bhwiki,False,75.0,0.4793103448275862,0.6043478260869565,0.9377892030848329,0.0412568306010929,0.5346153846153846
bhwiki,False,76.0,0.4946236559139785,0.6,0.9401028277634962,0.038524590163934426,0.5422396856581532
bhwiki,False,77.0,0.5056179775280899,0.5869565217391305,0.9416452442159383,0.036065573770491806,0.5432595573440645
bhwiki,False,78.0,0.5057471264367817,0.5739130434782609,0.9416452442159383,0.03524590163934426,0.5376782077393075
bhwiki,False,79.0,0.52,0.5652173913043478,0.9434447300771208,0.03278688524590164,0.5416666666666667
bhwiki,False,80.0,0.5291666666666667,0.5521739130434783,0.9444730077120823,0.03087431693989071,0.5404255319148936
bhwiki,False,81.0,0.5333333333333333,0.5217391304347826,0.9447300771208226,0.028688524590163935,0.5274725274725275
bhwiki,False,82.0,0.5454545454545454,0.4956521739130435,0.9457583547557841,0.025956284153005466,0.5193621867881549
bhwiki,False,83.0,0.5661375661375662,0.4652173913043478,0.9473007712082262,0.022404371584699455,0.5107398568019093
bhwiki,False,84.0,0.5730337078651685,0.4434782608695652,0.9475578406169666,0.020765027322404372,0.5
bhwiki,False,85.0,0.6049382716049383,0.4260869565217391,0.9496143958868895,0.017486338797814208,0.5
bhwiki,False,86.0,0.6394557823129252,0.40869565217391307,0.951413881748072,0.01448087431693989,0.49867374005305043
bhwiki,False,87.0,0.656934306569343,0.391304347826087,0.9519280205655527,0.012841530054644808,0.49046321525885556
bhwiki,False,88.0,0.6774193548387096,0.3652173913043478,0.9521850899742931,0.01092896174863388,0.47457627118644063
bhwiki,False,89.0,0.6972477064220184,0.33043478260869563,0.9519280205655527,0.009016393442622951,0.44837758112094395
bhwiki,False,90.0,0.7087378640776699,0.3173913043478261,0.9519280205655527,0.00819672131147541,0.43843843843843844
bhwiki,False,91.0,0.7419354838709677,0.3,0.9524421593830334,0.006557377049180328,0.4272445820433436
bhwiki,False,92.0,0.8051948051948052,0.26956521739130435,0.9529562982005141,0.004098360655737705,0.4039087947882736
bhwiki,False,93.0,0.8,0.24347826086956523,0.9516709511568123,0.003825136612021858,0.3733333333333334
bhwiki,False,94.0,0.8275862068965517,0.20869565217391303,0.950642673521851,0.00273224043715847,0.3333333333333333
bhwiki,False,95.0,0.8301886792452831,0.19130434782608696,0.9498714652956298,0.002459016393442623,0.31095406360424027
bhwiki,False,96.0,0.9,0.1565217391304348,0.9491002570694087,0.001092896174863388,0.26666666666666666
bhwiki,False,97.0,0.9666666666666667,0.12608695652173912,0.9480719794344473,0.000273224043715847,0.22307692307692303
bhwiki,False,98.0,0.9523809523809523,0.08695652173913043,0.9457583547557841,0.000273224043715847,0.15936254980079684
bhwiki,False,99.0,0.9230769230769231,0.05217391304347826,0.9437017994858612,0.000273224043715847,0.09876543209876543
