wiki_db,user_is_anonymous,threshold,precision,recall,accuracy,fpr,F1
bpywiki,True,0.0,0.6190476190476191,1.0,0.6190476190476191,1.0,0.7647058823529412
bpywiki,True,1.0,0.6190476190476191,1.0,0.6190476190476191,1.0,0.7647058823529412
bpywiki,True,2.0,0.6190476190476191,1.0,0.6190476190476191,1.0,0.7647058823529412
bpywiki,True,3.0,0.6190476190476191,1.0,0.6190476190476191,1.0,0.7647058823529412
bpywiki,True,4.0,0.6190476190476191,1.0,0.6190476190476191,1.0,0.7647058823529412
bpywiki,True,5.0,0.6190476190476191,1.0,0.6190476190476191,1.0,0.7647058823529412
bpywiki,True,6.0,0.6190476190476191,1.0,0.6190476190476191,1.0,0.7647058823529412
bpywiki,True,7.0,0.6190476190476191,1.0,0.6190476190476191,1.0,0.7647058823529412
bpywiki,True,8.0,0.6190476190476191,1.0,0.6190476190476191,1.0,0.7647058823529412
bpywiki,True,9.0,0.6190476190476191,1.0,0.6190476190476191,1.0,0.7647058823529412
bpywiki,True,10.0,0.6190476190476191,1.0,0.6190476190476191,1.0,0.7647058823529412
bpywiki,True,11.0,0.6190476190476191,1.0,0.6190476190476191,1.0,0.7647058823529412
bpywiki,True,12.0,0.6190476190476191,1.0,0.6190476190476191,1.0,0.7647058823529412
bpywiki,True,13.0,0.6190476190476191,1.0,0.6190476190476191,1.0,0.7647058823529412
bpywiki,True,14.0,0.6190476190476191,1.0,0.6190476190476191,1.0,0.7647058823529412
bpywiki,True,15.0,0.6190476190476191,1.0,0.6190476190476191,1.0,0.7647058823529412
bpywiki,True,16.0,0.6190476190476191,1.0,0.6190476190476191,1.0,0.7647058823529412
bpywiki,True,17.0,0.6190476190476191,1.0,0.6190476190476191,1.0,0.7647058823529412
bpywiki,True,18.0,0.6190476190476191,1.0,0.6190476190476191,1.0,0.7647058823529412
bpywiki,True,19.0,0.6190476190476191,1.0,0.6190476190476191,1.0,0.7647058823529412
bpywiki,True,20.0,0.6190476190476191,1.0,0.6190476190476191,1.0,0.7647058823529412
bpywiki,True,21.0,0.6190476190476191,1.0,0.6190476190476191,1.0,0.7647058823529412
bpywiki,True,22.0,0.6190476190476191,1.0,0.6190476190476191,1.0,0.7647058823529412
bpywiki,True,23.0,0.6190476190476191,1.0,0.6190476190476191,1.0,0.7647058823529412
bpywiki,True,24.0,0.6190476190476191,1.0,0.6190476190476191,1.0,0.7647058823529412
bpywiki,True,25.0,0.6190476190476191,1.0,0.6190476190476191,1.0,0.7647058823529412
bpywiki,True,26.0,0.6190476190476191,1.0,0.6190476190476191,1.0,0.7647058823529412
bpywiki,True,27.0,0.6190476190476191,1.0,0.6190476190476191,1.0,0.7647058823529412
bpywiki,True,28.0,0.6190476190476191,1.0,0.6190476190476191,1.0,0.7647058823529412
bpywiki,True,29.0,0.6190476190476191,1.0,0.6190476190476191,1.0,0.7647058823529412
bpywiki,True,30.0,0.6190476190476191,1.0,0.6190476190476191,1.0,0.7647058823529412
bpywiki,True,31.0,0.6190476190476191,1.0,0.6190476190476191,1.0,0.7647058823529412
bpywiki,True,32.0,0.6190476190476191,1.0,0.6190476190476191,1.0,0.7647058823529412
bpywiki,True,33.0,0.6190476190476191,1.0,0.6190476190476191,1.0,0.7647058823529412
bpywiki,True,34.0,0.6190476190476191,1.0,0.6190476190476191,1.0,0.7647058823529412
bpywiki,True,35.0,0.6190476190476191,1.0,0.6190476190476191,1.0,0.7647058823529412
bpywiki,True,36.0,0.6190476190476191,1.0,0.6190476190476191,1.0,0.7647058823529412
bpywiki,True,37.0,0.6190476190476191,1.0,0.6190476190476191,1.0,0.7647058823529412
bpywiki,True,38.0,0.6190476190476191,1.0,0.6190476190476191,1.0,0.7647058823529412
bpywiki,True,39.0,0.6190476190476191,1.0,0.6190476190476191,1.0,0.7647058823529412
bpywiki,True,40.0,0.6190476190476191,1.0,0.6190476190476191,1.0,0.7647058823529412
bpywiki,True,41.0,0.6190476190476191,1.0,0.6190476190476191,1.0,0.7647058823529412
bpywiki,True,42.0,0.6190476190476191,1.0,0.6190476190476191,1.0,0.7647058823529412
bpywiki,True,43.0,0.6190476190476191,1.0,0.6190476190476191,1.0,0.7647058823529412
bpywiki,True,44.0,0.6190476190476191,1.0,0.6190476190476191,1.0,0.7647058823529412
bpywiki,True,45.0,0.6190476190476191,1.0,0.6190476190476191,1.0,0.7647058823529412
bpywiki,True,46.0,0.6190476190476191,1.0,0.6190476190476191,1.0,0.7647058823529412
bpywiki,True,47.0,0.6190476190476191,1.0,0.6190476190476191,1.0,0.7647058823529412
bpywiki,True,48.0,0.6190476190476191,1.0,0.6190476190476191,1.0,0.7647058823529412
bpywiki,True,49.0,0.6190476190476191,1.0,0.6190476190476191,1.0,0.7647058823529412
bpywiki,True,50.0,0.6190476190476191,1.0,0.6190476190476191,1.0,0.7647058823529412
bpywiki,True,51.0,0.6190476190476191,1.0,0.6190476190476191,1.0,0.7647058823529412
bpywiki,True,52.0,0.6190476190476191,1.0,0.6190476190476191,1.0,0.7647058823529412
bpywiki,True,53.0,0.6190476190476191,1.0,0.6190476190476191,1.0,0.7647058823529412
bpywiki,True,54.0,0.6144578313253012,0.9807692307692307,0.6071428571428571,1.0,0.7555555555555555
bpywiki,True,55.0,0.6144578313253012,0.9807692307692307,0.6071428571428571,1.0,0.7555555555555555
bpywiki,True,56.0,0.6144578313253012,0.9807692307692307,0.6071428571428571,1.0,0.7555555555555555
bpywiki,True,57.0,0.6144578313253012,0.9807692307692307,0.6071428571428571,1.0,0.7555555555555555
bpywiki,True,58.0,0.6144578313253012,0.9807692307692307,0.6071428571428571,1.0,0.7555555555555555
bpywiki,True,59.0,0.6219512195121951,0.9807692307692307,0.6190476190476191,0.96875,0.7611940298507464
bpywiki,True,60.0,0.6219512195121951,0.9807692307692307,0.6190476190476191,0.96875,0.7611940298507464
bpywiki,True,61.0,0.6219512195121951,0.9807692307692307,0.6190476190476191,0.96875,0.7611940298507464
bpywiki,True,62.0,0.6296296296296297,0.9807692307692307,0.6309523809523809,0.9375,0.7669172932330828
bpywiki,True,63.0,0.6296296296296297,0.9807692307692307,0.6309523809523809,0.9375,0.7669172932330828
bpywiki,True,64.0,0.6296296296296297,0.9807692307692307,0.6309523809523809,0.9375,0.7669172932330828
bpywiki,True,65.0,0.6329113924050633,0.9615384615384616,0.6309523809523809,0.90625,0.7633587786259542
bpywiki,True,66.0,0.6329113924050633,0.9615384615384616,0.6309523809523809,0.90625,0.7633587786259542
bpywiki,True,67.0,0.6329113924050633,0.9615384615384616,0.6309523809523809,0.90625,0.7633587786259542
bpywiki,True,68.0,0.6266666666666667,0.9038461538461539,0.6071428571428571,0.875,0.7401574803149606
bpywiki,True,69.0,0.6266666666666667,0.9038461538461539,0.6071428571428571,0.875,0.7401574803149606
bpywiki,True,70.0,0.6266666666666667,0.9038461538461539,0.6071428571428571,0.875,0.7401574803149606
bpywiki,True,71.0,0.6301369863013698,0.8846153846153846,0.6071428571428571,0.84375,0.736
bpywiki,True,72.0,0.625,0.8653846153846154,0.5952380952380952,0.84375,0.7258064516129031
bpywiki,True,73.0,0.6197183098591549,0.8461538461538461,0.5833333333333334,0.84375,0.7154471544715447
bpywiki,True,74.0,0.6231884057971014,0.8269230769230769,0.5833333333333334,0.8125,0.7107438016528926
bpywiki,True,75.0,0.6176470588235294,0.8076923076923077,0.5714285714285714,0.8125,0.7
bpywiki,True,76.0,0.6268656716417911,0.8076923076923077,0.5833333333333334,0.78125,0.7058823529411765
bpywiki,True,77.0,0.6507936507936508,0.7884615384615384,0.6071428571428571,0.6875,0.7130434782608696
bpywiki,True,78.0,0.6333333333333333,0.7307692307692307,0.5714285714285714,0.6875,0.6785714285714285
bpywiki,True,79.0,0.6440677966101694,0.7307692307692307,0.5833333333333334,0.65625,0.6846846846846847
bpywiki,True,80.0,0.6440677966101694,0.7307692307692307,0.5833333333333334,0.65625,0.6846846846846847
bpywiki,True,81.0,0.631578947368421,0.6923076923076923,0.5595238095238095,0.65625,0.6605504587155963
bpywiki,True,82.0,0.631578947368421,0.6923076923076923,0.5595238095238095,0.65625,0.6605504587155963
bpywiki,True,83.0,0.625,0.6730769230769231,0.5476190476190477,0.65625,0.6481481481481483
bpywiki,True,84.0,0.6415094339622641,0.6538461538461539,0.5595238095238095,0.59375,0.6476190476190475
bpywiki,True,85.0,0.7083333333333334,0.6538461538461539,0.6190476190476191,0.4375,0.68
bpywiki,True,86.0,0.7391304347826086,0.6538461538461539,0.6428571428571429,0.375,0.693877551020408
bpywiki,True,87.0,0.7727272727272727,0.6538461538461539,0.6666666666666666,0.3125,0.7083333333333333
bpywiki,True,88.0,0.7560975609756098,0.5961538461538461,0.6309523809523809,0.3125,0.6666666666666667
bpywiki,True,89.0,0.7560975609756098,0.5961538461538461,0.6309523809523809,0.3125,0.6666666666666667
bpywiki,True,90.0,0.7948717948717948,0.5961538461538461,0.6547619047619048,0.25,0.6813186813186813
bpywiki,True,91.0,0.8857142857142857,0.5961538461538461,0.7023809523809523,0.125,0.7126436781609196
bpywiki,True,92.0,0.9333333333333333,0.5384615384615384,0.6904761904761905,0.0625,0.6829268292682926
bpywiki,True,93.0,1.0,0.5,0.6904761904761905,0.0,0.6666666666666666
bpywiki,True,94.0,1.0,0.4807692307692308,0.6785714285714286,0.0,0.6493506493506493
bpywiki,True,95.0,1.0,0.4423076923076923,0.6547619047619048,0.0,0.6133333333333333
bpywiki,True,96.0,1.0,0.4230769230769231,0.6428571428571429,0.0,0.5945945945945945
bpywiki,True,97.0,1.0,0.38461538461538464,0.6190476190476191,0.0,0.5555555555555556
bpywiki,True,98.0,1.0,0.36538461538461536,0.6071428571428571,0.0,0.5352112676056338
bpywiki,True,99.0,1.0,0.2692307692307692,0.5476190476190477,0.0,0.42424242424242425
bpywiki,False,0.0,0.011970927746900385,1.0,0.011970927746900385,1.0,0.023658639628221376
bpywiki,False,1.0,0.011970927746900385,1.0,0.011970927746900385,1.0,0.023658639628221376
bpywiki,False,2.0,0.011970927746900385,1.0,0.011970927746900385,1.0,0.023658639628221376
bpywiki,False,3.0,0.012168622338113864,1.0,0.02821718683197948,0.9835569017741238,0.024044654358093602
bpywiki,False,4.0,0.012168622338113864,1.0,0.02821718683197948,0.9835569017741238,0.024044654358093602
bpywiki,False,5.0,0.012184508268059183,1.0,0.029499786233433092,0.9822587624405019,0.024075666380051593
bpywiki,False,6.0,0.012539184952978056,1.0,0.0572894399315947,0.9541324102120294,0.024767801857585137
bpywiki,False,7.0,0.013245033112582781,1.0,0.10816588285592134,0.9026395499783644,0.0261437908496732
bpywiki,False,8.0,0.013665202537823329,1.0,0.13595553655408293,0.8745131977498918,0.026961964371689934
bpywiki,False,9.0,0.013944223107569721,1.0,0.15348439504061565,0.8567719601903938,0.0275049115913556
bpywiki,False,10.0,0.012121212121212121,0.8571428571428571,0.16203505771697307,0.8463868455214193,0.023904382470119525
bpywiki,False,11.0,0.01090909090909091,0.75,0.18298418127404875,0.8238857637386413,0.021505376344086023
bpywiki,False,12.0,0.010934937124111536,0.7142857142857143,0.2231722958529286,0.7827780181739507,0.021540118470651588
bpywiki,False,13.0,0.011827321111768185,0.7142857142857143,0.2821718683197948,0.7230636088273474,0.023269342641070393
bpywiki,False,14.0,0.0121580547112462,0.7142857142857143,0.30183839247541683,0.7031588057118131,0.023909145248057383
bpywiki,False,15.0,0.01266624445851805,0.7142857142857143,0.3300555793073963,0.6745997403721333,0.024891101431238332
bpywiki,False,16.0,0.012953367875647668,0.7142857142857143,0.3450192389910218,0.6594547814798788,0.025445292620865135
bpywiki,False,17.0,0.013404825737265416,0.7142857142857143,0.3672509619495511,0.6369536996971008,0.02631578947368421
bpywiki,False,18.0,0.01347517730496454,0.6785714285714286,0.40145361265498075,0.6019039376893119,0.026425591098748265
bpywiki,False,19.0,0.013939838591342627,0.6785714285714286,0.42154766994442067,0.5815664214625703,0.027318475916606758
bpywiki,False,20.0,0.014809041309431021,0.6785714285714286,0.4557503206498504,0.5469493725659887,0.028985507246376812
bpywiki,False,21.0,0.014729950900163666,0.6428571428571429,0.48097477554510476,0.5209865858935526,0.0288
bpywiki,False,22.0,0.022613065326633167,0.6428571428571429,0.6631038905515177,0.3366508005192557,0.04368932038834951
bpywiki,False,23.0,0.041463414634146344,0.6071428571428571,0.8272766139375801,0.17005625270445696,0.0776255707762557
bpywiki,False,24.0,0.043701799485861184,0.6071428571428571,0.8362548097477555,0.1609692773691043,0.0815347721822542
bpywiki,False,25.0,0.04678362573099415,0.5714285714285714,0.8554938007695596,0.14106447425356988,0.08648648648648649
bpywiki,False,26.0,0.05128205128205128,0.5714285714285714,0.8683197947840958,0.1280830809173518,0.09411764705882351
bpywiki,False,27.0,0.04861111111111111,0.5,0.8768704574604532,0.11856339247079187,0.08860759493670886
bpywiki,False,28.0,0.05166051660516605,0.5,0.884138520735357,0.11120726958026828,0.09364548494983278
bpywiki,False,29.0,0.05533596837944664,0.5,0.8918341171440787,0.10341843357853743,0.099644128113879
bpywiki,False,30.0,0.06763285024154589,0.5,0.9115006412997008,0.08351363046300303,0.11914893617021276
bpywiki,False,31.0,0.06914893617021277,0.4642857142857143,0.9187687045746046,0.07572479446127217,0.12037037037037038
bpywiki,False,32.0,0.07222222222222222,0.4642857142857143,0.9221889696451475,0.07226308957161402,0.125
bpywiki,False,33.0,0.07471264367816093,0.4642857142857143,0.9247541684480547,0.06966681090437041,0.12871287128712874
bpywiki,False,34.0,0.07975460122699386,0.4642857142857143,0.9294570329200513,0.06490696668109043,0.13612565445026178
bpywiki,False,35.0,0.08125,0.4642857142857143,0.9307396323215049,0.06360882734746863,0.13829787234042554
bpywiki,False,36.0,0.08441558441558442,0.4642857142857143,0.9333048311244121,0.06101254868022501,0.14285714285714288
bpywiki,False,37.0,0.087248322147651,0.4642857142857143,0.9354424967935014,0.05884898312418866,0.14689265536723164
bpywiki,False,38.0,0.09090909090909091,0.4642857142857143,0.9380076955964087,0.056252704456945045,0.15204678362573099
bpywiki,False,39.0,0.08823529411764706,0.42857142857142855,0.9401453612654981,0.05365642578970143,0.14634146341463417
bpywiki,False,40.0,0.08823529411764706,0.42857142857142855,0.9401453612654981,0.05365642578970143,0.14634146341463417
bpywiki,False,41.0,0.09090909090909091,0.42857142857142855,0.9418554938007696,0.05192557334487235,0.15000000000000002
bpywiki,False,42.0,0.09302325581395349,0.42857142857142855,0.9431380932022232,0.05062743401125054,0.15286624203821655
bpywiki,False,43.0,0.09523809523809523,0.42857142857142855,0.9444206926036768,0.049329294677628734,0.15584415584415587
bpywiki,False,44.0,0.0975609756097561,0.42857142857142855,0.9457032920051304,0.048031155344006926,0.15894039735099336
bpywiki,False,45.0,0.10084033613445378,0.42857142857142855,0.9474134245404019,0.046300302899177845,0.16326530612244897
bpywiki,False,46.0,0.10084033613445378,0.42857142857142855,0.9474134245404019,0.046300302899177845,0.16326530612244897
bpywiki,False,47.0,0.1016949152542373,0.42857142857142855,0.9478409576742197,0.04586758978797058,0.16438356164383564
bpywiki,False,48.0,0.10434782608695652,0.42857142857142855,0.9491235570756734,0.044569450454348764,0.1678321678321678
bpywiki,False,49.0,0.10526315789473684,0.42857142857142855,0.9495510902094912,0.0441367373431415,0.16901408450704228
bpywiki,False,50.0,0.10526315789473684,0.42857142857142855,0.9495510902094912,0.0441367373431415,0.16901408450704228
bpywiki,False,51.0,0.10619469026548672,0.42857142857142855,0.9499786233433091,0.04370402423193423,0.1702127659574468
bpywiki,False,52.0,0.10714285714285714,0.42857142857142855,0.950406156477127,0.043271311120726956,0.17142857142857143
bpywiki,False,53.0,0.1111111111111111,0.42857142857142855,0.9521162890123984,0.04154045867589788,0.17647058823529413
bpywiki,False,54.0,0.11428571428571428,0.42857142857142855,0.9533988884138521,0.040242319342276074,0.1804511278195489
bpywiki,False,55.0,0.11650485436893204,0.42857142857142855,0.9542539546814878,0.039376893119861534,0.183206106870229
bpywiki,False,56.0,0.11764705882352941,0.42857142857142855,0.9546814878153057,0.03894418000865426,0.18461538461538463
bpywiki,False,57.0,0.12,0.42857142857142855,0.9555365540829415,0.038078753786239726,0.1875
bpywiki,False,58.0,0.12121212121212122,0.42857142857142855,0.9559640872167593,0.03764604067503245,0.18897637795275593
bpywiki,False,59.0,0.1134020618556701,0.39285714285714285,0.9559640872167593,0.037213327563825185,0.17600000000000002
bpywiki,False,60.0,0.1134020618556701,0.39285714285714285,0.9559640872167593,0.037213327563825185,0.17600000000000002
bpywiki,False,61.0,0.11458333333333333,0.39285714285714285,0.9563916203505771,0.03678061445261791,0.1774193548387097
bpywiki,False,62.0,0.11578947368421053,0.39285714285714285,0.9568191534843951,0.036347901341410645,0.1788617886178862
bpywiki,False,63.0,0.12087912087912088,0.39285714285714285,0.9585292860196665,0.03461704889658156,0.18487394957983194
bpywiki,False,64.0,0.11494252873563218,0.35714285714285715,0.9593843522873022,0.033318909562959756,0.17391304347826084
bpywiki,False,65.0,0.11627906976744186,0.35714285714285715,0.9598118854211202,0.03288619645175249,0.1754385964912281
bpywiki,False,66.0,0.12195121951219512,0.35714285714285715,0.9615220179563916,0.03115534400692341,0.18181818181818182
bpywiki,False,67.0,0.12658227848101267,0.35714285714285715,0.9628046173578453,0.0298572046733016,0.1869158878504673
bpywiki,False,68.0,0.13157894736842105,0.35714285714285715,0.9640872167592989,0.028559065339679793,0.1923076923076923
bpywiki,False,69.0,0.14084507042253522,0.35714285714285715,0.9662248824283882,0.026395499783643445,0.20202020202020204
bpywiki,False,70.0,0.14285714285714285,0.35714285714285715,0.966652415562206,0.025962786672436174,0.20408163265306123
bpywiki,False,71.0,0.14285714285714285,0.35714285714285715,0.966652415562206,0.025962786672436174,0.20408163265306123
bpywiki,False,72.0,0.14492753623188406,0.35714285714285715,0.967079948696024,0.025530073561228904,0.20618556701030927
bpywiki,False,73.0,0.14705882352941177,0.35714285714285715,0.9675074818298418,0.025097360450021637,0.20833333333333334
bpywiki,False,74.0,0.15873015873015872,0.35714285714285715,0.9696451474989312,0.02293379489398529,0.21978021978021978
bpywiki,False,75.0,0.17857142857142858,0.35714285714285715,0.9726378794356563,0.0199048031155344,0.2380952380952381
bpywiki,False,76.0,0.18867924528301888,0.35714285714285715,0.9739204788371099,0.018606663781912593,0.2469135802469136
bpywiki,False,77.0,0.1875,0.32142857142857145,0.9752030782385634,0.016875811337083515,0.23684210526315794
bpywiki,False,78.0,0.20454545454545456,0.32142857142857145,0.976913210773835,0.015144958892254435,0.25000000000000006
bpywiki,False,79.0,0.2,0.2857142857142857,0.9777682770414707,0.013846819558632626,0.23529411764705882
bpywiki,False,80.0,0.22857142857142856,0.2857142857142857,0.9799059427105601,0.011683254002596278,0.25396825396825395
bpywiki,False,81.0,0.24242424242424243,0.2857142857142857,0.9807610089781958,0.010817827780181739,0.26229508196721313
bpywiki,False,82.0,0.25,0.2857142857142857,0.9811885421120137,0.01038511466897447,0.26666666666666666
bpywiki,False,83.0,0.27586206896551724,0.2857142857142857,0.9824711415134673,0.009086975335352661,0.28070175438596495
bpywiki,False,84.0,0.32,0.2857142857142857,0.9841812740487388,0.0073561228905235825,0.30188679245283023
bpywiki,False,85.0,0.3333333333333333,0.2857142857142857,0.9846088071825566,0.006923409779316313,0.30769230769230765
bpywiki,False,86.0,0.3333333333333333,0.2857142857142857,0.9846088071825566,0.006923409779316313,0.30769230769230765
bpywiki,False,87.0,0.35,0.25,0.9854638734501924,0.005625270445694505,0.2916666666666667
bpywiki,False,88.0,0.35,0.25,0.9854638734501924,0.005625270445694505,0.2916666666666667
bpywiki,False,89.0,0.35294117647058826,0.21428571428571427,0.9858914065840103,0.004759844223279966,0.26666666666666666
bpywiki,False,90.0,0.375,0.21428571428571427,0.9863189397178281,0.004327131112072695,0.2727272727272727
bpywiki,False,91.0,0.4,0.21428571428571427,0.986746472851646,0.0038944180008654264,0.27906976744186046
bpywiki,False,92.0,0.46153846153846156,0.21428571428571427,0.9876015391192817,0.003028991778450887,0.2926829268292683
bpywiki,False,93.0,0.45454545454545453,0.17857142857142858,0.9876015391192817,0.0025962786672436176,0.25641025641025644
bpywiki,False,94.0,0.5555555555555556,0.17857142857142858,0.9884566053869175,0.0017308524448290783,0.2702702702702703
bpywiki,False,95.0,0.7142857142857143,0.17857142857142858,0.9893116716545532,0.0008654262224145391,0.2857142857142857
bpywiki,False,96.0,1.0,0.17857142857142858,0.990166737922189,0.0,0.30303030303030304
bpywiki,False,97.0,1.0,0.17857142857142858,0.990166737922189,0.0,0.30303030303030304
bpywiki,False,98.0,1.0,0.14285714285714285,0.9897392047883711,0.0,0.25
bpywiki,False,99.0,1.0,0.10714285714285714,0.9893116716545532,0.0,0.19354838709677416
