wiki_db,user_is_anonymous,threshold,precision,recall,accuracy,fpr,F1
dvwiki,True,0.0,0.17647058823529413,1.0,0.17647058823529413,1.0,0.3
dvwiki,True,1.0,0.17647058823529413,1.0,0.17647058823529413,1.0,0.3
dvwiki,True,2.0,0.17647058823529413,1.0,0.17647058823529413,1.0,0.3
dvwiki,True,3.0,0.17647058823529413,1.0,0.17647058823529413,1.0,0.3
dvwiki,True,4.0,0.17647058823529413,1.0,0.17647058823529413,1.0,0.3
dvwiki,True,5.0,0.17647058823529413,1.0,0.17647058823529413,1.0,0.3
dvwiki,True,6.0,0.17647058823529413,1.0,0.17647058823529413,1.0,0.3
dvwiki,True,7.0,0.17647058823529413,1.0,0.17647058823529413,1.0,0.3
dvwiki,True,8.0,0.17647058823529413,1.0,0.17647058823529413,1.0,0.3
dvwiki,True,9.0,0.17647058823529413,1.0,0.17647058823529413,1.0,0.3
dvwiki,True,10.0,0.17647058823529413,1.0,0.17647058823529413,1.0,0.3
dvwiki,True,11.0,0.17647058823529413,1.0,0.17647058823529413,1.0,0.3
dvwiki,True,12.0,0.17647058823529413,1.0,0.17647058823529413,1.0,0.3
dvwiki,True,13.0,0.17647058823529413,1.0,0.17647058823529413,1.0,0.3
dvwiki,True,14.0,0.17647058823529413,1.0,0.17647058823529413,1.0,0.3
dvwiki,True,15.0,0.17647058823529413,1.0,0.17647058823529413,1.0,0.3
dvwiki,True,16.0,0.17647058823529413,1.0,0.17647058823529413,1.0,0.3
dvwiki,True,17.0,0.17647058823529413,1.0,0.17647058823529413,1.0,0.3
dvwiki,True,18.0,0.17647058823529413,1.0,0.17647058823529413,1.0,0.3
dvwiki,True,19.0,0.17647058823529413,1.0,0.17647058823529413,1.0,0.3
dvwiki,True,20.0,0.17647058823529413,1.0,0.17647058823529413,1.0,0.3
dvwiki,True,21.0,0.17647058823529413,1.0,0.17647058823529413,1.0,0.3
dvwiki,True,22.0,0.17647058823529413,1.0,0.17647058823529413,1.0,0.3
dvwiki,True,23.0,0.17647058823529413,1.0,0.17647058823529413,1.0,0.3
dvwiki,True,24.0,0.17647058823529413,1.0,0.17647058823529413,1.0,0.3
dvwiki,True,25.0,0.17647058823529413,1.0,0.17647058823529413,1.0,0.3
dvwiki,True,26.0,0.17647058823529413,1.0,0.17647058823529413,1.0,0.3
dvwiki,True,27.0,0.17647058823529413,1.0,0.17647058823529413,1.0,0.3
dvwiki,True,28.0,0.17647058823529413,1.0,0.17647058823529413,1.0,0.3
dvwiki,True,29.0,0.17647058823529413,1.0,0.17647058823529413,1.0,0.3
dvwiki,True,30.0,0.17647058823529413,1.0,0.17647058823529413,1.0,0.3
dvwiki,True,31.0,0.17647058823529413,1.0,0.17647058823529413,1.0,0.3
dvwiki,True,32.0,0.17647058823529413,1.0,0.17647058823529413,1.0,0.3
dvwiki,True,33.0,0.17647058823529413,1.0,0.17647058823529413,1.0,0.3
dvwiki,True,34.0,0.17647058823529413,1.0,0.17647058823529413,1.0,0.3
dvwiki,True,35.0,0.17647058823529413,1.0,0.17647058823529413,1.0,0.3
dvwiki,True,36.0,0.17647058823529413,1.0,0.17647058823529413,1.0,0.3
dvwiki,True,37.0,0.17647058823529413,1.0,0.17647058823529413,1.0,0.3
dvwiki,True,38.0,0.17647058823529413,1.0,0.17647058823529413,1.0,0.3
dvwiki,True,39.0,0.17647058823529413,1.0,0.17647058823529413,1.0,0.3
dvwiki,True,40.0,0.17647058823529413,1.0,0.17647058823529413,1.0,0.3
dvwiki,True,41.0,0.17647058823529413,1.0,0.17647058823529413,1.0,0.3
dvwiki,True,42.0,0.17647058823529413,1.0,0.17647058823529413,1.0,0.3
dvwiki,True,43.0,0.17647058823529413,1.0,0.17647058823529413,1.0,0.3
dvwiki,True,44.0,0.17647058823529413,1.0,0.17647058823529413,1.0,0.3
dvwiki,True,45.0,0.17647058823529413,1.0,0.17647058823529413,1.0,0.3
dvwiki,True,46.0,0.17647058823529413,1.0,0.17647058823529413,1.0,0.3
dvwiki,True,47.0,0.17647058823529413,1.0,0.17647058823529413,1.0,0.3
dvwiki,True,48.0,0.17647058823529413,1.0,0.17647058823529413,1.0,0.3
dvwiki,True,49.0,0.17647058823529413,1.0,0.17647058823529413,1.0,0.3
dvwiki,True,50.0,0.17701863354037267,1.0,0.17956656346749225,0.9962406015037594,0.30079155672823216
dvwiki,True,51.0,0.17729393468118196,1.0,0.18111455108359134,0.9943609022556391,0.3011889035667107
dvwiki,True,52.0,0.17729393468118196,1.0,0.18111455108359134,0.9943609022556391,0.3011889035667107
dvwiki,True,53.0,0.17729393468118196,1.0,0.18111455108359134,0.9943609022556391,0.3011889035667107
dvwiki,True,54.0,0.17757009345794392,1.0,0.1826625386996904,0.9924812030075187,0.30158730158730157
dvwiki,True,55.0,0.17757009345794392,1.0,0.1826625386996904,0.9924812030075187,0.30158730158730157
dvwiki,True,56.0,0.17757009345794392,1.0,0.1826625386996904,0.9924812030075187,0.30158730158730157
dvwiki,True,57.0,0.17757009345794392,1.0,0.1826625386996904,0.9924812030075187,0.30158730158730157
dvwiki,True,58.0,0.17757009345794392,1.0,0.1826625386996904,0.9924812030075187,0.30158730158730157
dvwiki,True,59.0,0.17757009345794392,1.0,0.1826625386996904,0.9924812030075187,0.30158730158730157
dvwiki,True,60.0,0.17784711388455537,1.0,0.18421052631578946,0.9906015037593985,0.30198675496688737
dvwiki,True,61.0,0.17784711388455537,1.0,0.18421052631578946,0.9906015037593985,0.30198675496688737
dvwiki,True,62.0,0.17784711388455537,1.0,0.18421052631578946,0.9906015037593985,0.30198675496688737
dvwiki,True,63.0,0.178125,1.0,0.18575851393188855,0.9887218045112782,0.30238726790450926
dvwiki,True,64.0,0.17683881064162754,0.9912280701754386,0.18421052631578946,0.9887218045112782,0.30013280212483406
dvwiki,True,65.0,0.1755485893416928,0.9824561403508771,0.1826625386996904,0.9887218045112782,0.2978723404255319
dvwiki,True,66.0,0.1755485893416928,0.9824561403508771,0.1826625386996904,0.9887218045112782,0.2978723404255319
dvwiki,True,67.0,0.1755485893416928,0.9824561403508771,0.1826625386996904,0.9887218045112782,0.2978723404255319
dvwiki,True,68.0,0.17034700315457413,0.9473684210526315,0.17647058823529413,0.9887218045112782,0.2887700534759359
dvwiki,True,69.0,0.16930379746835442,0.9385964912280702,0.17647058823529413,0.9868421052631579,0.28686327077747986
dvwiki,True,70.0,0.16427432216905902,0.9035087719298246,0.17182662538699692,0.9849624060150376,0.27800269905533065
dvwiki,True,71.0,0.15890850722311398,0.868421052631579,0.16563467492260062,0.9849624060150376,0.2686567164179105
dvwiki,True,72.0,0.1539708265802269,0.8333333333333334,0.16253869969040247,0.981203007518797,0.2599179206566347
dvwiki,True,73.0,0.14614121510673234,0.7807017543859649,0.1563467492260062,0.9774436090225563,0.2461964038727524
dvwiki,True,74.0,0.14382402707275804,0.7456140350877193,0.17182662538699692,0.9511278195488722,0.24113475177304966
dvwiki,True,75.0,0.14335664335664336,0.7192982456140351,0.19195046439628483,0.9210526315789473,0.239067055393586
dvwiki,True,76.0,0.13768115942028986,0.6666666666666666,0.2043343653250774,0.8947368421052632,0.2282282282282282
dvwiki,True,77.0,0.1252371916508539,0.5789473684210527,0.21207430340557276,0.8665413533834586,0.2059282371294852
dvwiki,True,78.0,0.1191919191919192,0.5175438596491229,0.23993808049535603,0.8195488721804511,0.19376026272577998
dvwiki,True,79.0,0.11652542372881355,0.4824561403508772,0.2631578947368421,0.7838345864661654,0.18771331058020477
dvwiki,True,80.0,0.10864745011086474,0.4298245614035088,0.2770897832817337,0.7556390977443609,0.17345132743362832
dvwiki,True,81.0,0.10451306413301663,0.38596491228070173,0.3080495356037152,0.7086466165413534,0.16448598130841122
dvwiki,True,82.0,0.10606060606060606,0.3684210526315789,0.34055727554179566,0.6654135338345865,0.16470588235294117
dvwiki,True,83.0,0.1008174386920981,0.32456140350877194,0.369969040247678,0.6203007518796992,0.15384615384615385
dvwiki,True,84.0,0.09970674486803519,0.2982456140350877,0.40092879256965946,0.5770676691729323,0.14945054945054945
dvwiki,True,85.0,0.11036789297658862,0.2894736842105263,0.4628482972136223,0.5,0.15980629539951577
dvwiki,True,86.0,0.11235955056179775,0.2631578947368421,0.5030959752321982,0.44548872180451127,0.15748031496062992
dvwiki,True,87.0,0.10887096774193548,0.23684210526315788,0.5232198142414861,0.41541353383458646,0.14917127071823205
dvwiki,True,88.0,0.11255411255411256,0.22807017543859648,0.5464396284829721,0.38533834586466165,0.1507246376811594
dvwiki,True,89.0,0.12807881773399016,0.22807017543859648,0.5897832817337462,0.33270676691729323,0.1640378548895899
dvwiki,True,90.0,0.10404624277456648,0.15789473684210525,0.6114551083591331,0.29135338345864664,0.1254355400696864
dvwiki,True,91.0,0.1103448275862069,0.14035087719298245,0.6486068111455109,0.2424812030075188,0.12355212355212356
dvwiki,True,92.0,0.0673076923076923,0.06140350877192982,0.6842105263157895,0.18233082706766918,0.06422018348623852
dvwiki,True,93.0,0.05063291139240506,0.03508771929824561,0.7136222910216719,0.14097744360902256,0.04145077720207254
dvwiki,True,94.0,0.03333333333333333,0.008771929824561403,0.7801857585139319,0.05451127819548872,0.01388888888888889
dvwiki,True,95.0,0.08333333333333333,0.008771929824561403,0.8080495356037152,0.020676691729323307,0.015873015873015872
dvwiki,True,96.0,0.16666666666666666,0.008771929824561403,0.8173374613003096,0.009398496240601503,0.016666666666666666
dvwiki,True,97.0,0.0,0.0,0.8173374613003096,0.007518796992481203,0.016666666666666666
dvwiki,True,98.0,0.0,0.0,0.8204334365325078,0.0037593984962406013,0.016666666666666666
dvwiki,True,99.0,0.0,0.0,0.8235294117647058,0.0,0.016666666666666666
dvwiki,False,0.0,0.03724928366762178,1.0,0.03724928366762178,1.0,0.07182320441988951
dvwiki,False,1.0,0.03724928366762178,1.0,0.03724928366762178,1.0,0.07182320441988951
dvwiki,False,2.0,0.03724928366762178,1.0,0.03724928366762178,1.0,0.07182320441988951
dvwiki,False,3.0,0.03724928366762178,1.0,0.03724928366762178,1.0,0.07182320441988951
dvwiki,False,4.0,0.03724928366762178,1.0,0.03724928366762178,1.0,0.07182320441988951
dvwiki,False,5.0,0.03724928366762178,1.0,0.03724928366762178,1.0,0.07182320441988951
dvwiki,False,6.0,0.03735632183908046,1.0,0.04011461318051576,0.9970238095238095,0.07202216066481995
dvwiki,False,7.0,0.03735632183908046,1.0,0.04011461318051576,0.9970238095238095,0.07202216066481995
dvwiki,False,8.0,0.03735632183908046,1.0,0.04011461318051576,0.9970238095238095,0.07202216066481995
dvwiki,False,9.0,0.03735632183908046,1.0,0.04011461318051576,0.9970238095238095,0.07202216066481995
dvwiki,False,10.0,0.03768115942028986,1.0,0.04871060171919771,0.9880952380952381,0.07262569832402234
dvwiki,False,11.0,0.038011695906432746,1.0,0.05730659025787966,0.9791666666666666,0.07323943661971831
dvwiki,False,12.0,0.03812316715542522,1.0,0.06017191977077364,0.9761904761904762,0.07344632768361582
dvwiki,False,13.0,0.038461538461538464,1.0,0.06876790830945559,0.9672619047619048,0.07407407407407407
dvwiki,False,14.0,0.03903903903903904,1.0,0.0830945558739255,0.9523809523809523,0.07514450867052024
dvwiki,False,15.0,0.039755351681957186,1.0,0.10028653295128939,0.9345238095238095,0.07647058823529412
dvwiki,False,16.0,0.040625,1.0,0.12034383954154727,0.9136904761904762,0.07807807807807808
dvwiki,False,17.0,0.04153354632587859,1.0,0.14040114613180515,0.8928571428571429,0.07975460122699386
dvwiki,False,18.0,0.04304635761589404,1.0,0.17191977077363896,0.8601190476190477,0.08253968253968252
dvwiki,False,19.0,0.043478260869565216,1.0,0.18051575931232092,0.8511904761904762,0.08333333333333333
dvwiki,False,20.0,0.04482758620689655,1.0,0.20630372492836677,0.8244047619047619,0.0858085808580858
dvwiki,False,21.0,0.04513888888888889,1.0,0.21203438395415472,0.8184523809523809,0.08637873754152824
dvwiki,False,22.0,0.045774647887323945,1.0,0.22349570200573066,0.8065476190476191,0.08754208754208755
dvwiki,False,23.0,0.046263345195729534,1.0,0.23209169054441262,0.7976190476190477,0.08843537414965986
dvwiki,False,24.0,0.04727272727272727,1.0,0.2492836676217765,0.7797619047619048,0.09027777777777776
dvwiki,False,25.0,0.04814814814814815,1.0,0.2636103151862464,0.7648809523809523,0.09187279151943464
dvwiki,False,26.0,0.048327137546468404,1.0,0.2664756446991404,0.7619047619047619,0.0921985815602837
dvwiki,False,27.0,0.04905660377358491,1.0,0.27793696275071633,0.75,0.09352517985611511
dvwiki,False,28.0,0.050980392156862744,1.0,0.30659025787965616,0.7202380952380952,0.09701492537313432
dvwiki,False,29.0,0.05394190871369295,1.0,0.3467048710601719,0.6785714285714286,0.10236220472440945
dvwiki,False,30.0,0.05485232067510549,1.0,0.35816618911174786,0.6666666666666666,0.10400000000000001
dvwiki,False,31.0,0.05194805194805195,0.9230769230769231,0.36962750716332377,0.6517857142857143,0.09836065573770493
dvwiki,False,32.0,0.05429864253393665,0.9230769230769231,0.3982808022922636,0.6220238095238095,0.10256410256410256
dvwiki,False,33.0,0.05555555555555555,0.9230769230769231,0.41260744985673353,0.6071428571428571,0.10480349344978165
dvwiki,False,34.0,0.05714285714285714,0.9230769230769231,0.4297994269340974,0.5892857142857143,0.10762331838565022
dvwiki,False,35.0,0.058823529411764705,0.9230769230769231,0.4469914040114613,0.5714285714285714,0.11059907834101382
dvwiki,False,36.0,0.06091370558375635,0.9230769230769231,0.4670487106017192,0.5505952380952381,0.1142857142857143
dvwiki,False,37.0,0.0625,0.9230769230769231,0.4813753581661891,0.5357142857142857,0.11707317073170732
dvwiki,False,38.0,0.06382978723404255,0.9230769230769231,0.49283667621776506,0.5238095238095238,0.11940298507462686
dvwiki,False,39.0,0.06521739130434782,0.9230769230769231,0.504297994269341,0.5119047619047619,0.1218274111675127
dvwiki,False,40.0,0.06666666666666667,0.9230769230769231,0.5157593123209169,0.5,0.12435233160621761
dvwiki,False,41.0,0.06741573033707865,0.9230769230769231,0.5214899713467048,0.49404761904761907,0.12565445026178013
dvwiki,False,42.0,0.07017543859649122,0.9230769230769231,0.5415472779369628,0.4732142857142857,0.13043478260869565
dvwiki,False,43.0,0.07272727272727272,0.9230769230769231,0.5587392550143266,0.45535714285714285,0.1348314606741573
dvwiki,False,44.0,0.07453416149068323,0.9230769230769231,0.5702005730659025,0.44345238095238093,0.13793103448275862
dvwiki,False,45.0,0.075,0.9230769230769231,0.5730659025787965,0.44047619047619047,0.13872832369942198
dvwiki,False,46.0,0.07692307692307693,0.9230769230769231,0.5845272206303725,0.42857142857142855,0.14201183431952663
dvwiki,False,47.0,0.07792207792207792,0.9230769230769231,0.5902578796561605,0.4226190476190476,0.1437125748502994
dvwiki,False,48.0,0.07894736842105263,0.9230769230769231,0.5959885386819485,0.4166666666666667,0.14545454545454542
dvwiki,False,49.0,0.07947019867549669,0.9230769230769231,0.5988538681948424,0.41369047619047616,0.14634146341463417
dvwiki,False,50.0,0.08,0.9230769230769231,0.6017191977077364,0.4107142857142857,0.14723926380368096
dvwiki,False,51.0,0.08333333333333333,0.9230769230769231,0.6189111747851003,0.39285714285714285,0.15286624203821658
dvwiki,False,52.0,0.08450704225352113,0.9230769230769231,0.6246418338108882,0.3869047619047619,0.15483870967741933
dvwiki,False,53.0,0.08571428571428572,0.9230769230769231,0.6303724928366762,0.38095238095238093,0.15686274509803924
dvwiki,False,54.0,0.09022556390977443,0.9230769230769231,0.6504297994269341,0.3601190476190476,0.1643835616438356
dvwiki,False,55.0,0.0916030534351145,0.9230769230769231,0.6561604584527221,0.3541666666666667,0.16666666666666669
dvwiki,False,56.0,0.09230769230769231,0.9230769230769231,0.6590257879656161,0.35119047619047616,0.16783216783216787
dvwiki,False,57.0,0.09302325581395349,0.9230769230769231,0.66189111747851,0.3482142857142857,0.16901408450704228
dvwiki,False,58.0,0.09523809523809523,0.9230769230769231,0.670487106017192,0.3392857142857143,0.17266187050359716
dvwiki,False,59.0,0.08943089430894309,0.8461538461538461,0.673352435530086,0.3333333333333333,0.16176470588235295
dvwiki,False,60.0,0.09016393442622951,0.8461538461538461,0.6762177650429799,0.33035714285714285,0.16296296296296298
dvwiki,False,61.0,0.07563025210084033,0.6923076923076923,0.673352435530086,0.3273809523809524,0.13636363636363635
dvwiki,False,62.0,0.06837606837606838,0.6153846153846154,0.673352435530086,0.3244047619047619,0.1230769230769231
dvwiki,False,63.0,0.06956521739130435,0.6153846153846154,0.6790830945558739,0.31845238095238093,0.125
dvwiki,False,64.0,0.07017543859649122,0.6153846153846154,0.6819484240687679,0.31547619047619047,0.12598425196850394
dvwiki,False,65.0,0.05357142857142857,0.46153846153846156,0.6762177650429799,0.31547619047619047,0.09599999999999999
dvwiki,False,66.0,0.05504587155963303,0.46153846153846156,0.6848137535816619,0.30654761904761907,0.09836065573770492
dvwiki,False,67.0,0.056074766355140186,0.46153846153846156,0.6905444126074498,0.3005952380952381,0.09999999999999999
dvwiki,False,68.0,0.05714285714285714,0.46153846153846156,0.6962750716332379,0.29464285714285715,0.10169491525423728
dvwiki,False,69.0,0.057692307692307696,0.46153846153846156,0.6991404011461319,0.2916666666666667,0.10256410256410257
dvwiki,False,70.0,0.05825242718446602,0.46153846153846156,0.7020057306590258,0.28869047619047616,0.10344827586206898
dvwiki,False,71.0,0.0594059405940594,0.46153846153846156,0.7077363896848138,0.28273809523809523,0.10526315789473685
dvwiki,False,72.0,0.050505050505050504,0.38461538461538464,0.7077363896848138,0.27976190476190477,0.08928571428571427
dvwiki,False,73.0,0.05263157894736842,0.38461538461538464,0.7191977077363897,0.26785714285714285,0.09259259259259259
dvwiki,False,74.0,0.054945054945054944,0.38461538461538464,0.7306590257879656,0.25595238095238093,0.09615384615384616
dvwiki,False,75.0,0.05555555555555555,0.38461538461538464,0.7335243553008596,0.25297619047619047,0.0970873786407767
dvwiki,False,76.0,0.060240963855421686,0.38461538461538464,0.7535816618911175,0.23214285714285715,0.10416666666666667
dvwiki,False,77.0,0.06172839506172839,0.38461538461538464,0.7593123209169055,0.2261904761904762,0.10638297872340426
dvwiki,False,78.0,0.0684931506849315,0.38461538461538464,0.7822349570200573,0.20238095238095238,0.11627906976744186
dvwiki,False,79.0,0.046153846153846156,0.23076923076923078,0.7936962750716332,0.18452380952380953,0.07692307692307693
dvwiki,False,80.0,0.05084745762711865,0.23076923076923078,0.8108882521489972,0.16666666666666666,0.08333333333333333
dvwiki,False,81.0,0.05172413793103448,0.23076923076923078,0.8137535816618912,0.1636904761904762,0.08450704225352113
dvwiki,False,82.0,0.058823529411764705,0.23076923076923078,0.833810888252149,0.14285714285714285,0.09375
dvwiki,False,83.0,0.061224489795918366,0.23076923076923078,0.839541547277937,0.13690476190476192,0.0967741935483871
dvwiki,False,84.0,0.06666666666666667,0.23076923076923078,0.8510028653295129,0.125,0.10344827586206898
dvwiki,False,85.0,0.06976744186046512,0.23076923076923078,0.8567335243553008,0.11904761904761904,0.10714285714285714
dvwiki,False,86.0,0.07692307692307693,0.23076923076923078,0.8681948424068768,0.10714285714285714,0.11538461538461538
dvwiki,False,87.0,0.07894736842105263,0.23076923076923078,0.8710601719197708,0.10416666666666667,0.11764705882352941
dvwiki,False,88.0,0.08823529411764706,0.23076923076923078,0.8825214899713467,0.09226190476190477,0.12765957446808512
dvwiki,False,89.0,0.06896551724137931,0.15384615384615385,0.8911174785100286,0.08035714285714286,0.09523809523809525
dvwiki,False,90.0,0.07407407407407407,0.15384615384615385,0.8968481375358166,0.0744047619047619,0.1
dvwiki,False,91.0,0.08695652173913043,0.15384615384615385,0.9083094555873925,0.0625,0.1111111111111111
dvwiki,False,92.0,0.1,0.15384615384615385,0.9169054441260746,0.05357142857142857,0.12121212121212123
dvwiki,False,93.0,0.07142857142857142,0.07692307692307693,0.9283667621776505,0.03869047619047619,0.07407407407407408
dvwiki,False,94.0,0.1,0.07692307692307693,0.9398280802292264,0.026785714285714284,0.08695652173913043
dvwiki,False,95.0,0.125,0.07692307692307693,0.9455587392550143,0.020833333333333332,0.09523809523809525
dvwiki,False,96.0,0.25,0.07692307692307693,0.9570200573065902,0.008928571428571428,0.11764705882352941
dvwiki,False,97.0,0.5,0.07692307692307693,0.9627507163323782,0.002976190476190476,0.13333333333333336
dvwiki,False,98.0,0.5,0.07692307692307693,0.9627507163323782,0.002976190476190476,0.13333333333333336
dvwiki,False,99.0,0.0,0.0,0.9598853868194842,0.002976190476190476,0.13333333333333336
