wiki_db,user_is_anonymous,threshold,precision,recall,accuracy,fpr,F1
dzwiki,True,0.0,0.5,1.0,0.5,1.0,0.6666666666666666
dzwiki,True,1.0,0.5,1.0,0.5,1.0,0.6666666666666666
dzwiki,True,2.0,0.5,1.0,0.5,1.0,0.6666666666666666
dzwiki,True,3.0,0.5,1.0,0.5,1.0,0.6666666666666666
dzwiki,True,4.0,0.5,1.0,0.5,1.0,0.6666666666666666
dzwiki,True,5.0,0.5,1.0,0.5,1.0,0.6666666666666666
dzwiki,True,6.0,0.5,1.0,0.5,1.0,0.6666666666666666
dzwiki,True,7.0,0.5,1.0,0.5,1.0,0.6666666666666666
dzwiki,True,8.0,0.5,1.0,0.5,1.0,0.6666666666666666
dzwiki,True,9.0,0.5,1.0,0.5,1.0,0.6666666666666666
dzwiki,True,10.0,0.5,1.0,0.5,1.0,0.6666666666666666
dzwiki,True,11.0,0.5,1.0,0.5,1.0,0.6666666666666666
dzwiki,True,12.0,0.5,1.0,0.5,1.0,0.6666666666666666
dzwiki,True,13.0,0.5,1.0,0.5,1.0,0.6666666666666666
dzwiki,True,14.0,0.5,1.0,0.5,1.0,0.6666666666666666
dzwiki,True,15.0,0.5,1.0,0.5,1.0,0.6666666666666666
dzwiki,True,16.0,0.5,1.0,0.5,1.0,0.6666666666666666
dzwiki,True,17.0,0.5,1.0,0.5,1.0,0.6666666666666666
dzwiki,True,18.0,0.5,1.0,0.5,1.0,0.6666666666666666
dzwiki,True,19.0,0.5,1.0,0.5,1.0,0.6666666666666666
dzwiki,True,20.0,0.5,1.0,0.5,1.0,0.6666666666666666
dzwiki,True,21.0,0.5,1.0,0.5,1.0,0.6666666666666666
dzwiki,True,22.0,0.5,1.0,0.5,1.0,0.6666666666666666
dzwiki,True,23.0,0.5,1.0,0.5,1.0,0.6666666666666666
dzwiki,True,24.0,0.5,1.0,0.5,1.0,0.6666666666666666
dzwiki,True,25.0,0.5,1.0,0.5,1.0,0.6666666666666666
dzwiki,True,26.0,0.5,1.0,0.5,1.0,0.6666666666666666
dzwiki,True,27.0,0.5,1.0,0.5,1.0,0.6666666666666666
dzwiki,True,28.0,0.5,1.0,0.5,1.0,0.6666666666666666
dzwiki,True,29.0,0.5,1.0,0.5,1.0,0.6666666666666666
dzwiki,True,30.0,0.5,1.0,0.5,1.0,0.6666666666666666
dzwiki,True,31.0,0.5,1.0,0.5,1.0,0.6666666666666666
dzwiki,True,32.0,0.5,1.0,0.5,1.0,0.6666666666666666
dzwiki,True,33.0,0.5,1.0,0.5,1.0,0.6666666666666666
dzwiki,True,34.0,0.5,1.0,0.5,1.0,0.6666666666666666
dzwiki,True,35.0,0.5,1.0,0.5,1.0,0.6666666666666666
dzwiki,True,36.0,0.5,1.0,0.5,1.0,0.6666666666666666
dzwiki,True,37.0,0.5,1.0,0.5,1.0,0.6666666666666666
dzwiki,True,38.0,0.5,1.0,0.5,1.0,0.6666666666666666
dzwiki,True,39.0,0.5,1.0,0.5,1.0,0.6666666666666666
dzwiki,True,40.0,0.5,1.0,0.5,1.0,0.6666666666666666
dzwiki,True,41.0,0.5294117647058824,1.0,0.5555555555555556,0.8888888888888888,0.6923076923076924
dzwiki,True,42.0,0.5294117647058824,1.0,0.5555555555555556,0.8888888888888888,0.6923076923076924
dzwiki,True,43.0,0.5294117647058824,1.0,0.5555555555555556,0.8888888888888888,0.6923076923076924
dzwiki,True,44.0,0.5294117647058824,1.0,0.5555555555555556,0.8888888888888888,0.6923076923076924
dzwiki,True,45.0,0.5294117647058824,1.0,0.5555555555555556,0.8888888888888888,0.6923076923076924
dzwiki,True,46.0,0.5294117647058824,1.0,0.5555555555555556,0.8888888888888888,0.6923076923076924
dzwiki,True,47.0,0.5294117647058824,1.0,0.5555555555555556,0.8888888888888888,0.6923076923076924
dzwiki,True,48.0,0.5294117647058824,1.0,0.5555555555555556,0.8888888888888888,0.6923076923076924
dzwiki,True,49.0,0.5294117647058824,1.0,0.5555555555555556,0.8888888888888888,0.6923076923076924
dzwiki,True,50.0,0.5294117647058824,1.0,0.5555555555555556,0.8888888888888888,0.6923076923076924
dzwiki,True,51.0,0.5294117647058824,1.0,0.5555555555555556,0.8888888888888888,0.6923076923076924
dzwiki,True,52.0,0.5294117647058824,1.0,0.5555555555555556,0.8888888888888888,0.6923076923076924
dzwiki,True,53.0,0.5294117647058824,1.0,0.5555555555555556,0.8888888888888888,0.6923076923076924
dzwiki,True,54.0,0.5,0.8888888888888888,0.5,0.8888888888888888,0.64
dzwiki,True,55.0,0.5,0.8888888888888888,0.5,0.8888888888888888,0.64
dzwiki,True,56.0,0.5,0.8888888888888888,0.5,0.8888888888888888,0.64
dzwiki,True,57.0,0.5,0.8888888888888888,0.5,0.8888888888888888,0.64
dzwiki,True,58.0,0.5,0.8888888888888888,0.5,0.8888888888888888,0.64
dzwiki,True,59.0,0.5,0.8888888888888888,0.5,0.8888888888888888,0.64
dzwiki,True,60.0,0.5,0.8888888888888888,0.5,0.8888888888888888,0.64
dzwiki,True,61.0,0.5,0.8888888888888888,0.5,0.8888888888888888,0.64
dzwiki,True,62.0,0.5,0.8888888888888888,0.5,0.8888888888888888,0.64
dzwiki,True,63.0,0.5,0.8888888888888888,0.5,0.8888888888888888,0.64
dzwiki,True,64.0,0.5,0.8888888888888888,0.5,0.8888888888888888,0.64
dzwiki,True,65.0,0.5,0.8888888888888888,0.5,0.8888888888888888,0.64
dzwiki,True,66.0,0.5,0.8888888888888888,0.5,0.8888888888888888,0.64
dzwiki,True,67.0,0.5,0.8888888888888888,0.5,0.8888888888888888,0.64
dzwiki,True,68.0,0.5,0.8888888888888888,0.5,0.8888888888888888,0.64
dzwiki,True,69.0,0.5,0.8888888888888888,0.5,0.8888888888888888,0.64
dzwiki,True,70.0,0.5,0.8888888888888888,0.5,0.8888888888888888,0.64
dzwiki,True,71.0,0.5,0.8888888888888888,0.5,0.8888888888888888,0.64
dzwiki,True,72.0,0.5714285714285714,0.8888888888888888,0.6111111111111112,0.6666666666666666,0.6956521739130435
dzwiki,True,73.0,0.5384615384615384,0.7777777777777778,0.5555555555555556,0.6666666666666666,0.6363636363636364
dzwiki,True,74.0,0.5,0.6666666666666666,0.5,0.6666666666666666,0.5714285714285715
dzwiki,True,75.0,0.5,0.6666666666666666,0.5,0.6666666666666666,0.5714285714285715
dzwiki,True,76.0,0.5,0.6666666666666666,0.5,0.6666666666666666,0.5714285714285715
dzwiki,True,77.0,0.5,0.6666666666666666,0.5,0.6666666666666666,0.5714285714285715
dzwiki,True,78.0,0.45454545454545453,0.5555555555555556,0.4444444444444444,0.6666666666666666,0.5
dzwiki,True,79.0,0.45454545454545453,0.5555555555555556,0.4444444444444444,0.6666666666666666,0.5
dzwiki,True,80.0,0.5,0.5555555555555556,0.5,0.5555555555555556,0.5263157894736842
dzwiki,True,81.0,0.5,0.5555555555555556,0.5,0.5555555555555556,0.5263157894736842
dzwiki,True,82.0,0.4444444444444444,0.4444444444444444,0.4444444444444444,0.5555555555555556,0.4444444444444444
dzwiki,True,83.0,0.375,0.3333333333333333,0.3888888888888889,0.5555555555555556,0.35294117647058826
dzwiki,True,84.0,0.375,0.3333333333333333,0.3888888888888889,0.5555555555555556,0.35294117647058826
dzwiki,True,85.0,0.5,0.3333333333333333,0.5,0.3333333333333333,0.4
dzwiki,True,86.0,0.6,0.3333333333333333,0.5555555555555556,0.2222222222222222,0.42857142857142855
dzwiki,True,87.0,0.6,0.3333333333333333,0.5555555555555556,0.2222222222222222,0.42857142857142855
dzwiki,True,88.0,0.6,0.3333333333333333,0.5555555555555556,0.2222222222222222,0.42857142857142855
dzwiki,True,89.0,0.6,0.3333333333333333,0.5555555555555556,0.2222222222222222,0.42857142857142855
dzwiki,True,90.0,0.6,0.3333333333333333,0.5555555555555556,0.2222222222222222,0.42857142857142855
dzwiki,True,91.0,0.6,0.3333333333333333,0.5555555555555556,0.2222222222222222,0.42857142857142855
dzwiki,True,92.0,0.6,0.3333333333333333,0.5555555555555556,0.2222222222222222,0.42857142857142855
dzwiki,True,93.0,0.5,0.2222222222222222,0.5,0.2222222222222222,0.30769230769230765
dzwiki,True,94.0,0.5,0.2222222222222222,0.5,0.2222222222222222,0.30769230769230765
dzwiki,True,95.0,0.5,0.0,0.5,0.0,0.0
dzwiki,True,96.0,0.5,0.0,0.5,0.0,0.0
dzwiki,True,97.0,0.5,0.0,0.5,0.0,0.0
dzwiki,True,98.0,0.5,0.0,0.5,0.0,0.0
dzwiki,True,99.0,0.5,0.0,0.5,0.0,0.0
dzwiki,False,0.0,0.028901734104046242,1.0,0.028901734104046242,1.0,0.056179775280898875
dzwiki,False,1.0,0.028901734104046242,1.0,0.028901734104046242,1.0,0.056179775280898875
dzwiki,False,2.0,0.028901734104046242,1.0,0.028901734104046242,1.0,0.056179775280898875
dzwiki,False,3.0,0.028985507246376812,1.0,0.031791907514450865,0.9970238095238095,0.05633802816901409
dzwiki,False,4.0,0.029585798816568046,1.0,0.05202312138728324,0.9761904761904762,0.05747126436781609
dzwiki,False,5.0,0.030211480362537766,1.0,0.07225433526011561,0.9553571428571429,0.05865102639296188
dzwiki,False,6.0,0.030864197530864196,1.0,0.09248554913294797,0.9345238095238095,0.059880239520958084
dzwiki,False,7.0,0.032467532467532464,1.0,0.13872832369942195,0.8869047619047619,0.06289308176100628
dzwiki,False,8.0,0.03355704697986577,1.0,0.1676300578034682,0.8571428571428571,0.06493506493506493
dzwiki,False,9.0,0.03146853146853147,0.9,0.19653179190751446,0.8244047619047619,0.06081081081081082
dzwiki,False,10.0,0.033210332103321034,0.9,0.2398843930635838,0.7797619047619048,0.06405693950177936
dzwiki,False,11.0,0.03137254901960784,0.8,0.28034682080924855,0.7351190476190477,0.06037735849056604
dzwiki,False,12.0,0.03347280334728033,0.8,0.3265895953757225,0.6875,0.0642570281124498
dzwiki,False,13.0,0.034782608695652174,0.8,0.35260115606936415,0.6607142857142857,0.06666666666666667
dzwiki,False,14.0,0.03587443946188341,0.8,0.37283236994219654,0.6398809523809523,0.06866952789699571
dzwiki,False,15.0,0.032407407407407406,0.7,0.3872832369942196,0.6220238095238095,0.06194690265486725
dzwiki,False,16.0,0.03333333333333333,0.7,0.4046242774566474,0.6041666666666666,0.06363636363636363
dzwiki,False,17.0,0.035,0.7,0.43352601156069365,0.5744047619047619,0.06666666666666667
dzwiki,False,18.0,0.03553299492385787,0.7,0.4421965317919075,0.5654761904761905,0.0676328502415459
dzwiki,False,19.0,0.03571428571428571,0.7,0.44508670520231214,0.5625,0.06796116504854369
dzwiki,False,20.0,0.03608247422680412,0.7,0.4508670520231214,0.5565476190476191,0.06862745098039215
dzwiki,False,21.0,0.03804347826086957,0.7,0.4797687861271676,0.5267857142857143,0.07216494845360824
dzwiki,False,22.0,0.03932584269662921,0.7,0.49710982658959535,0.5089285714285714,0.07446808510638298
dzwiki,False,23.0,0.03636363636363636,0.6,0.5289017341040463,0.4732142857142857,0.06857142857142856
dzwiki,False,24.0,0.027210884353741496,0.4,0.569364161849711,0.4255952380952381,0.050955414012738856
dzwiki,False,25.0,0.02857142857142857,0.4,0.5895953757225434,0.40476190476190477,0.05333333333333333
dzwiki,False,26.0,0.030534351145038167,0.4,0.615606936416185,0.37797619047619047,0.05673758865248227
dzwiki,False,27.0,0.032,0.4,0.6329479768786127,0.3601190476190476,0.059259259259259255
dzwiki,False,28.0,0.03278688524590164,0.4,0.6416184971098265,0.35119047619047616,0.060606060606060615
dzwiki,False,29.0,0.03418803418803419,0.4,0.6560693641618497,0.33630952380952384,0.06299212598425198
dzwiki,False,30.0,0.03669724770642202,0.4,0.6791907514450867,0.3125,0.06722689075630252
dzwiki,False,31.0,0.03773584905660377,0.4,0.6878612716763006,0.30357142857142855,0.06896551724137931
dzwiki,False,32.0,0.039603960396039604,0.4,0.7023121387283237,0.28869047619047616,0.07207207207207207
dzwiki,False,33.0,0.041666666666666664,0.4,0.7167630057803468,0.27380952380952384,0.07547169811320754
dzwiki,False,34.0,0.045454545454545456,0.4,0.7398843930635838,0.25,0.0816326530612245
dzwiki,False,35.0,0.04819277108433735,0.4,0.7543352601156069,0.23511904761904762,0.08602150537634409
dzwiki,False,36.0,0.05063291139240506,0.4,0.7658959537572254,0.22321428571428573,0.0898876404494382
dzwiki,False,37.0,0.05128205128205128,0.4,0.7687861271676301,0.22023809523809523,0.09090909090909091
dzwiki,False,38.0,0.05194805194805195,0.4,0.7716763005780347,0.21726190476190477,0.09195402298850576
dzwiki,False,39.0,0.05333333333333334,0.4,0.7774566473988439,0.2113095238095238,0.09411764705882353
dzwiki,False,40.0,0.06060606060606061,0.4,0.8034682080924855,0.18452380952380953,0.10526315789473685
dzwiki,False,41.0,0.0625,0.4,0.8092485549132948,0.17857142857142858,0.10810810810810811
dzwiki,False,42.0,0.06896551724137931,0.4,0.8265895953757225,0.16071428571428573,0.1176470588235294
dzwiki,False,43.0,0.07142857142857142,0.4,0.8323699421965318,0.15476190476190477,0.12121212121212122
dzwiki,False,44.0,0.07692307692307693,0.4,0.8439306358381503,0.14285714285714285,0.12903225806451613
dzwiki,False,45.0,0.08163265306122448,0.4,0.8526011560693642,0.13392857142857142,0.13559322033898302
dzwiki,False,46.0,0.08333333333333333,0.4,0.8554913294797688,0.13095238095238096,0.13793103448275862
dzwiki,False,47.0,0.08888888888888889,0.4,0.8641618497109826,0.12202380952380952,0.14545454545454545
dzwiki,False,48.0,0.09090909090909091,0.4,0.8670520231213873,0.11904761904761904,0.14814814814814814
dzwiki,False,49.0,0.09090909090909091,0.4,0.8670520231213873,0.11904761904761904,0.14814814814814814
dzwiki,False,50.0,0.09302325581395349,0.4,0.869942196531792,0.11607142857142858,0.1509433962264151
dzwiki,False,51.0,0.09523809523809523,0.4,0.8728323699421965,0.1130952380952381,0.15384615384615385
dzwiki,False,52.0,0.1,0.4,0.8786127167630058,0.10714285714285714,0.16000000000000003
dzwiki,False,53.0,0.10256410256410256,0.4,0.8815028901734104,0.10416666666666667,0.163265306122449
dzwiki,False,54.0,0.10256410256410256,0.4,0.8815028901734104,0.10416666666666667,0.163265306122449
dzwiki,False,55.0,0.10526315789473684,0.4,0.884393063583815,0.10119047619047619,0.16666666666666666
dzwiki,False,56.0,0.1111111111111111,0.4,0.8901734104046243,0.09523809523809523,0.1739130434782609
dzwiki,False,57.0,0.1111111111111111,0.4,0.8901734104046243,0.09523809523809523,0.1739130434782609
dzwiki,False,58.0,0.1111111111111111,0.4,0.8901734104046243,0.09523809523809523,0.1739130434782609
dzwiki,False,59.0,0.11428571428571428,0.4,0.8930635838150289,0.09226190476190477,0.17777777777777776
dzwiki,False,60.0,0.11428571428571428,0.4,0.8930635838150289,0.09226190476190477,0.17777777777777776
dzwiki,False,61.0,0.11764705882352941,0.4,0.8959537572254336,0.08928571428571429,0.1818181818181818
dzwiki,False,62.0,0.12121212121212122,0.4,0.8988439306358381,0.08630952380952381,0.186046511627907
dzwiki,False,63.0,0.12121212121212122,0.4,0.8988439306358381,0.08630952380952381,0.186046511627907
dzwiki,False,64.0,0.12903225806451613,0.4,0.9046242774566474,0.08035714285714286,0.1951219512195122
dzwiki,False,65.0,0.12903225806451613,0.4,0.9046242774566474,0.08035714285714286,0.1951219512195122
dzwiki,False,66.0,0.13793103448275862,0.4,0.9104046242774566,0.0744047619047619,0.20512820512820515
dzwiki,False,67.0,0.14285714285714285,0.4,0.9132947976878613,0.07142857142857142,0.21052631578947364
dzwiki,False,68.0,0.15384615384615385,0.4,0.9190751445086706,0.06547619047619048,0.2222222222222222
dzwiki,False,69.0,0.15384615384615385,0.4,0.9190751445086706,0.06547619047619048,0.2222222222222222
dzwiki,False,70.0,0.16666666666666666,0.4,0.9248554913294798,0.05952380952380952,0.23529411764705882
dzwiki,False,71.0,0.13043478260869565,0.3,0.9219653179190751,0.05952380952380952,0.18181818181818182
dzwiki,False,72.0,0.09090909090909091,0.2,0.9190751445086706,0.05952380952380952,0.12500000000000003
dzwiki,False,73.0,0.09523809523809523,0.2,0.9219653179190751,0.05654761904761905,0.12903225806451613
dzwiki,False,74.0,0.09523809523809523,0.2,0.9219653179190751,0.05654761904761905,0.12903225806451613
dzwiki,False,75.0,0.09523809523809523,0.2,0.9219653179190751,0.05654761904761905,0.12903225806451613
dzwiki,False,76.0,0.09523809523809523,0.2,0.9219653179190751,0.05654761904761905,0.12903225806451613
dzwiki,False,77.0,0.09523809523809523,0.2,0.9219653179190751,0.05654761904761905,0.12903225806451613
dzwiki,False,78.0,0.1,0.2,0.9248554913294798,0.05357142857142857,0.13333333333333333
dzwiki,False,79.0,0.1,0.2,0.9248554913294798,0.05357142857142857,0.13333333333333333
dzwiki,False,80.0,0.10526315789473684,0.2,0.9277456647398844,0.050595238095238096,0.13793103448275862
dzwiki,False,81.0,0.1111111111111111,0.2,0.930635838150289,0.047619047619047616,0.14285714285714285
dzwiki,False,82.0,0.11764705882352941,0.2,0.9335260115606936,0.044642857142857144,0.14814814814814817
dzwiki,False,83.0,0.13333333333333333,0.2,0.9393063583815029,0.03869047619047619,0.16
dzwiki,False,84.0,0.13333333333333333,0.2,0.9393063583815029,0.03869047619047619,0.16
dzwiki,False,85.0,0.13333333333333333,0.2,0.9393063583815029,0.03869047619047619,0.16
dzwiki,False,86.0,0.13333333333333333,0.2,0.9393063583815029,0.03869047619047619,0.16
dzwiki,False,87.0,0.15384615384615385,0.2,0.9450867052023122,0.03273809523809524,0.17391304347826086
dzwiki,False,88.0,0.15384615384615385,0.2,0.9450867052023122,0.03273809523809524,0.17391304347826086
dzwiki,False,89.0,0.15384615384615385,0.2,0.9450867052023122,0.03273809523809524,0.17391304347826086
dzwiki,False,90.0,0.08333333333333333,0.1,0.9421965317919075,0.03273809523809524,0.0909090909090909
dzwiki,False,91.0,0.0,0.0,0.9393063583815029,0.03273809523809524,0.0909090909090909
dzwiki,False,92.0,0.0,0.0,0.9479768786127167,0.023809523809523808,0.0909090909090909
dzwiki,False,93.0,0.0,0.0,0.953757225433526,0.017857142857142856,0.0909090909090909
dzwiki,False,94.0,0.0,0.0,0.953757225433526,0.017857142857142856,0.0909090909090909
dzwiki,False,95.0,0.0,0.0,0.9566473988439307,0.01488095238095238,0.0909090909090909
dzwiki,False,96.0,0.0,0.0,0.9624277456647399,0.008928571428571428,0.0909090909090909
dzwiki,False,97.0,0.0,0.0,0.9624277456647399,0.008928571428571428,0.0909090909090909
dzwiki,False,98.0,0.0,0.0,0.9682080924855492,0.002976190476190476,0.0909090909090909
dzwiki,False,99.0,0.0,0.0,0.9710982658959537,0.0,0.0909090909090909
