wiki_db,user_is_anonymous,threshold,precision,recall,accuracy,fpr,F1
kbpwiki,True,0.0,0.7777777777777778,1.0,0.7777777777777778,1.0,0.8750000000000001
kbpwiki,True,1.0,0.7777777777777778,1.0,0.7777777777777778,1.0,0.8750000000000001
kbpwiki,True,2.0,0.7777777777777778,1.0,0.7777777777777778,1.0,0.8750000000000001
kbpwiki,True,3.0,0.7777777777777778,1.0,0.7777777777777778,1.0,0.8750000000000001
kbpwiki,True,4.0,0.7777777777777778,1.0,0.7777777777777778,1.0,0.8750000000000001
kbpwiki,True,5.0,0.7777777777777778,1.0,0.7777777777777778,1.0,0.8750000000000001
kbpwiki,True,6.0,0.7777777777777778,1.0,0.7777777777777778,1.0,0.8750000000000001
kbpwiki,True,7.0,0.7777777777777778,1.0,0.7777777777777778,1.0,0.8750000000000001
kbpwiki,True,8.0,0.7777777777777778,1.0,0.7777777777777778,1.0,0.8750000000000001
kbpwiki,True,9.0,0.7777777777777778,1.0,0.7777777777777778,1.0,0.8750000000000001
kbpwiki,True,10.0,0.7777777777777778,1.0,0.7777777777777778,1.0,0.8750000000000001
kbpwiki,True,11.0,0.7777777777777778,1.0,0.7777777777777778,1.0,0.8750000000000001
kbpwiki,True,12.0,0.7777777777777778,1.0,0.7777777777777778,1.0,0.8750000000000001
kbpwiki,True,13.0,0.7777777777777778,1.0,0.7777777777777778,1.0,0.8750000000000001
kbpwiki,True,14.0,0.7777777777777778,1.0,0.7777777777777778,1.0,0.8750000000000001
kbpwiki,True,15.0,0.7777777777777778,1.0,0.7777777777777778,1.0,0.8750000000000001
kbpwiki,True,16.0,0.7777777777777778,1.0,0.7777777777777778,1.0,0.8750000000000001
kbpwiki,True,17.0,0.7777777777777778,1.0,0.7777777777777778,1.0,0.8750000000000001
kbpwiki,True,18.0,0.7777777777777778,1.0,0.7777777777777778,1.0,0.8750000000000001
kbpwiki,True,19.0,0.7777777777777778,1.0,0.7777777777777778,1.0,0.8750000000000001
kbpwiki,True,20.0,0.7777777777777778,1.0,0.7777777777777778,1.0,0.8750000000000001
kbpwiki,True,21.0,0.7777777777777778,1.0,0.7777777777777778,1.0,0.8750000000000001
kbpwiki,True,22.0,0.7777777777777778,1.0,0.7777777777777778,1.0,0.8750000000000001
kbpwiki,True,23.0,0.7777777777777778,1.0,0.7777777777777778,1.0,0.8750000000000001
kbpwiki,True,24.0,0.7777777777777778,1.0,0.7777777777777778,1.0,0.8750000000000001
kbpwiki,True,25.0,0.7777777777777778,1.0,0.7777777777777778,1.0,0.8750000000000001
kbpwiki,True,26.0,0.7777777777777778,1.0,0.7777777777777778,1.0,0.8750000000000001
kbpwiki,True,27.0,0.7777777777777778,1.0,0.7777777777777778,1.0,0.8750000000000001
kbpwiki,True,28.0,0.7777777777777778,1.0,0.7777777777777778,1.0,0.8750000000000001
kbpwiki,True,29.0,0.7777777777777778,1.0,0.7777777777777778,1.0,0.8750000000000001
kbpwiki,True,30.0,0.7777777777777778,1.0,0.7777777777777778,1.0,0.8750000000000001
kbpwiki,True,31.0,0.7777777777777778,1.0,0.7777777777777778,1.0,0.8750000000000001
kbpwiki,True,32.0,0.7777777777777778,1.0,0.7777777777777778,1.0,0.8750000000000001
kbpwiki,True,33.0,0.7777777777777778,1.0,0.7777777777777778,1.0,0.8750000000000001
kbpwiki,True,34.0,0.7777777777777778,1.0,0.7777777777777778,1.0,0.8750000000000001
kbpwiki,True,35.0,0.7777777777777778,1.0,0.7777777777777778,1.0,0.8750000000000001
kbpwiki,True,36.0,0.7777777777777778,1.0,0.7777777777777778,1.0,0.8750000000000001
kbpwiki,True,37.0,0.7777777777777778,1.0,0.7777777777777778,1.0,0.8750000000000001
kbpwiki,True,38.0,0.7777777777777778,1.0,0.7777777777777778,1.0,0.8750000000000001
kbpwiki,True,39.0,0.7777777777777778,1.0,0.7777777777777778,1.0,0.8750000000000001
kbpwiki,True,40.0,0.7777777777777778,1.0,0.7777777777777778,1.0,0.8750000000000001
kbpwiki,True,41.0,0.7777777777777778,1.0,0.7777777777777778,1.0,0.8750000000000001
kbpwiki,True,42.0,0.7777777777777778,1.0,0.7777777777777778,1.0,0.8750000000000001
kbpwiki,True,43.0,0.7777777777777778,1.0,0.7777777777777778,1.0,0.8750000000000001
kbpwiki,True,44.0,0.7777777777777778,1.0,0.7777777777777778,1.0,0.8750000000000001
kbpwiki,True,45.0,0.7777777777777778,1.0,0.7777777777777778,1.0,0.8750000000000001
kbpwiki,True,46.0,0.7777777777777778,1.0,0.7777777777777778,1.0,0.8750000000000001
kbpwiki,True,47.0,0.7777777777777778,1.0,0.7777777777777778,1.0,0.8750000000000001
kbpwiki,True,48.0,0.7777777777777778,1.0,0.7777777777777778,1.0,0.8750000000000001
kbpwiki,True,49.0,0.7777777777777778,1.0,0.7777777777777778,1.0,0.8750000000000001
kbpwiki,True,50.0,0.7777777777777778,1.0,0.7777777777777778,1.0,0.8750000000000001
kbpwiki,True,51.0,0.7777777777777778,1.0,0.7777777777777778,1.0,0.8750000000000001
kbpwiki,True,52.0,0.7777777777777778,1.0,0.7777777777777778,1.0,0.8750000000000001
kbpwiki,True,53.0,0.7777777777777778,1.0,0.7777777777777778,1.0,0.8750000000000001
kbpwiki,True,54.0,0.7777777777777778,1.0,0.7777777777777778,1.0,0.8750000000000001
kbpwiki,True,55.0,0.7777777777777778,1.0,0.7777777777777778,1.0,0.8750000000000001
kbpwiki,True,56.0,0.7777777777777778,1.0,0.7777777777777778,1.0,0.8750000000000001
kbpwiki,True,57.0,0.7777777777777778,1.0,0.7777777777777778,1.0,0.8750000000000001
kbpwiki,True,58.0,0.7777777777777778,1.0,0.7777777777777778,1.0,0.8750000000000001
kbpwiki,True,59.0,0.7777777777777778,1.0,0.7777777777777778,1.0,0.8750000000000001
kbpwiki,True,60.0,0.7777777777777778,1.0,0.7777777777777778,1.0,0.8750000000000001
kbpwiki,True,61.0,0.7777777777777778,1.0,0.7777777777777778,1.0,0.8750000000000001
kbpwiki,True,62.0,0.7777777777777778,1.0,0.7777777777777778,1.0,0.8750000000000001
kbpwiki,True,63.0,0.7777777777777778,1.0,0.7777777777777778,1.0,0.8750000000000001
kbpwiki,True,64.0,0.7777777777777778,1.0,0.7777777777777778,1.0,0.8750000000000001
kbpwiki,True,65.0,0.7777777777777778,1.0,0.7777777777777778,1.0,0.8750000000000001
kbpwiki,True,66.0,0.7777777777777778,1.0,0.7777777777777778,1.0,0.8750000000000001
kbpwiki,True,67.0,0.7777777777777778,1.0,0.7777777777777778,1.0,0.8750000000000001
kbpwiki,True,68.0,0.7777777777777778,1.0,0.7777777777777778,1.0,0.8750000000000001
kbpwiki,True,69.0,0.7777777777777778,1.0,0.7777777777777778,1.0,0.8750000000000001
kbpwiki,True,70.0,0.7692307692307693,0.9523809523809523,0.7407407407407407,1.0,0.8510638297872339
kbpwiki,True,71.0,0.7692307692307693,0.9523809523809523,0.7407407407407407,1.0,0.8510638297872339
kbpwiki,True,72.0,0.76,0.9047619047619048,0.7037037037037037,1.0,0.8260869565217391
kbpwiki,True,73.0,0.76,0.9047619047619048,0.7037037037037037,1.0,0.8260869565217391
kbpwiki,True,74.0,0.76,0.9047619047619048,0.7037037037037037,1.0,0.8260869565217391
kbpwiki,True,75.0,0.76,0.9047619047619048,0.7037037037037037,1.0,0.8260869565217391
kbpwiki,True,76.0,0.76,0.9047619047619048,0.7037037037037037,1.0,0.8260869565217391
kbpwiki,True,77.0,0.75,0.8571428571428571,0.6666666666666666,1.0,0.7999999999999999
kbpwiki,True,78.0,0.75,0.8571428571428571,0.6666666666666666,1.0,0.7999999999999999
kbpwiki,True,79.0,0.7272727272727273,0.7619047619047619,0.5925925925925926,1.0,0.7441860465116279
kbpwiki,True,80.0,0.7,0.6666666666666666,0.5185185185185185,1.0,0.6829268292682926
kbpwiki,True,81.0,0.7222222222222222,0.6190476190476191,0.5185185185185185,0.8333333333333334,0.6666666666666666
kbpwiki,True,82.0,0.7222222222222222,0.6190476190476191,0.5185185185185185,0.8333333333333334,0.6666666666666666
kbpwiki,True,83.0,0.7222222222222222,0.6190476190476191,0.5185185185185185,0.8333333333333334,0.6666666666666666
kbpwiki,True,84.0,0.6666666666666666,0.47619047619047616,0.4074074074074074,0.8333333333333334,0.5555555555555556
kbpwiki,True,85.0,0.6666666666666666,0.47619047619047616,0.4074074074074074,0.8333333333333334,0.5555555555555556
kbpwiki,True,86.0,0.6666666666666666,0.47619047619047616,0.4074074074074074,0.8333333333333334,0.5555555555555556
kbpwiki,True,87.0,0.6428571428571429,0.42857142857142855,0.37037037037037035,0.8333333333333334,0.5142857142857143
kbpwiki,True,88.0,0.5,0.23809523809523808,0.2222222222222222,0.8333333333333334,0.3225806451612903
kbpwiki,True,89.0,0.5,0.23809523809523808,0.2222222222222222,0.8333333333333334,0.3225806451612903
kbpwiki,True,90.0,0.5,0.19047619047619047,0.2222222222222222,0.6666666666666666,0.27586206896551724
kbpwiki,True,91.0,0.6666666666666666,0.19047619047619047,0.2962962962962963,0.3333333333333333,0.2962962962962963
kbpwiki,True,92.0,0.75,0.14285714285714285,0.2962962962962963,0.16666666666666666,0.24
kbpwiki,True,93.0,0.5,0.047619047619047616,0.2222222222222222,0.16666666666666666,0.08695652173913042
kbpwiki,True,94.0,0.5,0.047619047619047616,0.2222222222222222,0.16666666666666666,0.08695652173913042
kbpwiki,True,95.0,0.5,0.047619047619047616,0.2222222222222222,0.16666666666666666,0.08695652173913042
kbpwiki,True,96.0,0.5,0.047619047619047616,0.2222222222222222,0.16666666666666666,0.08695652173913042
kbpwiki,True,97.0,0.0,0.0,0.18518518518518517,0.16666666666666666,0.08695652173913042
kbpwiki,True,98.0,0.0,0.0,0.2222222222222222,0.0,0.08695652173913042
kbpwiki,True,99.0,0.0,0.0,0.2222222222222222,0.0,0.08695652173913042
kbpwiki,False,0.0,0.034722222222222224,1.0,0.034722222222222224,1.0,0.06711409395973154
kbpwiki,False,1.0,0.034722222222222224,1.0,0.034722222222222224,1.0,0.06711409395973154
kbpwiki,False,2.0,0.034722222222222224,1.0,0.034722222222222224,1.0,0.06711409395973154
kbpwiki,False,3.0,0.034722222222222224,1.0,0.034722222222222224,1.0,0.06711409395973154
kbpwiki,False,4.0,0.034722222222222224,1.0,0.034722222222222224,1.0,0.06711409395973154
kbpwiki,False,5.0,0.034722222222222224,1.0,0.034722222222222224,1.0,0.06711409395973154
kbpwiki,False,6.0,0.034722222222222224,1.0,0.034722222222222224,1.0,0.06711409395973154
kbpwiki,False,7.0,0.03484320557491289,1.0,0.03819444444444445,0.9964028776978417,0.06734006734006734
kbpwiki,False,8.0,0.03484320557491289,1.0,0.03819444444444445,0.9964028776978417,0.06734006734006734
kbpwiki,False,9.0,0.03484320557491289,1.0,0.03819444444444445,0.9964028776978417,0.06734006734006734
kbpwiki,False,10.0,0.03496503496503497,1.0,0.041666666666666664,0.9928057553956835,0.06756756756756757
kbpwiki,False,11.0,0.035211267605633804,1.0,0.04861111111111111,0.9856115107913669,0.06802721088435375
kbpwiki,False,12.0,0.03571428571428571,1.0,0.0625,0.9712230215827338,0.0689655172413793
kbpwiki,False,13.0,0.036231884057971016,1.0,0.0763888888888889,0.9568345323741008,0.06993006993006994
kbpwiki,False,14.0,0.03745318352059925,1.0,0.1076388888888889,0.9244604316546763,0.07220216606498195
kbpwiki,False,15.0,0.03968253968253968,1.0,0.1597222222222222,0.8705035971223022,0.07633587786259541
kbpwiki,False,16.0,0.040160642570281124,1.0,0.1701388888888889,0.8597122302158273,0.07722007722007722
kbpwiki,False,17.0,0.04132231404958678,1.0,0.19444444444444445,0.8345323741007195,0.07936507936507936
kbpwiki,False,18.0,0.04310344827586207,1.0,0.22916666666666666,0.7985611510791367,0.08264462809917356
kbpwiki,False,19.0,0.04072398190045249,0.9,0.2604166666666667,0.762589928057554,0.07792207792207792
kbpwiki,False,20.0,0.04265402843601896,0.9,0.2951388888888889,0.7266187050359713,0.08144796380090498
kbpwiki,False,21.0,0.045,0.9,0.3333333333333333,0.6870503597122302,0.08571428571428572
kbpwiki,False,22.0,0.046875,0.9,0.3611111111111111,0.658273381294964,0.08910891089108912
kbpwiki,False,23.0,0.04945054945054945,0.9,0.3958333333333333,0.6223021582733813,0.09375
kbpwiki,False,24.0,0.05084745762711865,0.9,0.4131944444444444,0.60431654676259,0.09625668449197862
kbpwiki,False,25.0,0.048484848484848485,0.8,0.4479166666666667,0.564748201438849,0.09142857142857143
kbpwiki,False,26.0,0.050955414012738856,0.8,0.4756944444444444,0.5359712230215827,0.09580838323353294
kbpwiki,False,27.0,0.053691275167785234,0.8,0.5034722222222222,0.5071942446043165,0.10062893081761007
kbpwiki,False,28.0,0.055944055944055944,0.8,0.5243055555555556,0.4856115107913669,0.1045751633986928
kbpwiki,False,29.0,0.057971014492753624,0.8,0.5416666666666666,0.4676258992805755,0.1081081081081081
kbpwiki,False,30.0,0.06015037593984962,0.8,0.5590277777777778,0.44964028776978415,0.11188811188811189
kbpwiki,False,31.0,0.0625,0.8,0.5763888888888888,0.4316546762589928,0.11594202898550725
kbpwiki,False,32.0,0.06451612903225806,0.8,0.5902777777777778,0.4172661870503597,0.11940298507462686
kbpwiki,False,33.0,0.06779661016949153,0.8,0.6111111111111112,0.39568345323741005,0.125
kbpwiki,False,34.0,0.07142857142857142,0.8,0.6319444444444444,0.37410071942446044,0.13114754098360656
kbpwiki,False,35.0,0.07407407407407407,0.8,0.6458333333333334,0.3597122302158273,0.13559322033898305
kbpwiki,False,36.0,0.0761904761904762,0.8,0.65625,0.3489208633093525,0.13913043478260873
kbpwiki,False,37.0,0.0761904761904762,0.8,0.65625,0.3489208633093525,0.13913043478260873
kbpwiki,False,38.0,0.0784313725490196,0.8,0.6666666666666666,0.3381294964028777,0.14285714285714285
kbpwiki,False,39.0,0.08,0.8,0.6736111111111112,0.33093525179856115,0.14545454545454545
kbpwiki,False,40.0,0.08,0.8,0.6736111111111112,0.33093525179856115,0.14545454545454545
kbpwiki,False,41.0,0.08247422680412371,0.8,0.6840277777777778,0.32014388489208634,0.14953271028037382
kbpwiki,False,42.0,0.08421052631578947,0.8,0.6909722222222222,0.3129496402877698,0.15238095238095237
kbpwiki,False,43.0,0.08421052631578947,0.8,0.6909722222222222,0.3129496402877698,0.15238095238095237
kbpwiki,False,44.0,0.08695652173913043,0.8,0.7013888888888888,0.302158273381295,0.1568627450980392
kbpwiki,False,45.0,0.08888888888888889,0.8,0.7083333333333334,0.2949640287769784,0.15999999999999998
kbpwiki,False,46.0,0.09302325581395349,0.8,0.7222222222222222,0.2805755395683453,0.16666666666666666
kbpwiki,False,47.0,0.0963855421686747,0.8,0.7326388888888888,0.2697841726618705,0.17204301075268819
kbpwiki,False,48.0,0.09876543209876543,0.8,0.7395833333333334,0.26258992805755393,0.1758241758241758
kbpwiki,False,49.0,0.10126582278481013,0.8,0.7465277777777778,0.25539568345323743,0.1797752808988764
kbpwiki,False,50.0,0.10256410256410256,0.8,0.75,0.2517985611510791,0.18181818181818182
kbpwiki,False,51.0,0.10526315789473684,0.8,0.7569444444444444,0.2446043165467626,0.18604651162790697
kbpwiki,False,52.0,0.10810810810810811,0.8,0.7638888888888888,0.23741007194244604,0.19047619047619047
kbpwiki,False,53.0,0.10810810810810811,0.8,0.7638888888888888,0.23741007194244604,0.19047619047619047
kbpwiki,False,54.0,0.1095890410958904,0.8,0.7673611111111112,0.23381294964028776,0.19277108433734938
kbpwiki,False,55.0,0.1095890410958904,0.8,0.7673611111111112,0.23381294964028776,0.19277108433734938
kbpwiki,False,56.0,0.11594202898550725,0.8,0.78125,0.21942446043165467,0.20253164556962025
kbpwiki,False,57.0,0.1044776119402985,0.7,0.78125,0.2158273381294964,0.18181818181818182
kbpwiki,False,58.0,0.10606060606060606,0.7,0.7847222222222222,0.21223021582733814,0.18421052631578946
kbpwiki,False,59.0,0.1111111111111111,0.7,0.7951388888888888,0.2014388489208633,0.19178082191780818
kbpwiki,False,60.0,0.1111111111111111,0.7,0.7951388888888888,0.2014388489208633,0.19178082191780818
kbpwiki,False,61.0,0.1111111111111111,0.7,0.7951388888888888,0.2014388489208633,0.19178082191780818
kbpwiki,False,62.0,0.1111111111111111,0.7,0.7951388888888888,0.2014388489208633,0.19178082191780818
kbpwiki,False,63.0,0.1111111111111111,0.7,0.7951388888888888,0.2014388489208633,0.19178082191780818
kbpwiki,False,64.0,0.11666666666666667,0.7,0.8055555555555556,0.1906474820143885,0.2
kbpwiki,False,65.0,0.1206896551724138,0.7,0.8125,0.18345323741007194,0.2058823529411765
kbpwiki,False,66.0,0.12962962962962962,0.7,0.8263888888888888,0.16906474820143885,0.21875
kbpwiki,False,67.0,0.1320754716981132,0.7,0.8298611111111112,0.16546762589928057,0.22222222222222224
kbpwiki,False,68.0,0.1320754716981132,0.7,0.8298611111111112,0.16546762589928057,0.22222222222222224
kbpwiki,False,69.0,0.12244897959183673,0.6,0.8368055555555556,0.15467625899280577,0.20338983050847456
kbpwiki,False,70.0,0.10638297872340426,0.5,0.8368055555555556,0.1510791366906475,0.17543859649122806
kbpwiki,False,71.0,0.1111111111111111,0.5,0.84375,0.14388489208633093,0.1818181818181818
kbpwiki,False,72.0,0.11627906976744186,0.5,0.8506944444444444,0.1366906474820144,0.18867924528301888
kbpwiki,False,73.0,0.125,0.5,0.8611111111111112,0.12589928057553956,0.2
kbpwiki,False,74.0,0.1282051282051282,0.5,0.8645833333333334,0.1223021582733813,0.2040816326530612
kbpwiki,False,75.0,0.13513513513513514,0.5,0.8715277777777778,0.11510791366906475,0.21276595744680854
kbpwiki,False,76.0,0.14285714285714285,0.5,0.8784722222222222,0.1079136690647482,0.22222222222222224
kbpwiki,False,77.0,0.14285714285714285,0.5,0.8784722222222222,0.1079136690647482,0.22222222222222224
kbpwiki,False,78.0,0.14285714285714285,0.5,0.8784722222222222,0.1079136690647482,0.22222222222222224
kbpwiki,False,79.0,0.15151515151515152,0.5,0.8854166666666666,0.10071942446043165,0.23255813953488375
kbpwiki,False,80.0,0.15625,0.5,0.8888888888888888,0.09712230215827339,0.23809523809523808
kbpwiki,False,81.0,0.16129032258064516,0.5,0.8923611111111112,0.09352517985611511,0.24390243902439024
kbpwiki,False,82.0,0.16666666666666666,0.5,0.8958333333333334,0.08992805755395683,0.25
kbpwiki,False,83.0,0.1724137931034483,0.5,0.8993055555555556,0.08633093525179857,0.25641025641025644
kbpwiki,False,84.0,0.14285714285714285,0.4,0.8958333333333334,0.08633093525179857,0.21052631578947364
kbpwiki,False,85.0,0.14814814814814814,0.4,0.8993055555555556,0.08273381294964029,0.21621621621621623
kbpwiki,False,86.0,0.17391304347826086,0.4,0.9131944444444444,0.0683453237410072,0.24242424242424243
kbpwiki,False,87.0,0.2,0.4,0.9236111111111112,0.05755395683453238,0.26666666666666666
kbpwiki,False,88.0,0.21052631578947367,0.4,0.9270833333333334,0.0539568345323741,0.27586206896551724
kbpwiki,False,89.0,0.23529411764705882,0.4,0.9340277777777778,0.046762589928057555,0.29629629629629634
kbpwiki,False,90.0,0.23076923076923078,0.3,0.9409722222222222,0.03597122302158273,0.2608695652173913
kbpwiki,False,91.0,0.2727272727272727,0.3,0.9479166666666666,0.02877697841726619,0.28571428571428564
kbpwiki,False,92.0,0.14285714285714285,0.1,0.9479166666666666,0.02158273381294964,0.11764705882352941
kbpwiki,False,93.0,0.0,0.0,0.9513888888888888,0.014388489208633094,0.11764705882352941
kbpwiki,False,94.0,0.0,0.0,0.9513888888888888,0.014388489208633094,0.11764705882352941
kbpwiki,False,95.0,0.0,0.0,0.9583333333333334,0.007194244604316547,0.11764705882352941
kbpwiki,False,96.0,0.0,0.0,0.9583333333333334,0.007194244604316547,0.11764705882352941
kbpwiki,False,97.0,0.0,0.0,0.9618055555555556,0.0035971223021582736,0.11764705882352941
kbpwiki,False,98.0,0.0,0.0,0.9652777777777778,0.0,0.11764705882352941
kbpwiki,False,99.0,0.0,0.0,0.9652777777777778,0.0,0.11764705882352941
