wiki_db,user_is_anonymous,threshold,precision,recall,accuracy,fpr,F1
krcwiki,True,0.0,0.5333333333333333,1.0,0.5333333333333333,1.0,0.6956521739130436
krcwiki,True,1.0,0.5333333333333333,1.0,0.5333333333333333,1.0,0.6956521739130436
krcwiki,True,2.0,0.5333333333333333,1.0,0.5333333333333333,1.0,0.6956521739130436
krcwiki,True,3.0,0.5333333333333333,1.0,0.5333333333333333,1.0,0.6956521739130436
krcwiki,True,4.0,0.5333333333333333,1.0,0.5333333333333333,1.0,0.6956521739130436
krcwiki,True,5.0,0.5333333333333333,1.0,0.5333333333333333,1.0,0.6956521739130436
krcwiki,True,6.0,0.5333333333333333,1.0,0.5333333333333333,1.0,0.6956521739130436
krcwiki,True,7.0,0.5333333333333333,1.0,0.5333333333333333,1.0,0.6956521739130436
krcwiki,True,8.0,0.5333333333333333,1.0,0.5333333333333333,1.0,0.6956521739130436
krcwiki,True,9.0,0.5333333333333333,1.0,0.5333333333333333,1.0,0.6956521739130436
krcwiki,True,10.0,0.5333333333333333,1.0,0.5333333333333333,1.0,0.6956521739130436
krcwiki,True,11.0,0.5333333333333333,1.0,0.5333333333333333,1.0,0.6956521739130436
krcwiki,True,12.0,0.5333333333333333,1.0,0.5333333333333333,1.0,0.6956521739130436
krcwiki,True,13.0,0.5333333333333333,1.0,0.5333333333333333,1.0,0.6956521739130436
krcwiki,True,14.0,0.5333333333333333,1.0,0.5333333333333333,1.0,0.6956521739130436
krcwiki,True,15.0,0.5333333333333333,1.0,0.5333333333333333,1.0,0.6956521739130436
krcwiki,True,16.0,0.5333333333333333,1.0,0.5333333333333333,1.0,0.6956521739130436
krcwiki,True,17.0,0.5333333333333333,1.0,0.5333333333333333,1.0,0.6956521739130436
krcwiki,True,18.0,0.5333333333333333,1.0,0.5333333333333333,1.0,0.6956521739130436
krcwiki,True,19.0,0.5333333333333333,1.0,0.5333333333333333,1.0,0.6956521739130436
krcwiki,True,20.0,0.5333333333333333,1.0,0.5333333333333333,1.0,0.6956521739130436
krcwiki,True,21.0,0.5333333333333333,1.0,0.5333333333333333,1.0,0.6956521739130436
krcwiki,True,22.0,0.5333333333333333,1.0,0.5333333333333333,1.0,0.6956521739130436
krcwiki,True,23.0,0.5333333333333333,1.0,0.5333333333333333,1.0,0.6956521739130436
krcwiki,True,24.0,0.5333333333333333,1.0,0.5333333333333333,1.0,0.6956521739130436
krcwiki,True,25.0,0.5333333333333333,1.0,0.5333333333333333,1.0,0.6956521739130436
krcwiki,True,26.0,0.5333333333333333,1.0,0.5333333333333333,1.0,0.6956521739130436
krcwiki,True,27.0,0.5333333333333333,1.0,0.5333333333333333,1.0,0.6956521739130436
krcwiki,True,28.0,0.5333333333333333,1.0,0.5333333333333333,1.0,0.6956521739130436
krcwiki,True,29.0,0.5333333333333333,1.0,0.5333333333333333,1.0,0.6956521739130436
krcwiki,True,30.0,0.5333333333333333,1.0,0.5333333333333333,1.0,0.6956521739130436
krcwiki,True,31.0,0.5333333333333333,1.0,0.5333333333333333,1.0,0.6956521739130436
krcwiki,True,32.0,0.5333333333333333,1.0,0.5333333333333333,1.0,0.6956521739130436
krcwiki,True,33.0,0.5333333333333333,1.0,0.5333333333333333,1.0,0.6956521739130436
krcwiki,True,34.0,0.5333333333333333,1.0,0.5333333333333333,1.0,0.6956521739130436
krcwiki,True,35.0,0.5333333333333333,1.0,0.5333333333333333,1.0,0.6956521739130436
krcwiki,True,36.0,0.5333333333333333,1.0,0.5333333333333333,1.0,0.6956521739130436
krcwiki,True,37.0,0.5333333333333333,1.0,0.5333333333333333,1.0,0.6956521739130436
krcwiki,True,38.0,0.5333333333333333,1.0,0.5333333333333333,1.0,0.6956521739130436
krcwiki,True,39.0,0.5333333333333333,1.0,0.5333333333333333,1.0,0.6956521739130436
krcwiki,True,40.0,0.5333333333333333,1.0,0.5333333333333333,1.0,0.6956521739130436
krcwiki,True,41.0,0.5333333333333333,1.0,0.5333333333333333,1.0,0.6956521739130436
krcwiki,True,42.0,0.5333333333333333,1.0,0.5333333333333333,1.0,0.6956521739130436
krcwiki,True,43.0,0.5333333333333333,1.0,0.5333333333333333,1.0,0.6956521739130436
krcwiki,True,44.0,0.5333333333333333,1.0,0.5333333333333333,1.0,0.6956521739130436
krcwiki,True,45.0,0.5333333333333333,1.0,0.5333333333333333,1.0,0.6956521739130436
krcwiki,True,46.0,0.5333333333333333,1.0,0.5333333333333333,1.0,0.6956521739130436
krcwiki,True,47.0,0.5333333333333333,1.0,0.5333333333333333,1.0,0.6956521739130436
krcwiki,True,48.0,0.5333333333333333,1.0,0.5333333333333333,1.0,0.6956521739130436
krcwiki,True,49.0,0.5333333333333333,1.0,0.5333333333333333,1.0,0.6956521739130436
krcwiki,True,50.0,0.5333333333333333,1.0,0.5333333333333333,1.0,0.6956521739130436
krcwiki,True,51.0,0.5333333333333333,1.0,0.5333333333333333,1.0,0.6956521739130436
krcwiki,True,52.0,0.5333333333333333,1.0,0.5333333333333333,1.0,0.6956521739130436
krcwiki,True,53.0,0.5333333333333333,1.0,0.5333333333333333,1.0,0.6956521739130436
krcwiki,True,54.0,0.5333333333333333,1.0,0.5333333333333333,1.0,0.6956521739130436
krcwiki,True,55.0,0.5333333333333333,1.0,0.5333333333333333,1.0,0.6956521739130436
krcwiki,True,56.0,0.5333333333333333,1.0,0.5333333333333333,1.0,0.6956521739130436
krcwiki,True,57.0,0.5333333333333333,1.0,0.5333333333333333,1.0,0.6956521739130436
krcwiki,True,58.0,0.5333333333333333,1.0,0.5333333333333333,1.0,0.6956521739130436
krcwiki,True,59.0,0.5333333333333333,1.0,0.5333333333333333,1.0,0.6956521739130436
krcwiki,True,60.0,0.5333333333333333,1.0,0.5333333333333333,1.0,0.6956521739130436
krcwiki,True,61.0,0.5333333333333333,1.0,0.5333333333333333,1.0,0.6956521739130436
krcwiki,True,62.0,0.5333333333333333,1.0,0.5333333333333333,1.0,0.6956521739130436
krcwiki,True,63.0,0.5333333333333333,1.0,0.5333333333333333,1.0,0.6956521739130436
krcwiki,True,64.0,0.5333333333333333,1.0,0.5333333333333333,1.0,0.6956521739130436
krcwiki,True,65.0,0.5333333333333333,1.0,0.5333333333333333,1.0,0.6956521739130436
krcwiki,True,66.0,0.5333333333333333,1.0,0.5333333333333333,1.0,0.6956521739130436
krcwiki,True,67.0,0.5333333333333333,1.0,0.5333333333333333,1.0,0.6956521739130436
krcwiki,True,68.0,0.5333333333333333,1.0,0.5333333333333333,1.0,0.6956521739130436
krcwiki,True,69.0,0.5333333333333333,1.0,0.5333333333333333,1.0,0.6956521739130436
krcwiki,True,70.0,0.5333333333333333,1.0,0.5333333333333333,1.0,0.6956521739130436
krcwiki,True,71.0,0.5333333333333333,1.0,0.5333333333333333,1.0,0.6956521739130436
krcwiki,True,72.0,0.5333333333333333,1.0,0.5333333333333333,1.0,0.6956521739130436
krcwiki,True,73.0,0.5333333333333333,1.0,0.5333333333333333,1.0,0.6956521739130436
krcwiki,True,74.0,0.5172413793103449,0.9375,0.5,1.0,0.6666666666666667
krcwiki,True,75.0,0.5172413793103449,0.9375,0.5,1.0,0.6666666666666667
krcwiki,True,76.0,0.5172413793103449,0.9375,0.5,1.0,0.6666666666666667
krcwiki,True,77.0,0.5172413793103449,0.9375,0.5,1.0,0.6666666666666667
krcwiki,True,78.0,0.5172413793103449,0.9375,0.5,1.0,0.6666666666666667
krcwiki,True,79.0,0.5172413793103449,0.9375,0.5,1.0,0.6666666666666667
krcwiki,True,80.0,0.5357142857142857,0.9375,0.5333333333333333,0.9285714285714286,0.6818181818181818
krcwiki,True,81.0,0.5357142857142857,0.9375,0.5333333333333333,0.9285714285714286,0.6818181818181818
krcwiki,True,82.0,0.5357142857142857,0.9375,0.5333333333333333,0.9285714285714286,0.6818181818181818
krcwiki,True,83.0,0.5769230769230769,0.9375,0.6,0.7857142857142857,0.7142857142857143
krcwiki,True,84.0,0.5769230769230769,0.9375,0.6,0.7857142857142857,0.7142857142857143
krcwiki,True,85.0,0.5416666666666666,0.8125,0.5333333333333333,0.7857142857142857,0.65
krcwiki,True,86.0,0.6190476190476191,0.8125,0.6333333333333333,0.5714285714285714,0.7027027027027026
krcwiki,True,87.0,0.631578947368421,0.75,0.6333333333333333,0.5,0.6857142857142857
krcwiki,True,88.0,0.6666666666666666,0.75,0.6666666666666666,0.42857142857142855,0.7058823529411765
krcwiki,True,89.0,0.5384615384615384,0.4375,0.5,0.42857142857142855,0.4827586206896552
krcwiki,True,90.0,0.5,0.3125,0.4666666666666667,0.35714285714285715,0.38461538461538464
krcwiki,True,91.0,0.42857142857142855,0.1875,0.43333333333333335,0.2857142857142857,0.26086956521739124
krcwiki,True,92.0,0.2,0.0625,0.36666666666666664,0.2857142857142857,0.09523809523809523
krcwiki,True,93.0,0.3333333333333333,0.0625,0.43333333333333335,0.14285714285714285,0.10526315789473684
krcwiki,True,94.0,0.0,0.0,0.4,0.14285714285714285,0.10526315789473684
krcwiki,True,95.0,0.0,0.0,0.4,0.14285714285714285,0.10526315789473684
krcwiki,True,96.0,0.0,0.0,0.4,0.14285714285714285,0.10526315789473684
krcwiki,True,97.0,0.0,0.0,0.4,0.14285714285714285,0.10526315789473684
krcwiki,True,98.0,0.0,0.0,0.43333333333333335,0.07142857142857142,0.10526315789473684
krcwiki,True,99.0,0.0,0.0,0.4666666666666667,0.0,0.10526315789473684
krcwiki,False,0.0,0.04075235109717868,1.0,0.04075235109717868,1.0,0.07831325301204818
krcwiki,False,1.0,0.04075235109717868,1.0,0.04075235109717868,1.0,0.07831325301204818
krcwiki,False,2.0,0.04075235109717868,1.0,0.04075235109717868,1.0,0.07831325301204818
krcwiki,False,3.0,0.04075235109717868,1.0,0.04075235109717868,1.0,0.07831325301204818
krcwiki,False,4.0,0.041401273885350316,1.0,0.05642633228840126,0.9836601307189542,0.07951070336391436
krcwiki,False,5.0,0.04276315789473684,1.0,0.0877742946708464,0.9509803921568627,0.08201892744479494
krcwiki,False,6.0,0.043333333333333335,1.0,0.10031347962382445,0.9379084967320261,0.08306709265175719
krcwiki,False,7.0,0.04452054794520548,1.0,0.12539184952978055,0.9117647058823529,0.08524590163934426
krcwiki,False,8.0,0.04529616724738676,1.0,0.14106583072100312,0.8954248366013072,0.08666666666666667
krcwiki,False,9.0,0.044444444444444446,0.9230769230769231,0.18808777429467086,0.8431372549019608,0.08480565371024737
krcwiki,False,10.0,0.045454545454545456,0.9230769230769231,0.20689655172413793,0.8235294117647058,0.08664259927797834
krcwiki,False,11.0,0.04263565891472868,0.8461538461538461,0.219435736677116,0.8071895424836601,0.08118081180811808
krcwiki,False,12.0,0.044534412955465584,0.8461538461538461,0.25391849529780564,0.7712418300653595,0.08461538461538462
krcwiki,False,13.0,0.03879310344827586,0.6923076923076923,0.2884012539184953,0.7287581699346405,0.07346938775510203
krcwiki,False,14.0,0.04090909090909091,0.6923076923076923,0.32601880877742945,0.6895424836601307,0.07725321888412018
krcwiki,False,15.0,0.04225352112676056,0.6923076923076923,0.34796238244514105,0.6666666666666666,0.07964601769911504
krcwiki,False,16.0,0.0430622009569378,0.6923076923076923,0.3605015673981191,0.6535947712418301,0.08108108108108109
krcwiki,False,17.0,0.043478260869565216,0.6923076923076923,0.3667711598746082,0.6470588235294118,0.08181818181818182
krcwiki,False,18.0,0.04433497536945813,0.6923076923076923,0.3793103448275862,0.6339869281045751,0.08333333333333333
krcwiki,False,19.0,0.046153846153846156,0.6923076923076923,0.4043887147335423,0.6078431372549019,0.08653846153846152
krcwiki,False,20.0,0.0481283422459893,0.6923076923076923,0.42946708463949845,0.5816993464052288,0.09
krcwiki,False,21.0,0.04918032786885246,0.6923076923076923,0.44200626959247646,0.5686274509803921,0.09183673469387753
krcwiki,False,22.0,0.049723756906077346,0.6923076923076923,0.4482758620689655,0.5620915032679739,0.09278350515463916
krcwiki,False,23.0,0.049723756906077346,0.6923076923076923,0.4482758620689655,0.5620915032679739,0.09278350515463916
krcwiki,False,24.0,0.05056179775280899,0.6923076923076923,0.45768025078369906,0.5522875816993464,0.09424083769633508
krcwiki,False,25.0,0.05084745762711865,0.6923076923076923,0.4608150470219436,0.5490196078431373,0.09473684210526316
krcwiki,False,26.0,0.05113636363636364,0.6923076923076923,0.46394984326018807,0.545751633986928,0.09523809523809525
krcwiki,False,27.0,0.05113636363636364,0.6923076923076923,0.46394984326018807,0.545751633986928,0.09523809523809525
krcwiki,False,28.0,0.05142857142857143,0.6923076923076923,0.4670846394984326,0.5424836601307189,0.09574468085106383
krcwiki,False,29.0,0.05142857142857143,0.6923076923076923,0.4670846394984326,0.5424836601307189,0.09574468085106383
krcwiki,False,30.0,0.05232558139534884,0.6923076923076923,0.47648902821316613,0.5326797385620915,0.0972972972972973
krcwiki,False,31.0,0.05263157894736842,0.6923076923076923,0.47962382445141066,0.5294117647058824,0.09782608695652174
krcwiki,False,32.0,0.05389221556886228,0.6923076923076923,0.49216300940438873,0.5163398692810458,0.09999999999999999
krcwiki,False,33.0,0.05421686746987952,0.6923076923076923,0.4952978056426332,0.5130718954248366,0.10055865921787709
krcwiki,False,34.0,0.054878048780487805,0.6923076923076923,0.5015673981191222,0.5065359477124183,0.10169491525423727
krcwiki,False,35.0,0.04938271604938271,0.6153846153846154,0.5015673981191222,0.5032679738562091,0.09142857142857143
krcwiki,False,36.0,0.043478260869565216,0.5384615384615384,0.49843260188087773,0.5032679738562091,0.08045977011494253
krcwiki,False,37.0,0.04375,0.5384615384615384,0.5015673981191222,0.5,0.08092485549132948
krcwiki,False,38.0,0.044585987261146494,0.5384615384615384,0.5109717868338558,0.49019607843137253,0.08235294117647059
krcwiki,False,39.0,0.045454545454545456,0.5384615384615384,0.5203761755485894,0.4803921568627451,0.08383233532934133
krcwiki,False,40.0,0.0457516339869281,0.5384615384615384,0.5235109717868338,0.477124183006536,0.08433734939759036
krcwiki,False,41.0,0.04697986577181208,0.5384615384615384,0.5360501567398119,0.46405228758169936,0.08641975308641975
krcwiki,False,42.0,0.0472972972972973,0.5384615384615384,0.5391849529780565,0.46078431372549017,0.08695652173913045
krcwiki,False,43.0,0.04861111111111111,0.5384615384615384,0.5517241379310345,0.4477124183006536,0.08917197452229299
krcwiki,False,44.0,0.051470588235294115,0.5384615384615384,0.5768025078369906,0.4215686274509804,0.09395973154362415
krcwiki,False,45.0,0.05303030303030303,0.5384615384615384,0.5893416927899686,0.4084967320261438,0.09655172413793105
krcwiki,False,46.0,0.0546875,0.5384615384615384,0.6018808777429467,0.3954248366013072,0.09929078014184398
krcwiki,False,47.0,0.05785123966942149,0.5384615384615384,0.6238244514106583,0.37254901960784315,0.1044776119402985
krcwiki,False,48.0,0.06140350877192982,0.5384615384615384,0.64576802507837,0.34967320261437906,0.11023622047244096
krcwiki,False,49.0,0.06363636363636363,0.5384615384615384,0.658307210031348,0.3366013071895425,0.11382113821138211
krcwiki,False,50.0,0.0673076923076923,0.5384615384615384,0.677115987460815,0.31699346405228757,0.11965811965811966
krcwiki,False,51.0,0.07291666666666667,0.5384615384615384,0.7021943573667712,0.2908496732026144,0.12844036697247707
krcwiki,False,52.0,0.07058823529411765,0.46153846153846156,0.7304075235109718,0.2581699346405229,0.12244897959183675
krcwiki,False,53.0,0.0759493670886076,0.46153846153846156,0.7492163009404389,0.238562091503268,0.13043478260869568
krcwiki,False,54.0,0.08,0.46153846153846156,0.7617554858934169,0.22549019607843138,0.13636363636363638
krcwiki,False,55.0,0.0821917808219178,0.46153846153846156,0.768025078369906,0.21895424836601307,0.13953488372093023
krcwiki,False,56.0,0.08333333333333333,0.46153846153846156,0.7711598746081505,0.21568627450980393,0.1411764705882353
krcwiki,False,57.0,0.08695652173913043,0.46153846153846156,0.780564263322884,0.20588235294117646,0.14634146341463414
krcwiki,False,58.0,0.08823529411764706,0.46153846153846156,0.7836990595611285,0.20261437908496732,0.14814814814814817
krcwiki,False,59.0,0.08955223880597014,0.46153846153846156,0.786833855799373,0.19934640522875818,0.15
krcwiki,False,60.0,0.09090909090909091,0.46153846153846156,0.7899686520376176,0.19607843137254902,0.1518987341772152
krcwiki,False,61.0,0.09375,0.46153846153846156,0.7962382445141066,0.1895424836601307,0.15584415584415584
krcwiki,False,62.0,0.08333333333333333,0.38461538461538464,0.8025078369905956,0.17973856209150327,0.136986301369863
krcwiki,False,63.0,0.08333333333333333,0.38461538461538464,0.8025078369905956,0.17973856209150327,0.136986301369863
krcwiki,False,64.0,0.07017543859649122,0.3076923076923077,0.8056426332288401,0.17320261437908496,0.11428571428571428
krcwiki,False,65.0,0.07017543859649122,0.3076923076923077,0.8056426332288401,0.17320261437908496,0.11428571428571428
krcwiki,False,66.0,0.07272727272727272,0.3076923076923077,0.8119122257053292,0.16666666666666666,0.1176470588235294
krcwiki,False,67.0,0.08163265306122448,0.3076923076923077,0.8307210031347962,0.14705882352941177,0.12903225806451613
krcwiki,False,68.0,0.0851063829787234,0.3076923076923077,0.8369905956112853,0.14052287581699346,0.13333333333333333
krcwiki,False,69.0,0.08695652173913043,0.3076923076923077,0.8401253918495298,0.13725490196078433,0.13559322033898305
krcwiki,False,70.0,0.08888888888888889,0.3076923076923077,0.8432601880877743,0.13398692810457516,0.13793103448275862
krcwiki,False,71.0,0.08888888888888889,0.3076923076923077,0.8432601880877743,0.13398692810457516,0.13793103448275862
krcwiki,False,72.0,0.08888888888888889,0.3076923076923077,0.8432601880877743,0.13398692810457516,0.13793103448275862
krcwiki,False,73.0,0.0975609756097561,0.3076923076923077,0.8557993730407524,0.12091503267973856,0.14814814814814817
krcwiki,False,74.0,0.10256410256410256,0.3076923076923077,0.8620689655172413,0.11437908496732026,0.15384615384615385
krcwiki,False,75.0,0.10526315789473684,0.3076923076923077,0.8652037617554859,0.1111111111111111,0.1568627450980392
krcwiki,False,76.0,0.10526315789473684,0.3076923076923077,0.8652037617554859,0.1111111111111111,0.1568627450980392
krcwiki,False,77.0,0.11428571428571428,0.3076923076923077,0.8746081504702194,0.10130718954248366,0.16666666666666666
krcwiki,False,78.0,0.13333333333333333,0.3076923076923077,0.890282131661442,0.08496732026143791,0.18604651162790697
krcwiki,False,79.0,0.13333333333333333,0.3076923076923077,0.890282131661442,0.08496732026143791,0.18604651162790697
krcwiki,False,80.0,0.15384615384615385,0.3076923076923077,0.9028213166144201,0.0718954248366013,0.20512820512820515
krcwiki,False,81.0,0.16,0.3076923076923077,0.9059561128526645,0.06862745098039216,0.2105263157894737
krcwiki,False,82.0,0.16,0.3076923076923077,0.9059561128526645,0.06862745098039216,0.2105263157894737
krcwiki,False,83.0,0.18181818181818182,0.3076923076923077,0.9153605015673981,0.058823529411764705,0.2285714285714286
krcwiki,False,84.0,0.15789473684210525,0.23076923076923078,0.9184952978056427,0.05228758169934641,0.18749999999999997
krcwiki,False,85.0,0.15384615384615385,0.15384615384615385,0.9310344827586207,0.03594771241830065,0.15384615384615385
krcwiki,False,86.0,0.18181818181818182,0.15384615384615385,0.9373040752351097,0.029411764705882353,0.16666666666666669
krcwiki,False,87.0,0.2,0.15384615384615385,0.9404388714733543,0.026143790849673203,0.17391304347826086
krcwiki,False,88.0,0.2857142857142857,0.15384615384615385,0.9498432601880877,0.016339869281045753,0.2
krcwiki,False,89.0,0.2,0.07692307692307693,0.9498432601880877,0.013071895424836602,0.1111111111111111
krcwiki,False,90.0,0.3333333333333333,0.07692307692307693,0.9561128526645768,0.006535947712418301,0.125
krcwiki,False,91.0,0.3333333333333333,0.07692307692307693,0.9561128526645768,0.006535947712418301,0.125
krcwiki,False,92.0,0.3333333333333333,0.07692307692307693,0.9561128526645768,0.006535947712418301,0.125
krcwiki,False,93.0,1.0,0.07692307692307693,0.9623824451410659,0.0,0.14285714285714288
krcwiki,False,94.0,1.0,0.0,0.9592476489028213,0.0,0.0
krcwiki,False,95.0,1.0,0.0,0.9592476489028213,0.0,0.0
krcwiki,False,96.0,1.0,0.0,0.9592476489028213,0.0,0.0
krcwiki,False,97.0,1.0,0.0,0.9592476489028213,0.0,0.0
krcwiki,False,98.0,1.0,0.0,0.9592476489028213,0.0,0.0
krcwiki,False,99.0,1.0,0.0,0.9592476489028213,0.0,0.0
