wiki_db,user_is_anonymous,threshold,precision,recall,accuracy,fpr,F1
maiwiki,True,0.0,0.152,1.0,0.152,1.0,0.2638888888888889
maiwiki,True,1.0,0.152,1.0,0.152,1.0,0.2638888888888889
maiwiki,True,2.0,0.152,1.0,0.152,1.0,0.2638888888888889
maiwiki,True,3.0,0.152,1.0,0.152,1.0,0.2638888888888889
maiwiki,True,4.0,0.152,1.0,0.152,1.0,0.2638888888888889
maiwiki,True,5.0,0.152,1.0,0.152,1.0,0.2638888888888889
maiwiki,True,6.0,0.152,1.0,0.152,1.0,0.2638888888888889
maiwiki,True,7.0,0.152,1.0,0.152,1.0,0.2638888888888889
maiwiki,True,8.0,0.152,1.0,0.152,1.0,0.2638888888888889
maiwiki,True,9.0,0.152,1.0,0.152,1.0,0.2638888888888889
maiwiki,True,10.0,0.152,1.0,0.152,1.0,0.2638888888888889
maiwiki,True,11.0,0.152,1.0,0.152,1.0,0.2638888888888889
maiwiki,True,12.0,0.152,1.0,0.152,1.0,0.2638888888888889
maiwiki,True,13.0,0.152,1.0,0.152,1.0,0.2638888888888889
maiwiki,True,14.0,0.152,1.0,0.152,1.0,0.2638888888888889
maiwiki,True,15.0,0.152,1.0,0.152,1.0,0.2638888888888889
maiwiki,True,16.0,0.152,1.0,0.152,1.0,0.2638888888888889
maiwiki,True,17.0,0.152,1.0,0.152,1.0,0.2638888888888889
maiwiki,True,18.0,0.152,1.0,0.152,1.0,0.2638888888888889
maiwiki,True,19.0,0.152,1.0,0.152,1.0,0.2638888888888889
maiwiki,True,20.0,0.152,1.0,0.152,1.0,0.2638888888888889
maiwiki,True,21.0,0.152,1.0,0.152,1.0,0.2638888888888889
maiwiki,True,22.0,0.152,1.0,0.152,1.0,0.2638888888888889
maiwiki,True,23.0,0.152,1.0,0.152,1.0,0.2638888888888889
maiwiki,True,24.0,0.152,1.0,0.152,1.0,0.2638888888888889
maiwiki,True,25.0,0.152,1.0,0.152,1.0,0.2638888888888889
maiwiki,True,26.0,0.152,1.0,0.152,1.0,0.2638888888888889
maiwiki,True,27.0,0.152,1.0,0.152,1.0,0.2638888888888889
maiwiki,True,28.0,0.1532258064516129,1.0,0.16,0.9905660377358491,0.26573426573426573
maiwiki,True,29.0,0.1532258064516129,1.0,0.16,0.9905660377358491,0.26573426573426573
maiwiki,True,30.0,0.1532258064516129,1.0,0.16,0.9905660377358491,0.26573426573426573
maiwiki,True,31.0,0.15447154471544716,1.0,0.168,0.9811320754716981,0.2676056338028169
maiwiki,True,32.0,0.15447154471544716,1.0,0.168,0.9811320754716981,0.2676056338028169
maiwiki,True,33.0,0.15447154471544716,1.0,0.168,0.9811320754716981,0.2676056338028169
maiwiki,True,34.0,0.15447154471544716,1.0,0.168,0.9811320754716981,0.2676056338028169
maiwiki,True,35.0,0.15447154471544716,1.0,0.168,0.9811320754716981,0.2676056338028169
maiwiki,True,36.0,0.15447154471544716,1.0,0.168,0.9811320754716981,0.2676056338028169
maiwiki,True,37.0,0.15447154471544716,1.0,0.168,0.9811320754716981,0.2676056338028169
maiwiki,True,38.0,0.15447154471544716,1.0,0.168,0.9811320754716981,0.2676056338028169
maiwiki,True,39.0,0.15447154471544716,1.0,0.168,0.9811320754716981,0.2676056338028169
maiwiki,True,40.0,0.15447154471544716,1.0,0.168,0.9811320754716981,0.2676056338028169
maiwiki,True,41.0,0.15447154471544716,1.0,0.168,0.9811320754716981,0.2676056338028169
maiwiki,True,42.0,0.15447154471544716,1.0,0.168,0.9811320754716981,0.2676056338028169
maiwiki,True,43.0,0.15447154471544716,1.0,0.168,0.9811320754716981,0.2676056338028169
maiwiki,True,44.0,0.1557377049180328,1.0,0.176,0.9716981132075472,0.2695035460992908
maiwiki,True,45.0,0.1557377049180328,1.0,0.176,0.9716981132075472,0.2695035460992908
maiwiki,True,46.0,0.1557377049180328,1.0,0.176,0.9716981132075472,0.2695035460992908
maiwiki,True,47.0,0.1557377049180328,1.0,0.176,0.9716981132075472,0.2695035460992908
maiwiki,True,48.0,0.1557377049180328,1.0,0.176,0.9716981132075472,0.2695035460992908
maiwiki,True,49.0,0.1557377049180328,1.0,0.176,0.9716981132075472,0.2695035460992908
maiwiki,True,50.0,0.1557377049180328,1.0,0.176,0.9716981132075472,0.2695035460992908
maiwiki,True,51.0,0.1557377049180328,1.0,0.176,0.9716981132075472,0.2695035460992908
maiwiki,True,52.0,0.1557377049180328,1.0,0.176,0.9716981132075472,0.2695035460992908
maiwiki,True,53.0,0.1557377049180328,1.0,0.176,0.9716981132075472,0.2695035460992908
maiwiki,True,54.0,0.15702479338842976,1.0,0.184,0.9622641509433962,0.27142857142857146
maiwiki,True,55.0,0.15702479338842976,1.0,0.184,0.9622641509433962,0.27142857142857146
maiwiki,True,56.0,0.15702479338842976,1.0,0.184,0.9622641509433962,0.27142857142857146
maiwiki,True,57.0,0.15702479338842976,1.0,0.184,0.9622641509433962,0.27142857142857146
maiwiki,True,58.0,0.15702479338842976,1.0,0.184,0.9622641509433962,0.27142857142857146
maiwiki,True,59.0,0.15702479338842976,1.0,0.184,0.9622641509433962,0.27142857142857146
maiwiki,True,60.0,0.15833333333333333,1.0,0.192,0.9528301886792453,0.2733812949640288
maiwiki,True,61.0,0.15966386554621848,1.0,0.2,0.9433962264150944,0.2753623188405797
maiwiki,True,62.0,0.15966386554621848,1.0,0.2,0.9433962264150944,0.2753623188405797
maiwiki,True,63.0,0.15966386554621848,1.0,0.2,0.9433962264150944,0.2753623188405797
maiwiki,True,64.0,0.15966386554621848,1.0,0.2,0.9433962264150944,0.2753623188405797
maiwiki,True,65.0,0.15966386554621848,1.0,0.2,0.9433962264150944,0.2753623188405797
maiwiki,True,66.0,0.1623931623931624,1.0,0.216,0.9245283018867925,0.27941176470588236
maiwiki,True,67.0,0.1623931623931624,1.0,0.216,0.9245283018867925,0.27941176470588236
maiwiki,True,68.0,0.16379310344827586,1.0,0.224,0.9150943396226415,0.2814814814814815
maiwiki,True,69.0,0.16521739130434782,1.0,0.232,0.9056603773584906,0.2835820895522388
maiwiki,True,70.0,0.16666666666666666,1.0,0.24,0.8962264150943396,0.2857142857142857
maiwiki,True,71.0,0.168141592920354,1.0,0.248,0.8867924528301887,0.2878787878787879
maiwiki,True,72.0,0.16964285714285715,1.0,0.256,0.8773584905660378,0.2900763358778626
maiwiki,True,73.0,0.17117117117117117,1.0,0.264,0.8679245283018868,0.2923076923076923
maiwiki,True,74.0,0.17117117117117117,1.0,0.264,0.8679245283018868,0.2923076923076923
maiwiki,True,75.0,0.1743119266055046,1.0,0.28,0.8490566037735849,0.296875
maiwiki,True,76.0,0.1792452830188679,1.0,0.304,0.8207547169811321,0.30399999999999994
maiwiki,True,77.0,0.18095238095238095,1.0,0.312,0.8113207547169812,0.3064516129032258
maiwiki,True,78.0,0.18446601941747573,1.0,0.328,0.7924528301886793,0.3114754098360656
maiwiki,True,79.0,0.1919191919191919,1.0,0.36,0.7547169811320755,0.3220338983050848
maiwiki,True,80.0,0.19387755102040816,1.0,0.368,0.7452830188679245,0.3247863247863248
maiwiki,True,81.0,0.20652173913043478,1.0,0.416,0.6886792452830188,0.34234234234234234
maiwiki,True,82.0,0.19540229885057472,0.8947368421052632,0.424,0.660377358490566,0.3207547169811321
maiwiki,True,83.0,0.1927710843373494,0.8421052631578947,0.44,0.6320754716981132,0.3137254901960785
maiwiki,True,84.0,0.1506849315068493,0.5789473684210527,0.44,0.5849056603773585,0.2391304347826087
maiwiki,True,85.0,0.140625,0.47368421052631576,0.48,0.5188679245283019,0.21686746987951808
maiwiki,True,86.0,0.15517241379310345,0.47368421052631576,0.528,0.46226415094339623,0.23376623376623376
maiwiki,True,87.0,0.19148936170212766,0.47368421052631576,0.616,0.3584905660377358,0.2727272727272727
maiwiki,True,88.0,0.17073170731707318,0.3684210526315789,0.632,0.32075471698113206,0.23333333333333336
maiwiki,True,89.0,0.2,0.3684210526315789,0.68,0.2641509433962264,0.25925925925925924
maiwiki,True,90.0,0.2,0.3157894736842105,0.704,0.22641509433962265,0.24489795918367346
maiwiki,True,91.0,0.2608695652173913,0.3157894736842105,0.76,0.16037735849056603,0.28571428571428575
maiwiki,True,92.0,0.3,0.3157894736842105,0.784,0.1320754716981132,0.3076923076923077
maiwiki,True,93.0,0.3125,0.2631578947368421,0.8,0.10377358490566038,0.2857142857142857
maiwiki,True,94.0,0.4166666666666667,0.2631578947368421,0.832,0.0660377358490566,0.3225806451612903
maiwiki,True,95.0,0.375,0.15789473684210525,0.832,0.04716981132075472,0.22222222222222218
maiwiki,True,96.0,0.16666666666666666,0.05263157894736842,0.816,0.04716981132075472,0.08
maiwiki,True,97.0,0.25,0.05263157894736842,0.832,0.02830188679245283,0.08695652173913043
maiwiki,True,98.0,0.0,0.0,0.84,0.009433962264150943,0.08695652173913043
maiwiki,True,99.0,0.0,0.0,0.848,0.0,0.08695652173913043
maiwiki,False,0.0,0.034055727554179564,1.0,0.034055727554179564,1.0,0.06586826347305388
maiwiki,False,1.0,0.034055727554179564,1.0,0.034055727554179564,1.0,0.06586826347305388
maiwiki,False,2.0,0.034161490683229816,1.0,0.03715170278637771,0.9967948717948718,0.06606606606606608
maiwiki,False,3.0,0.03470031545741325,1.0,0.05263157894736842,0.9807692307692307,0.06707317073170732
maiwiki,False,4.0,0.03492063492063492,1.0,0.058823529411764705,0.9743589743589743,0.06748466257668712
maiwiki,False,5.0,0.03503184713375796,1.0,0.06191950464396285,0.9711538461538461,0.06769230769230769
maiwiki,False,6.0,0.03559870550161812,1.0,0.07739938080495357,0.9551282051282052,0.06875
maiwiki,False,7.0,0.03678929765886288,1.0,0.10835913312693499,0.9230769230769231,0.07096774193548389
maiwiki,False,8.0,0.03728813559322034,1.0,0.12074303405572756,0.9102564102564102,0.0718954248366013
maiwiki,False,9.0,0.03806228373702422,1.0,0.1393188854489164,0.8910256410256411,0.07333333333333333
maiwiki,False,10.0,0.03806228373702422,1.0,0.1393188854489164,0.8910256410256411,0.07333333333333333
maiwiki,False,11.0,0.03859649122807018,1.0,0.15170278637770898,0.8782051282051282,0.07432432432432434
maiwiki,False,12.0,0.03914590747330961,1.0,0.16408668730650156,0.8653846153846154,0.07534246575342465
maiwiki,False,13.0,0.039285714285714285,1.0,0.16718266253869968,0.8621794871794872,0.07560137457044673
maiwiki,False,14.0,0.04,1.0,0.1826625386996904,0.8461538461538461,0.07692307692307693
maiwiki,False,15.0,0.04059040590405904,1.0,0.19504643962848298,0.8333333333333334,0.07801418439716312
maiwiki,False,16.0,0.03745318352059925,0.9090909090909091,0.20123839009287925,0.8237179487179487,0.07194244604316548
maiwiki,False,17.0,0.03802281368821293,0.9090909090909091,0.21362229102167182,0.8108974358974359,0.072992700729927
maiwiki,False,18.0,0.038461538461538464,0.9090909090909091,0.22291021671826625,0.8012820512820513,0.07380073800738009
maiwiki,False,19.0,0.0392156862745098,0.9090909090909091,0.23839009287925697,0.7852564102564102,0.07518796992481204
maiwiki,False,20.0,0.03968253968253968,0.9090909090909091,0.2476780185758514,0.7756410256410257,0.07604562737642585
maiwiki,False,21.0,0.036585365853658534,0.8181818181818182,0.26006191950464397,0.7596153846153846,0.07003891050583658
maiwiki,False,22.0,0.0371900826446281,0.8181818181818182,0.2724458204334365,0.7467948717948718,0.07114624505928854
maiwiki,False,23.0,0.03829787234042553,0.8181818181818182,0.29411764705882354,0.7243589743589743,0.07317073170731707
maiwiki,False,24.0,0.039647577092511016,0.8181818181818182,0.3188854489164087,0.6987179487179487,0.07563025210084034
maiwiki,False,25.0,0.035555555555555556,0.7272727272727273,0.3188854489164087,0.6955128205128205,0.06779661016949153
maiwiki,False,26.0,0.03587443946188341,0.7272727272727273,0.32507739938080493,0.6891025641025641,0.06837606837606837
maiwiki,False,27.0,0.036036036036036036,0.7272727272727273,0.3281733746130031,0.6858974358974359,0.06866952789699571
maiwiki,False,28.0,0.037037037037037035,0.7272727272727273,0.34674922600619196,0.6666666666666666,0.07048458149779736
maiwiki,False,29.0,0.03333333333333333,0.6363636363636364,0.3591331269349845,0.6506410256410257,0.06334841628959276
maiwiki,False,30.0,0.036458333333333336,0.6363636363636364,0.4148606811145511,0.592948717948718,0.06896551724137931
maiwiki,False,31.0,0.03804347826086957,0.6363636363636364,0.43962848297213625,0.5673076923076923,0.0717948717948718
maiwiki,False,32.0,0.03932584269662921,0.6363636363636364,0.4582043343653251,0.5480769230769231,0.07407407407407407
maiwiki,False,33.0,0.04,0.6363636363636364,0.4674922600619195,0.5384615384615384,0.07526881720430108
maiwiki,False,34.0,0.04142011834319527,0.6363636363636364,0.48606811145510836,0.5192307692307693,0.07777777777777778
maiwiki,False,35.0,0.04242424242424243,0.6363636363636364,0.4984520123839009,0.5064102564102564,0.07954545454545454
maiwiki,False,36.0,0.04242424242424243,0.6363636363636364,0.4984520123839009,0.5064102564102564,0.07954545454545454
maiwiki,False,37.0,0.04375,0.6363636363636364,0.5139318885448917,0.49038461538461536,0.08187134502923978
maiwiki,False,38.0,0.04430379746835443,0.6363636363636364,0.5201238390092879,0.483974358974359,0.08284023668639053
maiwiki,False,39.0,0.04516129032258064,0.6363636363636364,0.5294117647058824,0.47435897435897434,0.08433734939759036
maiwiki,False,40.0,0.0457516339869281,0.6363636363636364,0.5356037151702786,0.46794871794871795,0.08536585365853658
maiwiki,False,41.0,0.04697986577181208,0.6363636363636364,0.5479876160990712,0.4551282051282051,0.0875
maiwiki,False,42.0,0.0472972972972973,0.6363636363636364,0.5510835913312694,0.4519230769230769,0.08805031446540881
maiwiki,False,43.0,0.04827586206896552,0.6363636363636364,0.5603715170278638,0.4423076923076923,0.08974358974358974
maiwiki,False,44.0,0.05,0.6363636363636364,0.5758513931888545,0.42628205128205127,0.09271523178807947
maiwiki,False,45.0,0.051470588235294115,0.6363636363636364,0.5882352941176471,0.41346153846153844,0.09523809523809523
maiwiki,False,46.0,0.04477611940298507,0.5454545454545454,0.5882352941176471,0.41025641025641024,0.08275862068965516
maiwiki,False,47.0,0.045454545454545456,0.5454545454545454,0.5944272445820433,0.40384615384615385,0.08391608391608392
maiwiki,False,48.0,0.045454545454545456,0.5454545454545454,0.5944272445820433,0.40384615384615385,0.08391608391608392
maiwiki,False,49.0,0.045454545454545456,0.5454545454545454,0.5944272445820433,0.40384615384615385,0.08391608391608392
maiwiki,False,50.0,0.045454545454545456,0.5454545454545454,0.5944272445820433,0.40384615384615385,0.08391608391608392
maiwiki,False,51.0,0.047244094488188976,0.5454545454545454,0.6099071207430341,0.38782051282051283,0.08695652173913043
maiwiki,False,52.0,0.04838709677419355,0.5454545454545454,0.6191950464396285,0.3782051282051282,0.08888888888888889
maiwiki,False,53.0,0.05042016806722689,0.5454545454545454,0.6346749226006192,0.36217948717948717,0.09230769230769231
maiwiki,False,54.0,0.05172413793103448,0.5454545454545454,0.6439628482972136,0.3525641025641026,0.09448818897637795
maiwiki,False,55.0,0.05357142857142857,0.5454545454545454,0.6563467492260062,0.33974358974358976,0.09756097560975609
maiwiki,False,56.0,0.05504587155963303,0.5454545454545454,0.6656346749226006,0.3301282051282051,0.1
maiwiki,False,57.0,0.057692307692307696,0.5454545454545454,0.6811145510835913,0.3141025641025641,0.10434782608695652
maiwiki,False,58.0,0.058823529411764705,0.5454545454545454,0.6873065015479877,0.3076923076923077,0.10619469026548672
maiwiki,False,59.0,0.061224489795918366,0.5454545454545454,0.6996904024767802,0.2948717948717949,0.11009174311926606
maiwiki,False,60.0,0.06315789473684211,0.5454545454545454,0.7089783281733746,0.28525641025641024,0.11320754716981132
maiwiki,False,61.0,0.06521739130434782,0.5454545454545454,0.718266253869969,0.27564102564102566,0.11650485436893204
maiwiki,False,62.0,0.06741573033707865,0.5454545454545454,0.7275541795665634,0.266025641025641,0.12
maiwiki,False,63.0,0.07058823529411765,0.5454545454545454,0.739938080495356,0.2532051282051282,0.125
maiwiki,False,64.0,0.07058823529411765,0.5454545454545454,0.739938080495356,0.2532051282051282,0.125
maiwiki,False,65.0,0.07228915662650602,0.5454545454545454,0.7461300309597523,0.2467948717948718,0.1276595744680851
maiwiki,False,66.0,0.075,0.5454545454545454,0.7554179566563467,0.23717948717948717,0.13186813186813187
maiwiki,False,67.0,0.08108108108108109,0.5454545454545454,0.7739938080495357,0.21794871794871795,0.1411764705882353
maiwiki,False,68.0,0.08450704225352113,0.5454545454545454,0.7832817337461301,0.20833333333333334,0.14634146341463414
maiwiki,False,69.0,0.08823529411764706,0.5454545454545454,0.7925696594427245,0.1987179487179487,0.1518987341772152
maiwiki,False,70.0,0.09230769230769231,0.5454545454545454,0.8018575851393189,0.1891025641025641,0.15789473684210525
maiwiki,False,71.0,0.0967741935483871,0.5454545454545454,0.8111455108359134,0.1794871794871795,0.1643835616438356
maiwiki,False,72.0,0.09836065573770492,0.5454545454545454,0.8142414860681114,0.1762820512820513,0.16666666666666666
maiwiki,False,73.0,0.1016949152542373,0.5454545454545454,0.8204334365325078,0.16987179487179488,0.17142857142857146
maiwiki,False,74.0,0.10526315789473684,0.5454545454545454,0.826625386996904,0.16346153846153846,0.1764705882352941
maiwiki,False,75.0,0.10714285714285714,0.5454545454545454,0.8297213622291022,0.16025641025641027,0.1791044776119403
maiwiki,False,76.0,0.11320754716981132,0.5454545454545454,0.8390092879256966,0.15064102564102563,0.1875
maiwiki,False,77.0,0.12244897959183673,0.5454545454545454,0.8513931888544891,0.13782051282051283,0.2
maiwiki,False,78.0,0.13636363636363635,0.5454545454545454,0.8668730650154799,0.12179487179487179,0.21818181818181817
maiwiki,False,79.0,0.15384615384615385,0.5454545454545454,0.8823529411764706,0.10576923076923077,0.24000000000000002
maiwiki,False,80.0,0.15789473684210525,0.5454545454545454,0.8854489164086687,0.10256410256410256,0.24489795918367344
maiwiki,False,81.0,0.16216216216216217,0.5454545454545454,0.8885448916408669,0.09935897435897435,0.25
maiwiki,False,82.0,0.1875,0.5454545454545454,0.9040247678018576,0.08333333333333333,0.27906976744186046
maiwiki,False,83.0,0.1935483870967742,0.5454545454545454,0.9071207430340558,0.08012820512820513,0.2857142857142857
maiwiki,False,84.0,0.21428571428571427,0.5454545454545454,0.9164086687306502,0.07051282051282051,0.30769230769230765
maiwiki,False,85.0,0.2222222222222222,0.5454545454545454,0.9195046439628483,0.0673076923076923,0.3157894736842105
maiwiki,False,86.0,0.2222222222222222,0.5454545454545454,0.9195046439628483,0.0673076923076923,0.3157894736842105
maiwiki,False,87.0,0.20833333333333334,0.45454545454545453,0.9226006191950464,0.060897435897435896,0.28571428571428575
maiwiki,False,88.0,0.22727272727272727,0.45454545454545453,0.9287925696594427,0.05448717948717949,0.30303030303030304
maiwiki,False,89.0,0.2631578947368421,0.45454545454545453,0.9380804953560371,0.04487179487179487,0.3333333333333333
maiwiki,False,90.0,0.23529411764705882,0.36363636363636365,0.9380804953560371,0.041666666666666664,0.2857142857142857
maiwiki,False,91.0,0.23529411764705882,0.36363636363636365,0.9380804953560371,0.041666666666666664,0.2857142857142857
maiwiki,False,92.0,0.26666666666666666,0.36363636363636365,0.9442724458204335,0.035256410256410256,0.30769230769230765
maiwiki,False,93.0,0.3076923076923077,0.36363636363636365,0.9504643962848297,0.028846153846153848,0.33333333333333337
maiwiki,False,94.0,0.2727272727272727,0.2727272727272727,0.9504643962848297,0.02564102564102564,0.2727272727272727
maiwiki,False,95.0,0.3333333333333333,0.2727272727272727,0.9566563467492261,0.019230769230769232,0.3
maiwiki,False,96.0,0.3333333333333333,0.18181818181818182,0.9597523219814241,0.01282051282051282,0.23529411764705885
maiwiki,False,97.0,0.25,0.09090909090909091,0.9597523219814241,0.009615384615384616,0.13333333333333333
maiwiki,False,98.0,0.3333333333333333,0.09090909090909091,0.9628482972136223,0.00641025641025641,0.14285714285714288
maiwiki,False,99.0,0.0,0.0,0.9628482972136223,0.003205128205128205,0.14285714285714288
