wiki_db,user_is_anonymous,threshold,precision,recall,accuracy,fpr,F1
mgwiki,True,0.0,0.45623836126629425,1.0,0.45623836126629425,1.0,0.6265984654731458
mgwiki,True,1.0,0.45623836126629425,1.0,0.45623836126629425,1.0,0.6265984654731458
mgwiki,True,2.0,0.45623836126629425,1.0,0.45623836126629425,1.0,0.6265984654731458
mgwiki,True,3.0,0.45623836126629425,1.0,0.45623836126629425,1.0,0.6265984654731458
mgwiki,True,4.0,0.45623836126629425,1.0,0.45623836126629425,1.0,0.6265984654731458
mgwiki,True,5.0,0.45623836126629425,1.0,0.45623836126629425,1.0,0.6265984654731458
mgwiki,True,6.0,0.45623836126629425,1.0,0.45623836126629425,1.0,0.6265984654731458
mgwiki,True,7.0,0.45623836126629425,1.0,0.45623836126629425,1.0,0.6265984654731458
mgwiki,True,8.0,0.45623836126629425,1.0,0.45623836126629425,1.0,0.6265984654731458
mgwiki,True,9.0,0.45623836126629425,1.0,0.45623836126629425,1.0,0.6265984654731458
mgwiki,True,10.0,0.45623836126629425,1.0,0.45623836126629425,1.0,0.6265984654731458
mgwiki,True,11.0,0.45623836126629425,1.0,0.45623836126629425,1.0,0.6265984654731458
mgwiki,True,12.0,0.45623836126629425,1.0,0.45623836126629425,1.0,0.6265984654731458
mgwiki,True,13.0,0.45623836126629425,1.0,0.45623836126629425,1.0,0.6265984654731458
mgwiki,True,14.0,0.45623836126629425,1.0,0.45623836126629425,1.0,0.6265984654731458
mgwiki,True,15.0,0.45623836126629425,1.0,0.45623836126629425,1.0,0.6265984654731458
mgwiki,True,16.0,0.45623836126629425,1.0,0.45623836126629425,1.0,0.6265984654731458
mgwiki,True,17.0,0.45623836126629425,1.0,0.45623836126629425,1.0,0.6265984654731458
mgwiki,True,18.0,0.45623836126629425,1.0,0.45623836126629425,1.0,0.6265984654731458
mgwiki,True,19.0,0.45623836126629425,1.0,0.45623836126629425,1.0,0.6265984654731458
mgwiki,True,20.0,0.45623836126629425,1.0,0.45623836126629425,1.0,0.6265984654731458
mgwiki,True,21.0,0.45623836126629425,1.0,0.45623836126629425,1.0,0.6265984654731458
mgwiki,True,22.0,0.457089552238806,1.0,0.4581005586592179,0.9965753424657534,0.6274007682458387
mgwiki,True,23.0,0.457089552238806,1.0,0.4581005586592179,0.9965753424657534,0.6274007682458387
mgwiki,True,24.0,0.457089552238806,1.0,0.4581005586592179,0.9965753424657534,0.6274007682458387
mgwiki,True,25.0,0.45794392523364486,1.0,0.45996275605214154,0.9931506849315068,0.6282051282051282
mgwiki,True,26.0,0.45794392523364486,1.0,0.45996275605214154,0.9931506849315068,0.6282051282051282
mgwiki,True,27.0,0.45880149812734083,1.0,0.4618249534450652,0.9897260273972602,0.6290115532734274
mgwiki,True,28.0,0.45880149812734083,1.0,0.4618249534450652,0.9897260273972602,0.6290115532734274
mgwiki,True,29.0,0.45880149812734083,1.0,0.4618249534450652,0.9897260273972602,0.6290115532734274
mgwiki,True,30.0,0.45880149812734083,1.0,0.4618249534450652,0.9897260273972602,0.6290115532734274
mgwiki,True,31.0,0.45880149812734083,1.0,0.4618249534450652,0.9897260273972602,0.6290115532734274
mgwiki,True,32.0,0.45880149812734083,1.0,0.4618249534450652,0.9897260273972602,0.6290115532734274
mgwiki,True,33.0,0.45880149812734083,1.0,0.4618249534450652,0.9897260273972602,0.6290115532734274
mgwiki,True,34.0,0.4613935969868173,1.0,0.46741154562383613,0.9794520547945206,0.6314432989690721
mgwiki,True,35.0,0.46313799621928164,1.0,0.47113594040968343,0.9726027397260274,0.6330749354005167
mgwiki,True,36.0,0.4666666666666667,1.0,0.478584729981378,0.958904109589041,0.6363636363636364
mgwiki,True,37.0,0.47115384615384615,1.0,0.48789571694599626,0.9417808219178082,0.6405228758169934
mgwiki,True,38.0,0.4748062015503876,1.0,0.49534450651769085,0.928082191780822,0.6438896189224704
mgwiki,True,39.0,0.4832347140039448,1.0,0.5121042830540037,0.8972602739726028,0.6515957446808511
mgwiki,True,40.0,0.4870775347912525,1.0,0.5195530726256983,0.8835616438356164,0.6550802139037434
mgwiki,True,41.0,0.4919678714859438,1.0,0.5288640595903166,0.8664383561643836,0.6594885598923285
mgwiki,True,42.0,0.5,1.0,0.5437616387337058,0.839041095890411,0.6666666666666666
mgwiki,True,43.0,0.5051546391752577,1.0,0.553072625698324,0.821917808219178,0.6712328767123288
mgwiki,True,44.0,0.5147058823529411,1.0,0.5698324022346368,0.791095890410959,0.6796116504854368
mgwiki,True,45.0,0.5179704016913319,1.0,0.5754189944134078,0.7808219178082192,0.6824512534818942
mgwiki,True,46.0,0.5257510729613734,1.0,0.5884543761638734,0.7568493150684932,0.6891701828410688
mgwiki,True,47.0,0.5304347826086957,0.9959183673469387,0.595903165735568,0.7397260273972602,0.6921985815602838
mgwiki,True,48.0,0.5327510917030568,0.9959183673469387,0.5996275605214153,0.7328767123287672,0.6941678520625889
mgwiki,True,49.0,0.5350877192982456,0.9959183673469387,0.6033519553072626,0.726027397260274,0.6961483594864478
mgwiki,True,50.0,0.5386313465783664,0.9959183673469387,0.6089385474860335,0.7157534246575342,0.6991404011461316
mgwiki,True,51.0,0.5446428571428571,0.9959183673469387,0.6182495344506518,0.6986301369863014,0.704184704184704
mgwiki,True,52.0,0.5483146067415731,0.9959183673469387,0.6238361266294227,0.6883561643835616,0.7072463768115942
mgwiki,True,53.0,0.5483146067415731,0.9959183673469387,0.6238361266294227,0.6883561643835616,0.7072463768115942
mgwiki,True,54.0,0.5510204081632653,0.9918367346938776,0.62756052141527,0.678082191780822,0.7084548104956269
mgwiki,True,55.0,0.5522727272727272,0.9918367346938776,0.6294227188081937,0.6746575342465754,0.7094890510948906
mgwiki,True,56.0,0.5573394495412844,0.9918367346938776,0.6368715083798883,0.660958904109589,0.7136563876651983
mgwiki,True,57.0,0.5586206896551724,0.9918367346938776,0.638733705772812,0.6575342465753424,0.7147058823529413
mgwiki,True,58.0,0.5586206896551724,0.9918367346938776,0.638733705772812,0.6575342465753424,0.7147058823529413
mgwiki,True,59.0,0.5586206896551724,0.9918367346938776,0.638733705772812,0.6575342465753424,0.7147058823529413
mgwiki,True,60.0,0.5586206896551724,0.9918367346938776,0.638733705772812,0.6575342465753424,0.7147058823529413
mgwiki,True,61.0,0.5586206896551724,0.9918367346938776,0.638733705772812,0.6575342465753424,0.7147058823529413
mgwiki,True,62.0,0.5565819861431871,0.9836734693877551,0.6350093109869647,0.6575342465753424,0.7109144542772862
mgwiki,True,63.0,0.5565819861431871,0.9836734693877551,0.6350093109869647,0.6575342465753424,0.7109144542772862
mgwiki,True,64.0,0.5565819861431871,0.9836734693877551,0.6350093109869647,0.6575342465753424,0.7109144542772862
mgwiki,True,65.0,0.5565819861431871,0.9836734693877551,0.6350093109869647,0.6575342465753424,0.7109144542772862
mgwiki,True,66.0,0.5565819861431871,0.9836734693877551,0.6350093109869647,0.6575342465753424,0.7109144542772862
mgwiki,True,67.0,0.5565819861431871,0.9836734693877551,0.6350093109869647,0.6575342465753424,0.7109144542772862
mgwiki,True,68.0,0.5578703703703703,0.9836734693877551,0.6368715083798883,0.6541095890410958,0.7119645494830132
mgwiki,True,69.0,0.5591647331786543,0.9836734693877551,0.638733705772812,0.6506849315068494,0.7130177514792899
mgwiki,True,70.0,0.5620608899297423,0.9795918367346939,0.6424581005586593,0.6404109589041096,0.7142857142857142
mgwiki,True,71.0,0.5620608899297423,0.9795918367346939,0.6424581005586593,0.6404109589041096,0.7142857142857142
mgwiki,True,72.0,0.5660377358490566,0.9795918367346939,0.6480446927374302,0.6301369863013698,0.7174887892376681
mgwiki,True,73.0,0.5687203791469194,0.9795918367346939,0.6517690875232774,0.6232876712328768,0.7196401799100449
mgwiki,True,74.0,0.5700712589073634,0.9795918367346939,0.6536312849162011,0.6198630136986302,0.7207207207207208
mgwiki,True,75.0,0.5704057279236276,0.9755102040816327,0.6536312849162011,0.6164383561643836,0.7198795180722891
mgwiki,True,76.0,0.5707434052757794,0.9714285714285714,0.6536312849162011,0.613013698630137,0.7190332326283988
mgwiki,True,77.0,0.5742092457420924,0.963265306122449,0.6573556797020484,0.5993150684931506,0.7195121951219512
mgwiki,True,78.0,0.5770171149144254,0.963265306122449,0.6610800744878957,0.5924657534246576,0.7217125382262998
mgwiki,True,79.0,0.5777777777777777,0.9551020408163265,0.6610800744878957,0.5856164383561644,0.7199999999999999
mgwiki,True,80.0,0.5843828715365239,0.9469387755102041,0.6685288640595903,0.565068493150685,0.7227414330218069
mgwiki,True,81.0,0.5862944162436549,0.9428571428571428,0.6703910614525139,0.5582191780821918,0.7230046948356808
mgwiki,True,82.0,0.5923076923076923,0.9428571428571428,0.6778398510242085,0.5445205479452054,0.7275590551181103
mgwiki,True,83.0,0.5958549222797928,0.9387755102040817,0.6815642458100558,0.5342465753424658,0.7290015847860539
mgwiki,True,84.0,0.6020942408376964,0.9387755102040817,0.6890130353817505,0.5205479452054794,0.7336523125996811
mgwiki,True,85.0,0.6026315789473684,0.9346938775510204,0.6890130353817505,0.5171232876712328,0.7327999999999999
mgwiki,True,86.0,0.608,0.9306122448979591,0.6945996275605214,0.5034246575342466,0.7354838709677419
mgwiki,True,87.0,0.6054054054054054,0.9142857142857143,0.6890130353817505,0.5,0.7284552845528456
mgwiki,True,88.0,0.631578947368421,0.8816326530612245,0.7113594040968343,0.4315068493150685,0.735945485519591
mgwiki,True,89.0,0.7792792792792793,0.7061224489795919,0.7746741154562383,0.1678082191780822,0.7408993576017131
mgwiki,True,90.0,0.807909604519774,0.5836734693877551,0.7467411545623837,0.11643835616438356,0.6777251184834123
mgwiki,True,91.0,0.8181818181818182,0.5142857142857142,0.7262569832402235,0.0958904109589041,0.6315789473684209
mgwiki,True,92.0,0.38235294117647056,0.053061224489795916,0.5288640595903166,0.07191780821917808,0.09318996415770608
mgwiki,True,93.0,0.4074074074074074,0.044897959183673466,0.5344506517690876,0.0547945205479452,0.08088235294117647
mgwiki,True,94.0,0.5789473684210527,0.044897959183673466,0.5493482309124768,0.0273972602739726,0.08333333333333333
mgwiki,True,95.0,0.6,0.036734693877551024,0.5493482309124768,0.02054794520547945,0.06923076923076923
mgwiki,True,96.0,0.6666666666666666,0.0326530612244898,0.5512104283054003,0.0136986301369863,0.0622568093385214
mgwiki,True,97.0,0.5714285714285714,0.0163265306122449,0.5456238361266295,0.010273972602739725,0.03174603174603175
mgwiki,True,98.0,0.25,0.004081632653061225,0.5400372439478585,0.010273972602739725,0.008032128514056226
mgwiki,True,99.0,0.3333333333333333,0.004081632653061225,0.5418994413407822,0.00684931506849315,0.00806451612903226
mgwiki,False,0.0,0.015141087405368204,1.0,0.015141087405368204,1.0,0.029830508474576273
mgwiki,False,1.0,0.015146299483648882,1.0,0.015485203028217482,0.9996505939902166,0.029840623940318754
mgwiki,False,2.0,0.015235457063711912,1.0,0.021335168616655197,0.9937106918238994,0.030013642564802184
mgwiki,False,3.0,0.015400770038501925,1.0,0.032002752924982794,0.982879105520615,0.030334367459496726
mgwiki,False,4.0,0.01559177888022679,1.0,0.0440467997247075,0.9706498951781971,0.030704815073272853
mgwiki,False,5.0,0.01584443644220382,1.0,0.05953200275292498,0.9549266247379455,0.03119461183977313
mgwiki,False,6.0,0.016206261510128914,1.0,0.08086717136958017,0.9332634521313766,0.031895614353026465
mgwiki,False,7.0,0.016566265060240965,1.0,0.10116999311768754,0.9126484975541579,0.0325925925925926
mgwiki,False,8.0,0.017140631086871836,1.0,0.13179628355127324,0.8815513626834381,0.033703561853695906
mgwiki,False,9.0,0.01759296281487405,1.0,0.15450791465932553,0.8584905660377359,0.03457760314341846
mgwiki,False,10.0,0.018151815181518153,1.0,0.1810048176187199,0.8315863032844165,0.03565640194489465
mgwiki,False,11.0,0.018795386586928663,1.0,0.20956641431520992,0.8025856044723969,0.03689727463312369
mgwiki,False,12.0,0.019383259911894272,1.0,0.2339986235375086,0.7777777777777778,0.03802938634399308
mgwiki,False,13.0,0.025958702064896755,1.0,0.4318651066758431,0.576869322152341,0.05060379528464635
mgwiki,False,14.0,0.026608910891089108,0.9772727272727273,0.45836200963523743,0.5496156533892383,0.05180722891566265
mgwiki,False,15.0,0.027867790019442645,0.9772727272727273,0.4834824501032347,0.5241090146750524,0.0541902961562697
mgwiki,False,16.0,0.02975778546712803,0.9772727272727273,0.5172057811424638,0.48986722571628233,0.057756883814640704
mgwiki,False,17.0,0.030979827089337175,0.9772727272727273,0.5368203716448727,0.4699510831586303,0.06005586592178771
mgwiki,False,18.0,0.031746031746031744,0.9545454545454546,0.5584996558843771,0.44758909853249473,0.061448427212874905
mgwiki,False,19.0,0.03256552819698173,0.9318181818181818,0.5798348245010323,0.42557651991614254,0.06293169608595549
mgwiki,False,20.0,0.03486394557823129,0.9318181818181818,0.6083964211975224,0.396575821104123,0.06721311475409836
mgwiki,False,21.0,0.03758020164986251,0.9318181818181818,0.6376462491397109,0.3668763102725367,0.0722466960352423
mgwiki,False,22.0,0.03868471953578337,0.9090909090909091,0.6565726083964212,0.3473095737246681,0.07421150278293136
mgwiki,False,23.0,0.04032258064516129,0.9090909090909091,0.6710254645560908,0.3326345213137666,0.07722007722007722
mgwiki,False,24.0,0.04144527098831031,0.8863636363636364,0.6878871300757055,0.31516422082459816,0.07918781725888324
mgwiki,False,25.0,0.04269662921348315,0.8636363636363636,0.70474879559532,0.2976939203354298,0.08137044967880086
mgwiki,False,26.0,0.04420549581839905,0.8409090909090909,0.7222986923606332,0.27952480782669464,0.08399545970488081
mgwiki,False,27.0,0.04597701149425287,0.8181818181818182,0.7401927047487956,0.2610062893081761,0.08706166868198306
mgwiki,False,28.0,0.03477051460361613,0.5681818181818182,0.7546455609084652,0.24248777078965758,0.0655307994757536
mgwiki,False,29.0,0.03731343283582089,0.5681818181818182,0.7715072264280798,0.22536687631027252,0.0700280112044818
mgwiki,False,30.0,0.0375,0.5454545454545454,0.7811424638678596,0.21523410202655485,0.07017543859649122
mgwiki,False,31.0,0.03672787979966611,0.5,0.7938747419132829,0.2016072676450035,0.06842923794712287
mgwiki,False,32.0,0.03985507246376811,0.5,0.8100481761871989,0.18518518518518517,0.0738255033557047
mgwiki,False,33.0,0.04247104247104247,0.5,0.8217481073640743,0.17330538085255065,0.07829181494661921
mgwiki,False,34.0,0.04233870967741935,0.4772727272727273,0.8286304198210599,0.16596785464709993,0.07777777777777777
mgwiki,False,35.0,0.04477611940298507,0.4772727272727273,0.8379215416379904,0.15653389238294899,0.08187134502923976
mgwiki,False,36.0,0.04719101123595506,0.4772727272727273,0.846180316586373,0.14814814814814814,0.08588957055214726
mgwiki,False,37.0,0.04672897196261682,0.45454545454545453,0.8513420509291122,0.14255765199161424,0.08474576271186442
mgwiki,False,38.0,0.04914004914004914,0.45454545454545453,0.8585684790089471,0.13522012578616352,0.08869179600886917
mgwiki,False,39.0,0.05167958656330749,0.45454545454545453,0.8654507914659325,0.12823200559049616,0.09280742459396753
mgwiki,False,40.0,0.051771117166212535,0.4318181818181818,0.8716448726772196,0.12159329140461216,0.09245742092457422
mgwiki,False,41.0,0.05459770114942529,0.4318181818181818,0.8781830695113558,0.11495457721872816,0.09693877551020409
mgwiki,False,42.0,0.0572289156626506,0.4318181818181818,0.8836889194769443,0.10936408106219427,0.10106382978723404
mgwiki,False,43.0,0.05956112852664577,0.4318181818181818,0.8881624225739848,0.10482180293501048,0.1046831955922865
mgwiki,False,44.0,0.06209150326797386,0.4318181818181818,0.8926359256710255,0.10027952480782669,0.10857142857142857
mgwiki,False,45.0,0.06440677966101695,0.4318181818181818,0.8964211975223675,0.09643605870020965,0.11209439528023599
mgwiki,False,46.0,0.06228373702422145,0.4090909090909091,0.8977976600137646,0.0946890286512928,0.1081081081081081
mgwiki,False,47.0,0.06338028169014084,0.4090909090909091,0.899518238128011,0.09294199860237597,0.10975609756097562
mgwiki,False,48.0,0.06159420289855073,0.38636363636363635,0.9015829318651066,0.09049615653389238,0.10625
mgwiki,False,49.0,0.06296296296296296,0.38636363636363635,0.9036476256022024,0.08839972047519218,0.10828025477707007
mgwiki,False,50.0,0.06563706563706563,0.38636363636363635,0.9074328974535444,0.08455625436757512,0.11221122112211221
mgwiki,False,51.0,0.06772908366533864,0.38636363636363635,0.9101858224363386,0.08176100628930817,0.11525423728813558
mgwiki,False,52.0,0.06557377049180328,0.36363636363636365,0.911906400550585,0.07966457023060797,0.11111111111111112
mgwiki,False,53.0,0.06666666666666667,0.36363636363636365,0.9132828630419821,0.07826694619147449,0.11267605633802817
mgwiki,False,54.0,0.06808510638297872,0.36363636363636365,0.9150034411562284,0.07651991614255765,0.11469534050179211
mgwiki,False,55.0,0.07017543859649122,0.36363636363636365,0.9174122505161735,0.07407407407407407,0.11764705882352941
mgwiki,False,56.0,0.07079646017699115,0.36363636363636365,0.918100481761872,0.07337526205450734,0.11851851851851852
mgwiki,False,57.0,0.07142857142857142,0.36363636363636365,0.9187887130075706,0.0726764500349406,0.11940298507462686
mgwiki,False,58.0,0.07272727272727272,0.36363636363636365,0.9201651754989677,0.07127882599580712,0.1212121212121212
mgwiki,False,59.0,0.07476635514018691,0.36363636363636365,0.9222298692360633,0.06918238993710692,0.12403100775193797
mgwiki,False,60.0,0.07804878048780488,0.36363636363636365,0.9253269098417068,0.0660377358490566,0.1285140562248996
mgwiki,False,61.0,0.07653061224489796,0.3409090909090909,0.9277357192016518,0.06324248777078965,0.12500000000000003
mgwiki,False,62.0,0.07936507936507936,0.3409090909090909,0.9301445285615967,0.06079664570230608,0.12875536480686695
mgwiki,False,63.0,0.08379888268156424,0.3409090909090909,0.9335856847900895,0.0573025856044724,0.13452914798206278
mgwiki,False,64.0,0.08235294117647059,0.3181818181818182,0.9359944941500344,0.05450733752620545,0.13084112149532712
mgwiki,False,65.0,0.08588957055214724,0.3181818181818182,0.9384033035099794,0.052061495457721874,0.1352657004830918
mgwiki,False,66.0,0.0880503144654088,0.3181818181818182,0.9397797660013765,0.0506638714185884,0.13793103448275862
mgwiki,False,67.0,0.09090909090909091,0.3181818181818182,0.9415003441156229,0.04891684136967156,0.14141414141414144
mgwiki,False,68.0,0.0945945945945946,0.3181818181818182,0.9435650378527185,0.04682040531097135,0.14583333333333334
mgwiki,False,69.0,0.09859154929577464,0.3181818181818182,0.9456297315898142,0.04472396925227114,0.15053763440860216
mgwiki,False,70.0,0.10852713178294573,0.3181818181818182,0.9501032346868548,0.04018169112508735,0.16184971098265896
mgwiki,False,71.0,0.11290322580645161,0.3181818181818182,0.9518238128011012,0.03843466107617051,0.16666666666666666
mgwiki,False,72.0,0.11864406779661017,0.3181818181818182,0.9538885065381968,0.0363382250174703,0.1728395061728395
mgwiki,False,73.0,0.12389380530973451,0.3181818181818182,0.9556090846524432,0.03459119496855346,0.17834394904458598
mgwiki,False,74.0,0.1308411214953271,0.3181818181818182,0.9576737783895389,0.03249475890985325,0.18543046357615894
mgwiki,False,75.0,0.14,0.3181818181818182,0.9600825877494839,0.03004891684136967,0.19444444444444445
mgwiki,False,76.0,0.15217391304347827,0.3181818181818182,0.9628355127322781,0.027253668763102725,0.2058823529411765
mgwiki,False,77.0,0.14606741573033707,0.29545454545454547,0.9631796283551273,0.026554856743535988,0.1954887218045113
mgwiki,False,78.0,0.14942528735632185,0.29545454545454547,0.9638678596008259,0.02585604472396925,0.19847328244274812
mgwiki,False,79.0,0.1625,0.29545454545454547,0.9662766689607708,0.023410202655485674,0.20967741935483872
mgwiki,False,80.0,0.14285714285714285,0.25,0.9659325533379215,0.023060796645702306,0.18181818181818182
mgwiki,False,81.0,0.1527777777777778,0.25,0.9676531314521679,0.021313766596785466,0.18965517241379312
mgwiki,False,82.0,0.16417910447761194,0.25,0.9693737095664143,0.019566736547868623,0.1981981981981982
mgwiki,False,83.0,0.18333333333333332,0.25,0.9717825189263593,0.017120894479385047,0.2115384615384615
mgwiki,False,84.0,0.2037037037037037,0.25,0.973847212663455,0.015024458420684835,0.22448979591836732
mgwiki,False,85.0,0.22,0.25,0.975223675154852,0.013626834381551363,0.23404255319148937
mgwiki,False,86.0,0.22727272727272727,0.22727272727272727,0.9766001376462491,0.011879804332634521,0.22727272727272727
mgwiki,False,87.0,0.23809523809523808,0.22727272727272727,0.9772883688919477,0.011180992313067784,0.23255813953488372
mgwiki,False,88.0,0.22857142857142856,0.18181818181818182,0.9783207157604955,0.009433962264150943,0.20253164556962025
mgwiki,False,89.0,0.25,0.18181818181818182,0.9793530626290433,0.008385744234800839,0.2105263157894737
mgwiki,False,90.0,0.26666666666666666,0.18181818181818182,0.9800412938747419,0.007686932215234102,0.21621621621621623
mgwiki,False,91.0,0.2857142857142857,0.18181818181818182,0.9807295251204404,0.0069881201956673656,0.2222222222222222
mgwiki,False,92.0,0.32,0.18181818181818182,0.9817618719889883,0.005939902166317261,0.2318840579710145
mgwiki,False,93.0,0.3684210526315789,0.1590909090909091,0.9831383344803855,0.0041928721174004195,0.22222222222222218
mgwiki,False,94.0,0.35714285714285715,0.11363636363636363,0.9834824501032347,0.0031446540880503146,0.17241379310344826
mgwiki,False,95.0,0.4166666666666667,0.11363636363636363,0.9841706813489333,0.002445842068483578,0.17857142857142858
mgwiki,False,96.0,0.5714285714285714,0.09090909090909091,0.9852030282174811,0.0010482180293501049,0.1568627450980392
mgwiki,False,97.0,0.5,0.045454545454545456,0.9848589125946318,0.0006988120195667365,0.08333333333333334
mgwiki,False,98.0,0.3333333333333333,0.022727272727272728,0.9845147969717826,0.0006988120195667365,0.04255319148936171
mgwiki,False,99.0,0.0,0.0,0.9845147969717826,0.00034940600978336826,0.04255319148936171
