wiki_db,user_is_anonymous,threshold,precision,recall,accuracy,fpr,F1
mnwwiki,True,0.0,0.2413793103448276,1.0,0.2413793103448276,1.0,0.3888888888888889
mnwwiki,True,1.0,0.2413793103448276,1.0,0.2413793103448276,1.0,0.3888888888888889
mnwwiki,True,2.0,0.2413793103448276,1.0,0.2413793103448276,1.0,0.3888888888888889
mnwwiki,True,3.0,0.2413793103448276,1.0,0.2413793103448276,1.0,0.3888888888888889
mnwwiki,True,4.0,0.2413793103448276,1.0,0.2413793103448276,1.0,0.3888888888888889
mnwwiki,True,5.0,0.2413793103448276,1.0,0.2413793103448276,1.0,0.3888888888888889
mnwwiki,True,6.0,0.2413793103448276,1.0,0.2413793103448276,1.0,0.3888888888888889
mnwwiki,True,7.0,0.2413793103448276,1.0,0.2413793103448276,1.0,0.3888888888888889
mnwwiki,True,8.0,0.2413793103448276,1.0,0.2413793103448276,1.0,0.3888888888888889
mnwwiki,True,9.0,0.2413793103448276,1.0,0.2413793103448276,1.0,0.3888888888888889
mnwwiki,True,10.0,0.2413793103448276,1.0,0.2413793103448276,1.0,0.3888888888888889
mnwwiki,True,11.0,0.2413793103448276,1.0,0.2413793103448276,1.0,0.3888888888888889
mnwwiki,True,12.0,0.2413793103448276,1.0,0.2413793103448276,1.0,0.3888888888888889
mnwwiki,True,13.0,0.2413793103448276,1.0,0.2413793103448276,1.0,0.3888888888888889
mnwwiki,True,14.0,0.2413793103448276,1.0,0.2413793103448276,1.0,0.3888888888888889
mnwwiki,True,15.0,0.2413793103448276,1.0,0.2413793103448276,1.0,0.3888888888888889
mnwwiki,True,16.0,0.2413793103448276,1.0,0.2413793103448276,1.0,0.3888888888888889
mnwwiki,True,17.0,0.2413793103448276,1.0,0.2413793103448276,1.0,0.3888888888888889
mnwwiki,True,18.0,0.2413793103448276,1.0,0.2413793103448276,1.0,0.3888888888888889
mnwwiki,True,19.0,0.2413793103448276,1.0,0.2413793103448276,1.0,0.3888888888888889
mnwwiki,True,20.0,0.2413793103448276,1.0,0.2413793103448276,1.0,0.3888888888888889
mnwwiki,True,21.0,0.2413793103448276,1.0,0.2413793103448276,1.0,0.3888888888888889
mnwwiki,True,22.0,0.2413793103448276,1.0,0.2413793103448276,1.0,0.3888888888888889
mnwwiki,True,23.0,0.2413793103448276,1.0,0.2413793103448276,1.0,0.3888888888888889
mnwwiki,True,24.0,0.2413793103448276,1.0,0.2413793103448276,1.0,0.3888888888888889
mnwwiki,True,25.0,0.25,1.0,0.27586206896551724,0.9545454545454546,0.4
mnwwiki,True,26.0,0.25,1.0,0.27586206896551724,0.9545454545454546,0.4
mnwwiki,True,27.0,0.25,1.0,0.27586206896551724,0.9545454545454546,0.4
mnwwiki,True,28.0,0.25,1.0,0.27586206896551724,0.9545454545454546,0.4
mnwwiki,True,29.0,0.25,1.0,0.27586206896551724,0.9545454545454546,0.4
mnwwiki,True,30.0,0.25,1.0,0.27586206896551724,0.9545454545454546,0.4
mnwwiki,True,31.0,0.25,1.0,0.27586206896551724,0.9545454545454546,0.4
mnwwiki,True,32.0,0.25,1.0,0.27586206896551724,0.9545454545454546,0.4
mnwwiki,True,33.0,0.25,1.0,0.27586206896551724,0.9545454545454546,0.4
mnwwiki,True,34.0,0.25,1.0,0.27586206896551724,0.9545454545454546,0.4
mnwwiki,True,35.0,0.25,1.0,0.27586206896551724,0.9545454545454546,0.4
mnwwiki,True,36.0,0.25,1.0,0.27586206896551724,0.9545454545454546,0.4
mnwwiki,True,37.0,0.25925925925925924,1.0,0.3103448275862069,0.9090909090909091,0.4117647058823529
mnwwiki,True,38.0,0.25925925925925924,1.0,0.3103448275862069,0.9090909090909091,0.4117647058823529
mnwwiki,True,39.0,0.25925925925925924,1.0,0.3103448275862069,0.9090909090909091,0.4117647058823529
mnwwiki,True,40.0,0.25925925925925924,1.0,0.3103448275862069,0.9090909090909091,0.4117647058823529
mnwwiki,True,41.0,0.25925925925925924,1.0,0.3103448275862069,0.9090909090909091,0.4117647058823529
mnwwiki,True,42.0,0.25925925925925924,1.0,0.3103448275862069,0.9090909090909091,0.4117647058823529
mnwwiki,True,43.0,0.25925925925925924,1.0,0.3103448275862069,0.9090909090909091,0.4117647058823529
mnwwiki,True,44.0,0.25925925925925924,1.0,0.3103448275862069,0.9090909090909091,0.4117647058823529
mnwwiki,True,45.0,0.25925925925925924,1.0,0.3103448275862069,0.9090909090909091,0.4117647058823529
mnwwiki,True,46.0,0.25925925925925924,1.0,0.3103448275862069,0.9090909090909091,0.4117647058823529
mnwwiki,True,47.0,0.2692307692307692,1.0,0.3448275862068966,0.8636363636363636,0.42424242424242425
mnwwiki,True,48.0,0.2692307692307692,1.0,0.3448275862068966,0.8636363636363636,0.42424242424242425
mnwwiki,True,49.0,0.2692307692307692,1.0,0.3448275862068966,0.8636363636363636,0.42424242424242425
mnwwiki,True,50.0,0.2692307692307692,1.0,0.3448275862068966,0.8636363636363636,0.42424242424242425
mnwwiki,True,51.0,0.2916666666666667,1.0,0.41379310344827586,0.7727272727272727,0.45161290322580644
mnwwiki,True,52.0,0.30434782608695654,1.0,0.4482758620689655,0.7272727272727273,0.4666666666666667
mnwwiki,True,53.0,0.3181818181818182,1.0,0.4827586206896552,0.6818181818181818,0.4827586206896552
mnwwiki,True,54.0,0.3181818181818182,1.0,0.4827586206896552,0.6818181818181818,0.4827586206896552
mnwwiki,True,55.0,0.3181818181818182,1.0,0.4827586206896552,0.6818181818181818,0.4827586206896552
mnwwiki,True,56.0,0.3181818181818182,1.0,0.4827586206896552,0.6818181818181818,0.4827586206896552
mnwwiki,True,57.0,0.3181818181818182,1.0,0.4827586206896552,0.6818181818181818,0.4827586206896552
mnwwiki,True,58.0,0.3333333333333333,1.0,0.5172413793103449,0.6363636363636364,0.5
mnwwiki,True,59.0,0.3333333333333333,1.0,0.5172413793103449,0.6363636363636364,0.5
mnwwiki,True,60.0,0.35,1.0,0.5517241379310345,0.5909090909090909,0.5185185185185185
mnwwiki,True,61.0,0.35,1.0,0.5517241379310345,0.5909090909090909,0.5185185185185185
mnwwiki,True,62.0,0.3157894736842105,0.8571428571428571,0.5172413793103449,0.5909090909090909,0.46153846153846156
mnwwiki,True,63.0,0.3157894736842105,0.8571428571428571,0.5172413793103449,0.5909090909090909,0.46153846153846156
mnwwiki,True,64.0,0.3157894736842105,0.8571428571428571,0.5172413793103449,0.5909090909090909,0.46153846153846156
mnwwiki,True,65.0,0.3333333333333333,0.8571428571428571,0.5517241379310345,0.5454545454545454,0.48
mnwwiki,True,66.0,0.3333333333333333,0.8571428571428571,0.5517241379310345,0.5454545454545454,0.48
mnwwiki,True,67.0,0.3333333333333333,0.8571428571428571,0.5517241379310345,0.5454545454545454,0.48
mnwwiki,True,68.0,0.3333333333333333,0.8571428571428571,0.5517241379310345,0.5454545454545454,0.48
mnwwiki,True,69.0,0.3333333333333333,0.8571428571428571,0.5517241379310345,0.5454545454545454,0.48
mnwwiki,True,70.0,0.3333333333333333,0.8571428571428571,0.5517241379310345,0.5454545454545454,0.48
mnwwiki,True,71.0,0.35294117647058826,0.8571428571428571,0.5862068965517241,0.5,0.5
mnwwiki,True,72.0,0.35294117647058826,0.8571428571428571,0.5862068965517241,0.5,0.5
mnwwiki,True,73.0,0.375,0.8571428571428571,0.6206896551724138,0.45454545454545453,0.5217391304347825
mnwwiki,True,74.0,0.4,0.8571428571428571,0.6551724137931034,0.4090909090909091,0.5454545454545455
mnwwiki,True,75.0,0.4,0.8571428571428571,0.6551724137931034,0.4090909090909091,0.5454545454545455
mnwwiki,True,76.0,0.4,0.8571428571428571,0.6551724137931034,0.4090909090909091,0.5454545454545455
mnwwiki,True,77.0,0.4,0.8571428571428571,0.6551724137931034,0.4090909090909091,0.5454545454545455
mnwwiki,True,78.0,0.3076923076923077,0.5714285714285714,0.5862068965517241,0.4090909090909091,0.4
mnwwiki,True,79.0,0.3333333333333333,0.5714285714285714,0.6206896551724138,0.36363636363636365,0.4210526315789474
mnwwiki,True,80.0,0.3333333333333333,0.5714285714285714,0.6206896551724138,0.36363636363636365,0.4210526315789474
mnwwiki,True,81.0,0.36363636363636365,0.5714285714285714,0.6551724137931034,0.3181818181818182,0.4444444444444444
mnwwiki,True,82.0,0.3,0.42857142857142855,0.6206896551724138,0.3181818181818182,0.3529411764705882
mnwwiki,True,83.0,0.25,0.2857142857142857,0.6206896551724138,0.2727272727272727,0.26666666666666666
mnwwiki,True,84.0,0.2857142857142857,0.2857142857142857,0.6551724137931034,0.22727272727272727,0.2857142857142857
mnwwiki,True,85.0,0.0,0.0,0.6206896551724138,0.18181818181818182,0.2857142857142857
mnwwiki,True,86.0,0.0,0.0,0.6551724137931034,0.13636363636363635,0.2857142857142857
mnwwiki,True,87.0,0.0,0.0,0.6551724137931034,0.13636363636363635,0.2857142857142857
mnwwiki,True,88.0,0.0,0.0,0.6896551724137931,0.09090909090909091,0.2857142857142857
mnwwiki,True,89.0,0.0,0.0,0.6896551724137931,0.09090909090909091,0.2857142857142857
mnwwiki,True,90.0,0.0,0.0,0.7241379310344828,0.045454545454545456,0.2857142857142857
mnwwiki,True,91.0,0.0,0.0,0.7586206896551724,0.0,0.2857142857142857
mnwwiki,True,92.0,0.0,0.0,0.7586206896551724,0.0,0.2857142857142857
mnwwiki,True,93.0,0.0,0.0,0.7586206896551724,0.0,0.2857142857142857
mnwwiki,True,94.0,0.0,0.0,0.7586206896551724,0.0,0.2857142857142857
mnwwiki,True,95.0,0.0,0.0,0.7586206896551724,0.0,0.2857142857142857
mnwwiki,True,96.0,0.0,0.0,0.7586206896551724,0.0,0.2857142857142857
mnwwiki,True,97.0,0.0,0.0,0.7586206896551724,0.0,0.2857142857142857
mnwwiki,True,98.0,0.0,0.0,0.7586206896551724,0.0,0.2857142857142857
mnwwiki,True,99.0,0.0,0.0,0.7586206896551724,0.0,0.2857142857142857
mnwwiki,False,0.0,0.004822695035460993,1.0,0.004822695035460993,1.0,0.009599096555618294
mnwwiki,False,1.0,0.004824063564131668,1.0,0.005106382978723404,0.999714937286203,0.009601807399039819
mnwwiki,False,2.0,0.004859919954259577,1.0,0.0124822695035461,0.99230330672748,0.009672830725462303
mnwwiki,False,3.0,0.004959159859976663,1.0,0.03234042553191489,0.9723489167616876,0.009869375907111755
mnwwiki,False,4.0,0.005106638630219285,1.0,0.06042553191489362,0.9441277080957811,0.010161386730424387
mnwwiki,False,5.0,0.004709576138147566,0.8823529411764706,0.1001418439716312,0.9036488027366021,0.009369144284821985
mnwwiki,False,6.0,0.005006675567423231,0.8823529411764706,0.15375886524822696,0.8497719498289624,0.009956853634251576
mnwwiki,False,7.0,0.005434782608695652,0.8823529411764706,0.22070921985815603,0.7824971493728621,0.010803024846957148
mnwwiki,False,8.0,0.005588822355289421,0.8235294117647058,0.2924822695035461,0.7100912200684151,0.011102299762093577
mnwwiki,False,9.0,0.0057777777777777775,0.7647058823529411,0.36425531914893616,0.6376852907639681,0.011468901632112923
mnwwiki,False,10.0,0.005005005005005005,0.5882352941176471,0.4340425531914894,0.5667046750285063,0.009925558312655087
mnwwiki,False,11.0,0.0055617352614015575,0.5882352941176471,0.4907801418439716,0.5096921322690992,0.011019283746556474
mnwwiki,False,12.0,0.0055147058823529415,0.5294117647058824,0.5373049645390071,0.46265678449258835,0.01091570648878108
mnwwiki,False,13.0,0.005319148936170213,0.47058823529411764,0.573049645390071,0.4264538198403649,0.01051939513477975
mnwwiki,False,14.0,0.004307250538406317,0.35294117647058826,0.603404255319149,0.39538198403648805,0.00851063829787234
mnwwiki,False,15.0,0.004654771140418929,0.35294117647058826,0.6329078014184397,0.36573546180159633,0.009188361408882082
mnwwiki,False,16.0,0.004909983633387889,0.35294117647058826,0.6519148936170213,0.346636259977195,0.009685230024213076
mnwwiki,False,17.0,0.0051325919589392645,0.35294117647058826,0.6669503546099291,0.3315279361459521,0.01011804384485666
mnwwiki,False,18.0,0.005357142857142857,0.35294117647058826,0.6808510638297872,0.31755986316989737,0.010554089709762534
mnwwiki,False,19.0,0.005687203791469194,0.35294117647058826,0.699290780141844,0.2990307867730901,0.011194029850746268
mnwwiki,False,20.0,0.006593406593406593,0.35294117647058826,0.7404255319148936,0.2576966932725199,0.012944983818770227
mnwwiki,False,21.0,0.005875440658049354,0.29411764705882354,0.7565957446808511,0.2411630558722919,0.01152073732718894
mnwwiki,False,22.0,0.006188118811881188,0.29411764705882354,0.7687943262411348,0.22890535917901939,0.012121212121212123
mnwwiki,False,23.0,0.006613756613756613,0.29411764705882354,0.7835460992907801,0.21408209806157355,0.012936610608020697
mnwwiki,False,24.0,0.009157509157509158,0.29411764705882354,0.8431205673758865,0.15421892816419613,0.017761989342806397
mnwwiki,False,25.0,0.01,0.29411764705882354,0.8561702127659574,0.1411060433295325,0.01934235976789168
mnwwiki,False,26.0,0.01072961373390558,0.29411764705882354,0.8658156028368794,0.1314139110604333,0.020703933747412008
mnwwiki,False,27.0,0.011655011655011656,0.29411764705882354,0.8763120567375886,0.12086659064994298,0.022421524663677132
mnwwiki,False,28.0,0.012853470437017995,0.29411764705882354,0.8876595744680851,0.10946408209806158,0.024630541871921183
mnwwiki,False,29.0,0.013927576601671309,0.29411764705882354,0.8961702127659574,0.10091220068415051,0.02659574468085106
mnwwiki,False,30.0,0.015105740181268883,0.29411764705882354,0.904113475177305,0.09293044469783353,0.028735632183908046
mnwwiki,False,31.0,0.016286644951140065,0.29411764705882354,0.9109219858156028,0.08608893956670467,0.030864197530864196
mnwwiki,False,32.0,0.01730103806228374,0.29411764705882354,0.9160283687943263,0.08095781071835804,0.03267973856209151
mnwwiki,False,33.0,0.018018018018018018,0.23529411764705882,0.934468085106383,0.062143671607753706,0.03347280334728034
mnwwiki,False,34.0,0.019704433497536946,0.23529411764705882,0.9398581560283688,0.05672748004561003,0.03636363636363637
mnwwiki,False,35.0,0.01639344262295082,0.17647058823529413,0.9449645390070922,0.05131128848346636,0.030000000000000002
mnwwiki,False,36.0,0.017964071856287425,0.17647058823529413,0.9495035460992908,0.046750285062713795,0.03260869565217391
mnwwiki,False,37.0,0.019867549668874173,0.17647058823529413,0.9540425531914893,0.04218928164196123,0.03571428571428572
mnwwiki,False,38.0,0.013888888888888888,0.11764705882352941,0.9554609929078014,0.04047890535917902,0.024844720496894408
mnwwiki,False,39.0,0.014925373134328358,0.11764705882352941,0.9582978723404255,0.037628278221208664,0.026490066225165566
mnwwiki,False,40.0,0.008403361344537815,0.058823529411764705,0.9619858156028369,0.033637400228050174,0.014705882352941176
mnwwiki,False,41.0,0.008695652173913044,0.058823529411764705,0.9631205673758865,0.03249714937286203,0.015151515151515148
mnwwiki,False,42.0,0.009708737864077669,0.058823529411764705,0.9665248226950355,0.029076396807297605,0.016666666666666666
mnwwiki,False,43.0,0.0,0.0,0.9687943262411347,0.026510832383124287,0.016666666666666666
mnwwiki,False,44.0,0.0,0.0,0.9702127659574468,0.02508551881413911,0.016666666666666666
mnwwiki,False,45.0,0.0,0.0,0.9727659574468085,0.022519954389965794,0.016666666666666666
mnwwiki,False,46.0,0.0,0.0,0.9744680851063829,0.02080957810718358,0.016666666666666666
mnwwiki,False,47.0,0.0,0.0,0.9753191489361702,0.019954389965792473,0.016666666666666666
mnwwiki,False,48.0,0.0,0.0,0.9761702127659575,0.01909920182440137,0.016666666666666666
mnwwiki,False,49.0,0.0,0.0,0.9767375886524823,0.018529076396807297,0.016666666666666666
mnwwiki,False,50.0,0.0,0.0,0.977872340425532,0.017388825541619156,0.016666666666666666
mnwwiki,False,51.0,0.0,0.0,0.979290780141844,0.01596351197263398,0.016666666666666666
mnwwiki,False,52.0,0.0,0.0,0.9804255319148936,0.014823261117445839,0.016666666666666666
mnwwiki,False,53.0,0.0,0.0,0.9818439716312056,0.013397947548460661,0.016666666666666666
mnwwiki,False,54.0,0.0,0.0,0.9824113475177305,0.01282782212086659,0.016666666666666666
mnwwiki,False,55.0,0.0,0.0,0.9832624113475177,0.011972633979475485,0.016666666666666666
mnwwiki,False,56.0,0.0,0.0,0.9838297872340426,0.011402508551881414,0.016666666666666666
mnwwiki,False,57.0,0.0,0.0,0.9849645390070922,0.010262257696693273,0.016666666666666666
mnwwiki,False,58.0,0.0,0.0,0.9852482269503546,0.009977194982896237,0.016666666666666666
mnwwiki,False,59.0,0.0,0.0,0.9852482269503546,0.009977194982896237,0.016666666666666666
mnwwiki,False,60.0,0.0,0.0,0.985531914893617,0.009692132269099202,0.016666666666666666
mnwwiki,False,61.0,0.0,0.0,0.9866666666666667,0.00855188141391106,0.016666666666666666
mnwwiki,False,62.0,0.0,0.0,0.9866666666666667,0.00855188141391106,0.016666666666666666
mnwwiki,False,63.0,0.0,0.0,0.9872340425531915,0.00798175598631699,0.016666666666666666
mnwwiki,False,64.0,0.0,0.0,0.9875177304964539,0.007696693272519955,0.016666666666666666
mnwwiki,False,65.0,0.0,0.0,0.9878014184397164,0.007411630558722919,0.016666666666666666
mnwwiki,False,66.0,0.0,0.0,0.9883687943262411,0.0068415051311288486,0.016666666666666666
mnwwiki,False,67.0,0.0,0.0,0.9886524822695035,0.006556442417331813,0.016666666666666666
mnwwiki,False,68.0,0.0,0.0,0.9889361702127659,0.006271379703534778,0.016666666666666666
mnwwiki,False,69.0,0.0,0.0,0.9892198581560284,0.0059863169897377425,0.016666666666666666
mnwwiki,False,70.0,0.0,0.0,0.9906382978723405,0.004561003420752566,0.016666666666666666
mnwwiki,False,71.0,0.0,0.0,0.9912056737588653,0.003990877993158495,0.016666666666666666
mnwwiki,False,72.0,0.0,0.0,0.9914893617021276,0.0037058152793614596,0.016666666666666666
mnwwiki,False,73.0,0.0,0.0,0.99177304964539,0.0034207525655644243,0.016666666666666666
mnwwiki,False,74.0,0.0,0.0,0.99177304964539,0.0034207525655644243,0.016666666666666666
mnwwiki,False,75.0,0.0,0.0,0.99177304964539,0.0034207525655644243,0.016666666666666666
mnwwiki,False,76.0,0.0,0.0,0.99177304964539,0.0034207525655644243,0.016666666666666666
mnwwiki,False,77.0,0.0,0.0,0.99177304964539,0.0034207525655644243,0.016666666666666666
mnwwiki,False,78.0,0.0,0.0,0.9920567375886525,0.003135689851767389,0.016666666666666666
mnwwiki,False,79.0,0.0,0.0,0.9920567375886525,0.003135689851767389,0.016666666666666666
mnwwiki,False,80.0,0.0,0.0,0.9920567375886525,0.003135689851767389,0.016666666666666666
mnwwiki,False,81.0,0.0,0.0,0.9926241134751773,0.002565564424173318,0.016666666666666666
mnwwiki,False,82.0,0.0,0.0,0.9934751773049645,0.0017103762827822121,0.016666666666666666
mnwwiki,False,83.0,0.0,0.0,0.9934751773049645,0.0017103762827822121,0.016666666666666666
mnwwiki,False,84.0,0.0,0.0,0.9943262411347518,0.0008551881413911061,0.016666666666666666
mnwwiki,False,85.0,0.0,0.0,0.9943262411347518,0.0008551881413911061,0.016666666666666666
mnwwiki,False,86.0,0.0,0.0,0.9946099290780142,0.0005701254275940707,0.016666666666666666
mnwwiki,False,87.0,0.0,0.0,0.9946099290780142,0.0005701254275940707,0.016666666666666666
mnwwiki,False,88.0,0.0,0.0,0.9948936170212765,0.00028506271379703536,0.016666666666666666
mnwwiki,False,89.0,0.0,0.0,0.995177304964539,0.0,0.016666666666666666
mnwwiki,False,90.0,0.0,0.0,0.995177304964539,0.0,0.016666666666666666
mnwwiki,False,91.0,0.0,0.0,0.995177304964539,0.0,0.016666666666666666
mnwwiki,False,92.0,0.0,0.0,0.995177304964539,0.0,0.016666666666666666
mnwwiki,False,93.0,0.0,0.0,0.995177304964539,0.0,0.016666666666666666
mnwwiki,False,94.0,0.0,0.0,0.995177304964539,0.0,0.016666666666666666
mnwwiki,False,95.0,0.0,0.0,0.995177304964539,0.0,0.016666666666666666
mnwwiki,False,96.0,0.0,0.0,0.995177304964539,0.0,0.016666666666666666
mnwwiki,False,97.0,0.0,0.0,0.995177304964539,0.0,0.016666666666666666
mnwwiki,False,98.0,0.0,0.0,0.995177304964539,0.0,0.016666666666666666
mnwwiki,False,99.0,0.0,0.0,0.995177304964539,0.0,0.016666666666666666
