wiki_db,user_is_anonymous,threshold,precision,recall,accuracy,fpr,F1
myvwiki,True,0.0,0.3142857142857143,1.0,0.3142857142857143,1.0,0.4782608695652174
myvwiki,True,1.0,0.3142857142857143,1.0,0.3142857142857143,1.0,0.4782608695652174
myvwiki,True,2.0,0.3142857142857143,1.0,0.3142857142857143,1.0,0.4782608695652174
myvwiki,True,3.0,0.3142857142857143,1.0,0.3142857142857143,1.0,0.4782608695652174
myvwiki,True,4.0,0.3142857142857143,1.0,0.3142857142857143,1.0,0.4782608695652174
myvwiki,True,5.0,0.3142857142857143,1.0,0.3142857142857143,1.0,0.4782608695652174
myvwiki,True,6.0,0.3142857142857143,1.0,0.3142857142857143,1.0,0.4782608695652174
myvwiki,True,7.0,0.3142857142857143,1.0,0.3142857142857143,1.0,0.4782608695652174
myvwiki,True,8.0,0.3142857142857143,1.0,0.3142857142857143,1.0,0.4782608695652174
myvwiki,True,9.0,0.3142857142857143,1.0,0.3142857142857143,1.0,0.4782608695652174
myvwiki,True,10.0,0.3142857142857143,1.0,0.3142857142857143,1.0,0.4782608695652174
myvwiki,True,11.0,0.3142857142857143,1.0,0.3142857142857143,1.0,0.4782608695652174
myvwiki,True,12.0,0.3142857142857143,1.0,0.3142857142857143,1.0,0.4782608695652174
myvwiki,True,13.0,0.3142857142857143,1.0,0.3142857142857143,1.0,0.4782608695652174
myvwiki,True,14.0,0.3142857142857143,1.0,0.3142857142857143,1.0,0.4782608695652174
myvwiki,True,15.0,0.3142857142857143,1.0,0.3142857142857143,1.0,0.4782608695652174
myvwiki,True,16.0,0.3142857142857143,1.0,0.3142857142857143,1.0,0.4782608695652174
myvwiki,True,17.0,0.3142857142857143,1.0,0.3142857142857143,1.0,0.4782608695652174
myvwiki,True,18.0,0.3142857142857143,1.0,0.3142857142857143,1.0,0.4782608695652174
myvwiki,True,19.0,0.3142857142857143,1.0,0.3142857142857143,1.0,0.4782608695652174
myvwiki,True,20.0,0.3142857142857143,1.0,0.3142857142857143,1.0,0.4782608695652174
myvwiki,True,21.0,0.3142857142857143,1.0,0.3142857142857143,1.0,0.4782608695652174
myvwiki,True,22.0,0.3142857142857143,1.0,0.3142857142857143,1.0,0.4782608695652174
myvwiki,True,23.0,0.3142857142857143,1.0,0.3142857142857143,1.0,0.4782608695652174
myvwiki,True,24.0,0.3142857142857143,1.0,0.3142857142857143,1.0,0.4782608695652174
myvwiki,True,25.0,0.3142857142857143,1.0,0.3142857142857143,1.0,0.4782608695652174
myvwiki,True,26.0,0.3142857142857143,1.0,0.3142857142857143,1.0,0.4782608695652174
myvwiki,True,27.0,0.3235294117647059,1.0,0.34285714285714286,0.9583333333333334,0.48888888888888893
myvwiki,True,28.0,0.3235294117647059,1.0,0.34285714285714286,0.9583333333333334,0.48888888888888893
myvwiki,True,29.0,0.3235294117647059,1.0,0.34285714285714286,0.9583333333333334,0.48888888888888893
myvwiki,True,30.0,0.3125,0.9090909090909091,0.34285714285714286,0.9166666666666666,0.4651162790697674
myvwiki,True,31.0,0.3125,0.9090909090909091,0.34285714285714286,0.9166666666666666,0.4651162790697674
myvwiki,True,32.0,0.3125,0.9090909090909091,0.34285714285714286,0.9166666666666666,0.4651162790697674
myvwiki,True,33.0,0.3125,0.9090909090909091,0.34285714285714286,0.9166666666666666,0.4651162790697674
myvwiki,True,34.0,0.3125,0.9090909090909091,0.34285714285714286,0.9166666666666666,0.4651162790697674
myvwiki,True,35.0,0.3125,0.9090909090909091,0.34285714285714286,0.9166666666666666,0.4651162790697674
myvwiki,True,36.0,0.3125,0.9090909090909091,0.34285714285714286,0.9166666666666666,0.4651162790697674
myvwiki,True,37.0,0.3125,0.9090909090909091,0.34285714285714286,0.9166666666666666,0.4651162790697674
myvwiki,True,38.0,0.3125,0.9090909090909091,0.34285714285714286,0.9166666666666666,0.4651162790697674
myvwiki,True,39.0,0.3125,0.9090909090909091,0.34285714285714286,0.9166666666666666,0.4651162790697674
myvwiki,True,40.0,0.3125,0.9090909090909091,0.34285714285714286,0.9166666666666666,0.4651162790697674
myvwiki,True,41.0,0.3125,0.9090909090909091,0.34285714285714286,0.9166666666666666,0.4651162790697674
myvwiki,True,42.0,0.3125,0.9090909090909091,0.34285714285714286,0.9166666666666666,0.4651162790697674
myvwiki,True,43.0,0.3125,0.9090909090909091,0.34285714285714286,0.9166666666666666,0.4651162790697674
myvwiki,True,44.0,0.3225806451612903,0.9090909090909091,0.37142857142857144,0.875,0.4761904761904761
myvwiki,True,45.0,0.3225806451612903,0.9090909090909091,0.37142857142857144,0.875,0.4761904761904761
myvwiki,True,46.0,0.3225806451612903,0.9090909090909091,0.37142857142857144,0.875,0.4761904761904761
myvwiki,True,47.0,0.3225806451612903,0.9090909090909091,0.37142857142857144,0.875,0.4761904761904761
myvwiki,True,48.0,0.3225806451612903,0.9090909090909091,0.37142857142857144,0.875,0.4761904761904761
myvwiki,True,49.0,0.3225806451612903,0.9090909090909091,0.37142857142857144,0.875,0.4761904761904761
myvwiki,True,50.0,0.3225806451612903,0.9090909090909091,0.37142857142857144,0.875,0.4761904761904761
myvwiki,True,51.0,0.3225806451612903,0.9090909090909091,0.37142857142857144,0.875,0.4761904761904761
myvwiki,True,52.0,0.3225806451612903,0.9090909090909091,0.37142857142857144,0.875,0.4761904761904761
myvwiki,True,53.0,0.3225806451612903,0.9090909090909091,0.37142857142857144,0.875,0.4761904761904761
myvwiki,True,54.0,0.3225806451612903,0.9090909090909091,0.37142857142857144,0.875,0.4761904761904761
myvwiki,True,55.0,0.3333333333333333,0.9090909090909091,0.4,0.8333333333333334,0.4878048780487804
myvwiki,True,56.0,0.3448275862068966,0.9090909090909091,0.42857142857142855,0.7916666666666666,0.5000000000000001
myvwiki,True,57.0,0.35714285714285715,0.9090909090909091,0.45714285714285713,0.75,0.5128205128205129
myvwiki,True,58.0,0.35714285714285715,0.9090909090909091,0.45714285714285713,0.75,0.5128205128205129
myvwiki,True,59.0,0.35714285714285715,0.9090909090909091,0.45714285714285713,0.75,0.5128205128205129
myvwiki,True,60.0,0.35714285714285715,0.9090909090909091,0.45714285714285713,0.75,0.5128205128205129
myvwiki,True,61.0,0.35714285714285715,0.9090909090909091,0.45714285714285713,0.75,0.5128205128205129
myvwiki,True,62.0,0.35714285714285715,0.9090909090909091,0.45714285714285713,0.75,0.5128205128205129
myvwiki,True,63.0,0.35714285714285715,0.9090909090909091,0.45714285714285713,0.75,0.5128205128205129
myvwiki,True,64.0,0.35714285714285715,0.9090909090909091,0.45714285714285713,0.75,0.5128205128205129
myvwiki,True,65.0,0.35714285714285715,0.9090909090909091,0.45714285714285713,0.75,0.5128205128205129
myvwiki,True,66.0,0.35714285714285715,0.9090909090909091,0.45714285714285713,0.75,0.5128205128205129
myvwiki,True,67.0,0.37037037037037035,0.9090909090909091,0.4857142857142857,0.7083333333333334,0.5263157894736842
myvwiki,True,68.0,0.37037037037037035,0.9090909090909091,0.4857142857142857,0.7083333333333334,0.5263157894736842
myvwiki,True,69.0,0.37037037037037035,0.9090909090909091,0.4857142857142857,0.7083333333333334,0.5263157894736842
myvwiki,True,70.0,0.37037037037037035,0.9090909090909091,0.4857142857142857,0.7083333333333334,0.5263157894736842
myvwiki,True,71.0,0.37037037037037035,0.9090909090909091,0.4857142857142857,0.7083333333333334,0.5263157894736842
myvwiki,True,72.0,0.37037037037037035,0.9090909090909091,0.4857142857142857,0.7083333333333334,0.5263157894736842
myvwiki,True,73.0,0.37037037037037035,0.9090909090909091,0.4857142857142857,0.7083333333333334,0.5263157894736842
myvwiki,True,74.0,0.37037037037037035,0.9090909090909091,0.4857142857142857,0.7083333333333334,0.5263157894736842
myvwiki,True,75.0,0.37037037037037035,0.9090909090909091,0.4857142857142857,0.7083333333333334,0.5263157894736842
myvwiki,True,76.0,0.37037037037037035,0.9090909090909091,0.4857142857142857,0.7083333333333334,0.5263157894736842
myvwiki,True,77.0,0.37037037037037035,0.9090909090909091,0.4857142857142857,0.7083333333333334,0.5263157894736842
myvwiki,True,78.0,0.36,0.8181818181818182,0.4857142857142857,0.6666666666666666,0.5
myvwiki,True,79.0,0.36,0.8181818181818182,0.4857142857142857,0.6666666666666666,0.5
myvwiki,True,80.0,0.36,0.8181818181818182,0.4857142857142857,0.6666666666666666,0.5
myvwiki,True,81.0,0.36,0.8181818181818182,0.4857142857142857,0.6666666666666666,0.5
myvwiki,True,82.0,0.375,0.8181818181818182,0.5142857142857142,0.625,0.5142857142857142
myvwiki,True,83.0,0.375,0.8181818181818182,0.5142857142857142,0.625,0.5142857142857142
myvwiki,True,84.0,0.4090909090909091,0.8181818181818182,0.5714285714285714,0.5416666666666666,0.5454545454545455
myvwiki,True,85.0,0.38095238095238093,0.7272727272727273,0.5428571428571428,0.5416666666666666,0.5
myvwiki,True,86.0,0.38095238095238093,0.7272727272727273,0.5428571428571428,0.5416666666666666,0.5
myvwiki,True,87.0,0.3333333333333333,0.5454545454545454,0.5142857142857142,0.5,0.41379310344827586
myvwiki,True,88.0,0.46153846153846156,0.5454545454545454,0.6571428571428571,0.2916666666666667,0.4999999999999999
myvwiki,True,89.0,0.46153846153846156,0.5454545454545454,0.6571428571428571,0.2916666666666667,0.4999999999999999
myvwiki,True,90.0,0.45454545454545453,0.45454545454545453,0.6571428571428571,0.25,0.45454545454545453
myvwiki,True,91.0,0.5,0.45454545454545453,0.6857142857142857,0.20833333333333334,0.47619047619047616
myvwiki,True,92.0,0.4444444444444444,0.36363636363636365,0.6571428571428571,0.20833333333333334,0.39999999999999997
myvwiki,True,93.0,0.4444444444444444,0.36363636363636365,0.6571428571428571,0.20833333333333334,0.39999999999999997
myvwiki,True,94.0,0.5,0.2727272727272727,0.6857142857142857,0.125,0.3529411764705882
myvwiki,True,95.0,0.3333333333333333,0.09090909090909091,0.6571428571428571,0.08333333333333333,0.14285714285714288
myvwiki,True,96.0,0.0,0.0,0.6571428571428571,0.041666666666666664,0.14285714285714288
myvwiki,True,97.0,0.0,0.0,0.6857142857142857,0.0,0.14285714285714288
myvwiki,True,98.0,0.0,0.0,0.6857142857142857,0.0,0.14285714285714288
myvwiki,True,99.0,0.0,0.0,0.6857142857142857,0.0,0.14285714285714288
myvwiki,False,0.0,0.03333333333333333,1.0,0.03333333333333333,1.0,0.06451612903225806
myvwiki,False,1.0,0.03333333333333333,1.0,0.03333333333333333,1.0,0.06451612903225806
myvwiki,False,2.0,0.033542976939203356,1.0,0.03958333333333333,0.9935344827586207,0.06490872210953348
myvwiki,False,3.0,0.03418803418803419,1.0,0.058333333333333334,0.9741379310344828,0.06611570247933884
myvwiki,False,4.0,0.03467561521252797,0.96875,0.1,0.9299568965517241,0.06695464362850971
myvwiki,False,5.0,0.036004645760743324,0.96875,0.134375,0.8943965517241379,0.06942889137737963
myvwiki,False,6.0,0.03614457831325301,0.9375,0.16458333333333333,0.8620689655172413,0.06960556844547564
myvwiki,False,7.0,0.035668789808917196,0.875,0.20729166666666668,0.8157327586206896,0.06854345165238677
myvwiki,False,8.0,0.03643724696356275,0.84375,0.25104166666666666,0.7693965517241379,0.06985769728331177
myvwiki,False,9.0,0.036775106082036775,0.8125,0.284375,0.7338362068965517,0.07036535859269283
myvwiki,False,10.0,0.038980509745127435,0.8125,0.3260416666666667,0.6907327586206896,0.07439198855507868
myvwiki,False,11.0,0.040257648953301126,0.78125,0.371875,0.6422413793103449,0.0765696784073507
myvwiki,False,12.0,0.04222972972972973,0.78125,0.40208333333333335,0.6109913793103449,0.08012820512820512
myvwiki,False,13.0,0.04285714285714286,0.75,0.43333333333333335,0.5775862068965517,0.08108108108108107
myvwiki,False,14.0,0.0450281425891182,0.75,0.46145833333333336,0.5484913793103449,0.08495575221238938
myvwiki,False,15.0,0.0437375745526839,0.6875,0.48854166666666665,0.5183189655172413,0.08224299065420561
myvwiki,False,16.0,0.043121149897330596,0.65625,0.503125,0.5021551724137931,0.08092485549132948
myvwiki,False,17.0,0.04487179487179487,0.65625,0.5229166666666667,0.4816810344827586,0.084
myvwiki,False,18.0,0.04794520547945205,0.65625,0.5541666666666667,0.44935344827586204,0.08936170212765958
myvwiki,False,19.0,0.050359712230215826,0.65625,0.5760416666666667,0.4267241379310345,0.0935412026726058
myvwiki,False,20.0,0.05025125628140704,0.625,0.59375,0.4073275862068966,0.0930232558139535
myvwiki,False,21.0,0.05333333333333334,0.625,0.6177083333333333,0.38254310344827586,0.09828009828009827
myvwiki,False,22.0,0.05128205128205128,0.5625,0.6385416666666667,0.3588362068965517,0.0939947780678851
myvwiki,False,23.0,0.05454545454545454,0.5625,0.6604166666666667,0.33620689655172414,0.09944751381215469
myvwiki,False,24.0,0.05825242718446602,0.5625,0.6822916666666666,0.3135775862068966,0.10557184750733138
myvwiki,False,25.0,0.0625,0.5625,0.7041666666666667,0.29094827586206895,0.1125
myvwiki,False,26.0,0.06642066420664207,0.5625,0.721875,0.27262931034482757,0.11881188118811882
myvwiki,False,27.0,0.06719367588932806,0.53125,0.7385416666666667,0.2543103448275862,0.11929824561403508
myvwiki,False,28.0,0.07053941908713693,0.53125,0.7510416666666667,0.2413793103448276,0.12454212454212454
myvwiki,False,29.0,0.07327586206896551,0.53125,0.7604166666666666,0.23168103448275862,0.12878787878787878
myvwiki,False,30.0,0.07906976744186046,0.53125,0.778125,0.21336206896551724,0.1376518218623482
myvwiki,False,31.0,0.08415841584158416,0.53125,0.7916666666666666,0.19935344827586207,0.1452991452991453
myvwiki,False,32.0,0.08762886597938144,0.53125,0.8,0.19073275862068967,0.15044247787610618
myvwiki,False,33.0,0.09239130434782608,0.53125,0.8104166666666667,0.17995689655172414,0.1574074074074074
myvwiki,False,34.0,0.09659090909090909,0.53125,0.81875,0.1713362068965517,0.16346153846153846
myvwiki,False,35.0,0.09876543209876543,0.5,0.83125,0.15732758620689655,0.16494845360824742
myvwiki,False,36.0,0.10191082802547771,0.5,0.8364583333333333,0.15193965517241378,0.16931216931216933
myvwiki,False,37.0,0.10666666666666667,0.5,0.84375,0.14439655172413793,0.17582417582417584
myvwiki,False,38.0,0.11188811188811189,0.5,0.8510416666666667,0.13685344827586207,0.18285714285714286
myvwiki,False,39.0,0.12030075187969924,0.5,0.8614583333333333,0.12607758620689655,0.19393939393939394
myvwiki,False,40.0,0.12598425196850394,0.5,0.8677083333333333,0.11961206896551724,0.20125786163522014
myvwiki,False,41.0,0.13008130081300814,0.5,0.871875,0.11530172413793104,0.2064516129032258
myvwiki,False,42.0,0.13445378151260504,0.5,0.8760416666666667,0.11099137931034483,0.2119205298013245
myvwiki,False,43.0,0.14035087719298245,0.5,0.88125,0.10560344827586207,0.2191780821917808
myvwiki,False,44.0,0.14285714285714285,0.5,0.8833333333333333,0.10344827586206896,0.22222222222222224
myvwiki,False,45.0,0.14414414414414414,0.5,0.884375,0.10237068965517242,0.22377622377622378
myvwiki,False,46.0,0.14678899082568808,0.5,0.8864583333333333,0.10021551724137931,0.2269503546099291
myvwiki,False,47.0,0.14814814814814814,0.5,0.8875,0.09913793103448276,0.22857142857142856
myvwiki,False,48.0,0.1509433962264151,0.5,0.8895833333333333,0.09698275862068965,0.2318840579710145
myvwiki,False,49.0,0.15384615384615385,0.5,0.8916666666666667,0.09482758620689655,0.23529411764705882
myvwiki,False,50.0,0.15,0.46875,0.89375,0.09159482758620689,0.22727272727272727
myvwiki,False,51.0,0.15151515151515152,0.46875,0.8947916666666667,0.09051724137931035,0.22900763358778628
myvwiki,False,52.0,0.15463917525773196,0.46875,0.896875,0.08836206896551724,0.23255813953488375
myvwiki,False,53.0,0.16129032258064516,0.46875,0.9010416666666666,0.08405172413793104,0.24000000000000002
myvwiki,False,54.0,0.16483516483516483,0.46875,0.903125,0.08189655172413793,0.24390243902439027
myvwiki,False,55.0,0.17045454545454544,0.46875,0.90625,0.07866379310344827,0.25
myvwiki,False,56.0,0.1724137931034483,0.46875,0.9072916666666667,0.07758620689655173,0.25210084033613445
myvwiki,False,57.0,0.1686746987951807,0.4375,0.909375,0.07435344827586207,0.24347826086956523
myvwiki,False,58.0,0.1625,0.40625,0.9104166666666667,0.07219827586206896,0.23214285714285718
myvwiki,False,59.0,0.15384615384615385,0.375,0.9104166666666667,0.07112068965517242,0.2181818181818182
myvwiki,False,60.0,0.15384615384615385,0.375,0.9104166666666667,0.07112068965517242,0.2181818181818182
myvwiki,False,61.0,0.14666666666666667,0.34375,0.9114583333333334,0.06896551724137931,0.205607476635514
myvwiki,False,62.0,0.14084507042253522,0.3125,0.9135416666666667,0.06573275862068965,0.1941747572815534
myvwiki,False,63.0,0.14084507042253522,0.3125,0.9135416666666667,0.06573275862068965,0.1941747572815534
myvwiki,False,64.0,0.14492753623188406,0.3125,0.915625,0.06357758620689655,0.19801980198019803
myvwiki,False,65.0,0.13432835820895522,0.28125,0.915625,0.0625,0.1818181818181818
myvwiki,False,66.0,0.13636363636363635,0.28125,0.9166666666666666,0.061422413793103446,0.18367346938775508
myvwiki,False,67.0,0.09523809523809523,0.1875,0.9135416666666667,0.061422413793103446,0.12631578947368421
myvwiki,False,68.0,0.09836065573770492,0.1875,0.915625,0.059267241379310345,0.12903225806451613
myvwiki,False,69.0,0.10526315789473684,0.1875,0.9197916666666667,0.05495689655172414,0.1348314606741573
myvwiki,False,70.0,0.08928571428571429,0.15625,0.91875,0.05495689655172414,0.11363636363636363
myvwiki,False,71.0,0.09615384615384616,0.15625,0.9229166666666667,0.05064655172413793,0.11904761904761905
myvwiki,False,72.0,0.10869565217391304,0.15625,0.9291666666666667,0.04418103448275862,0.1282051282051282
myvwiki,False,73.0,0.08888888888888889,0.125,0.928125,0.04418103448275862,0.10389610389610389
myvwiki,False,74.0,0.10256410256410256,0.125,0.934375,0.03771551724137931,0.11267605633802817
myvwiki,False,75.0,0.08333333333333333,0.09375,0.9354166666666667,0.03556034482758621,0.08823529411764706
myvwiki,False,76.0,0.09090909090909091,0.09375,0.9385416666666667,0.032327586206896554,0.0923076923076923
myvwiki,False,77.0,0.0967741935483871,0.09375,0.940625,0.03017241379310345,0.09523809523809523
myvwiki,False,78.0,0.07142857142857142,0.0625,0.9416666666666667,0.028017241379310345,0.06666666666666667
myvwiki,False,79.0,0.07407407407407407,0.0625,0.9427083333333334,0.02693965517241379,0.06779661016949153
myvwiki,False,80.0,0.038461538461538464,0.03125,0.9416666666666667,0.02693965517241379,0.034482758620689655
myvwiki,False,81.0,0.041666666666666664,0.03125,0.94375,0.02478448275862069,0.03571428571428572
myvwiki,False,82.0,0.0,0.0,0.9458333333333333,0.021551724137931036,0.03571428571428572
myvwiki,False,83.0,0.0,0.0,0.9479166666666666,0.01939655172413793,0.03571428571428572
myvwiki,False,84.0,0.0,0.0,0.95,0.017241379310344827,0.03571428571428572
myvwiki,False,85.0,0.0,0.0,0.9510416666666667,0.016163793103448277,0.03571428571428572
myvwiki,False,86.0,0.0,0.0,0.9552083333333333,0.011853448275862068,0.03571428571428572
myvwiki,False,87.0,0.0,0.0,0.9552083333333333,0.011853448275862068,0.03571428571428572
myvwiki,False,88.0,0.0,0.0,0.9604166666666667,0.00646551724137931,0.03571428571428572
myvwiki,False,89.0,0.0,0.0,0.9614583333333333,0.005387931034482759,0.03571428571428572
myvwiki,False,90.0,0.0,0.0,0.9614583333333333,0.005387931034482759,0.03571428571428572
myvwiki,False,91.0,0.0,0.0,0.9625,0.004310344827586207,0.03571428571428572
myvwiki,False,92.0,0.0,0.0,0.9625,0.004310344827586207,0.03571428571428572
myvwiki,False,93.0,0.0,0.0,0.9625,0.004310344827586207,0.03571428571428572
myvwiki,False,94.0,0.0,0.0,0.9645833333333333,0.0021551724137931034,0.03571428571428572
myvwiki,False,95.0,0.0,0.0,0.965625,0.0010775862068965517,0.03571428571428572
myvwiki,False,96.0,0.0,0.0,0.965625,0.0010775862068965517,0.03571428571428572
myvwiki,False,97.0,0.0,0.0,0.965625,0.0010775862068965517,0.03571428571428572
myvwiki,False,98.0,0.0,0.0,0.9666666666666667,0.0,0.03571428571428572
myvwiki,False,99.0,0.0,0.0,0.9666666666666667,0.0,0.03571428571428572
