wiki_db,user_is_anonymous,threshold,precision,recall,accuracy,fpr,F1
nlwiki,True,0.0,0.37592769786197305,1.0,0.37592769786197305,1.0,0.5464352501168771
nlwiki,True,1.0,0.37592769786197305,1.0,0.37592769786197305,1.0,0.5464352501168771
nlwiki,True,2.0,0.37592769786197305,1.0,0.37592769786197305,1.0,0.5464352501168771
nlwiki,True,3.0,0.37592769786197305,1.0,0.37592769786197305,1.0,0.5464352501168771
nlwiki,True,4.0,0.37592769786197305,1.0,0.37592769786197305,1.0,0.5464352501168771
nlwiki,True,5.0,0.37592769786197305,1.0,0.37592769786197305,1.0,0.5464352501168771
nlwiki,True,6.0,0.37592769786197305,1.0,0.37592769786197305,1.0,0.5464352501168771
nlwiki,True,7.0,0.37592769786197305,1.0,0.37592769786197305,1.0,0.5464352501168771
nlwiki,True,8.0,0.37592769786197305,1.0,0.37592769786197305,1.0,0.5464352501168771
nlwiki,True,9.0,0.3759307206149591,1.0,0.37593573858017,0.9999871157265442,0.5464384434224137
nlwiki,True,10.0,0.3759488581537472,1.0,0.3759839828893517,0.9999098100858093,0.546457604039436
nlwiki,True,11.0,0.37598211485416044,1.0,0.37607243078951813,0.9997680830777952,0.5464927353274655
nlwiki,True,12.0,0.37601840160209754,1.0,0.3761689194078815,0.9996134717963254,0.5465310655210708
nlwiki,True,13.0,0.37604665192037,0.9999786109982247,0.376249326589851,0.9994717447883114,0.5465577105180093
nlwiki,True,14.0,0.3761101814905393,0.9999786109982247,0.37641818167198693,0.9992011750457391,0.5466248092741015
nlwiki,True,15.0,0.37619292852889585,0.9999572219964494,0.3766433217815015,0.9988275311155204,0.5467089991638747
nlwiki,True,16.0,0.37625953706982584,0.9999572219964494,0.3768202175818344,0.9985440770994923,0.5467793339376041
nlwiki,True,17.0,0.37632616920228606,0.9999572219964494,0.3769971133821673,0.9982606230834643,0.5468496868109695
nlwiki,True,18.0,0.37641204840618686,0.9999358329946741,0.3772302942098788,0.9978740948797897,0.5469371519490851
nlwiki,True,19.0,0.3765363488458255,0.9999358329946741,0.37755996365595373,0.9973458396681011,0.5470683572151587
nlwiki,True,20.0,0.3766405362509164,0.9999144439928989,0.37784138879284696,0.9968820058236916,0.547175111485656
nlwiki,True,21.0,0.37677713659370066,0.9999144439928989,0.3782032211117097,0.9963022135181797,0.547319249073635
nlwiki,True,22.0,0.37688952668112446,0.9999144439928989,0.3785007276849968,0.9958254954003144,0.5474378191015972
nlwiki,True,23.0,0.37699193548387094,0.9998716659893483,0.37878215282189004,0.9953487772824491,0.5475394282970139
nlwiki,True,24.0,0.3771278741427995,0.9998288879857977,0.37915202585894975,0.9947303321565697,0.5476763735845298
nlwiki,True,25.0,0.3772831096296177,0.9998288879857977,0.3795621024869941,0.9940732342103229,0.5478400487541899
nlwiki,True,26.0,0.3774140937863325,0.9998288879857977,0.379907853369463,0.9935192104517226,0.547978125421285
nlwiki,True,27.0,0.3775543170987804,0.9998288879857977,0.38027772640652263,0.9929265338727549,0.548125912419458
nlwiki,True,28.0,0.3777282166896964,0.9998288879857977,0.3807360473437487,0.9921921302857731,0.5483091504111292
nlwiki,True,29.0,0.3779053316625571,0.9998288879857977,0.3812024089991718,0.9914448424253356,0.5484957289026564
nlwiki,True,30.0,0.3780797541049907,0.9997647209804719,0.3816768113727918,0.9906460174710748,0.5486697616546251
nlwiki,True,31.0,0.37826551422744487,0.9997219429769213,0.38217533590100267,0.9898214239699024,0.5488588925356834
nlwiki,True,32.0,0.37849941288415595,0.999700553975146,0.38279447120216775,0.9888164506403484,0.5491018456513822
nlwiki,True,33.0,0.37872943845717527,0.999700553975146,0.38339752506693897,0.9878501301311619,0.5493438644123575
nlwiki,True,34.0,0.37894267412632776,0.9996149979680449,0.38397645677711933,0.9868709253485196,0.5495552171586814
nlwiki,True,35.0,0.3791959105846079,0.9995936089662696,0.38464383638746613,0.9857886463782307,0.5498182331556841
nlwiki,True,36.0,0.3794228926814218,0.999550830962719,0.38524689025223735,0.9847965573221326,0.5500503180927383
nlwiki,True,37.0,0.37967566864905267,0.999550830962719,0.38590622914438716,0.9837400468987554,0.5503158911191319
nlwiki,True,38.0,0.37989008487528864,0.9994652749556178,0.3864851608545675,0.982760842116113,0.5505281078247142
nlwiki,True,39.0,0.3801179581045353,0.9994224969520672,0.38708821471933874,0.981768753060015,0.5507608529096288
nlwiki,True,40.0,0.3803453244437932,0.9993369409449661,0.3876993093023069,0.9807380111835493,0.5509864735780746
nlwiki,True,41.0,0.3805594473950018,0.9992727739396402,0.38827020029429027,0.9797845749478187,0.5512013544364281
nlwiki,True,42.0,0.38078236699027546,0.9991658289307638,0.3888732541590615,0.9787538330713531,0.551418858303036
nlwiki,True,43.0,0.3809974387000995,0.9990374949201121,0.3894602265874388,0.9777359754683433,0.5516247704417557
nlwiki,True,44.0,0.38121785976654965,0.9989305499112356,0.390055239734013,0.9767181178653336,0.5518394451238605
nlwiki,True,45.0,0.3814774880742338,0.9989091609094604,0.3907306600625568,0.9756229546215889,0.5521081470885522
nlwiki,True,46.0,0.38180153220993074,0.9988022159005839,0.3915910169096304,0.974179915994537,0.5524310895540044
nlwiki,True,47.0,0.3821375082863433,0.9987166598934828,0.39247549591129477,0.9727111088205737,0.5527695895632821
nlwiki,True,48.0,0.3824269084891827,0.9985241588775052,0.39326348629459584,0.9713324915608009,0.5530427777711965
nlwiki,True,49.0,0.38277982779827796,0.9984386028704041,0.394188168887245,0.9697992630195583,0.5533985761960368
nlwiki,True,50.0,0.38319990146569777,0.9981819348491006,0.3953219101530149,0.9678279691808179,0.5537979565439249
nlwiki,True,51.0,0.38356434666798206,0.9979252668277971,0.3963109184912396,0.9660885922642822,0.5541388791562495
nlwiki,True,52.0,0.3839416539075748,0.9976258208029432,0.39734013042044913,0.9642590254335558,0.5544862840669302
nlwiki,True,53.0,0.38442892595371386,0.9973049857763138,0.39865076748655187,0.9619656247584198,0.5549445971840373
nlwiki,True,54.0,0.3849469824596175,0.9970269287532351,0.40002573029823024,0.9595949184425491,0.5554410319044356
nlwiki,True,55.0,0.38554824833519463,0.9968772057408081,0.4015775889102415,0.9570180637513851,0.5560433791861035
nlwiki,True,56.0,0.3860090964070021,0.9965991487177294,0.4027997780761778,0.9548921586311748,0.5564791592021976
nlwiki,True,57.0,0.38644264675378553,0.9962141466857741,0.4039737229329324,0.9527791377844204,0.5568694030296871
nlwiki,True,58.0,0.38703081884371154,0.9960002566680213,0.40549341867215577,0.9502151673667122,0.557446324572482
nlwiki,True,59.0,0.38759296118324077,0.9954655316236392,0.4070131144113792,0.9474579328471667,0.5579452136905833
nlwiki,True,60.0,0.38815783984045793,0.9949735845828075,0.4085247694324057,0.9447393511479888,0.5584527839804077
nlwiki,True,61.0,0.38880339878901415,0.9943746925330995,0.41025352384474983,0.9416084726982246,0.5590260033067789
nlwiki,True,62.0,0.3894271872328299,0.9937544114816161,0.4119259932297153,0.9385548998891953,0.5595722002420827
nlwiki,True,63.0,0.39020393758350347,0.9932410754390093,0.41394421349714955,0.9350117246888447,0.5602919884169884
nlwiki,True,64.0,0.3910182415638033,0.9926207943875259,0.4160669631011442,0.9312366325662896,0.561031927368561
nlwiki,True,65.0,0.3918567105641303,0.9915727333005369,0.41832640491448697,0.9269848223258691,0.5617264129796011
nlwiki,True,66.0,0.3928056455580247,0.9905460612153231,0.42083510899193516,0.9223464838817739,0.5625353019416827
nlwiki,True,67.0,0.3937167425822655,0.9891129980963789,0.4233196909147925,0.9175019970623857,0.5632368703108253
nlwiki,True,68.0,0.39485837438423643,0.9875302119650076,0.4263671231114363,0.9116654211868993,0.5641461134768238
nlwiki,True,69.0,0.3961454814279943,0.985690757812333,0.4297844283451398,0.9050815574509753,0.56515660641142
nlwiki,True,70.0,0.3975926534424018,0.983466301627703,0.43361985092508465,0.897595794573144,0.5662596444559388
nlwiki,True,71.0,0.3992929477634684,0.9808140654075674,0.4380824495243915,0.8888473728966424,0.5675388004653581
nlwiki,True,72.0,0.40136060393258427,0.9779693281714542,0.44336520137978724,0.8786687968665446,0.5691435399849384
nlwiki,True,73.0,0.4035078394897688,0.9743118088678802,0.4488972154992884,0.8676012059679955,0.5706733148337227
nlwiki,True,74.0,0.40600891402795924,0.9703120655359014,0.4551850571293028,0.855116344989306,0.5724759759475541
nlwiki,True,75.0,0.40903862699814336,0.9660128761790687,0.46255839571590535,0.8407117272656995,0.574722589840171
nlwiki,True,76.0,0.4123130901208715,0.9601736786944153,0.47054282888547605,0.8244002370706316,0.5768976219085131
nlwiki,True,77.0,0.4163927997908653,0.9539280901760315,0.48006303923066407,0.8053830494498415,0.5797310559531005
nlwiki,True,78.0,0.4213916667459585,0.9472547216221419,0.4912155153698328,0.7834926688484036,0.5832993085281528
nlwiki,True,79.0,0.4266376436977076,0.939062733942207,0.5026654980822887,0.7602107867137372,0.5867165575304023
nlwiki,True,80.0,0.4327293735619017,0.9292024041237995,0.5154663214518321,0.7337593733089391,0.5904747665583843
nlwiki,True,81.0,0.44027380696199286,0.9189784612752123,0.5303416501161884,0.7037647847037906,0.5953304697242621
nlwiki,True,82.0,0.4479716881470526,0.9070006202810514,0.5448712278980758,0.673267709433865,0.5997326978424897
nlwiki,True,83.0,0.4567875534129506,0.8917288730134965,0.5606471170004905,0.6387893936660912,0.6041167051868167
nlwiki,True,84.0,0.46715403624382207,0.8733771094903001,0.5779024982511438,0.6000850362048085,0.6087163929905114
nlwiki,True,85.0,0.47817898272552783,0.852586999764721,0.5948201693375252,0.5604530110547066,0.6127135643632843
nlwiki,True,86.0,0.4899172338618705,0.8267490856201741,0.6112795194866806,0.518514700956013,0.6152487067250298
nlwiki,True,87.0,0.5018295307791649,0.7978953222253118,0.6262593774875972,0.4771304146159198,0.616141846080156
nlwiki,True,88.0,0.5161802030456852,0.7655979295446281,0.6421156737719813,0.43226737444275515,0.6166223072086272
nlwiki,True,89.0,0.5325240673417484,0.7300066305905504,0.6575940563011088,0.3860257170098178,0.6158204323192956
nlwiki,True,90.0,0.5502996062318096,0.6875066840630548,0.6713195622633014,0.3384312108640194,0.6112986506661088
nlwiki,True,91.0,0.5734349147716341,0.6375205869142088,0.6854551448535383,0.28567011106243717,0.6037819934974831
nlwiki,True,92.0,0.5991018891297616,0.5792783350801018,0.6961171371826932,0.23350168783982272,0.5890233691101471
nlwiki,True,93.0,0.6310593628715063,0.5181913460098817,0.7049860493539283,0.18249284922823203,0.5690829653293243
nlwiki,True,94.0,0.6651833617370447,0.4508159904177272,0.7082425402236928,0.13668925709279253,0.5374112367572252
nlwiki,True,95.0,0.7016741559629379,0.3774089363249417,0.7056293068096843,0.09665781946556033,0.4908205841446453
nlwiki,True,96.0,0.7428571428571429,0.30530661134044873,0.6991163250701553,0.06366119514520577,0.43275527528498664
nlwiki,True,97.0,0.7969149791651436,0.2331615083524052,0.6893870560518466,0.03579251166026748,0.36076912893831087
nlwiki,True,98.0,0.8801632451150136,0.15222552563471864,0.6735066376128716,0.012484860978689411,0.2595598023304582
nlwiki,True,99.0,0.9423805913570887,0.07975958762004577,0.6522228565455467,0.00293761434792692,0.14707158351409977
nlwiki,False,0.0,0.02443363432437613,1.0,0.02443363432437613,1.0,0.04770174173457385
nlwiki,False,1.0,0.024455989072591142,0.9999151895513527,0.025428303519160332,0.9989782946016358,0.047744246342493094
nlwiki,False,2.0,0.025303084142148154,0.9994911373081163,0.05926156173424719,0.9642870418654939,0.049356656814181714
nlwiki,False,3.0,0.027596450997219135,0.9981765753540837,0.14056851561164385,0.8809107834526207,0.05370804308690623
nlwiki,False,4.0,0.02874980088468466,0.9949537783054873,0.17860425117469395,0.8418417036353383,0.05588477679911206
nlwiki,False,5.0,0.029791949101697034,0.9896531252650327,0.2122717311906501,0.8071982437712611,0.05784263670025825
nlwiki,False,6.0,0.030960831283698795,0.9832499363921635,0.24765501556760902,0.7707683925557822,0.060031378803255944
nlwiki,False,7.0,0.032134691564468985,0.9762530743787635,0.280978505820369,0.7364350553282148,0.06222128529034978
nlwiki,False,8.0,0.03337612323491656,0.9680264608599779,0.3142087458361179,0.702166503993891,0.06452743574957884
nlwiki,False,9.0,0.03467535632557405,0.9593333898736325,0.34646193059074026,0.6688877961432215,0.06693145760756207
nlwiki,False,10.0,0.036032847801433274,0.9498770248494615,0.37787897155349714,0.6364470566494222,0.0694318521721476
nlwiki,False,11.0,0.037496829610591635,0.9403782546009668,0.4087520528003564,0.6045628385992228,0.07211801129120378
nlwiki,False,12.0,0.038852174591106695,0.9296497328470867,0.43635101461438436,0.5760039423809135,0.0745871814020267
nlwiki,False,13.0,0.04019882170105074,0.9180731066067339,0.46240720306275224,0.5490052179195657,0.0770250197899156
nlwiki,False,14.0,0.04155063783447418,0.9060724281231448,0.4870325184298732,0.5234625829604604,0.07945751568362767
nlwiki,False,15.0,0.04278091184841451,0.8917394623017556,0.5098404902890239,0.49972439443775934,0.08164493441499575
nlwiki,False,16.0,0.04411045683552645,0.879908404715461,0.531166819493444,0.4775676189484931,0.08400945764303874
nlwiki,False,17.0,0.04544273522494854,0.8677381053345772,0.5514052292660688,0.4565175139634841,0.08636272513373498
nlwiki,False,18.0,0.04688712247562148,0.8559494529726063,0.5713452382802584,0.4357828419341032,0.0889042556002854
nlwiki,False,19.0,0.04827150749802683,0.8428886438809261,0.5901102943081091,0.41622068836604664,0.09131356564842187
nlwiki,False,20.0,0.049663870454886,0.8292341616487151,0.6081220956436597,0.39741578630426216,0.0937150305873783
nlwiki,False,21.0,0.05115488769712738,0.8170638622678313,0.6252314419076926,0.37957311406671673,0.09628174954152736
nlwiki,False,22.0,0.05268171038527545,0.8044695106437113,0.64176781727098,0.3623071424854205,0.09888763787243803
nlwiki,False,23.0,0.05417512789897071,0.7907726231871767,0.657561299079413,0.34577505700627575,0.10140321208051135
nlwiki,False,24.0,0.05581969030917437,0.7791535917225002,0.6725870206031218,0.33008200194782505,0.10417605719647682
nlwiki,False,25.0,0.05730312082883112,0.7646085997794928,0.6869071486667806,0.31503892994945637,0.10661597317896654
nlwiki,False,26.0,0.0588399571782886,0.7504876600797218,0.7005962834599982,0.30065327545793535,0.10912431712520503
nlwiki,False,27.0,0.06043672926545647,0.7361122890340089,0.7139393562625305,0.28661597790057597,0.11170240148258732
nlwiki,False,28.0,0.06217567419625589,0.7225002120261216,0.726946728211823,0.2729419061709094,0.11449807131432872
nlwiki,False,29.0,0.06394361023097764,0.7085912984479688,0.739431898833854,0.25979568016160365,0.1173018469249507
nlwiki,False,30.0,0.06572852865388167,0.6944279535238741,0.7513575680338187,0.24721659623413408,0.12009034642574289
nlwiki,False,31.0,0.0674963150136871,0.679628530234925,0.7627527469965653,0.2351653580270253,0.12279720494039045
nlwiki,False,32.0,0.06944204831482047,0.6656772114324485,0.7738733558170016,0.22341680800966054,0.1257645979626744
nlwiki,False,33.0,0.07137280053540057,0.6512170299380884,0.784453113262774,0.21220991054236413,0.12864610384170755
nlwiki,False,34.0,0.07342761680665691,0.6365024170977864,0.7948691647369048,0.20116444677626458,0.13166608918381936
nlwiki,False,35.0,0.07557849603882517,0.6233992027817827,0.804492589196442,0.19097182026056675,0.1348128109310163
nlwiki,False,36.0,0.0775787563199516,0.6090238317360699,0.8135140315703858,0.18136439091170745,0.1376263715202913
nlwiki,False,37.0,0.0799376606830023,0.5959630226443898,0.8225282211481176,0.17179731998814737,0.14096713040512754
nlwiki,False,38.0,0.08239693651648418,0.5839623441608006,0.8309373202990225,0.16287704593319832,0.14441671211040732
nlwiki,False,39.0,0.08476476627802239,0.5706471037231787,0.8389620212506929,0.15431787357829482,0.14760418780403534
nlwiki,False,40.0,0.08731149107901444,0.5577983207531167,0.8467276937662217,0.14603589988136748,0.15098887728279708
nlwiki,False,41.0,0.08968105327891765,0.5441862437452294,0.8538955286511353,0.13834761986186797,0.1539855289840291
nlwiki,False,42.0,0.09224361851642005,0.5315918921211094,0.8607349154790213,0.1310215036062377,0.15720797827981667
nlwiki,False,43.0,0.09491457068180584,0.5189551352726656,0.8673328878044232,0.12394178615769737,0.16047836662973136
nlwiki,False,44.0,0.09767339233616906,0.5068272411161056,0.8735474980443353,0.11726777708979644,0.1637832393507321
nlwiki,False,45.0,0.10042251460730237,0.49486896785684,0.8793435183314424,0.11102709006195018,0.16696353842522052
nlwiki,False,46.0,0.10325820898228565,0.4829955050462217,0.8848794740686633,0.10505510518149078,0.17014220841300193
nlwiki,False,47.0,0.10647444899830902,0.47260622508693073,0.8902082070569707,0.09933270529959227,0.17379439398074148
nlwiki,False,48.0,0.10943878063984235,0.4615808667627852,0.895068616632734,0.09407442730863469,0.1769285783947206
nlwiki,False,49.0,0.11215052058559273,0.4499194300737851,0.8995311585305835,0.0892080508686089,0.1795459737534585
nlwiki,False,50.0,0.11489475205050123,0.4383852090577559,0.90376161094965,0.08458276291655471,0.182071151814019
nlwiki,False,51.0,0.11787787133164392,0.4280383343227886,0.9077599738899337,0.08022511504806369,0.18484978894453954
nlwiki,False,52.0,0.12129010121804769,0.41972691035535575,0.9115241751239451,0.07615847266725646,0.18819637220975777
nlwiki,False,53.0,0.12468670873873758,0.41137308116359933,0.9150562868791736,0.07232867051912617,0.19136953198204862
nlwiki,False,54.0,0.1279119872882497,0.40280722585022477,0.9183065756958799,0.06878243941191402,0.1941662237848003
nlwiki,False,55.0,0.13157448731710072,0.39504706979899923,0.9215102393940807,0.06530418038941632,0.19740215709956987
nlwiki,False,56.0,0.13506508893265998,0.38673564583156644,0.9245035720021344,0.062027713493414675,0.20020855057351408
nlwiki,False,57.0,0.1384171142919241,0.37808498006954455,0.9273021152262095,0.05894241808567244,0.20264557479885448
nlwiki,False,58.0,0.14247017933195177,0.3702400135696718,0.9301628252749586,0.05581357806116001,0.20576209273552112
nlwiki,False,59.0,0.1458964484381686,0.361462132134679,0.9326950872666802,0.052998046864628286,0.2078846927701294
nlwiki,False,60.0,0.14981118503866211,0.3532779238402171,0.9352118075522331,0.050213315518982796,0.21040004040812202
nlwiki,False,61.0,0.15424727932285368,0.3461962513781698,0.9376446026244761,0.047542225002469296,0.2134100117631682
nlwiki,False,62.0,0.15862533959981756,0.33919938936476973,0.9398940055639308,0.04506124391039155,0.2161628991068654
nlwiki,False,63.0,0.16332270766922932,0.3324145534729879,0.942080205564967,0.04265035903067559,0.21903072130094023
nlwiki,False,64.0,0.16788912486589452,0.325163260113646,0.9441337830066985,0.04036373561832825,0.22144249512670566
nlwiki,False,65.0,0.17282133823867557,0.31871766601645324,0.9460806407327397,0.03820668399246784,0.22411736641221375
nlwiki,False,66.0,0.1782659127156735,0.31282333983546773,0.947976728885297,0.03611548032367457,0.22711039960593563
nlwiki,False,67.0,0.18336046393325872,0.30569926214909676,0.9497692056633977,0.034099683186361404,0.2292282743489459
nlwiki,False,68.0,0.18887610690494663,0.2993808837248749,0.9514673960907428,0.03220071306965121,0.2316234969898788
nlwiki,False,69.0,0.19444600754037478,0.29306250530065303,0.9530619751436312,0.030407949335307355,0.23377985251336172
nlwiki,False,70.0,0.1999467045656422,0.28636247985751845,0.9545664123007424,0.02869802657920925,0.23547667201339006
nlwiki,False,71.0,0.20562379200698297,0.2797048596387075,0.9559983214957338,0.027063510354591248,0.23701042040962988
nlwiki,False,72.0,0.21111987900309068,0.27228394538207107,0.9573597749560947,0.025482097321156416,0.23783243203200238
nlwiki,False,73.0,0.21726593712002779,0.26520227292002374,0.9587015422553088,0.0239293600109605,0.23885271258617066
nlwiki,False,74.0,0.22383784974664023,0.25850224747688916,0.9599811427298489,0.022449905104597354,0.23992443324937027
nlwiki,False,75.0,0.23050374219567998,0.2520566533796964,0.9611654207398889,0.021074532452953227,0.2407988818894448
nlwiki,False,76.0,0.23737311470020137,0.2449325756933254,0.9623237959063146,0.01970871837572207,0.2410936032557654
nlwiki,False,77.0,0.24419870259915538,0.23785090323127808,0.9633909930632185,0.01843742797879696,0.24098300788382637
nlwiki,False,78.0,0.25144228550329994,0.23102366211517258,0.9644063845328941,0.017225613155996997,0.24080090167738516
nlwiki,False,79.0,0.25977859778597784,0.22389958442880162,0.9654487149599283,0.015978750227016142,0.24050834718837544
nlwiki,False,80.0,0.26938710869450455,0.21639385972351793,0.966513839889343,0.014698963319501723,0.24
nlwiki,False,81.0,0.2782859078590786,0.20901535069120517,0.9674287283257956,0.013576361857889487,0.23872717586089992
nlwiki,False,82.0,0.2881652872591071,0.20227292002374692,0.9683000999849763,0.012514298034226068,0.23769777002616171
nlwiki,False,83.0,0.29890596509507683,0.19463997964549232,0.9691673271891789,0.011434179125560372,0.23575941239919873
nlwiki,False,84.0,0.3113406408094435,0.1878975489780341,0.9700024348672998,0.010409287535725172,0.23435764531654946
nlwiki,False,85.0,0.3243781094527363,0.17971334068357223,0.9708116397018065,0.009374837371477002,0.23128769067045052
nlwiki,False,86.0,0.3399798927613941,0.17208040030531763,0.9716084111713784,0.008366938802820417,0.22850385719916663
nlwiki,False,87.0,0.35714945075233084,0.16406581290815028,0.9723595936361894,0.0073962124679920515,0.22484381810257156
nlwiki,False,88.0,0.3762285012285012,0.15583919938936477,0.9730610426412611,0.006471154877581213,0.22038980509745126
nlwiki,False,89.0,0.39242822829692325,0.14549232465439743,0.9736174357220936,0.005641683031300083,0.2122815158546017
nlwiki,False,90.0,0.41458683563946724,0.13595114918157916,0.974197659419051,0.004807962929724299,0.20475810314545745
nlwiki,False,91.0,0.4384478144513827,0.12505300653040455,0.9747084634951225,0.0040114150619767345,0.1946020852580177
nlwiki,False,92.0,0.46631944444444445,0.1139004325332881,0.9751643535427319,0.0032647841939413506,0.18308227114716105
nlwiki,False,93.0,0.4996863892954213,0.10134848613349165,0.9755632573343902,0.002541518730026562,0.1685175392208708
nlwiki,False,94.0,0.5433766233766234,0.08871172928504792,0.9759124276663093,0.001867108202000291,0.152522601341499
nlwiki,False,95.0,0.5908788282290279,0.07526927317445509,0.9761320837801574,0.0013052764392823422,0.1335289249981193
nlwiki,False,96.0,0.6570114942528735,0.060597065558476805,0.976274031363163,0.0007922996124529108,0.110960127344023
nlwiki,False,97.0,0.7395973154362416,0.04673055720464761,0.9763061508892447,0.00041208076358140665,0.08790682833439695
nlwiki,False,98.0,0.795429815016322,0.030998218980578408,0.9761289754389237,0.0001996679988487228,0.05967103383535366
nlwiki,False,99.0,0.8804347826086957,0.01717411585107285,0.9759290054862223,5.8413510301488055e-05,0.03369104067881208
