wiki_db,user_is_anonymous,threshold,precision,recall,accuracy,fpr,F1
nowiki,True,0.0,0.40065791682051627,1.0,0.40065791682051627,1.0,0.5720995997795193
nowiki,True,1.0,0.40065791682051627,1.0,0.40065791682051627,1.0,0.5720995997795193
nowiki,True,2.0,0.40065791682051627,1.0,0.40065791682051627,1.0,0.5720995997795193
nowiki,True,3.0,0.40065791682051627,1.0,0.40065791682051627,1.0,0.5720995997795193
nowiki,True,4.0,0.40065791682051627,1.0,0.40065791682051627,1.0,0.5720995997795193
nowiki,True,5.0,0.40065791682051627,1.0,0.40065791682051627,1.0,0.5720995997795193
nowiki,True,6.0,0.40065791682051627,1.0,0.40065791682051627,1.0,0.5720995997795193
nowiki,True,7.0,0.40065791682051627,1.0,0.40065791682051627,1.0,0.5720995997795193
nowiki,True,8.0,0.40065791682051627,1.0,0.40065791682051627,1.0,0.5720995997795193
nowiki,True,9.0,0.4006713662302786,1.0,0.40069148400523646,0.9999439932791935,0.5721133106456406
nowiki,True,10.0,0.40072517290002013,1.0,0.40082575274411736,0.9997199663959675,0.5721681606826134
nowiki,True,11.0,0.4007789940232355,1.0,0.4009600214829982,0.9994959395127415,0.572223021237835
nowiki,True,12.0,0.40085975282106395,1.0,0.40116142459131954,0.9991598991879026,0.5723053317990027
nowiki,True,13.0,0.40098095206100715,1.0,0.40146352925380147,0.9986558387006441,0.5724288420497327
nowiki,True,14.0,0.4010752688172043,1.0,0.401698499546843,0.9982637916549986,0.5725249424405219
nowiki,True,15.0,0.40110222461186906,1.0,0.40176563391628345,0.9981517782133856,0.572552405621912
nowiki,True,16.0,0.4012505462735738,1.0,0.4021348729482058,0.9975357042845141,0.5727035002279107
nowiki,True,17.0,0.40135848549043346,1.0,0.40240341042596756,0.9970876505180621,0.5728134373125375
nowiki,True,18.0,0.4014259769960315,1.0,0.40257124634956865,0.9968076169140296,0.5728821694264459
nowiki,True,19.0,0.40145297995425805,1.0,0.4026383807190091,0.9966956034724167,0.5729096668906595
nowiki,True,20.0,0.40158804925644304,1.0,0.40297405256621127,0.9961355362643517,0.5730471938163139
nowiki,True,21.0,0.40179082371158314,1.0,0.40347756033701454,0.9952954354522543,0.5732536080493721
nowiki,True,22.0,0.4020885969344787,1.0,0.40421603840085935,0.9940632875945113,0.5735566180533864
nowiki,True,23.0,0.4024275118004046,1.0,0.40505521801886474,0.9926631195743489,0.5739013366669872
nowiki,True,24.0,0.4026789027969905,0.9999162198391421,0.4056929945285489,0.991542985158219,0.5741431148526759
nowiki,True,25.0,0.40293720459149224,0.9999162198391421,0.406330771038233,0.9904788574628955,0.5744056213302532
nowiki,True,26.0,0.40326450609982767,0.9997486595174263,0.40716995065623846,0.9889666760011201,0.5747104293592121
nowiki,True,27.0,0.4035099584080073,0.9997486595174263,0.40777415998120237,0.9879585550266032,0.5749596473054036
nowiki,True,28.0,0.40381751726005144,0.9996648793565683,0.40854620522976737,0.9866143937272472,0.575257930768489
nowiki,True,29.0,0.4040434826780453,0.9995810991957105,0.4091168473700111,0.9856062727527303,0.5754732907271192
nowiki,True,30.0,0.4042632506438932,0.9994135388739946,0.4096874895102548,0.9845421450574069,0.5756683717787858
nowiki,True,31.0,0.4044075266994406,0.9993297587131368,0.4100567285421772,0.983870064407729,0.5758007289227873
nowiki,True,32.0,0.40479180099772627,0.9993297587131368,0.41099660971434326,0.982301876225147,0.5761901311499167
nowiki,True,33.0,0.4050117143730264,0.9993297587131368,0.41153368466986673,0.981405768692243,0.5764128832725252
nowiki,True,34.0,0.4053153887982599,0.999162198391421,0.41230572991843173,0.9800056006720806,0.5766924564796906
nowiki,True,35.0,0.4056048702513349,0.999162198391421,0.4130106407975563,0.9788294595351442,0.5769854132901135
nowiki,True,36.0,0.4058118960119777,0.999162198391421,0.41351414856835955,0.9779893587230468,0.5771948504501017
nowiki,True,37.0,0.40610952186350635,0.999078418230563,0.41425262663220436,0.9767012041444973,0.5774818401937045
nowiki,True,38.0,0.40648328049902854,0.999078418230563,0.41515894061965025,0.9751890226827219,0.5778596176677246
nowiki,True,39.0,0.40682360968952574,0.9989946380697051,0.41599812023765564,0.973732847941753,0.5781894001842602
nowiki,True,40.0,0.4073593221497147,0.9989108579088471,0.41730724044174416,0.9714925791094932,0.5787161752214537
nowiki,True,41.0,0.40779256319912427,0.9987432975871313,0.4183813903527911,0.9695883506020723,0.5791250698340985
nowiki,True,42.0,0.40828138913624223,0.9987432975871313,0.4195562418179987,0.9676281153738449,0.5796178343949044
nowiki,True,43.0,0.4087511144640285,0.9986595174262735,0.4206975260984861,0.9656678801456174,0.5800768893863448
nowiki,True,44.0,0.4092282340016479,0.9986595174262735,0.4218388103789735,0.9637636516381966,0.5805571790375998
nowiki,True,45.0,0.4096861788058983,0.9985757372654156,0.4229465274747407,0.9618594231307757,0.5810036803236734
nowiki,True,46.0,0.41028201508212525,0.9982406166219839,0.42442348360243026,0.9591711005320639,0.581545745174122
nowiki,True,47.0,0.410912602607436,0.998156836461126,0.42593400691484007,0.956594791374965,0.5821646713901782
nowiki,True,48.0,0.41140705427159985,0.9977379356568364,0.4271759927494881,0.9542425091010921,0.5825893403125993
nowiki,True,49.0,0.41197024736204807,0.9976541554959786,0.4285186801382968,0.9519462335480258,0.5831394921769789
nowiki,True,50.0,0.4128640776699029,0.9975703753351206,0.4306334127756705,0.94836180341641,0.5840200117716304
nowiki,True,51.0,0.41357510073641796,0.9974865951742627,0.43231177201168136,0.9455054606552786,0.5847166290148315
nowiki,True,52.0,0.414179364085438,0.9974865951742627,0.4337215937699305,0.9431531783814058,0.5853202890713338
nowiki,True,53.0,0.4147412441191845,0.9970676943699732,0.43509784834345944,0.9405768692243069,0.5858088651522237
nowiki,True,54.0,0.41561888795753005,0.9969839142091153,0.4371454466113927,0.9371044525343041,0.5866692959968448
nowiki,True,55.0,0.4162642592203793,0.9966487935656837,0.4386895371085227,0.9343041164939793,0.5872537888137435
nowiki,True,56.0,0.41707873049272315,0.9963974530831099,0.4406028666375751,0.9309437132455894,0.5880200736693778
nowiki,True,57.0,0.4176970633693972,0.9962298927613941,0.44204625558054444,0.9284234108092971,0.5886050886050886
nowiki,True,58.0,0.4185473365489561,0.9959785522788204,0.44402671947903727,0.9249509941192943,0.5894047943677334
nowiki,True,59.0,0.4190943076814559,0.9955596514745308,0.4453358396831258,0.9224866984038085,0.589873417721519
nowiki,True,60.0,0.41966935142009326,0.9953083109919572,0.44667852707193445,0.9200784094091291,0.5903985687307425
nowiki,True,61.0,0.4204299932702865,0.994470509383378,0.44852472223154644,0.9164379725567068,0.591003012273146
nowiki,True,62.0,0.42133295458580405,0.9941353887399463,0.4506058876841999,0.912741528983478,0.5918352078605451
nowiki,True,63.0,0.4221692236500196,0.993632707774799,0.45255278439797253,0.9091570988518622,0.5925703864698094
nowiki,True,64.0,0.4230700596024127,0.9931300268096515,0.45463394985062605,0.9053486418370205,0.5933675384807909
nowiki,True,65.0,0.4238531453517498,0.9923760053619303,0.456480145010238,0.9017642117054047,0.5940023068050749
nowiki,True,66.0,0.42490487472180344,0.991705764075067,0.4588969823100936,0.8972836740408849,0.5949138061014223
nowiki,True,67.0,0.4263269792079565,0.9912030831099196,0.46208586485851433,0.8916269952394287,0.5962153853906822
nowiki,True,68.0,0.42750135697485075,0.9897788203753352,0.46483837400557215,0.8860823298795856,0.5971039397538602
nowiki,True,69.0,0.4287167562854236,0.9886058981233244,0.46762445033735023,0.8806496779613554,0.5980739989863153
nowiki,True,70.0,0.43035616438356167,0.9870140750670241,0.47135040784129434,0.8733688042565108,0.5993742209559665
nowiki,True,71.0,0.4324185311730776,0.9860924932975871,0.4758484105938035,0.8652478297395687,0.6012003575533137
nowiki,True,72.0,0.43477295436882424,0.9842493297587132,0.481017757040717,0.8553906468776253,0.6031265241163334
nowiki,True,73.0,0.437273711320966,0.9814845844504021,0.4865227753348327,0.8443573228787454,0.6050042605933844
nowiki,True,74.0,0.4397107017742118,0.97796581769437,0.4918935248900675,0.8330439652758331,0.6066574851233012
nowiki,True,75.0,0.44335632359105287,0.9747821715817694,0.49954684300627705,0.8181461775413049,0.6094973676628513
nowiki,True,76.0,0.4467428218585983,0.9698391420911529,0.5066966533516833,0.8029123494819378,0.611709997886282
nowiki,True,77.0,0.45086999022482893,0.9660690348525469,0.5149877479775771,0.7865583870064408,0.6148063234784463
nowiki,True,78.0,0.45459952418715305,0.9605395442359249,0.5224732301701857,0.7703724446933632,0.6171277855528043
nowiki,True,79.0,0.459677093027961,0.9517426273458445,0.5324426840320903,0.7478577429291515,0.6199350596196349
nowiki,True,80.0,0.465011380095179,0.9414376675603218,0.5425799738175959,0.7240548865863904,0.6225312318218332
nowiki,True,81.0,0.4715371227236066,0.9306300268096515,0.5543284884696721,0.6972276673200785,0.6259262389766996
nowiki,True,82.0,0.47827228567677565,0.9156333780160858,0.5660098687523077,0.6677121254550547,0.6283381723057464
nowiki,True,83.0,0.48515790900465366,0.8996313672922251,0.5772884428183008,0.6381965835900308,0.6303677830285597
nowiki,True,84.0,0.49283936704700193,0.8793565683646113,0.5891040918398174,0.6049285914309717,0.6316613005145488
nowiki,True,85.0,0.5013052258286953,0.8527144772117963,0.6011211439696552,0.5670680481657799,0.6314091628152239
nowiki,True,86.0,0.5107090871283011,0.8230563002680965,0.6131717632842133,0.5271352562307476,0.6303092518927241
nowiki,True,87.0,0.521119733924612,0.787617292225201,0.6249202779362895,0.4838420610473257,0.6272351214304778
nowiki,True,88.0,0.5310835876263986,0.743632707774799,0.6342183881037897,0.43892467096051524,0.619637683688785
nowiki,True,89.0,0.5412784257509611,0.6959617962466488,0.6418717062199993,0.39428731447773735,0.6089506285965619
nowiki,True,90.0,0.5561416184971099,0.6448558981233244,0.6515054882347018,0.3440492859143097,0.5972222222222223
nowiki,True,91.0,0.5729268292682926,0.5903987935656837,0.659561612567554,0.2942033043965276,0.5815316058755571
nowiki,True,92.0,0.5921777279940259,0.5315013404825737,0.6656372730019133,0.24469336320358442,0.5602013333922027
nowiki,True,93.0,0.614827018121911,0.46900134048257375,0.6695310664294586,0.1964155698683842,0.5321039874530678
nowiki,True,94.0,0.6465632522064724,0.4050770777479893,0.6729213520862005,0.14802576309157098,0.498094158854435
nowiki,True,95.0,0.6871000336813742,0.3418230563002681,0.6739283676278071,0.10406048725847102,0.4565290365894595
nowiki,True,96.0,0.7365579302587176,0.27429624664879354,0.6699338726461012,0.06558387006440773,0.39973139612966235
nowiki,True,97.0,0.8008849557522124,0.212298927613941,0.6632540028867779,0.03528423410809297,0.33562913907284764
nowiki,True,98.0,0.868766404199475,0.13865616621983914,0.6465039777113893,0.014001680201624195,0.2391445704790116
nowiki,True,99.0,0.9461678832116789,0.08688002680965147,0.6321707898358565,0.00330439652758331,0.15914671577655004
nowiki,False,0.0,0.022398749503517022,1.0,0.022398749503517022,1.0,0.04381607374694852
nowiki,False,1.0,0.0224345231829397,0.9996567898409793,0.024320619098258785,0.9980262330145949,0.04388418752981946
nowiki,False,2.0,0.022875191173114304,0.997597528886855,0.04547143461159015,0.9763436294245932,0.044724829460942715
nowiki,False,3.0,0.023627118921618662,0.9903901155474202,0.08306832887032506,0.9377201811776548,0.04615318999205634
nowiki,False,4.0,0.024949567556287244,0.9847843496167487,0.13761611295468232,0.8817941620533467,0.048666174803608124
nowiki,False,5.0,0.02649256734585214,0.9790641802997369,0.19368858025086805,0.8243059050494883,0.05158917941375933
nowiki,False,6.0,0.027973636309871926,0.9740304313007665,0.24132019628694795,0.7754676228820667,0.054385354153159225
nowiki,False,7.0,0.02943031468762958,0.9662510010296305,0.28549500954528567,0.7301024366716994,0.05712082888098362
nowiki,False,8.0,0.030874886706113817,0.9587003775311749,0.3250419608194852,0.689476388189901,0.05982317184170418
nowiki,False,9.0,0.0321035759471564,0.9463448118064295,0.3597278632653846,0.6537126740479785,0.06210047033298675
nowiki,False,10.0,0.03344266591321368,0.9343324562407047,0.3936732052941101,0.6187143516188559,0.06457402648744812
nowiki,False,11.0,0.034664874621451985,0.9206040498798764,0.4239926200207562,0.5873857154839792,0.06681390579463463
nowiki,False,12.0,0.035628582553811884,0.9002402471113145,0.4519724788274033,0.5582982091930884,0.06854440055225759
nowiki,False,13.0,0.03655709219014068,0.8785036037066697,0.4786915911798998,0.5304688810602248,0.0701932393645222
nowiki,False,14.0,0.03756656575647674,0.8603134652785722,0.5031864597880819,0.5049960157691662,0.07198962277246206
nowiki,False,15.0,0.03862404462104612,0.8429241505548565,0.5265358941177978,0.48071317731924174,0.07386355092404627
nowiki,False,16.0,0.03983165075784667,0.8282805171033063,0.5489346436213148,0.45746571464519376,0.0760081047316095
nowiki,False,17.0,0.04110812711073203,0.8160393547649011,0.5695191482273956,0.43612911004864957,0.07827322656219995
nowiki,False,18.0,0.04242124141762429,0.8036837890401556,0.5892529052262041,0.41566012414024495,0.08058872790262817
nowiki,False,19.0,0.04376536305788832,0.7923578537924723,0.6075747286960755,0.3966590127495387,0.0829490879911853
nowiki,False,20.0,0.04533185138139092,0.7838920032032948,0.6253917410857281,0.37823980875692,0.08570731676808865
nowiki,False,21.0,0.04687781301499813,0.7745109255233955,0.6422273187356661,0.36080355645026,0.08840486030856823
nowiki,False,22.0,0.048528866496543,0.7636426038210731,0.6593473330856257,0.3430422747861097,0.09125833971344197
nowiki,False,23.0,0.05022695197772438,0.7532318956641116,0.6754397878255968,0.32634258094279484,0.0941741879192711
nowiki,False,24.0,0.05194773946728905,0.7409907333257064,0.6912964932286128,0.3098420986411676,0.09708897949394413
nowiki,False,25.0,0.053702876126714844,0.728635167600961,0.7063383259234584,0.2941725381647375,0.10003298308438958
nowiki,False,26.0,0.055556544968833485,0.7137627273767303,0.7218080949147331,0.2780075700385841,0.10308903594649747
nowiki,False,27.0,0.057525699573396476,0.7003775311749227,0.7362708042383631,0.26290681093776214,0.10631886977588287
nowiki,False,28.0,0.059387467497667774,0.6845898638599702,0.7500672654358159,0.2484325197114578,0.10929380930202827
nowiki,False,29.0,0.06164289848971215,0.6700606337947603,0.7641430383477047,0.23370135044455628,0.11289949496896563
nowiki,False,30.0,0.06391812408620631,0.6551881935705297,0.777355251188356,0.219845663479282,0.11647345942647953
nowiki,False,31.0,0.0663304566064093,0.6410021736643404,0.7898602160181425,0.20672915618184867,0.12022057245848174
nowiki,False,32.0,0.06880687817386495,0.6262441368264501,0.8017937449550924,0.19418407146451938,0.1239906225579578
nowiki,False,33.0,0.07149350302122881,0.6118293101475804,0.8133249625235429,0.18205837946653247,0.12802681189777965
nowiki,False,34.0,0.07458894724823019,0.5978720970140716,0.8248459301208215,0.16995365710451266,0.13263117822473194
nowiki,False,35.0,0.07777152332993564,0.5848301109712848,0.8353649630360415,0.15889479533635295,0.13728649693844666
nowiki,False,36.0,0.08091593128890189,0.5696144605880334,0.8454406846980743,0.1482395990605603,0.1417024788684293
nowiki,False,37.0,0.08406058608185714,0.5542844068184418,0.8547374085510384,0.1383786277470223,0.1459821025038416
nowiki,False,38.0,0.08745633651838025,0.5413568241619952,0.8632038847390742,0.12942197198456634,0.15058553971486763
nowiki,False,39.0,0.09110299200157994,0.5277428211875071,0.8714909864316006,0.12063307330984734,0.1553826461870116
nowiki,False,40.0,0.09489035689411368,0.5143576249856996,0.8792297146664275,0.11241035480624056,0.1602223726880724
nowiki,False,41.0,0.09836546048923459,0.49914197460244825,0.8863021947750772,0.10482721019963094,0.16434383004369446
nowiki,False,42.0,0.10146920460302526,0.4811806429470312,0.8929390511089188,0.09762676144942124,0.16759642970991395
nowiki,False,43.0,0.10488916351278288,0.4660793959501201,0.898950659201271,0.09113141670860594,0.17124122567357403
nowiki,False,44.0,0.1083646539189597,0.4518933760439309,0.9044395187638534,0.0851917673209193,0.17480970083200567
nowiki,False,45.0,0.11268720143020428,0.43988102047820615,0.9098720034849902,0.07935958731756416,0.17941299986001585
nowiki,False,46.0,0.11648543932008498,0.4264958242763986,0.9146971774141885,0.07411717832578427,0.18299177813228615
nowiki,False,47.0,0.1204931379390556,0.41482667886969454,0.9190713526118208,0.06937541939271934,0.1867435752175928
nowiki,False,48.0,0.12453308901261541,0.4043015673263929,0.9229945290778869,0.06512120449588996,0.19041461246262023
nowiki,False,49.0,0.1296448598130841,0.3967509438279373,0.9268280182961985,0.06102688307330985,0.19542982728015548
nowiki,False,50.0,0.13451886978857933,0.3894291271021622,0.9302028213045651,0.05740699966448583,0.19996475356870116
nowiki,False,51.0,0.13864984543403794,0.37970483926324217,0.933270125177773,0.05404661550075491,0.20312739067902935
nowiki,False,52.0,0.14441308757386012,0.3746710902642718,0.936273366731156,0.050859230833752725,0.2084725802858143
nowiki,False,53.0,0.14936180088187515,0.3681500972428784,0.9388845468872119,0.04803881479617514,0.21250742917519647
nowiki,False,54.0,0.15531894109602423,0.36380276856194943,0.9414342272162359,0.045331110551920815,0.21769638884134862
nowiki,False,55.0,0.16121411329669766,0.3591122297219998,0.9437942830785788,0.04280951182687469,0.22252942010491988
nowiki,False,56.0,0.16679192613270347,0.3554513213591122,0.9457904649643173,0.040683714980707934,0.22704519712083013
nowiki,False,57.0,0.17201166180758018,0.35098958929184304,0.9476200848185115,0.0387099479953028,0.2308763216314859
nowiki,False,58.0,0.17827004219409281,0.3480151012469969,0.9494650796294636,0.0367545294413689,0.2357682619647355
nowiki,False,59.0,0.18417019189504016,0.34366777256606795,0.9511998872503171,0.03488036822680758,0.2398211719623184
nowiki,False,60.0,0.18957800511508952,0.33920604049879877,0.9527194454765596,0.033223766985405134,0.24322218120667735
nowiki,False,61.0,0.19592163134746102,0.33634595584029287,0.9542159412676652,0.03162745344740815,0.24761022444940411
nowiki,False,62.0,0.20205812821582533,0.33245624070472485,0.9556406872605671,0.03008094279483308,0.2513514682350906
nowiki,False,63.0,0.2080770065860896,0.32890973572817755,0.9569296211354406,0.02868121959402785,0.2548984839081479
nowiki,False,64.0,0.21454901075754157,0.32627845784235215,0.9581544926904894,0.02736799614158698,0.2588726513569938
nowiki,False,65.0,0.2209474752204792,0.3238759867292072,0.9592768645338186,0.026164863277973495,0.26268906003526027
nowiki,False,66.0,0.22740572171651496,0.3201006749799794,0.9604120488411126,0.02491716993792988,0.26590639106676167
nowiki,False,67.0,0.23380566801619435,0.3171261869351333,0.9614267959871363,0.02381102164066432,0.26916541243870473
nowiki,False,68.0,0.24122459751913433,0.3136940853449262,0.9625261053953286,0.02260788877705083,0.27272727272727276
nowiki,False,69.0,0.24882758620689654,0.30957556343667775,0.963602352368384,0.02141261952692501,0.27589722675367045
nowiki,False,70.0,0.2568033729398237,0.3066010753918316,0.9645940370792707,0.020330062070122463,0.2795014861552902
nowiki,False,71.0,0.2642678660669665,0.3024825534835831,0.9655139719919538,0.01929468629424593,0.2820868451936413
nowiki,False,72.0,0.27320234113712377,0.29905045189337603,0.9664800317749106,0.01822785606441872,0.2855426293079906
nowiki,False,73.0,0.2827345200393142,0.29619036723487013,0.9674050916731797,0.017216071129005202,0.28930606771706335
nowiki,False,74.0,0.2928138923797555,0.293215879190024,0.9683070891363118,0.016225255829558798,0.29301474791357035
nowiki,False,75.0,0.3022866036154675,0.28886855050909505,0.9691373368012403,0.015276379802046637,0.29542529542529544
nowiki,False,76.0,0.3120230201426248,0.28532204553254775,0.9699009596535509,0.014414003522898842,0.29807577387355083
nowiki,False,77.0,0.3235447663795354,0.28360599473744424,0.9706722699842407,0.013585702902197619,0.30226178138145465
nowiki,False,78.0,0.3341530054644809,0.27983068298821645,0.9713795179951057,0.012775750712967623,0.3045887553701513
nowiki,False,79.0,0.34600487734901736,0.27594096785264843,0.9720995784699356,0.011950071296762288,0.3070264765784114
nowiki,False,80.0,0.3586446831039177,0.2712504290126988,0.9728119514663865,0.011113907062573394,0.30888483585200627
nowiki,False,81.0,0.3716475095785441,0.26633108340006867,0.9734807620853566,0.01031706089582285,0.3102965678107298
nowiki,False,82.0,0.3845503718728871,0.26026770392403614,0.9741008853412599,0.009543805569535314,0.3104318755543426
nowiki,False,83.0,0.399535216303182,0.25569156847042673,0.9747210085971634,0.008804625901694346,0.3118242064876177
nowiki,False,84.0,0.411875589066918,0.24997139915341493,0.9752053197350382,0.008178158027176648,0.31112060373059947
nowiki,False,85.0,0.4270498392282958,0.2431071959730008,0.975740880728773,0.007473054017782251,0.3098345119195159
nowiki,False,86.0,0.44417949273791457,0.2344125386111429,0.9762815667080936,0.006720768327461836,0.3068743447656133
nowiki,False,87.0,0.46406763738844525,0.2260610914083057,0.9768171277018284,0.005981588659620869,0.30402338641433957
nowiki,False,88.0,0.4835813237557722,0.21565038325134425,0.9772732514189804,0.005276484650226472,0.2982830920167735
nowiki,False,89.0,0.5070541760722348,0.2055828852534035,0.9777293751361325,0.004579244254319745,0.29255189255189257
nowiki,False,90.0,0.5284270372710044,0.19139686534721428,0.978062499199221,0.003913458312363697,0.28101116990005875
nowiki,False,91.0,0.5598413842826244,0.177668458986386,0.9784519981037554,0.0032004906894816305,0.26973512809379074
nowiki,False,92.0,0.5872305815372102,0.1651984898753003,0.9787005599046753,0.0026605225633283005,0.2578571428571429
nowiki,False,93.0,0.6193208990913438,0.1481523853106052,0.9788799344001845,0.0020864787787284013,0.23910635155096013
nowiki,False,94.0,0.6589461493920092,0.13019105365518818,0.9790080590398339,0.0015438894480791813,0.21742453190676345
nowiki,False,95.0,0.7003663003663003,0.1093696373412653,0.979002934054248,0.0010720726388189902,0.18919453789827828
nowiki,False,96.0,0.7430754536771729,0.08900583457270335,0.9789055593281144,0.000705104009394397,0.15897016755210458
nowiki,False,97.0,0.8036410923276983,0.07070129275826564,0.9787979346308089,0.00039580187887938267,0.1299684542586751
nowiki,False,98.0,0.862,0.04930785951264158,0.978528872887545,0.00018086311021640663,0.09327994805756953
nowiki,False,99.0,0.9467213114754098,0.02642718224459444,0.9781598739253546,3.4075658446569364e-05,0.051419031719532556
