wiki_db,user_is_anonymous,threshold,precision,recall,accuracy,fpr,F1
nqowiki,True,0.0,0.06976744186046512,1.0,0.06976744186046512,1.0,0.13043478260869565
nqowiki,True,1.0,0.06976744186046512,1.0,0.06976744186046512,1.0,0.13043478260869565
nqowiki,True,2.0,0.06976744186046512,1.0,0.06976744186046512,1.0,0.13043478260869565
nqowiki,True,3.0,0.06976744186046512,1.0,0.06976744186046512,1.0,0.13043478260869565
nqowiki,True,4.0,0.06976744186046512,1.0,0.06976744186046512,1.0,0.13043478260869565
nqowiki,True,5.0,0.06976744186046512,1.0,0.06976744186046512,1.0,0.13043478260869565
nqowiki,True,6.0,0.06976744186046512,1.0,0.06976744186046512,1.0,0.13043478260869565
nqowiki,True,7.0,0.06976744186046512,1.0,0.06976744186046512,1.0,0.13043478260869565
nqowiki,True,8.0,0.06976744186046512,1.0,0.06976744186046512,1.0,0.13043478260869565
nqowiki,True,9.0,0.07058823529411765,1.0,0.08139534883720931,0.9875,0.13186813186813187
nqowiki,True,10.0,0.07142857142857142,1.0,0.09302325581395349,0.975,0.13333333333333333
nqowiki,True,11.0,0.07142857142857142,1.0,0.09302325581395349,0.975,0.13333333333333333
nqowiki,True,12.0,0.07142857142857142,1.0,0.09302325581395349,0.975,0.13333333333333333
nqowiki,True,13.0,0.07142857142857142,1.0,0.09302325581395349,0.975,0.13333333333333333
nqowiki,True,14.0,0.07228915662650602,1.0,0.10465116279069768,0.9625,0.1348314606741573
nqowiki,True,15.0,0.07317073170731707,1.0,0.11627906976744186,0.95,0.13636363636363635
nqowiki,True,16.0,0.07317073170731707,1.0,0.11627906976744186,0.95,0.13636363636363635
nqowiki,True,17.0,0.07317073170731707,1.0,0.11627906976744186,0.95,0.13636363636363635
nqowiki,True,18.0,0.07317073170731707,1.0,0.11627906976744186,0.95,0.13636363636363635
nqowiki,True,19.0,0.07407407407407407,1.0,0.12790697674418605,0.9375,0.13793103448275862
nqowiki,True,20.0,0.07407407407407407,1.0,0.12790697674418605,0.9375,0.13793103448275862
nqowiki,True,21.0,0.075,1.0,0.13953488372093023,0.925,0.13953488372093023
nqowiki,True,22.0,0.07692307692307693,1.0,0.16279069767441862,0.9,0.14285714285714288
nqowiki,True,23.0,0.07692307692307693,1.0,0.16279069767441862,0.9,0.14285714285714288
nqowiki,True,24.0,0.08108108108108109,1.0,0.20930232558139536,0.85,0.15
nqowiki,True,25.0,0.08108108108108109,1.0,0.20930232558139536,0.85,0.15
nqowiki,True,26.0,0.0821917808219178,1.0,0.22093023255813954,0.8375,0.1518987341772152
nqowiki,True,27.0,0.0821917808219178,1.0,0.22093023255813954,0.8375,0.1518987341772152
nqowiki,True,28.0,0.08450704225352113,1.0,0.2441860465116279,0.8125,0.15584415584415587
nqowiki,True,29.0,0.08695652173913043,1.0,0.26744186046511625,0.7875,0.16
nqowiki,True,30.0,0.08823529411764706,1.0,0.27906976744186046,0.775,0.1621621621621622
nqowiki,True,31.0,0.08955223880597014,1.0,0.29069767441860467,0.7625,0.1643835616438356
nqowiki,True,32.0,0.08955223880597014,1.0,0.29069767441860467,0.7625,0.1643835616438356
nqowiki,True,33.0,0.09090909090909091,1.0,0.3023255813953488,0.75,0.16666666666666669
nqowiki,True,34.0,0.09230769230769231,1.0,0.313953488372093,0.7375,0.16901408450704225
nqowiki,True,35.0,0.09375,1.0,0.32558139534883723,0.725,0.17142857142857143
nqowiki,True,36.0,0.09375,1.0,0.32558139534883723,0.725,0.17142857142857143
nqowiki,True,37.0,0.09523809523809523,1.0,0.3372093023255814,0.7125,0.17391304347826084
nqowiki,True,38.0,0.0967741935483871,1.0,0.3488372093023256,0.7,0.17647058823529413
nqowiki,True,39.0,0.0967741935483871,1.0,0.3488372093023256,0.7,0.17647058823529413
nqowiki,True,40.0,0.1,1.0,0.37209302325581395,0.675,0.18181818181818182
nqowiki,True,41.0,0.1016949152542373,1.0,0.38372093023255816,0.6625,0.18461538461538463
nqowiki,True,42.0,0.10344827586206896,1.0,0.3953488372093023,0.65,0.1875
nqowiki,True,43.0,0.10526315789473684,1.0,0.4069767441860465,0.6375,0.1904761904761905
nqowiki,True,44.0,0.10714285714285714,1.0,0.4186046511627907,0.625,0.19354838709677416
nqowiki,True,45.0,0.10909090909090909,1.0,0.43023255813953487,0.6125,0.19672131147540983
nqowiki,True,46.0,0.11320754716981132,1.0,0.45348837209302323,0.5875,0.2033898305084746
nqowiki,True,47.0,0.11320754716981132,1.0,0.45348837209302323,0.5875,0.2033898305084746
nqowiki,True,48.0,0.11764705882352941,1.0,0.47674418604651164,0.5625,0.21052631578947367
nqowiki,True,49.0,0.12244897959183673,1.0,0.5,0.5375,0.2181818181818182
nqowiki,True,50.0,0.13043478260869565,1.0,0.5348837209302325,0.5,0.23076923076923078
nqowiki,True,51.0,0.13043478260869565,1.0,0.5348837209302325,0.5,0.23076923076923078
nqowiki,True,52.0,0.13333333333333333,1.0,0.5465116279069767,0.4875,0.23529411764705882
nqowiki,True,53.0,0.14285714285714285,1.0,0.5813953488372093,0.45,0.25
nqowiki,True,54.0,0.14285714285714285,1.0,0.5813953488372093,0.45,0.25
nqowiki,True,55.0,0.14634146341463414,1.0,0.5930232558139535,0.4375,0.2553191489361702
nqowiki,True,56.0,0.15789473684210525,1.0,0.627906976744186,0.4,0.2727272727272727
nqowiki,True,57.0,0.16666666666666666,1.0,0.6511627906976745,0.375,0.2857142857142857
nqowiki,True,58.0,0.17647058823529413,1.0,0.6744186046511628,0.35,0.3
nqowiki,True,59.0,0.18181818181818182,1.0,0.686046511627907,0.3375,0.3076923076923077
nqowiki,True,60.0,0.1935483870967742,1.0,0.7093023255813954,0.3125,0.3243243243243243
nqowiki,True,61.0,0.2,1.0,0.7209302325581395,0.3,0.33333333333333337
nqowiki,True,62.0,0.2,1.0,0.7209302325581395,0.3,0.33333333333333337
nqowiki,True,63.0,0.20689655172413793,1.0,0.7325581395348837,0.2875,0.34285714285714286
nqowiki,True,64.0,0.20689655172413793,1.0,0.7325581395348837,0.2875,0.34285714285714286
nqowiki,True,65.0,0.20689655172413793,1.0,0.7325581395348837,0.2875,0.34285714285714286
nqowiki,True,66.0,0.2222222222222222,1.0,0.7558139534883721,0.2625,0.3636363636363636
nqowiki,True,67.0,0.23076923076923078,1.0,0.7674418604651163,0.25,0.375
nqowiki,True,68.0,0.23076923076923078,1.0,0.7674418604651163,0.25,0.375
nqowiki,True,69.0,0.24,1.0,0.7790697674418605,0.2375,0.3870967741935484
nqowiki,True,70.0,0.25,1.0,0.7906976744186046,0.225,0.4
nqowiki,True,71.0,0.19047619047619047,0.6666666666666666,0.7790697674418605,0.2125,0.2962962962962963
nqowiki,True,72.0,0.2,0.6666666666666666,0.7906976744186046,0.2,0.30769230769230765
nqowiki,True,73.0,0.21052631578947367,0.6666666666666666,0.8023255813953488,0.1875,0.32
nqowiki,True,74.0,0.16666666666666666,0.5,0.7906976744186046,0.1875,0.25
nqowiki,True,75.0,0.16666666666666666,0.5,0.7906976744186046,0.1875,0.25
nqowiki,True,76.0,0.11764705882352941,0.3333333333333333,0.7790697674418605,0.1875,0.1739130434782609
nqowiki,True,77.0,0.15384615384615385,0.3333333333333333,0.8255813953488372,0.1375,0.21052631578947367
nqowiki,True,78.0,0.15384615384615385,0.3333333333333333,0.8255813953488372,0.1375,0.21052631578947367
nqowiki,True,79.0,0.08333333333333333,0.16666666666666666,0.813953488372093,0.1375,0.1111111111111111
nqowiki,True,80.0,0.09090909090909091,0.16666666666666666,0.8255813953488372,0.125,0.11764705882352942
nqowiki,True,81.0,0.1,0.16666666666666666,0.8372093023255814,0.1125,0.125
nqowiki,True,82.0,0.125,0.16666666666666666,0.8604651162790697,0.0875,0.14285714285714288
nqowiki,True,83.0,0.16666666666666666,0.16666666666666666,0.8837209302325582,0.0625,0.16666666666666666
nqowiki,True,84.0,0.0,0.0,0.872093023255814,0.0625,0.16666666666666666
nqowiki,True,85.0,0.0,0.0,0.872093023255814,0.0625,0.16666666666666666
nqowiki,True,86.0,0.0,0.0,0.8837209302325582,0.05,0.16666666666666666
nqowiki,True,87.0,0.0,0.0,0.8837209302325582,0.05,0.16666666666666666
nqowiki,True,88.0,0.0,0.0,0.8953488372093024,0.0375,0.16666666666666666
nqowiki,True,89.0,0.0,0.0,0.8953488372093024,0.0375,0.16666666666666666
nqowiki,True,90.0,0.0,0.0,0.9186046511627907,0.0125,0.16666666666666666
nqowiki,True,91.0,0.0,0.0,0.9186046511627907,0.0125,0.16666666666666666
nqowiki,True,92.0,0.0,0.0,0.9186046511627907,0.0125,0.16666666666666666
nqowiki,True,93.0,0.0,0.0,0.9186046511627907,0.0125,0.16666666666666666
nqowiki,True,94.0,0.0,0.0,0.9186046511627907,0.0125,0.16666666666666666
nqowiki,True,95.0,0.0,0.0,0.9302325581395349,0.0,0.16666666666666666
nqowiki,True,96.0,0.0,0.0,0.9302325581395349,0.0,0.16666666666666666
nqowiki,True,97.0,0.0,0.0,0.9302325581395349,0.0,0.16666666666666666
nqowiki,True,98.0,0.0,0.0,0.9302325581395349,0.0,0.16666666666666666
nqowiki,True,99.0,0.0,0.0,0.9302325581395349,0.0,0.16666666666666666
nqowiki,False,0.0,0.014157014157014158,1.0,0.014157014157014158,1.0,0.027918781725888325
nqowiki,False,1.0,0.014157014157014158,1.0,0.014157014157014158,1.0,0.027918781725888325
nqowiki,False,2.0,0.014304291287386216,1.0,0.02445302445302445,0.9895561357702349,0.028205128205128202
nqowiki,False,3.0,0.014705882352941176,1.0,0.05148005148005148,0.9621409921671018,0.028985507246376812
nqowiki,False,4.0,0.015214384508990318,1.0,0.08365508365508366,0.9295039164490861,0.029972752043596732
nqowiki,False,5.0,0.015827338129496403,1.0,0.11969111969111969,0.8929503916449086,0.031161473087818695
nqowiki,False,6.0,0.016666666666666666,1.0,0.16473616473616473,0.8472584856396866,0.03278688524590164
nqowiki,False,7.0,0.01732283464566929,1.0,0.1969111969111969,0.814621409921671,0.034055727554179564
nqowiki,False,8.0,0.0180623973727422,1.0,0.23037323037323038,0.7806788511749347,0.03548387096774193
nqowiki,False,9.0,0.018803418803418803,1.0,0.26126126126126126,0.7493472584856397,0.03691275167785235
nqowiki,False,10.0,0.019891500904159132,1.0,0.30244530244530243,0.7075718015665796,0.03900709219858156
nqowiki,False,11.0,0.020754716981132074,1.0,0.33204633204633205,0.6775456919060052,0.040665434380776334
nqowiki,False,12.0,0.021611001964636542,1.0,0.3590733590733591,0.6501305483028721,0.04230769230769231
nqowiki,False,13.0,0.02040816326530612,0.9090909090909091,0.38095238095238093,0.6266318537859008,0.039920159680638716
nqowiki,False,14.0,0.021367521367521368,0.9090909090909091,0.4092664092664093,0.597911227154047,0.04175365344467641
nqowiki,False,15.0,0.02054794520547945,0.8181818181818182,0.4453024453024453,0.5600522193211488,0.0400890868596882
nqowiki,False,16.0,0.021377672209026127,0.8181818181818182,0.4671814671814672,0.5378590078328982,0.041666666666666664
nqowiki,False,17.0,0.0225,0.8181818181818182,0.4942084942084942,0.5104438642297651,0.043795620437956206
nqowiki,False,18.0,0.023746701846965697,0.8181818181818182,0.5212355212355212,0.4830287206266319,0.04615384615384615
nqowiki,False,19.0,0.024861878453038673,0.8181818181818182,0.5431145431145431,0.4608355091383812,0.0482573726541555
nqowiki,False,20.0,0.026239067055393587,0.8181818181818182,0.5675675675675675,0.4360313315926893,0.05084745762711865
nqowiki,False,21.0,0.027607361963190184,0.8181818181818182,0.5894465894465895,0.41383812010443866,0.053412462908011875
nqowiki,False,22.0,0.02622950819672131,0.7272727272727273,0.6138996138996139,0.3877284595300261,0.05063291139240506
nqowiki,False,23.0,0.027972027972027972,0.7272727272727273,0.6383526383526383,0.3629242819843342,0.05387205387205387
nqowiki,False,24.0,0.0299625468164794,0.7272727272727273,0.6628056628056628,0.3381201044386423,0.05755395683453238
nqowiki,False,25.0,0.028688524590163935,0.6363636363636364,0.6898326898326899,0.3093994778067885,0.054901960784313725
nqowiki,False,26.0,0.02631578947368421,0.5454545454545454,0.7078507078507078,0.2898172323759791,0.0502092050209205
nqowiki,False,27.0,0.027906976744186046,0.5454545454545454,0.7245817245817245,0.27284595300261094,0.053097345132743355
nqowiki,False,28.0,0.0297029702970297,0.5454545454545454,0.7413127413127413,0.2558746736292428,0.05633802816901408
nqowiki,False,29.0,0.030456852791878174,0.5454545454545454,0.7477477477477478,0.24934725848563968,0.057692307692307696
nqowiki,False,30.0,0.031578947368421054,0.5454545454545454,0.7567567567567568,0.2402088772845953,0.05970149253731343
nqowiki,False,31.0,0.032432432432432434,0.5454545454545454,0.7631917631917632,0.23368146214099217,0.06122448979591837
nqowiki,False,32.0,0.03314917127071823,0.5454545454545454,0.7683397683397684,0.22845953002610966,0.0625
nqowiki,False,33.0,0.03488372093023256,0.5454545454545454,0.7799227799227799,0.21671018276762402,0.06557377049180328
nqowiki,False,34.0,0.03529411764705882,0.5454545454545454,0.7824967824967825,0.21409921671018275,0.06629834254143646
nqowiki,False,35.0,0.03636363636363636,0.5454545454545454,0.788931788931789,0.20757180156657964,0.06818181818181818
nqowiki,False,36.0,0.038461538461538464,0.5454545454545454,0.8005148005148005,0.195822454308094,0.07185628742514971
nqowiki,False,37.0,0.03896103896103896,0.5454545454545454,0.803088803088803,0.19321148825065274,0.07272727272727272
nqowiki,False,38.0,0.040268456375838924,0.5454545454545454,0.8095238095238095,0.1866840731070496,0.075
nqowiki,False,39.0,0.04225352112676056,0.5454545454545454,0.8185328185328186,0.17754569190600522,0.0784313725490196
nqowiki,False,40.0,0.043795620437956206,0.5454545454545454,0.824967824967825,0.17101827676240208,0.0810810810810811
nqowiki,False,41.0,0.04580152671755725,0.5454545454545454,0.8326898326898327,0.16318537859007834,0.08450704225352114
nqowiki,False,42.0,0.046875,0.5454545454545454,0.8365508365508365,0.15926892950391644,0.08633093525179857
nqowiki,False,43.0,0.04918032786885246,0.5454545454545454,0.8442728442728443,0.1514360313315927,0.09022556390977443
nqowiki,False,44.0,0.05,0.5454545454545454,0.8468468468468469,0.14882506527415143,0.0916030534351145
nqowiki,False,45.0,0.05405405405405406,0.5454545454545454,0.8584298584298584,0.1370757180156658,0.09836065573770493
nqowiki,False,46.0,0.05660377358490566,0.5454545454545454,0.8648648648648649,0.13054830287206268,0.10256410256410256
nqowiki,False,47.0,0.0594059405940594,0.5454545454545454,0.8712998712998713,0.12402088772845953,0.10714285714285712
nqowiki,False,48.0,0.061855670103092786,0.5454545454545454,0.8764478764478765,0.11879895561357702,0.1111111111111111
nqowiki,False,49.0,0.06521739130434782,0.5454545454545454,0.8828828828828829,0.1122715404699739,0.11650485436893204
nqowiki,False,50.0,0.06976744186046512,0.5454545454545454,0.8906048906048906,0.10443864229765012,0.12371134020618556
nqowiki,False,51.0,0.058823529411764705,0.45454545454545453,0.8893178893178894,0.10443864229765012,0.10416666666666667
nqowiki,False,52.0,0.06172839506172839,0.45454545454545453,0.8944658944658944,0.09921671018276762,0.10869565217391304
nqowiki,False,53.0,0.06666666666666667,0.45454545454545453,0.9021879021879022,0.09138381201044386,0.11627906976744184
nqowiki,False,54.0,0.06756756756756757,0.45454545454545453,0.9034749034749034,0.09007832898172324,0.11764705882352941
nqowiki,False,55.0,0.07142857142857142,0.45454545454545453,0.9086229086229086,0.08485639686684072,0.12345679012345678
nqowiki,False,56.0,0.07575757575757576,0.45454545454545453,0.9137709137709138,0.07963446475195822,0.12987012987012989
nqowiki,False,57.0,0.078125,0.45454545454545453,0.9163449163449163,0.07702349869451697,0.1333333333333333
nqowiki,False,58.0,0.08333333333333333,0.45454545454545453,0.9214929214929215,0.07180156657963446,0.1408450704225352
nqowiki,False,59.0,0.06896551724137931,0.36363636363636365,0.9214929214929215,0.07049608355091384,0.11594202898550723
nqowiki,False,60.0,0.07692307692307693,0.36363636363636365,0.9292149292149292,0.06266318537859007,0.126984126984127
nqowiki,False,61.0,0.07692307692307693,0.36363636363636365,0.9292149292149292,0.06266318537859007,0.126984126984127
nqowiki,False,62.0,0.07692307692307693,0.36363636363636365,0.9292149292149292,0.06266318537859007,0.126984126984127
nqowiki,False,63.0,0.08,0.36363636363636365,0.9317889317889317,0.06005221932114883,0.13114754098360654
nqowiki,False,64.0,0.08163265306122448,0.36363636363636365,0.9330759330759331,0.0587467362924282,0.13333333333333333
nqowiki,False,65.0,0.08333333333333333,0.36363636363636365,0.9343629343629344,0.057441253263707574,0.13559322033898305
nqowiki,False,66.0,0.08888888888888889,0.36363636363636365,0.9382239382239382,0.05352480417754569,0.14285714285714285
nqowiki,False,67.0,0.09090909090909091,0.36363636363636365,0.9395109395109396,0.05221932114882506,0.14545454545454545
nqowiki,False,68.0,0.09523809523809523,0.36363636363636365,0.9420849420849421,0.04960835509138381,0.1509433962264151
nqowiki,False,69.0,0.09523809523809523,0.36363636363636365,0.9420849420849421,0.04960835509138381,0.1509433962264151
nqowiki,False,70.0,0.1,0.36363636363636365,0.9446589446589446,0.04699738903394256,0.15686274509803924
nqowiki,False,71.0,0.11428571428571428,0.36363636363636365,0.9510939510939511,0.04046997389033943,0.17391304347826086
nqowiki,False,72.0,0.12903225806451613,0.36363636363636365,0.9562419562419563,0.03524804177545692,0.19047619047619047
nqowiki,False,73.0,0.1111111111111111,0.2727272727272727,0.9588159588159588,0.031331592689295036,0.15789473684210525
nqowiki,False,74.0,0.12,0.2727272727272727,0.9613899613899614,0.028720626631853787,0.16666666666666666
nqowiki,False,75.0,0.12,0.2727272727272727,0.9613899613899614,0.028720626631853787,0.16666666666666666
nqowiki,False,76.0,0.15789473684210525,0.2727272727272727,0.9691119691119691,0.020887728459530026,0.19999999999999998
nqowiki,False,77.0,0.17647058823529413,0.2727272727272727,0.9716859716859717,0.018276762402088774,0.21428571428571427
nqowiki,False,78.0,0.06666666666666667,0.09090909090909091,0.9691119691119691,0.018276762402088774,0.07692307692307691
nqowiki,False,79.0,0.07692307692307693,0.09090909090909091,0.9716859716859717,0.015665796344647518,0.08333333333333334
nqowiki,False,80.0,0.07692307692307693,0.09090909090909091,0.9716859716859717,0.015665796344647518,0.08333333333333334
nqowiki,False,81.0,0.1111111111111111,0.09090909090909091,0.9768339768339769,0.010443864229765013,0.09999999999999999
nqowiki,False,82.0,0.1111111111111111,0.09090909090909091,0.9768339768339769,0.010443864229765013,0.09999999999999999
nqowiki,False,83.0,0.14285714285714285,0.09090909090909091,0.9794079794079794,0.007832898172323759,0.1111111111111111
nqowiki,False,84.0,0.16666666666666666,0.09090909090909091,0.9806949806949807,0.006527415143603133,0.11764705882352942
nqowiki,False,85.0,0.16666666666666666,0.09090909090909091,0.9806949806949807,0.006527415143603133,0.11764705882352942
nqowiki,False,86.0,0.0,0.0,0.9806949806949807,0.005221932114882507,0.11764705882352942
nqowiki,False,87.0,0.0,0.0,0.9806949806949807,0.005221932114882507,0.11764705882352942
nqowiki,False,88.0,0.0,0.0,0.9832689832689833,0.0026109660574412533,0.11764705882352942
nqowiki,False,89.0,0.0,0.0,0.9832689832689833,0.0026109660574412533,0.11764705882352942
nqowiki,False,90.0,0.0,0.0,0.9832689832689833,0.0026109660574412533,0.11764705882352942
nqowiki,False,91.0,0.0,0.0,0.9845559845559846,0.0013054830287206266,0.11764705882352942
nqowiki,False,92.0,0.0,0.0,0.9845559845559846,0.0013054830287206266,0.11764705882352942
nqowiki,False,93.0,0.0,0.0,0.9845559845559846,0.0013054830287206266,0.11764705882352942
nqowiki,False,94.0,0.0,0.0,0.9845559845559846,0.0013054830287206266,0.11764705882352942
nqowiki,False,95.0,0.0,0.0,0.9858429858429858,0.0,0.11764705882352942
nqowiki,False,96.0,0.0,0.0,0.9858429858429858,0.0,0.11764705882352942
nqowiki,False,97.0,0.0,0.0,0.9858429858429858,0.0,0.11764705882352942
nqowiki,False,98.0,0.0,0.0,0.9858429858429858,0.0,0.11764705882352942
nqowiki,False,99.0,0.0,0.0,0.9858429858429858,0.0,0.11764705882352942
