wiki_db,user_is_anonymous,threshold,precision,recall,accuracy,fpr,F1
nvwiki,True,0.0,0.8888888888888888,1.0,0.8888888888888888,1.0,0.9411764705882353
nvwiki,True,1.0,0.8888888888888888,1.0,0.8888888888888888,1.0,0.9411764705882353
nvwiki,True,2.0,0.8888888888888888,1.0,0.8888888888888888,1.0,0.9411764705882353
nvwiki,True,3.0,0.8888888888888888,1.0,0.8888888888888888,1.0,0.9411764705882353
nvwiki,True,4.0,0.8888888888888888,1.0,0.8888888888888888,1.0,0.9411764705882353
nvwiki,True,5.0,0.8888888888888888,1.0,0.8888888888888888,1.0,0.9411764705882353
nvwiki,True,6.0,0.8888888888888888,1.0,0.8888888888888888,1.0,0.9411764705882353
nvwiki,True,7.0,0.8888888888888888,1.0,0.8888888888888888,1.0,0.9411764705882353
nvwiki,True,8.0,0.8888888888888888,1.0,0.8888888888888888,1.0,0.9411764705882353
nvwiki,True,9.0,0.8888888888888888,1.0,0.8888888888888888,1.0,0.9411764705882353
nvwiki,True,10.0,0.8888888888888888,1.0,0.8888888888888888,1.0,0.9411764705882353
nvwiki,True,11.0,0.8888888888888888,1.0,0.8888888888888888,1.0,0.9411764705882353
nvwiki,True,12.0,0.8888888888888888,1.0,0.8888888888888888,1.0,0.9411764705882353
nvwiki,True,13.0,0.8888888888888888,1.0,0.8888888888888888,1.0,0.9411764705882353
nvwiki,True,14.0,0.8888888888888888,1.0,0.8888888888888888,1.0,0.9411764705882353
nvwiki,True,15.0,0.8888888888888888,1.0,0.8888888888888888,1.0,0.9411764705882353
nvwiki,True,16.0,0.8888888888888888,1.0,0.8888888888888888,1.0,0.9411764705882353
nvwiki,True,17.0,0.8888888888888888,1.0,0.8888888888888888,1.0,0.9411764705882353
nvwiki,True,18.0,0.8888888888888888,1.0,0.8888888888888888,1.0,0.9411764705882353
nvwiki,True,19.0,0.8888888888888888,1.0,0.8888888888888888,1.0,0.9411764705882353
nvwiki,True,20.0,0.8888888888888888,1.0,0.8888888888888888,1.0,0.9411764705882353
nvwiki,True,21.0,0.8888888888888888,1.0,0.8888888888888888,1.0,0.9411764705882353
nvwiki,True,22.0,0.8888888888888888,1.0,0.8888888888888888,1.0,0.9411764705882353
nvwiki,True,23.0,0.8888888888888888,1.0,0.8888888888888888,1.0,0.9411764705882353
nvwiki,True,24.0,0.8888888888888888,1.0,0.8888888888888888,1.0,0.9411764705882353
nvwiki,True,25.0,0.8888888888888888,1.0,0.8888888888888888,1.0,0.9411764705882353
nvwiki,True,26.0,0.8888888888888888,1.0,0.8888888888888888,1.0,0.9411764705882353
nvwiki,True,27.0,0.8888888888888888,1.0,0.8888888888888888,1.0,0.9411764705882353
nvwiki,True,28.0,0.8888888888888888,1.0,0.8888888888888888,1.0,0.9411764705882353
nvwiki,True,29.0,0.8888888888888888,1.0,0.8888888888888888,1.0,0.9411764705882353
nvwiki,True,30.0,0.8888888888888888,1.0,0.8888888888888888,1.0,0.9411764705882353
nvwiki,True,31.0,0.8888888888888888,1.0,0.8888888888888888,1.0,0.9411764705882353
nvwiki,True,32.0,0.8888888888888888,1.0,0.8888888888888888,1.0,0.9411764705882353
nvwiki,True,33.0,0.8888888888888888,1.0,0.8888888888888888,1.0,0.9411764705882353
nvwiki,True,34.0,0.8888888888888888,1.0,0.8888888888888888,1.0,0.9411764705882353
nvwiki,True,35.0,0.8888888888888888,1.0,0.8888888888888888,1.0,0.9411764705882353
nvwiki,True,36.0,0.8888888888888888,1.0,0.8888888888888888,1.0,0.9411764705882353
nvwiki,True,37.0,0.8888888888888888,1.0,0.8888888888888888,1.0,0.9411764705882353
nvwiki,True,38.0,0.8888888888888888,1.0,0.8888888888888888,1.0,0.9411764705882353
nvwiki,True,39.0,0.8888888888888888,1.0,0.8888888888888888,1.0,0.9411764705882353
nvwiki,True,40.0,0.8888888888888888,1.0,0.8888888888888888,1.0,0.9411764705882353
nvwiki,True,41.0,0.8888888888888888,1.0,0.8888888888888888,1.0,0.9411764705882353
nvwiki,True,42.0,0.8888888888888888,1.0,0.8888888888888888,1.0,0.9411764705882353
nvwiki,True,43.0,0.8888888888888888,1.0,0.8888888888888888,1.0,0.9411764705882353
nvwiki,True,44.0,0.8888888888888888,1.0,0.8888888888888888,1.0,0.9411764705882353
nvwiki,True,45.0,0.8888888888888888,1.0,0.8888888888888888,1.0,0.9411764705882353
nvwiki,True,46.0,0.8846153846153846,0.9583333333333334,0.8518518518518519,1.0,0.9199999999999999
nvwiki,True,47.0,0.8846153846153846,0.9583333333333334,0.8518518518518519,1.0,0.9199999999999999
nvwiki,True,48.0,0.8846153846153846,0.9583333333333334,0.8518518518518519,1.0,0.9199999999999999
nvwiki,True,49.0,0.8846153846153846,0.9583333333333334,0.8518518518518519,1.0,0.9199999999999999
nvwiki,True,50.0,0.8846153846153846,0.9583333333333334,0.8518518518518519,1.0,0.9199999999999999
nvwiki,True,51.0,0.8846153846153846,0.9583333333333334,0.8518518518518519,1.0,0.9199999999999999
nvwiki,True,52.0,0.8846153846153846,0.9583333333333334,0.8518518518518519,1.0,0.9199999999999999
nvwiki,True,53.0,0.8846153846153846,0.9583333333333334,0.8518518518518519,1.0,0.9199999999999999
nvwiki,True,54.0,0.8846153846153846,0.9583333333333334,0.8518518518518519,1.0,0.9199999999999999
nvwiki,True,55.0,0.8846153846153846,0.9583333333333334,0.8518518518518519,1.0,0.9199999999999999
nvwiki,True,56.0,0.88,0.9166666666666666,0.8148148148148148,1.0,0.8979591836734694
nvwiki,True,57.0,0.88,0.9166666666666666,0.8148148148148148,1.0,0.8979591836734694
nvwiki,True,58.0,0.88,0.9166666666666666,0.8148148148148148,1.0,0.8979591836734694
nvwiki,True,59.0,0.88,0.9166666666666666,0.8148148148148148,1.0,0.8979591836734694
nvwiki,True,60.0,0.88,0.9166666666666666,0.8148148148148148,1.0,0.8979591836734694
nvwiki,True,61.0,0.875,0.875,0.7777777777777778,1.0,0.875
nvwiki,True,62.0,0.875,0.875,0.7777777777777778,1.0,0.875
nvwiki,True,63.0,0.875,0.875,0.7777777777777778,1.0,0.875
nvwiki,True,64.0,0.875,0.875,0.7777777777777778,1.0,0.875
nvwiki,True,65.0,0.875,0.875,0.7777777777777778,1.0,0.875
nvwiki,True,66.0,0.8695652173913043,0.8333333333333334,0.7407407407407407,1.0,0.851063829787234
nvwiki,True,67.0,0.8636363636363636,0.7916666666666666,0.7037037037037037,1.0,0.8260869565217391
nvwiki,True,68.0,0.8636363636363636,0.7916666666666666,0.7037037037037037,1.0,0.8260869565217391
nvwiki,True,69.0,0.8636363636363636,0.7916666666666666,0.7037037037037037,1.0,0.8260869565217391
nvwiki,True,70.0,0.8636363636363636,0.7916666666666666,0.7037037037037037,1.0,0.8260869565217391
nvwiki,True,71.0,0.8636363636363636,0.7916666666666666,0.7037037037037037,1.0,0.8260869565217391
nvwiki,True,72.0,0.8636363636363636,0.7916666666666666,0.7037037037037037,1.0,0.8260869565217391
nvwiki,True,73.0,0.8636363636363636,0.7916666666666666,0.7037037037037037,1.0,0.8260869565217391
nvwiki,True,74.0,0.8636363636363636,0.7916666666666666,0.7037037037037037,1.0,0.8260869565217391
nvwiki,True,75.0,0.8571428571428571,0.75,0.6666666666666666,1.0,0.7999999999999999
nvwiki,True,76.0,0.8571428571428571,0.75,0.6666666666666666,1.0,0.7999999999999999
nvwiki,True,77.0,0.8571428571428571,0.75,0.6666666666666666,1.0,0.7999999999999999
nvwiki,True,78.0,0.8421052631578947,0.6666666666666666,0.5925925925925926,1.0,0.744186046511628
nvwiki,True,79.0,0.8421052631578947,0.6666666666666666,0.5925925925925926,1.0,0.744186046511628
nvwiki,True,80.0,0.8235294117647058,0.5833333333333334,0.5185185185185185,1.0,0.6829268292682927
nvwiki,True,81.0,0.8125,0.5416666666666666,0.48148148148148145,1.0,0.65
nvwiki,True,82.0,0.8125,0.5416666666666666,0.48148148148148145,1.0,0.65
nvwiki,True,83.0,0.8,0.5,0.4444444444444444,1.0,0.6153846153846154
nvwiki,True,84.0,0.8,0.5,0.4444444444444444,1.0,0.6153846153846154
nvwiki,True,85.0,0.9230769230769231,0.5,0.5185185185185185,0.3333333333333333,0.6486486486486487
nvwiki,True,86.0,1.0,0.5,0.5555555555555556,0.0,0.6666666666666666
nvwiki,True,87.0,1.0,0.5,0.5555555555555556,0.0,0.6666666666666666
nvwiki,True,88.0,1.0,0.4583333333333333,0.5185185185185185,0.0,0.6285714285714286
nvwiki,True,89.0,1.0,0.3333333333333333,0.4074074074074074,0.0,0.5
nvwiki,True,90.0,1.0,0.3333333333333333,0.4074074074074074,0.0,0.5
nvwiki,True,91.0,1.0,0.3333333333333333,0.4074074074074074,0.0,0.5
nvwiki,True,92.0,1.0,0.3333333333333333,0.4074074074074074,0.0,0.5
nvwiki,True,93.0,1.0,0.3333333333333333,0.4074074074074074,0.0,0.5
nvwiki,True,94.0,1.0,0.3333333333333333,0.4074074074074074,0.0,0.5
nvwiki,True,95.0,1.0,0.2916666666666667,0.37037037037037035,0.0,0.45161290322580644
nvwiki,True,96.0,1.0,0.25,0.3333333333333333,0.0,0.4
nvwiki,True,97.0,1.0,0.25,0.3333333333333333,0.0,0.4
nvwiki,True,98.0,1.0,0.20833333333333334,0.2962962962962963,0.0,0.3448275862068966
nvwiki,True,99.0,1.0,0.041666666666666664,0.14814814814814814,0.0,0.07999999999999999
nvwiki,False,0.0,0.010587238848108414,1.0,0.010587238848108414,1.0,0.02095264701773991
nvwiki,False,1.0,0.010587238848108414,1.0,0.010587238848108414,1.0,0.02095264701773991
nvwiki,False,2.0,0.010627745500921071,1.0,0.014398644833427442,0.9961478099586246,0.021031968592260232
nvwiki,False,3.0,0.010894828588030215,1.0,0.03881987577639751,0.971465258952775,0.021554821094984914
nvwiki,False,4.0,0.011117879987816022,0.9733333333333334,0.08314511575381141,0.9263803680981595,0.021984640867339256
nvwiki,False,5.0,0.011807149885208265,0.96,0.14892715979672502,0.8597517477528891,0.02332739348776932
nvwiki,False,6.0,0.012711094970038134,0.9333333333333333,0.23178994918125354,0.7757169353688115,0.025080616266571123
nvwiki,False,7.0,0.014438166980539862,0.92,0.334274421230943,0.6719931516621487,0.028430160692212606
nvwiki,False,8.0,0.015046296296296295,0.8666666666666667,0.3979390175042349,0.6070766157797118,0.02957906712172924
nvwiki,False,9.0,0.016067329762815608,0.84,0.4536984754376059,0.5504351548009702,0.03153153153153153
nvwiki,False,10.0,0.01670258620689655,0.8266666666666667,0.4829192546583851,0.5207590241118562,0.032743596514391335
nvwiki,False,11.0,0.017867435158501442,0.8266666666666667,0.5170807453416149,0.48623198744471396,0.03497884344146686
nvwiki,False,12.0,0.018680325399216633,0.8266666666666667,0.5383963862224732,0.46468825795405905,0.03653506187389511
nvwiki,False,13.0,0.019302615193026153,0.8266666666666667,0.5535008469791078,0.4494221714937937,0.03772436872528142
nvwiki,False,14.0,0.019980663873670642,0.8266666666666667,0.5688876341050254,0.43387073762305606,0.03901825047199497
nvwiki,False,15.0,0.02051109616677875,0.8133333333333334,0.586815358554489,0.41560850335283206,0.040013119055428016
nvwiki,False,16.0,0.0215547703180212,0.8133333333333334,0.6071428571428571,0.3950634897988301,0.04199655765920826
nvwiki,False,17.0,0.022534170668636867,0.8133333333333334,0.6245059288537549,0.3775146240547867,0.04385334291876348
nvwiki,False,18.0,0.0233806055960138,0.8133333333333334,0.6383399209486166,0.36353260094164647,0.04545454545454545
nvwiki,False,19.0,0.024322169059011165,0.8133333333333334,0.6525974025974026,0.34912255671279785,0.047231900890437474
nvwiki,False,20.0,0.02497918401332223,0.8,0.6672783738001129,0.3341418176630047,0.04844570044408558
nvwiki,False,21.0,0.025817555938037865,0.8,0.6782891022021457,0.32301326865458696,0.05002084201750729
nvwiki,False,22.0,0.02702702702702703,0.8,0.6929700734048561,0.30817520331002995,0.05228758169934641
nvwiki,False,23.0,0.028216164514586323,0.7866666666666666,0.7108977978543196,0.28991296903980596,0.05447830101569714
nvwiki,False,24.0,0.03080939947780679,0.7866666666666666,0.735742518351214,0.264802396918248,0.0592964824120603
nvwiki,False,25.0,0.03333333333333333,0.7866666666666666,0.7562111801242236,0.24411470965900983,0.06395663956639566
nvwiki,False,26.0,0.038187702265372166,0.7866666666666666,0.7879728966685489,0.21201312598088173,0.0728395061728395
nvwiki,False,27.0,0.04148471615720524,0.76,0.8115471485036703,0.1879012697959766,0.07867494824016563
nvwiki,False,28.0,0.04372937293729373,0.7066666666666667,0.8332862789384529,0.16535882436866886,0.08236208236208237
nvwiki,False,29.0,0.05,0.6666666666666666,0.8623658949745906,0.13554001997431872,0.09302325581395349
nvwiki,False,30.0,0.05509964830011723,0.6266666666666667,0.8822699040090345,0.11499500642031674,0.10129310344827586
nvwiki,False,31.0,0.052486187845303865,0.5066666666666667,0.8979390175042349,0.09787416179198173,0.0951188986232791
nvwiki,False,32.0,0.05921052631578947,0.48,0.9137492941840768,0.08160935939506349,0.10541727672035138
nvwiki,False,33.0,0.06692160611854685,0.4666666666666667,0.9254658385093167,0.06962476815522899,0.11705685618729098
nvwiki,False,34.0,0.07415254237288135,0.4666666666666667,0.9326651609260305,0.06234840918818662,0.12797074954296161
nvwiki,False,35.0,0.08235294117647059,0.4666666666666667,0.9392998306041784,0.05564274504208874,0.13999999999999999
nvwiki,False,36.0,0.0868421052631579,0.44,0.9450875211744777,0.04950777571693537,0.14505494505494507
nvwiki,False,37.0,0.0967741935483871,0.44,0.950592885375494,0.04394350121272649,0.15865384615384615
nvwiki,False,38.0,0.10410094637223975,0.44,0.9539808018068887,0.04051933228705949,0.16836734693877553
nvwiki,False,39.0,0.11619718309859155,0.44,0.9586391869000565,0.03581110001426737,0.18384401114206128
nvwiki,False,40.0,0.12890625,0.44,0.9625917560700169,0.031816236267655874,0.19939577039274925
nvwiki,False,41.0,0.14285714285714285,0.44,0.9661208356860531,0.028249393636752745,0.21568627450980388
nvwiki,False,42.0,0.15137614678899083,0.44,0.9679559570863918,0.026394635468683123,0.22525597269624575
nvwiki,False,43.0,0.1683673469387755,0.44,0.9710615471485037,0.023255813953488372,0.24354243542435425
nvwiki,False,44.0,0.18333333333333332,0.44,0.9733201581027668,0.020973034669710372,0.25882352941176473
nvwiki,False,45.0,0.19161676646706588,0.4266666666666667,0.9748729531338227,0.019260950206876872,0.2644628099173554
nvwiki,False,46.0,0.20512820512820512,0.4266666666666667,0.9764257481648786,0.017691539449279498,0.27705627705627706
nvwiki,False,47.0,0.2108843537414966,0.41333333333333333,0.9774138904573687,0.0165501498073905,0.27927927927927926
nvwiki,False,48.0,0.22302158273381295,0.41333333333333333,0.9785431959345002,0.015408760165501498,0.28971962616822433
nvwiki,False,49.0,0.25,0.41333333333333333,0.980660643704122,0.013268654586959623,0.31155778894472363
nvwiki,False,50.0,0.25862068965517243,0.4,0.9815076228119707,0.012269938650306749,0.31413612565445026
nvwiki,False,51.0,0.2702702702702703,0.4,0.9822134387351779,0.011556570124126123,0.3225806451612903
nvwiki,False,52.0,0.297029702970297,0.4,0.9836250705815923,0.010129833071764873,0.34090909090909094
nvwiki,False,53.0,0.30303030303030304,0.4,0.9839073969508753,0.009844485661292623,0.3448275862068965
nvwiki,False,54.0,0.30927835051546393,0.4,0.9841897233201581,0.009559138250820373,0.3488372093023256
nvwiki,False,55.0,0.3333333333333333,0.4,0.9851778656126482,0.008560422314167499,0.3636363636363636
nvwiki,False,56.0,0.3448275862068966,0.4,0.9856013551665725,0.008132401198459123,0.3703703703703704
nvwiki,False,57.0,0.35714285714285715,0.4,0.9860248447204969,0.007704380082750749,0.3773584905660378
nvwiki,False,58.0,0.375,0.4,0.9865894974590627,0.007133685261806249,0.38709677419354843
nvwiki,False,59.0,0.3815789473684211,0.38666666666666666,0.9868718238283456,0.006705664146097874,0.3841059602649007
nvwiki,False,60.0,0.417910447761194,0.37333333333333335,0.9878599661208357,0.0055642745042088744,0.39436619718309857
nvwiki,False,61.0,0.42424242424242425,0.37333333333333335,0.9880011293054771,0.0054216007989727494,0.3971631205673759
nvwiki,False,62.0,0.4444444444444444,0.37333333333333335,0.9884246188594015,0.0049935796832643745,0.4057971014492754
nvwiki,False,63.0,0.4666666666666667,0.37333333333333335,0.9888481084133258,0.0045655585675559995,0.4148148148148148
nvwiki,False,64.0,0.5,0.37333333333333335,0.9894127611518916,0.0039948637466115,0.4274809160305344
nvwiki,False,65.0,0.5,0.36,0.9894127611518916,0.0038521900413753746,0.41860465116279066
nvwiki,False,66.0,0.4807692307692308,0.3333333333333333,0.9891304347826086,0.0038521900413753746,0.39370078740157477
nvwiki,False,67.0,0.46938775510204084,0.30666666666666664,0.9889892715979672,0.0037095163361392496,0.3709677419354838
nvwiki,False,68.0,0.46938775510204084,0.30666666666666664,0.9889892715979672,0.0037095163361392496,0.3709677419354838
nvwiki,False,69.0,0.4583333333333333,0.29333333333333333,0.9888481084133258,0.0037095163361392496,0.35772357723577236
nvwiki,False,70.0,0.45652173913043476,0.28,0.9888481084133258,0.0035668426309031246,0.34710743801652894
nvwiki,False,71.0,0.4666666666666667,0.28,0.9889892715979672,0.0034241689256669997,0.35000000000000003
nvwiki,False,72.0,0.475,0.25333333333333335,0.9891304347826086,0.0029961478099586247,0.3304347826086957
nvwiki,False,73.0,0.475,0.25333333333333335,0.9891304347826086,0.0029961478099586247,0.3304347826086957
nvwiki,False,74.0,0.5,0.25333333333333335,0.9894127611518916,0.0027108003994863747,0.33628318584070793
nvwiki,False,75.0,0.5135135135135135,0.25333333333333335,0.989553924336533,0.0025681266942502497,0.3392857142857143
nvwiki,False,76.0,0.5,0.24,0.9894127611518916,0.0025681266942502497,0.32432432432432434
nvwiki,False,77.0,0.5,0.22666666666666666,0.9894127611518916,0.0024254529890141248,0.3119266055045871
nvwiki,False,78.0,0.48484848484848486,0.21333333333333335,0.9892715979672502,0.0024254529890141248,0.29629629629629634
nvwiki,False,79.0,0.5172413793103449,0.2,0.989553924336533,0.00199743187330575,0.28846153846153844
nvwiki,False,80.0,0.5769230769230769,0.2,0.9899774138904573,0.0015694107575973748,0.29702970297029707
nvwiki,False,81.0,0.625,0.2,0.9902597402597403,0.0012840633471251249,0.30303030303030304
nvwiki,False,82.0,0.625,0.2,0.9902597402597403,0.0012840633471251249,0.30303030303030304
nvwiki,False,83.0,0.6521739130434783,0.2,0.9904009034443817,0.0011413896418889999,0.30612244897959184
nvwiki,False,84.0,0.7142857142857143,0.2,0.9906832298136646,0.0008560422314167499,0.3125
nvwiki,False,85.0,0.7777777777777778,0.18666666666666668,0.990824392998306,0.0005706948209444999,0.3010752688172043
nvwiki,False,86.0,0.8235294117647058,0.18666666666666668,0.9909655561829475,0.00042802111570837496,0.3043478260869565
nvwiki,False,87.0,0.875,0.18666666666666668,0.991106719367589,0.00028534741047224997,0.30769230769230765
nvwiki,False,88.0,0.9285714285714286,0.17333333333333334,0.991106719367589,0.00014267370523612499,0.29213483146067415
nvwiki,False,89.0,0.9,0.12,0.9905420666290231,0.00014267370523612499,0.21176470588235294
nvwiki,False,90.0,1.0,0.09333333333333334,0.9904009034443817,0.0,0.17073170731707318
nvwiki,False,91.0,1.0,0.08,0.9902597402597403,0.0,0.14814814814814814
nvwiki,False,92.0,1.0,0.02666666666666667,0.9896950875211745,0.0,0.05194805194805195
nvwiki,False,93.0,1.0,0.013333333333333334,0.989553924336533,0.0,0.02631578947368421
nvwiki,False,94.0,1.0,0.0,0.9894127611518916,0.0,0.0
nvwiki,False,95.0,1.0,0.0,0.9894127611518916,0.0,0.0
nvwiki,False,96.0,1.0,0.0,0.9894127611518916,0.0,0.0
nvwiki,False,97.0,1.0,0.0,0.9894127611518916,0.0,0.0
nvwiki,False,98.0,1.0,0.0,0.9894127611518916,0.0,0.0
nvwiki,False,99.0,1.0,0.0,0.9894127611518916,0.0,0.0
