wiki_db,user_is_anonymous,threshold,precision,recall,accuracy,fpr,F1
pflwiki,True,0.0,0.6,1.0,0.6,1.0,0.7499999999999999
pflwiki,True,1.0,0.6,1.0,0.6,1.0,0.7499999999999999
pflwiki,True,2.0,0.6,1.0,0.6,1.0,0.7499999999999999
pflwiki,True,3.0,0.6,1.0,0.6,1.0,0.7499999999999999
pflwiki,True,4.0,0.6,1.0,0.6,1.0,0.7499999999999999
pflwiki,True,5.0,0.6,1.0,0.6,1.0,0.7499999999999999
pflwiki,True,6.0,0.6,1.0,0.6,1.0,0.7499999999999999
pflwiki,True,7.0,0.6,1.0,0.6,1.0,0.7499999999999999
pflwiki,True,8.0,0.6,1.0,0.6,1.0,0.7499999999999999
pflwiki,True,9.0,0.6,1.0,0.6,1.0,0.7499999999999999
pflwiki,True,10.0,0.6,1.0,0.6,1.0,0.7499999999999999
pflwiki,True,11.0,0.6,1.0,0.6,1.0,0.7499999999999999
pflwiki,True,12.0,0.6,1.0,0.6,1.0,0.7499999999999999
pflwiki,True,13.0,0.6,1.0,0.6,1.0,0.7499999999999999
pflwiki,True,14.0,0.6,1.0,0.6,1.0,0.7499999999999999
pflwiki,True,15.0,0.6,1.0,0.6,1.0,0.7499999999999999
pflwiki,True,16.0,0.6,1.0,0.6,1.0,0.7499999999999999
pflwiki,True,17.0,0.6,1.0,0.6,1.0,0.7499999999999999
pflwiki,True,18.0,0.6,1.0,0.6,1.0,0.7499999999999999
pflwiki,True,19.0,0.6,1.0,0.6,1.0,0.7499999999999999
pflwiki,True,20.0,0.6,1.0,0.6,1.0,0.7499999999999999
pflwiki,True,21.0,0.6,1.0,0.6,1.0,0.7499999999999999
pflwiki,True,22.0,0.6,1.0,0.6,1.0,0.7499999999999999
pflwiki,True,23.0,0.6,1.0,0.6,1.0,0.7499999999999999
pflwiki,True,24.0,0.6,1.0,0.6,1.0,0.7499999999999999
pflwiki,True,25.0,0.6,1.0,0.6,1.0,0.7499999999999999
pflwiki,True,26.0,0.6,1.0,0.6,1.0,0.7499999999999999
pflwiki,True,27.0,0.6,1.0,0.6,1.0,0.7499999999999999
pflwiki,True,28.0,0.6,1.0,0.6,1.0,0.7499999999999999
pflwiki,True,29.0,0.6,1.0,0.6,1.0,0.7499999999999999
pflwiki,True,30.0,0.6,1.0,0.6,1.0,0.7499999999999999
pflwiki,True,31.0,0.6,1.0,0.6,1.0,0.7499999999999999
pflwiki,True,32.0,0.6,1.0,0.6,1.0,0.7499999999999999
pflwiki,True,33.0,0.6,1.0,0.6,1.0,0.7499999999999999
pflwiki,True,34.0,0.6,1.0,0.6,1.0,0.7499999999999999
pflwiki,True,35.0,0.6,1.0,0.6,1.0,0.7499999999999999
pflwiki,True,36.0,0.6,1.0,0.6,1.0,0.7499999999999999
pflwiki,True,37.0,0.6,1.0,0.6,1.0,0.7499999999999999
pflwiki,True,38.0,0.6,1.0,0.6,1.0,0.7499999999999999
pflwiki,True,39.0,0.6,1.0,0.6,1.0,0.7499999999999999
pflwiki,True,40.0,0.6,1.0,0.6,1.0,0.7499999999999999
pflwiki,True,41.0,0.6,1.0,0.6,1.0,0.7499999999999999
pflwiki,True,42.0,0.6,1.0,0.6,1.0,0.7499999999999999
pflwiki,True,43.0,0.6,1.0,0.6,1.0,0.7499999999999999
pflwiki,True,44.0,0.6,1.0,0.6,1.0,0.7499999999999999
pflwiki,True,45.0,0.6,1.0,0.6,1.0,0.7499999999999999
pflwiki,True,46.0,0.6,1.0,0.6,1.0,0.7499999999999999
pflwiki,True,47.0,0.6,1.0,0.6,1.0,0.7499999999999999
pflwiki,True,48.0,0.6,1.0,0.6,1.0,0.7499999999999999
pflwiki,True,49.0,0.6,1.0,0.6,1.0,0.7499999999999999
pflwiki,True,50.0,0.6,1.0,0.6,1.0,0.7499999999999999
pflwiki,True,51.0,0.6,1.0,0.6,1.0,0.7499999999999999
pflwiki,True,52.0,0.6,1.0,0.6,1.0,0.7499999999999999
pflwiki,True,53.0,0.6,1.0,0.6,1.0,0.7499999999999999
pflwiki,True,54.0,0.6,1.0,0.6,1.0,0.7499999999999999
pflwiki,True,55.0,0.6,1.0,0.6,1.0,0.7499999999999999
pflwiki,True,56.0,0.6,1.0,0.6,1.0,0.7499999999999999
pflwiki,True,57.0,0.6,1.0,0.6,1.0,0.7499999999999999
pflwiki,True,58.0,0.6,1.0,0.6,1.0,0.7499999999999999
pflwiki,True,59.0,0.6,1.0,0.6,1.0,0.7499999999999999
pflwiki,True,60.0,0.6,1.0,0.6,1.0,0.7499999999999999
pflwiki,True,61.0,0.6,1.0,0.6,1.0,0.7499999999999999
pflwiki,True,62.0,0.6,1.0,0.6,1.0,0.7499999999999999
pflwiki,True,63.0,0.6,1.0,0.6,1.0,0.7499999999999999
pflwiki,True,64.0,0.6,1.0,0.6,1.0,0.7499999999999999
pflwiki,True,65.0,0.6,1.0,0.6,1.0,0.7499999999999999
pflwiki,True,66.0,0.6,1.0,0.6,1.0,0.7499999999999999
pflwiki,True,67.0,0.6,1.0,0.6,1.0,0.7499999999999999
pflwiki,True,68.0,0.6,1.0,0.6,1.0,0.7499999999999999
pflwiki,True,69.0,0.6,1.0,0.6,1.0,0.7499999999999999
pflwiki,True,70.0,0.6,1.0,0.6,1.0,0.7499999999999999
pflwiki,True,71.0,0.6,1.0,0.6,1.0,0.7499999999999999
pflwiki,True,72.0,0.6,1.0,0.6,1.0,0.7499999999999999
pflwiki,True,73.0,0.6,1.0,0.6,1.0,0.7499999999999999
pflwiki,True,74.0,0.6,1.0,0.6,1.0,0.7499999999999999
pflwiki,True,75.0,0.5,0.6666666666666666,0.4,1.0,0.5714285714285715
pflwiki,True,76.0,0.5,0.6666666666666666,0.4,1.0,0.5714285714285715
pflwiki,True,77.0,0.5,0.6666666666666666,0.4,1.0,0.5714285714285715
pflwiki,True,78.0,0.3333333333333333,0.3333333333333333,0.2,1.0,0.3333333333333333
pflwiki,True,79.0,0.3333333333333333,0.3333333333333333,0.2,1.0,0.3333333333333333
pflwiki,True,80.0,0.3333333333333333,0.3333333333333333,0.2,1.0,0.3333333333333333
pflwiki,True,81.0,0.3333333333333333,0.3333333333333333,0.2,1.0,0.3333333333333333
pflwiki,True,82.0,0.3333333333333333,0.3333333333333333,0.2,1.0,0.3333333333333333
pflwiki,True,83.0,0.3333333333333333,0.3333333333333333,0.2,1.0,0.3333333333333333
pflwiki,True,84.0,0.3333333333333333,0.3333333333333333,0.2,1.0,0.3333333333333333
pflwiki,True,85.0,0.3333333333333333,0.3333333333333333,0.2,1.0,0.3333333333333333
pflwiki,True,86.0,0.3333333333333333,0.3333333333333333,0.2,1.0,0.3333333333333333
pflwiki,True,87.0,0.5,0.3333333333333333,0.4,0.5,0.4
pflwiki,True,88.0,0.5,0.3333333333333333,0.4,0.5,0.4
pflwiki,True,89.0,0.5,0.3333333333333333,0.4,0.5,0.4
pflwiki,True,90.0,0.5,0.3333333333333333,0.4,0.5,0.4
pflwiki,True,91.0,0.5,0.3333333333333333,0.4,0.5,0.4
pflwiki,True,92.0,0.5,0.3333333333333333,0.4,0.5,0.4
pflwiki,True,93.0,0.5,0.3333333333333333,0.4,0.5,0.4
pflwiki,True,94.0,1.0,0.3333333333333333,0.6,0.0,0.5
pflwiki,True,95.0,1.0,0.0,0.4,0.0,0.0
pflwiki,True,96.0,1.0,0.0,0.4,0.0,0.0
pflwiki,True,97.0,1.0,0.0,0.4,0.0,0.0
pflwiki,True,98.0,1.0,0.0,0.4,0.0,0.0
pflwiki,True,99.0,1.0,0.0,0.4,0.0,0.0
pflwiki,False,0.0,0.06382978723404255,1.0,0.06382978723404255,1.0,0.12
pflwiki,False,1.0,0.06382978723404255,1.0,0.06382978723404255,1.0,0.12
pflwiki,False,2.0,0.06474820143884892,1.0,0.07801418439716312,0.9848484848484849,0.12162162162162161
pflwiki,False,3.0,0.06569343065693431,1.0,0.09219858156028368,0.9696969696969697,0.12328767123287672
pflwiki,False,4.0,0.06666666666666667,1.0,0.10638297872340426,0.9545454545454546,0.125
pflwiki,False,5.0,0.06716417910447761,1.0,0.11347517730496454,0.946969696969697,0.12587412587412586
pflwiki,False,6.0,0.06818181818181818,1.0,0.1276595744680851,0.9318181818181818,0.1276595744680851
pflwiki,False,7.0,0.0703125,1.0,0.15602836879432624,0.9015151515151515,0.13138686131386862
pflwiki,False,8.0,0.07563025210084033,1.0,0.2198581560283688,0.8333333333333334,0.140625
pflwiki,False,9.0,0.08571428571428572,1.0,0.3191489361702128,0.7272727272727273,0.15789473684210528
pflwiki,False,10.0,0.09278350515463918,1.0,0.375886524822695,0.6666666666666666,0.16981132075471697
pflwiki,False,11.0,0.0967741935483871,1.0,0.40425531914893614,0.6363636363636364,0.17647058823529413
pflwiki,False,12.0,0.0989010989010989,1.0,0.41843971631205673,0.6212121212121212,0.17999999999999997
pflwiki,False,13.0,0.10344827586206896,1.0,0.44680851063829785,0.5909090909090909,0.1875
pflwiki,False,14.0,0.10465116279069768,1.0,0.45390070921985815,0.5833333333333334,0.18947368421052632
pflwiki,False,15.0,0.10588235294117647,1.0,0.46099290780141844,0.5757575757575758,0.19148936170212766
pflwiki,False,16.0,0.10588235294117647,1.0,0.46099290780141844,0.5757575757575758,0.19148936170212766
pflwiki,False,17.0,0.10588235294117647,1.0,0.46099290780141844,0.5757575757575758,0.19148936170212766
pflwiki,False,18.0,0.10843373493975904,1.0,0.475177304964539,0.5606060606060606,0.1956521739130435
pflwiki,False,19.0,0.10975609756097561,1.0,0.48226950354609927,0.553030303030303,0.1978021978021978
pflwiki,False,20.0,0.10975609756097561,1.0,0.48226950354609927,0.553030303030303,0.1978021978021978
pflwiki,False,21.0,0.10975609756097561,1.0,0.48226950354609927,0.553030303030303,0.1978021978021978
pflwiki,False,22.0,0.1111111111111111,1.0,0.48936170212765956,0.5454545454545454,0.19999999999999998
pflwiki,False,23.0,0.11538461538461539,1.0,0.5106382978723404,0.5227272727272727,0.20689655172413793
pflwiki,False,24.0,0.11842105263157894,1.0,0.524822695035461,0.5075757575757576,0.2117647058823529
pflwiki,False,25.0,0.12,1.0,0.5319148936170213,0.5,0.21428571428571425
pflwiki,False,26.0,0.1232876712328767,1.0,0.5460992907801419,0.48484848484848486,0.2195121951219512
pflwiki,False,27.0,0.1232876712328767,1.0,0.5460992907801419,0.48484848484848486,0.2195121951219512
pflwiki,False,28.0,0.13043478260869565,1.0,0.574468085106383,0.45454545454545453,0.23076923076923078
pflwiki,False,29.0,0.13432835820895522,1.0,0.5886524822695035,0.4393939393939394,0.2368421052631579
pflwiki,False,30.0,0.13432835820895522,1.0,0.5886524822695035,0.4393939393939394,0.2368421052631579
pflwiki,False,31.0,0.13636363636363635,1.0,0.5957446808510638,0.4318181818181818,0.24000000000000002
pflwiki,False,32.0,0.13636363636363635,1.0,0.5957446808510638,0.4318181818181818,0.24000000000000002
pflwiki,False,33.0,0.140625,1.0,0.6099290780141844,0.4166666666666667,0.2465753424657534
pflwiki,False,34.0,0.14516129032258066,1.0,0.624113475177305,0.4015151515151515,0.2535211267605634
pflwiki,False,35.0,0.14516129032258066,1.0,0.624113475177305,0.4015151515151515,0.2535211267605634
pflwiki,False,36.0,0.14516129032258066,1.0,0.624113475177305,0.4015151515151515,0.2535211267605634
pflwiki,False,37.0,0.15,1.0,0.6382978723404256,0.38636363636363635,0.2608695652173913
pflwiki,False,38.0,0.15,1.0,0.6382978723404256,0.38636363636363635,0.2608695652173913
pflwiki,False,39.0,0.15254237288135594,1.0,0.6453900709219859,0.3787878787878788,0.2647058823529412
pflwiki,False,40.0,0.16071428571428573,1.0,0.6666666666666666,0.3560606060606061,0.27692307692307694
pflwiki,False,41.0,0.16071428571428573,1.0,0.6666666666666666,0.3560606060606061,0.27692307692307694
pflwiki,False,42.0,0.16363636363636364,1.0,0.6737588652482269,0.3484848484848485,0.28125
pflwiki,False,43.0,0.16363636363636364,1.0,0.6737588652482269,0.3484848484848485,0.28125
pflwiki,False,44.0,0.17307692307692307,1.0,0.6950354609929078,0.32575757575757575,0.29508196721311475
pflwiki,False,45.0,0.17307692307692307,1.0,0.6950354609929078,0.32575757575757575,0.29508196721311475
pflwiki,False,46.0,0.1836734693877551,1.0,0.7163120567375887,0.30303030303030304,0.3103448275862069
pflwiki,False,47.0,0.20454545454545456,1.0,0.75177304964539,0.26515151515151514,0.339622641509434
pflwiki,False,48.0,0.20454545454545456,1.0,0.75177304964539,0.26515151515151514,0.339622641509434
pflwiki,False,49.0,0.20930232558139536,1.0,0.7588652482269503,0.25757575757575757,0.3461538461538462
pflwiki,False,50.0,0.23076923076923078,1.0,0.7872340425531915,0.22727272727272727,0.375
pflwiki,False,51.0,0.23684210526315788,1.0,0.7943262411347518,0.2196969696969697,0.38297872340425526
pflwiki,False,52.0,0.23684210526315788,1.0,0.7943262411347518,0.2196969696969697,0.38297872340425526
pflwiki,False,53.0,0.24324324324324326,1.0,0.8014184397163121,0.21212121212121213,0.391304347826087
pflwiki,False,54.0,0.24324324324324326,1.0,0.8014184397163121,0.21212121212121213,0.391304347826087
pflwiki,False,55.0,0.2571428571428571,1.0,0.8156028368794326,0.19696969696969696,0.40909090909090906
pflwiki,False,56.0,0.2571428571428571,1.0,0.8156028368794326,0.19696969696969696,0.40909090909090906
pflwiki,False,57.0,0.2571428571428571,1.0,0.8156028368794326,0.19696969696969696,0.40909090909090906
pflwiki,False,58.0,0.2571428571428571,1.0,0.8156028368794326,0.19696969696969696,0.40909090909090906
pflwiki,False,59.0,0.2647058823529412,1.0,0.8226950354609929,0.1893939393939394,0.4186046511627907
pflwiki,False,60.0,0.2647058823529412,1.0,0.8226950354609929,0.1893939393939394,0.4186046511627907
pflwiki,False,61.0,0.2647058823529412,1.0,0.8226950354609929,0.1893939393939394,0.4186046511627907
pflwiki,False,62.0,0.2727272727272727,1.0,0.8297872340425532,0.18181818181818182,0.42857142857142855
pflwiki,False,63.0,0.2727272727272727,1.0,0.8297872340425532,0.18181818181818182,0.42857142857142855
pflwiki,False,64.0,0.28125,1.0,0.8368794326241135,0.17424242424242425,0.43902439024390244
pflwiki,False,65.0,0.2903225806451613,1.0,0.8439716312056738,0.16666666666666666,0.45000000000000007
pflwiki,False,66.0,0.2903225806451613,1.0,0.8439716312056738,0.16666666666666666,0.45000000000000007
pflwiki,False,67.0,0.2903225806451613,1.0,0.8439716312056738,0.16666666666666666,0.45000000000000007
pflwiki,False,68.0,0.3,1.0,0.851063829787234,0.1590909090909091,0.4615384615384615
pflwiki,False,69.0,0.3333333333333333,1.0,0.8723404255319149,0.13636363636363635,0.5
pflwiki,False,70.0,0.3333333333333333,1.0,0.8723404255319149,0.13636363636363635,0.5
pflwiki,False,71.0,0.36,1.0,0.8865248226950354,0.12121212121212122,0.5294117647058824
pflwiki,False,72.0,0.375,1.0,0.8936170212765957,0.11363636363636363,0.5454545454545454
pflwiki,False,73.0,0.391304347826087,1.0,0.900709219858156,0.10606060606060606,0.5625
pflwiki,False,74.0,0.391304347826087,1.0,0.900709219858156,0.10606060606060606,0.5625
pflwiki,False,75.0,0.391304347826087,1.0,0.900709219858156,0.10606060606060606,0.5625
pflwiki,False,76.0,0.42857142857142855,1.0,0.9148936170212766,0.09090909090909091,0.6
pflwiki,False,77.0,0.45,1.0,0.9219858156028369,0.08333333333333333,0.6206896551724138
pflwiki,False,78.0,0.47368421052631576,1.0,0.9290780141843972,0.07575757575757576,0.6428571428571429
pflwiki,False,79.0,0.5294117647058824,1.0,0.9432624113475178,0.06060606060606061,0.6923076923076924
pflwiki,False,80.0,0.6,1.0,0.9574468085106383,0.045454545454545456,0.7499999999999999
pflwiki,False,81.0,0.6428571428571429,1.0,0.9645390070921985,0.03787878787878788,0.782608695652174
pflwiki,False,82.0,0.75,1.0,0.9787234042553191,0.022727272727272728,0.8571428571428571
pflwiki,False,83.0,0.75,1.0,0.9787234042553191,0.022727272727272728,0.8571428571428571
pflwiki,False,84.0,0.9,1.0,0.9929078014184397,0.007575757575757576,0.9473684210526316
pflwiki,False,85.0,0.9,1.0,0.9929078014184397,0.007575757575757576,0.9473684210526316
pflwiki,False,86.0,1.0,0.8888888888888888,0.9929078014184397,0.0,0.9411764705882353
pflwiki,False,87.0,1.0,0.5555555555555556,0.9716312056737588,0.0,0.7142857142857143
pflwiki,False,88.0,1.0,0.2222222222222222,0.950354609929078,0.0,0.3636363636363636
pflwiki,False,89.0,1.0,0.2222222222222222,0.950354609929078,0.0,0.3636363636363636
pflwiki,False,90.0,1.0,0.1111111111111111,0.9432624113475178,0.0,0.19999999999999998
pflwiki,False,91.0,1.0,0.1111111111111111,0.9432624113475178,0.0,0.19999999999999998
pflwiki,False,92.0,1.0,0.1111111111111111,0.9432624113475178,0.0,0.19999999999999998
pflwiki,False,93.0,1.0,0.1111111111111111,0.9432624113475178,0.0,0.19999999999999998
pflwiki,False,94.0,1.0,0.1111111111111111,0.9432624113475178,0.0,0.19999999999999998
pflwiki,False,95.0,1.0,0.1111111111111111,0.9432624113475178,0.0,0.19999999999999998
pflwiki,False,96.0,1.0,0.1111111111111111,0.9432624113475178,0.0,0.19999999999999998
pflwiki,False,97.0,1.0,0.1111111111111111,0.9432624113475178,0.0,0.19999999999999998
pflwiki,False,98.0,1.0,0.1111111111111111,0.9432624113475178,0.0,0.19999999999999998
pflwiki,False,99.0,1.0,0.1111111111111111,0.9432624113475178,0.0,0.19999999999999998
