wiki_db,user_is_anonymous,threshold,precision,recall,accuracy,fpr,F1
rowiki,True,0.0,0.3761764536058664,1.0,0.3761764536058664,1.0,0.5466979944616934
rowiki,True,1.0,0.3761764536058664,1.0,0.3761764536058664,1.0,0.5466979944616934
rowiki,True,2.0,0.3761764536058664,1.0,0.3761764536058664,1.0,0.5466979944616934
rowiki,True,3.0,0.3761764536058664,1.0,0.3761764536058664,1.0,0.5466979944616934
rowiki,True,4.0,0.3761764536058664,1.0,0.3761764536058664,1.0,0.5466979944616934
rowiki,True,5.0,0.3761764536058664,1.0,0.3761764536058664,1.0,0.5466979944616934
rowiki,True,6.0,0.3761764536058664,1.0,0.3761764536058664,1.0,0.5466979944616934
rowiki,True,7.0,0.3761764536058664,1.0,0.3761764536058664,1.0,0.5466979944616934
rowiki,True,8.0,0.3761764536058664,1.0,0.3761764536058664,1.0,0.5466979944616934
rowiki,True,9.0,0.3761764536058664,1.0,0.3761764536058664,1.0,0.5466979944616934
rowiki,True,10.0,0.3761873141438346,1.0,0.37620532363300424,0.9999537208441318,0.5467094635701848
rowiki,True,11.0,0.37623076256749344,1.0,0.3763208037415555,0.999768604220659,0.5467553448167342
rowiki,True,12.0,0.37627422102861763,1.0,0.3764362838501068,0.9995834875971862,0.5468012337648712
rowiki,True,13.0,0.3763176895306859,1.0,0.37655176395865814,0.9993983709737134,0.5468471304165355
rowiki,True,14.0,0.37634315424610054,0.9999232540291635,0.3766383740400716,0.9992132543502407,0.5468625393494229
rowiki,True,15.0,0.3764083896689201,0.9999232540291635,0.37681159420289856,0.9989355794150314,0.5469314079422383
rowiki,True,16.0,0.37653892838564246,0.9999232540291635,0.37715803452855245,0.9983802295446131,0.5470691971783674
rowiki,True,17.0,0.3766477798334875,0.9999232540291635,0.37744673479993074,0.9979174379859311,0.5471840745873756
rowiki,True,18.0,0.376705991209808,0.999846508058327,0.3776199549627577,0.9975934838948538,0.5472340068047213
rowiki,True,19.0,0.3767931513188339,0.999846508058327,0.37785091517986025,0.9972232506479082,0.5473259673150445
rowiki,True,20.0,0.3768803517704235,0.999846508058327,0.37808187539696286,0.9968530174009627,0.547417958737762
rowiki,True,21.0,0.3770112281514064,0.999846508058327,0.37842831572261676,0.9962976675305443,0.5475560038666835
rowiki,True,22.0,0.37717495150690483,0.999846508058327,0.3788613661296842,0.9956034801925213,0.5477286582161401
rowiki,True,23.0,0.3772951057051839,0.999846508058327,0.3791789364282002,0.9950944094779711,0.5478553406223717
rowiki,True,24.0,0.3773754345307068,0.9997697620874904,0.37940989664530284,0.9946778970751573,0.5479284963196636
rowiki,True,25.0,0.37748478701825555,0.9997697620874904,0.3796985969166811,0.9942151055164754,0.5480437526293647
rowiki,True,26.0,0.3775942028985507,0.9997697620874904,0.37998729718805935,0.9937523139577934,0.5481590574374079
rowiki,True,27.0,0.3776927314371865,0.9997697620874904,0.38024712743229977,0.9933358015549797,0.5482628732560342
rowiki,True,28.0,0.3778351412494924,0.9997697620874904,0.3806224377850915,0.9927341725286931,0.5484128988801885
rowiki,True,29.0,0.3779118679469699,0.9997697620874904,0.3808245279750563,0.9924102184376157,0.54849371592177
rowiki,True,30.0,0.3780763872765266,0.9997697620874904,0.38125757838212365,0.9917160310995927,0.5486669755296297
rowiki,True,31.0,0.37819712585280885,0.9997697620874904,0.38157514868063974,0.9912069603850425,0.548794102159031
rowiki,True,32.0,0.378306955132859,0.9997697620874904,0.381863848952018,0.9907441688263606,0.5489097229537554
rowiki,True,33.0,0.3783987915407855,0.9996930161166538,0.38212367919625845,0.9902813772676786,0.5489948160323682
rowiki,True,34.0,0.3785527462946818,0.9996930161166538,0.382527859576188,0.9896334690855239,0.5491568296795953
rowiki,True,35.0,0.37880594410678453,0.9996930161166538,0.383191870200358,0.9885690485005554,0.549423202648839
rowiki,True,36.0,0.37899729391567494,0.9996162701458173,0.38371153068883884,0.9876897445390596,0.549612844694812
rowiki,True,37.0,0.3791778269477117,0.9995395241749808,0.3842023211501819,0.986856719733432,0.5497910422558995
rowiki,True,38.0,0.37939874155208575,0.9995395241749808,0.3847797216929384,0.9859311366160681,0.5500232273322353
rowiki,True,39.0,0.3795143848194246,0.9992325402916347,0.38515503204573015,0.9851443909663088,0.5500982318271119
rowiki,True,40.0,0.3796331398909335,0.9990790483499616,0.38550147237138405,0.984496482784154,0.5501996999218106
rowiki,True,41.0,0.37978819616652565,0.9990790483499616,0.3859056527513136,0.9838485746019993,0.5503625256304563
rowiki,True,42.0,0.379868044607929,0.9986185725249425,0.38622322304982964,0.9830618289522399,0.550376448693004
rowiki,True,43.0,0.37984926384669315,0.9979278587874136,0.386338703158381,0.9824601999259533,0.550251787905717
rowiki,True,44.0,0.3800725061396328,0.9976976208749041,0.3869738437554131,0.9813032210292484,0.5504509463522039
rowiki,True,45.0,0.38039468290683376,0.9970836531082118,0.3879554246780992,0.9793594964827842,0.5506951508986098
rowiki,True,46.0,0.3805880456131094,0.9963929393706831,0.38861943530226917,0.9778785634950018,0.5507922703264536
rowiki,True,47.0,0.38089228059876723,0.9959324635456639,0.38951440614354177,0.9761662347278786,0.5510403397027601
rowiki,True,48.0,0.38086000646621404,0.9944742900997697,0.3897742363877822,0.974870418363569,0.5507831594159778
rowiki,True,49.0,0.38103504074847744,0.993937068303914,0.3903516369305387,0.9736208811551277,0.5508836853187009
rowiki,True,50.0,0.381453323903819,0.9934765924788949,0.39153530804318953,0.9714457608293224,0.5512498403100116
rowiki,True,51.0,0.38179564370462193,0.992785878741366,0.3925746290201513,0.9693631988152536,0.5515006821282402
rowiki,True,52.0,0.3819949181587189,0.9922486569455103,0.39320976961718346,0.9680211032950758,0.551625565321273
rowiki,True,53.0,0.3819865668550463,0.9907904834996163,0.39352733991569955,0.9666327286190299,0.5513912913490081
rowiki,True,54.0,0.38242878738477043,0.990176515732924,0.39479762110976385,0.9642262125138837,0.5517565804947934
rowiki,True,55.0,0.38273364208526306,0.9894090560245588,0.39575033200531207,0.9622362088115513,0.551954446204564
rowiki,True,56.0,0.3831792371495674,0.9891788181120491,0.39693400311796295,0.9601999259533506,0.5523817687016521
rowiki,True,57.0,0.3835616438356164,0.9884881043745203,0.3980599341763381,0.9579785264716771,0.552671100622184
rowiki,True,58.0,0.3838950193856248,0.9878741366078281,0.3990415150990242,0.9560348019252128,0.5529209621993127
rowiki,True,59.0,0.38462458153993306,0.9875671527244819,0.4009469368901207,0.9527952610144391,0.5536290496063331
rowiki,True,60.0,0.38548222741713123,0.9871066768994627,0.40319879900687106,0.9489078119215105,0.5544443486507458
rowiki,True,61.0,0.38616151904819135,0.986415963161934,0.4050464807436919,0.9455294335431321,0.5550373537159391
rowiki,True,62.0,0.38713859326479544,0.9854950115118957,0.407673653213234,0.9407626804887079,0.555899478343687
rowiki,True,63.0,0.38820148237785507,0.9848042977743668,0.4104451758184653,0.9359033691225472,0.5568840186611695
rowiki,True,64.0,0.38943052391799543,0.9840368380660015,0.4136208788036261,0.9303498704183636,0.558024154063758
rowiki,True,65.0,0.3903754723881507,0.9830391404451266,0.4161325711646169,0.9257219548315438,0.5588325116705205
rowiki,True,66.0,0.39150784667625194,0.9821949347659248,0.41904844390553725,0.9205386893743058,0.5598547649773616
rowiki,True,67.0,0.3925311203319502,0.9801227935533384,0.4219354466193198,0.9146612365790447,0.560561834741578
rowiki,True,68.0,0.3935459940652819,0.9771297006907137,0.4249667994687915,0.9079970381340244,0.5611035212198668
rowiki,True,69.0,0.3951417004048583,0.9737528779739064,0.4294127836480166,0.8988337652721214,0.5621621621621622
rowiki,True,70.0,0.39707405895833986,0.9706830391404452,0.43452277845141174,0.8887911884487227,0.5635986899271439
rowiki,True,71.0,0.3997522787182012,0.9660015349194168,0.44156706507304117,0.8746760459089227,0.565491834580048
rowiki,True,72.0,0.40341896851458375,0.961703760552571,0.45060338356718055,0.8575990373935579,0.5684024312800509
rowiki,True,73.0,0.40748005753890415,0.9565617805065234,0.4604191927940412,0.8387634209552017,0.5715071759365399
rowiki,True,74.0,0.4122459839691356,0.9512663085188028,0.4714764131878284,0.8178452425027768,0.5752140520221825
rowiki,True,75.0,0.41576673866090713,0.945510360706063,0.47970437092210866,0.8011847463902259,0.5775631709718251
rowiki,True,76.0,0.4196535757160007,0.9389869531849578,0.4885674692534211,0.7830433172898926,0.5800640037928174
rowiki,True,77.0,0.42307289667446,0.9304681504221028,0.4965355967434609,0.7651332839689005,0.5816681459447789
rowiki,True,78.0,0.42776648479012874,0.9205679201841903,0.5068710664588024,0.7425953350610884,0.584110442891578
rowiki,True,79.0,0.4319509345794392,0.9080583269378357,0.5161960852243201,0.7201036653091447,0.5854237791301766
rowiki,True,80.0,0.4368509840674789,0.8943207981580967,0.5265604249667994,0.6952054794520548,0.5869789699030349
rowiki,True,81.0,0.44283445042811204,0.8772064466615502,0.5386280963104105,0.6655405405405406,0.5885533328184135
rowiki,True,82.0,0.4503540392661732,0.859094397544129,0.5525723194179802,0.6322658274713069,0.5909306867972339
rowiki,True,83.0,0.45670613924582176,0.834689178818112,0.5642935504359374,0.5987597186227324,0.5903810661165997
rowiki,True,84.0,0.46443551591681753,0.8072908672294704,0.5773139326750967,0.5613661606812291,0.5896465708119623
rowiki,True,85.0,0.4713679003126896,0.7751343054489639,0.5884000230960217,0.524203998519067,0.5862379197260353
rowiki,True,86.0,0.48037895786586887,0.7393706830391404,0.601102835036665,0.4822750833024806,0.5823787214749887
rowiki,True,87.0,0.49013387816549275,0.6996162701458174,0.6132282464345516,0.4388652350981118,0.5764330203294445
rowiki,True,88.0,0.5013801609208903,0.6551803530314658,0.6251804376696114,0.3929100333209922,0.5680540306750508
rowiki,True,89.0,0.5138049762879231,0.6069838833461243,0.6360933079277095,0.34635320251758606,0.5565211272560954
rowiki,True,90.0,0.5280783854928341,0.5542594013814275,0.6459957272359836,0.2986856719733432,0.5408522429416611
rowiki,True,91.0,0.5472171151596189,0.5025326170376055,0.6564466770598765,0.25074046649389115,0.52392382781245
rowiki,True,92.0,0.5695071666993913,0.4452033768227168,0.6647035048212945,0.2029340984820437,0.4997415575465196
rowiki,True,93.0,0.5911095221070194,0.3806600153491942,0.6679658178878688,0.15878378378378377,0.4630969609261939
rowiki,True,94.0,0.6237849331713244,0.31519570222563315,0.6708816906287892,0.11463346908552388,0.41878250229427955
rowiki,True,95.0,0.6582536128638307,0.2481964696853415,0.6687164385934523,0.0777027027027027,0.36047483698378197
rowiki,True,96.0,0.7038167938931298,0.17689946277820415,0.6623650326231306,0.04489078119215106,0.2827353572523766
rowiki,True,97.0,0.7733990147783252,0.10844205679201842,0.6526647035048213,0.019159570529433543,0.19021336743622533
rowiki,True,98.0,0.8435754189944135,0.04635456638526477,0.6380275997459438,0.00518326545723806,0.08788011057762257
rowiki,True,99.0,0.9049586776859504,0.016807367613200307,0.6294820717131474,0.0010644205849685302,0.03300180831826401
rowiki,False,0.0,0.028500569381242378,1.0,0.028500569381242378,1.0,0.05542159183905682
rowiki,False,1.0,0.028511092399893738,1.0,0.02886965445535196,0.9996200871946219,0.05544148742891416
rowiki,False,2.0,0.028753209570769614,0.9992103600758054,0.038024764708265255,0.9901732309730864,0.05589790482248638
rowiki,False,3.0,0.02923919828004716,0.9987365761212887,0.0549216594425015,0.9727667381705809,0.0568150680316418
rowiki,False,4.0,0.030100190839694656,0.9963676563487049,0.0848760639327365,0.9418640746111685,0.05843506289016912
rowiki,False,5.0,0.031177714461575117,0.9919456727732154,0.12127145306993262,0.904271239210708,0.060455267337215464
rowiki,False,6.0,0.03240846267017551,0.9879974731522426,0.15895413892902313,0.8653672413233938,0.06275831627944305
rowiki,False,7.0,0.03404018162048749,0.9838913455464309,0.20380697750831567,0.8190781091461692,0.06580371901917605
rowiki,False,8.0,0.035940803382663845,0.979943145925458,0.2502756885462099,0.7711303332576597,0.06933851835710733
rowiki,False,9.0,0.03779515016358089,0.9742577384712571,0.2923648901071697,0.727639583207854,0.07276737794448966
rowiki,False,10.0,0.03960268317853457,0.9696778269109286,0.3289313186689532,0.6898660575706893,0.07609746424410677
rowiki,False,11.0,0.04128732024729103,0.9639924194567278,0.3610057118165737,0.6566839171790084,0.07918326047193433
rowiki,False,12.0,0.042999538859919834,0.9572015161086544,0.3916172677802233,0.6249750971789158,0.08230190037138377
rowiki,False,13.0,0.04474404354680389,0.9502526847757422,0.42038339837332506,0.5951612081227211,0.08546389409692631
rowiki,False,14.0,0.046669994851713754,0.9448831332912192,0.4483348411808922,0.5662322379180779,0.08894670333754552
rowiki,False,15.0,0.04850536275029566,0.9391977258370183,0.473185069158441,0.5404861957292241,0.09224660105322754
rowiki,False,16.0,0.05038977875577845,0.9330385344283006,0.4969550481385959,0.5158381942095729,0.09561572448170387
rowiki,False,17.0,0.05208324049730404,0.9229311433986103,0.5190686453227469,0.49277934015632024,0.0986021242312527
rowiki,False,18.0,0.05384236590509993,0.9151926721415035,0.5392242911991214,0.4718053734496546,0.10170145927115416
rowiki,False,19.0,0.05573016704499156,0.9072962728995578,0.5592224007633759,0.45098893156473113,0.10501014458315816
rowiki,False,20.0,0.05776975279212018,0.8993998736576121,0.5790494709030432,0.4303485468335194,0.1085661452822815
rowiki,False,21.0,0.059692483639367175,0.8902400505369551,0.5971931530217716,0.41140387047753185,0.11188297640077009
rowiki,False,22.0,0.06161561488583769,0.8809222994314593,0.6142385819931494,0.3935850332887013,0.11517535437379338
rowiki,False,23.0,0.06385483759263107,0.8736576121288693,0.6313560275643536,0.3757522968508935,0.11901125142525223
rowiki,False,24.0,0.06592414208308248,0.8646557169930512,0.6469746276516737,0.35941141313664354,0.12250788749412633
rowiki,False,25.0,0.06820669610840599,0.8561276058117498,0.6625617204765698,0.3431168602523177,0.1263474379741525
rowiki,False,26.0,0.07073408516020237,0.8479153506001263,0.6781848216013792,0.3267945088700374,0.13057541709227102
rowiki,False,27.0,0.07316871634555795,0.8390713834491472,0.6924936197793592,0.3118064853895728,0.13460003800114
rowiki,False,28.0,0.07574576222241473,0.82849020846494,0.7069914615318831,0.29657290851051016,0.13880142876041804
rowiki,False,29.0,0.0786809328510677,0.8210675931775111,0.7208861642608622,0.2820528264122795,0.143600933585604
rowiki,False,30.0,0.08119122754158671,0.8085912823752369,0.7337501294048279,0.26844546166355476,0.14756531638637901
rowiki,False,31.0,0.08393978666134981,0.7978521794061908,0.7460784710875857,0.2554403977038441,0.1518987341772152
rowiki,False,32.0,0.08694593701636323,0.7896399241945673,0.7576686426221244,0.24326928868276818,0.15664405770767087
rowiki,False,33.0,0.09007058652306797,0.7819014529374605,0.7686556751331182,0.23173291203165322,0.16153344208809137
rowiki,False,34.0,0.09302812345397116,0.7721099178774479,0.7789630509832517,0.22083590083349164,0.16604965526610738
rowiki,False,35.0,0.09635173058933583,0.76452937460518,0.7889328490216995,0.21035123402165504,0.17113566062748564
rowiki,False,36.0,0.0999375,0.7575805432722679,0.7986325848107989,0.20016308452133302,0.17658102039313847
rowiki,False,37.0,0.1038214332560885,0.75,0.8083638278623223,0.18992397110809445,0.182394285055882
rowiki,False,38.0,0.10791763274488649,0.7424194567277321,0.8177484910271817,0.1800416050852719,0.18844326859479285
rowiki,False,39.0,0.11250724917842644,0.7353126974099811,0.8271421562670196,0.17016387214544174,0.19515466510185264
rowiki,False,40.0,0.11724277852451118,0.7301010739102969,0.8356356140090291,0.1612683528000037,0.20204095011253634
rowiki,False,41.0,0.12213149749172804,0.7228363866077069,0.8440210468512992,0.15242379736748224,0.2089572680788897
rowiki,False,42.0,0.12674043983751226,0.7144662034112444,0.8515602846456108,0.144417829956588,0.21529017060461134
rowiki,False,43.0,0.13193443008917272,0.707991156032849,0.8589149799028676,0.13665741594429182,0.22242067921907172
rowiki,False,44.0,0.13697743248242694,0.7016740366392925,0.8654999977494813,0.12969389220669109,0.22920965744944283
rowiki,False,45.0,0.14197749766272286,0.6955148452305748,0.8715268869474414,0.12330950384314235,0.2358169794650746
rowiki,False,46.0,0.14648352018314648,0.6871446620341124,0.8769731423093023,0.11745792002372138,0.24148744276397943
rowiki,False,47.0,0.15120854412591345,0.6797220467466835,0.882126830234369,0.11193528509676194,0.24738475686860562
rowiki,False,48.0,0.15618936037784206,0.6737207833228048,0.8869654455351959,0.10677866372620333,0.25358894337940263
rowiki,False,49.0,0.1613457572748797,0.6672457359444094,0.8916690297113484,0.10174713559643994,0.25985607970969926
rowiki,False,50.0,0.1662093920235397,0.6601389766266582,0.8959315122135653,0.09715111726796362,0.26555700263651094
rowiki,False,51.0,0.17071254290558704,0.6519267214150347,0.8998204086041832,0.0929072132469109,0.2705731983089175
rowiki,False,52.0,0.17556463755646376,0.6445041061276058,0.9036102821700402,0.08878840246665338,0.2759576698110018
rowiki,False,53.0,0.18023697742007602,0.6366077068856602,0.9071210914115704,0.0849429435829484,0.2809352894030735
rowiki,False,54.0,0.1850821040912886,0.6301326595072647,0.9103843435911978,0.08139400201075801,0.28612405880243813
rowiki,False,55.0,0.19004807692307693,0.6242893240682249,0.9134630532337704,0.07805354917322634,0.291390240306649
rowiki,False,56.0,0.19542007583316703,0.618603916614024,0.916541762876343,0.07471772941868708,0.2970124355474674
rowiki,False,57.0,0.20011349566652908,0.6126026531901453,0.9191703687700015,0.07183595179740454,0.3016798880074662
rowiki,False,58.0,0.20568892691012136,0.6075489576753,0.9219475089008017,0.06882908093532679,0.30732973836628724
rowiki,False,59.0,0.21033414472228368,0.600442198357549,0.9243645660324705,0.06613262663374089,0.31153720091773185
rowiki,False,60.0,0.21509930742373076,0.5934933670246367,0.9266916024143566,0.06353346707499571,0.31575851783388653
rowiki,False,61.0,0.22129200807505048,0.5885975994946304,0.9292436906706996,0.06076288344553116,0.32165357728488825
rowiki,False,62.0,0.22539702005027898,0.5805432722678459,0.9311836378285194,0.05852973744318682,0.3247206395477232
rowiki,False,63.0,0.23096495133897335,0.5734365129500948,0.9334251544981118,0.056013973378305125,0.3292976012333923
rowiki,False,64.0,0.23743386243386244,0.5669614655716994,0.9357611929549762,0.05341944690255237,0.33470072720492267
rowiki,False,65.0,0.24303745369735216,0.5595388502842704,0.9377776577501113,0.05112607082130662,0.3388809182209469
rowiki,False,66.0,0.248560255954497,0.5521162349968415,0.9396635924580616,0.04896705414684093,0.34279550914350154
rowiki,False,67.0,0.2553427493899283,0.5453253316487682,0.9417160655531099,0.046655145733625523,0.3478217073784941
rowiki,False,68.0,0.26300400123114803,0.5397978521794062,0.9437730396856475,0.04437566890135703,0.3536837748344371
rowiki,False,69.0,0.27046947604550553,0.5331648768161719,0.9457084858059783,0.04218885372893685,0.3588816838524503
rowiki,False,70.0,0.27872962808190554,0.5266898294377764,0.9476664371137548,0.039983506224547,0.36454063507678847
rowiki,False,71.0,0.28559020237991833,0.5192672141503475,0.9492778085348673,0.038107107612618665,0.36850658447744467
rowiki,False,72.0,0.29365509761388287,0.5131080227416298,0.9509476934433387,0.03620754358572825,0.37353414578063926
rowiki,False,73.0,0.30279898218829515,0.5074226152874289,0.9526625887267015,0.03427554797789093,0.3792716756182494
rowiki,False,74.0,0.31079757005682934,0.5009475679090335,0.9541164238356942,0.032589105768651636,0.38360140282984645
rowiki,False,75.0,0.31769505354411015,0.49194567277321544,0.9554082215950777,0.030995325219260652,0.3860692817748033
rowiki,False,76.0,0.3255739455419114,0.48152242577384713,0.9567945411417331,0.029262552180097202,0.3884818755176148
rowiki,False,77.0,0.3334823923979877,0.4710991787744788,0.9580908399386059,0.027622440800782064,0.3905216992865091
rowiki,False,78.0,0.34227166276346604,0.461623499684144,0.9593736356230111,0.026024027168398668,0.39308768154921997
rowiki,False,79.0,0.3520345252774353,0.4508843967150979,0.9606969406448186,0.024346851125144203,0.3953746018556986
rowiki,False,80.0,0.36266597240302006,0.4399873657612129,0.9620022415166696,0.022683574330866988,0.39760239760239763
rowiki,False,81.0,0.3733645503374191,0.4281427668982944,0.9632220226762269,0.021080527615491177,0.39888177738541897
rowiki,False,82.0,0.38519061583577713,0.41487681617182565,0.9644508059107624,0.019426516987198793,0.3994829683698297
rowiki,False,83.0,0.39625,0.4005053695514845,0.965522052833178,0.017902232682694044,0.39836632108074144
rowiki,False,84.0,0.40909853953332215,0.3848704990524321,0.9666248070180177,0.016308452133303064,0.396614858816828
rowiki,False,85.0,0.42593263310394786,0.37144662034112447,0.9678175819526401,0.01468687308595759,0.3968280749114223
rowiki,False,86.0,0.44337016574585636,0.35486418193303854,0.9689158350999906,0.013069927121604529,0.39421052631578946
rowiki,False,87.0,0.4585945945945946,0.3349652558433354,0.9697755332604165,0.01160123981300877,0.38714976727206357
rowiki,False,88.0,0.4782711944906198,0.3180669614655717,0.9706757407582448,0.010178883334337169,0.3820544437067248
rowiki,False,89.0,0.49162456793406006,0.292008843967151,0.9712158652569417,0.00885845468149871,0.36639254929158827
rowiki,False,90.0,0.5099732063114022,0.27053063802905875,0.9718010001305301,0.007626054605516149,0.3535238881436384
rowiki,False,91.0,0.5319293478260869,0.24731522425773847,0.9723456256667162,0.006384388363548757,0.33764553686934023
rowiki,False,92.0,0.5568454763811049,0.2196778269109286,0.9727777252656737,0.005128822872604117,0.31506228765571914
rowiki,False,93.0,0.5895196506550219,0.19188250157927986,0.9731603134522507,0.003919588211583634,0.2895269867746932
rowiki,False,94.0,0.6123839009287926,0.1561907770056854,0.973133307227316,0.0029003099532521927,0.24889895558072228
rowiki,False,95.0,0.6453441295546559,0.12586860391661403,0.9731153030773594,0.0020292903506780517,0.21065151314920047
rowiki,False,96.0,0.6923076923076923,0.09665192672141504,0.9730297833650656,0.001260198573937055,0.16962305986696233
rowiki,False,97.0,0.7442748091603053,0.06159191408717625,0.9726516962159778,0.0006208331209836961,0.11376896149358226
rowiki,False,98.0,0.7829457364341085,0.031901452937460516,0.9721565820921723,0.00025945264757527603,0.061305007587253414
rowiki,False,99.0,0.9315068493150684,0.010739102969046115,0.9717829959805735,2.3165414962078214e-05,0.02123341139734582
