wiki_db,user_is_anonymous,threshold,precision,recall,accuracy,fpr,F1
ruwiki,True,0.0,0.3454800804793541,1.0,0.3454800804793541,1.0,0.5135417246106979
ruwiki,True,1.0,0.3454800804793541,1.0,0.3454800804793541,1.0,0.5135417246106979
ruwiki,True,2.0,0.3454800804793541,1.0,0.3454800804793541,1.0,0.5135417246106979
ruwiki,True,3.0,0.3454800804793541,1.0,0.3454800804793541,1.0,0.5135417246106979
ruwiki,True,4.0,0.3454800804793541,1.0,0.3454800804793541,1.0,0.5135417246106979
ruwiki,True,5.0,0.3454800804793541,1.0,0.3454800804793541,1.0,0.5135417246106979
ruwiki,True,6.0,0.3454800804793541,1.0,0.3454800804793541,1.0,0.5135417246106979
ruwiki,True,7.0,0.34548109448720676,1.0,0.34548301553967686,0.9999955157051217,0.5135428448645388
ruwiki,True,8.0,0.34548667163679697,1.0,0.34549915837145245,0.9999708520832913,0.513549006348029
ruwiki,True,9.0,0.3454994012116658,0.9999957522003602,0.3455373141556492,0.9999103141024347,0.5135625092714596
ruwiki,True,10.0,0.3455172029154399,0.9999915044007204,0.3455901452414601,0.9998273546471869,0.5135816151333946
ruwiki,True,11.0,0.3455435749450304,0.9999915044007204,0.3456664568098536,0.9997107629803521,0.5136107480948007
ruwiki,True,12.0,0.34560044394138917,0.9999872566010807,0.3458322877180933,0.9994551581722911,0.5136730064903823
ruwiki,True,13.0,0.34564440796573614,0.9999617698032419,0.3459673004929434,0.9992354277232562,0.513718203174527
ruwiki,True,14.0,0.3457196440661289,0.9999532742039623,0.3461874300171554,0.9988946213125083,0.5138001743915123
ruwiki,True,15.0,0.34578938168271967,0.999940530805043,0.34639288423975334,0.9985739942287125,0.5138755030381486
ruwiki,True,16.0,0.34586468374832685,0.9999320352057635,0.34661301376396536,0.9982331878179646,0.5139575275455254
ruwiki,True,17.0,0.3459329025545466,0.9999235396064838,0.3468125978659176,0.9979237714713645,0.5140317221846753
ruwiki,True,18.0,0.3460103040503296,0.9999150440072043,0.3470385975107753,0.99757399647086,0.5141160449957466
ruwiki,True,19.0,0.34609107590246657,0.9998853094097258,0.3472807399874086,0.9971883471113293,0.5142012687427914
ruwiki,True,20.0,0.3461829209464309,0.9998683182111666,0.3475507655371087,0.9967668233927727,0.514300384548156
ruwiki,True,21.0,0.3462737990508331,0.9998513270126075,0.34781785602648596,0.9963497839690942,0.5143984177803032
ruwiki,True,22.0,0.34638137563645993,0.9998470792129677,0.3481289724207057,0.9958722065645593,0.5145165450579043
ruwiki,True,23.0,0.3464765594639472,0.9998215924151289,0.3484107382116971,0.9954282613716112,0.5146181697334361
ruwiki,True,24.0,0.3465835381359988,0.9997961056172903,0.34872625719640105,0.9949327467875633,0.5147327847789835
ruwiki,True,25.0,0.3466929262605268,0.9997493798212526,0.3490549839525577,0.9944058421393674,0.5148472184092602
ruwiki,True,26.0,0.34680925056511913,0.9997238930234139,0.3493969184801671,0.993869968901415,0.5149720907537356
ruwiki,True,27.0,0.3469073669499996,0.9996176980324192,0.34971096993470957,0.9933340956634626,0.5150661545027743
ruwiki,True,28.0,0.3470425833778231,0.9995709722363816,0.3501130731989369,0.9926950836433103,0.5152089714649787
ruwiki,True,29.0,0.3471542880076254,0.9994222992489891,0.3504784882091289,0.992058313770597,0.5153122963790375
ruwiki,True,30.0,0.3472886114891896,0.9993118564583545,0.3508967343051318,0.9913610059170271,0.5154455762265863
ruwiki,True,31.0,0.34746572641101126,0.9991971658680804,0.35143825293469344,0.990473115531131,0.5156253596304231
ruwiki,True,32.0,0.3476325260691877,0.999065484079247,0.35195482355151103,0.9896143730619438,0.5157914474095403
ruwiki,True,33.0,0.3477924570995875,0.998925306691134,0.3524537838063917,0.9887780520671479,0.5159487699860132
ruwiki,True,34.0,0.3479642937478542,0.9987936249023006,0.352983562194662,0.9878991302710084,0.5161202521642931
ruwiki,True,35.0,0.3481511099263998,0.9986407041152683,0.353561769078259,0.9869350068721819,0.516305290736873
ruwiki,True,36.0,0.3483613967177548,0.9985217657253542,0.35419574210798965,0.9859036190501815,0.5165205812361706
ruwiki,True,37.0,0.3485637673077608,0.9983348625412036,0.35482678007739754,0.9848408411640333,0.5167179667575411
ruwiki,True,38.0,0.3487860849532721,0.9981182247595746,0.3555223893739076,0.9836637137584894,0.5169331561625512
ruwiki,True,39.0,0.34902691942001424,0.9979653039725422,0.35625028433396877,0.9824708913208715,0.5171770848926184
ruwiki,True,40.0,0.34928721295581716,0.997791144187311,0.3570383480306479,0.9811749301010536,0.5174393694577808
ruwiki,True,41.0,0.34951706278927863,0.9975999932035206,0.35774423003828787,0.9799955605480705,0.517665807751398
ruwiki,True,42.0,0.3497490131823937,0.9974003466204506,0.3584574496967349,0.9788004959630136,0.5178932602236961
ruwiki,True,43.0,0.35001565505210896,0.9972091956366602,0.3592645912855124,0.9774664182367304,0.5181597261308031
ruwiki,True,44.0,0.3502875956289046,0.9969840622557515,0.3600952133568725,0.9760785289719082,0.5184272199360762
ruwiki,True,45.0,0.35056079388154227,0.9966909640806062,0.36094784838065386,0.9746211331364728,0.5186866872620158
ruwiki,True,46.0,0.3508629444661321,0.9964530873007782,0.36186358720137596,0.9730964728778635,0.5189850873728843
ruwiki,True,47.0,0.3511867594451857,0.9962449451184286,0.3628292220475861,0.9715112746383977,0.5193109716875747
ruwiki,True,48.0,0.35150989983973757,0.9959730859414823,0.36380953219541046,0.9698700227129535,0.51962719140293
ruwiki,True,49.0,0.35185540982327,0.9957309613620144,0.36484120589888425,0.9681659906592137,0.5199716069784723
ruwiki,True,50.0,0.3522014374648675,0.9953996329901111,0.36589782761510203,0.966376757002787,0.5203041007866743
ruwiki,True,51.0,0.35257555394689516,0.9951405172120842,0.3670087479472922,0.9645426803975776,0.520676760661203
ruwiki,True,52.0,0.35288772624050846,0.9947624630441432,0.36798025291414804,0.96285882767079,0.520965257192434
ruwiki,True,53.0,0.35327210553796656,0.9944098956740408,0.3691410692718262,0.9608991908089892,0.521335563280695
ruwiki,True,54.0,0.35368533694466026,0.9940106025079009,0.37039140496935063,0.958778119331571,0.521730406069754
ruwiki,True,55.0,0.3541098358124453,0.9936452917388793,0.37165935102881204,0.9566480792643963,0.5221416916480097
ruwiki,True,56.0,0.35455809714173925,0.9930973255853468,0.3730402969107023,0.9542489815045258,0.5225530088745791
ruwiki,True,57.0,0.35506372011172677,0.9924728990382982,0.3745944113516393,0.9515449516929334,0.523015277855504
ruwiki,True,58.0,0.3556333684151206,0.99183997689197,0.3763187592913003,0.9485763484835236,0.5235448896103824
ruwiki,True,59.0,0.35630483084041503,0.9911305943521256,0.37833221067275985,0.9451256835747005,0.5241729765430976
ruwiki,True,60.0,0.35700657229834437,0.9903362558194855,0.38044105151471125,0.9414844361335513,0.5248204758796119
ruwiki,True,61.0,0.3577637843649209,0.9894824480918885,0.3827039830236111,0.9375763731471454,0.5255178699538419
ruwiki,True,62.0,0.3586170547223198,0.98845448057906,0.3852574855044708,0.9331324369227871,0.5262922202168514
ruwiki,True,63.0,0.35954261883510735,0.987320318075237,0.3880149746777671,0.9283207885184114,0.5271267373415174
ruwiki,True,64.0,0.3605264098210138,0.9857613756074354,0.3910204764483422,0.9229060024529093,0.5279599407118896
ruwiki,True,65.0,0.3616435190245822,0.9837479185781765,0.39447063985782566,0.9165719359373634,0.528866245412755
ruwiki,True,66.0,0.36281047024385343,0.9813649029802562,0.3981159847787772,0.9097445969852086,0.529766381714118
ruwiki,True,67.0,0.36426705792326225,0.9786760458082713,0.40254499080592354,0.9015585166849401,0.5309226323527377
ruwiki,True,68.0,0.36595930422426165,0.9758215244503348,0.40755954136747397,0.8923903758063323,0.5322940356625233
ruwiki,True,69.0,0.36781008997429304,0.9724275325381453,0.4130378314600311,0.8822289636121892,0.5337391701716918
ruwiki,True,70.0,0.36990644954522955,0.9682986712882726,0.4192176009697439,0.8706079134351716,0.5353139335956443
ruwiki,True,71.0,0.37233604304018936,0.9636600740816257,0.426217719839687,0.857464445146984,0.5371353617289782
ruwiki,True,72.0,0.37497900057717226,0.9576239507934889,0.43391051294581734,0.8425250167600521,0.5389285257517424
ruwiki,True,73.0,0.37801437002389376,0.9509209229619058,0.44248969426944146,0.8258793141719413,0.5409770897548515
ruwiki,True,74.0,0.381491292263187,0.9433343528052469,0.45203891302976007,0.8072851854592255,0.5432772872830999
ruwiki,True,75.0,0.3852970686240691,0.934694328337921,0.4622543904833604,0.7871170692442394,0.5456626241610488
ruwiki,True,76.0,0.38987931096228917,0.924881911170014,0.4740195797874136,0.7639624126403304,0.5485289894139639
ruwiki,True,77.0,0.3948877249219279,0.9136634723213376,0.48647744332765397,0.739007311642799,0.5514411521525948
ruwiki,True,78.0,0.40067248479353207,0.9009922859958541,0.5001885776257416,0.7113706023080666,0.5546786332564501
ruwiki,True,79.0,0.40711886700766764,0.8861462262548,0.5148301260461655,0.6811643920080896,0.5579163150934238
ruwiki,True,80.0,0.4143234108219436,0.8690573283039386,0.5303477899729534,0.64843576583909,0.5611285653358639
ruwiki,True,81.0,0.422121729285829,0.8489270058109899,0.5463013103576811,0.6134358443142505,0.5638659255706345
ruwiki,True,82.0,0.43109537504375917,0.8264858803139974,0.5632424785410403,0.575707229355988,0.5666341463414635
ruwiki,True,83.0,0.4409353663183041,0.8012921806504231,0.5803553477532847,0.5362633716067902,0.5688459607344092
ruwiki,True,84.0,0.4520362744391454,0.7726280286811432,0.5978747228202408,0.4943666045591826,0.570370010332506
ruwiki,True,85.0,0.46478768221302613,0.741402453529072,0.6157096168719007,0.4506357609063657,0.5713771282847032
ruwiki,True,86.0,0.47813893944003993,0.7075772249974513,0.6321665001019934,0.4076380994661447,0.570659714490286
ruwiki,True,87.0,0.49203416289381274,0.6707700411187005,0.647016437805338,0.3655216019695023,0.5676652604749897
ruwiki,True,88.0,0.5073334331079334,0.6335763074727291,0.6608479095766616,0.3247571193786561,0.5634704162353706
ruwiki,True,89.0,0.522979699832576,0.5944413293913753,0.6725676054457109,0.2861944255730368,0.5564254473161034
ruwiki,True,90.0,0.5416786164070975,0.5535859924559079,0.6839512369077966,0.24723711381813046,0.5475675777877216
ruwiki,True,91.0,0.5621647816022733,0.5075568355591803,0.6933008715661628,0.20865648283299812,0.5334669750247788
ruwiki,True,92.0,0.5859661913285709,0.4574880212050158,0.7008953401514785,0.17062517797045298,0.5138174922175972
ruwiki,True,93.0,0.6131341706243596,0.40416964012641454,0.7060493060783631,0.13460732150824775,0.48719018737887193
ruwiki,True,94.0,0.6471610108990529,0.34655673361198897,0.7089711586297377,0.09973296023999946,0.4513917705445914
ruwiki,True,95.0,0.6877700198611765,0.2853671798008632,0.7083518609016212,0.06838101259862646,0.40336961938671967
ruwiki,True,96.0,0.7377409439544972,0.21817973289835865,0.7031010379840832,0.04093937009109845,0.3367645998203503
ruwiki,True,97.0,0.7994561680766012,0.14612005980901893,0.6923381717802756,0.019347490252264007,0.24708020284150495
ruwiki,True,98.0,0.878728954232867,0.07870323172596595,0.6779578437285833,0.00573317100185874,0.14446727303207396
ruwiki,True,99.0,0.9454700024289531,0.033069120195738606,0.6652857207847764,0.0010067242001699547,0.06390313974964089
ruwiki,False,0.0,0.047101450445402836,1.0,0.047101450445402836,1.0,0.08996540005816517
ruwiki,False,1.0,0.047115214067105386,0.9998354541465555,0.04754257443967403,0.9995289379516392,0.08998983979707981
ruwiki,False,2.0,0.04820442322555713,0.9851977292672225,0.08305176425377869,0.9615410032401613,0.09191172708107334
ruwiki,False,3.0,0.0497868131938023,0.9660487055726196,0.12996042478367648,0.9113671338992178,0.09469345292998697
ruwiki,False,4.0,0.051256926649213205,0.9496901053093462,0.16966481357990207,0.8688915706665935,0.09726427975329681
ruwiki,False,5.0,0.05278395558777118,0.9366155660377359,0.205347094507425,0.8307992567386443,0.09993591741246802
ruwiki,False,6.0,0.054305325672270345,0.9256526985519965,0.2372375174988334,0.7967906102083552,0.10259188661488644
ruwiki,False,7.0,0.05588052635650972,0.916102182974989,0.26701952280459273,0.765064411804476,0.1053357671685302
ruwiki,False,8.0,0.05745314719981456,0.9074155331285652,0.2944589853179338,0.7358392478731888,0.10806419414192325
ruwiki,False,9.0,0.059041704772123366,0.8994144910048267,0.32010391925428733,0.7085312048106619,0.11080937257154441
ruwiki,False,10.0,0.060699772750170716,0.8922087538394032,0.34461633353624177,0.6824509731159127,0.1136664582015869
ruwiki,False,11.0,0.06246121626752372,0.8854075252303641,0.36862852741766466,0.6569156822655984,0.11669048360200612
ruwiki,False,12.0,0.06425481710567021,0.8786062966213252,0.3916108937604852,0.6324611229780339,0.11975186180737939
ruwiki,False,13.0,0.06607936613539687,0.8716336660816147,0.41370745987176405,0.6089276763864728,0.12284568557348535
ruwiki,False,14.0,0.06793107535803959,0.8643867924528302,0.43498539543730536,0.5862397692270414,0.1259628853289746
ruwiki,False,15.0,0.06980399738931407,0.8564543111013603,0.4556717210778797,0.5641388257134811,0.12908695975662182
ruwiki,False,16.0,0.07175222729941541,0.8479116388767003,0.47616622559649424,0.5422090234477065,0.1323082288651103
ruwiki,False,17.0,0.07380033094318808,0.8393689666520404,0.49626061838091995,0.520699110302737,0.13567190155317826
ruwiki,False,18.0,0.07586270399000791,0.8303532250987276,0.5155725489119641,0.49998695259794107,0.13902391008764756
ruwiki,False,19.0,0.07798126314281809,0.8212209302325582,0.5342344189741445,0.47995122643884885,0.1424370312498142
ruwiki,False,20.0,0.08010805039013309,0.8116635585783238,0.5521225459248507,0.4607064778487308,0.1458238513012068
ruwiki,False,21.0,0.08231126682777713,0.802133611232997,0.5694523248623102,0.44204903179804383,0.1493018623172824
ruwiki,False,22.0,0.08455846041854902,0.7924254058797718,0.5861439917846307,0.4240524281893019,0.15281072980410798
ruwiki,False,23.0,0.08681669580505996,0.7827103444493199,0.6019811828000394,0.4069521980466853,0.1562972115453727
ruwiki,False,24.0,0.08919819906727246,0.773413503729706,0.6173523841201821,0.3903616638182663,0.15994935251472137
ruwiki,False,25.0,0.09157338666438607,0.7634790478279947,0.6321193811992696,0.37437368233947715,0.1635323384545799
ruwiki,False,26.0,0.09404167914758868,0.7533663339183853,0.6465389043267934,0.35874153909865836,0.16721068000906944
ruwiki,False,27.0,0.0966551525721442,0.7439735081175954,0.6604339872151546,0.3436953428230308,0.17108356233711564
ruwiki,False,28.0,0.09934644645331721,0.734327007459412,0.6739202392274194,0.3290656467326086,0.17501523740116115
ruwiki,False,29.0,0.10201578951434111,0.7243445590171128,0.6866986260892872,0.3151621995412059,0.1788434844432407
ruwiki,False,30.0,0.10475896385690016,0.7140604431768319,0.6991111319222317,0.3016278074366125,0.18271240646186152
ruwiki,False,31.0,0.10760005785569197,0.7038517441860465,0.711095431008175,0.2885465160217014,0.18666416959254659
ruwiki,False,32.0,0.11059623715684634,0.6936430451952611,0.7228284896347164,0.27572888379644833,0.19077484129909875
ruwiki,False,33.0,0.11363169944178919,0.6833109368143923,0.7340293576737329,0.2634636480739493,0.19485915162511339
ruwiki,False,34.0,0.116859544069005,0.673143374286968,0.7449931942253446,0.2514552936699089,0.19914667651088663
ruwiki,False,35.0,0.12016539234712514,0.6631060772268539,0.755446153647427,0.23998950785538328,0.2034604987746258
ruwiki,False,36.0,0.12350191917789917,0.6527534006143045,0.7654411966537871,0.22898868400513897,0.20770562383352656
ruwiki,False,37.0,0.12702278530421066,0.6425721259324265,0.7751578729814783,0.21828845874258967,0.21211497114405342
ruwiki,False,38.0,0.13060453971257174,0.6322880100921456,0.7844324565213531,0.20804709536024216,0.21649099744125447
ruwiki,False,39.0,0.13413861690917916,0.6214211276875823,0.7932323312240545,0.19827509955845557,0.22064852232338478
ruwiki,False,40.0,0.13786291214613794,0.6109793220710839,0.8017108894009142,0.18886131424955918,0.22496431091347652
ruwiki,False,41.0,0.14167231174407832,0.6007911913119789,0.8097512299641385,0.17991994656326346,0.22927854796445266
ruwiki,False,42.0,0.14563592286315222,0.5910418494953927,0.8174221372554402,0.17138796229741365,0.2336894865890205
ruwiki,False,43.0,0.14969434813403112,0.5810662571303203,0.8248036982078935,0.16314844317381952,0.23805972559875174
ruwiki,False,44.0,0.15372425893434297,0.5706587318999561,0.8318051691594263,0.15528645147603395,0.2422036181846223
ruwiki,False,45.0,0.15807164919958094,0.5606831395348837,0.8386467891759927,0.14761356238471265,0.24661570241703232
ruwiki,False,46.0,0.16236792284914484,0.5503784554629223,0.8450860369400979,0.14034666777823754,0.25075906188697167
ruwiki,False,47.0,0.16689328572215234,0.540258885476086,0.8513179628855193,0.13330649296338357,0.25501040429504834
ruwiki,False,48.0,0.1715061991261339,0.5301598837209303,0.8572411666211872,0.12659131707254254,0.2591708757453169
ruwiki,False,49.0,0.17613078107688127,0.5198826239578762,0.8628443455557403,0.12020317346707429,0.26311945133133346
ruwiki,False,50.0,0.18096601212687702,0.509715061430452,0.8682476300887899,0.11403022727218812,0.2671018666053506
ruwiki,False,51.0,0.1858152736620372,0.4995543549802545,0.8733283063712708,0.10819617463727375,0.27087523374387995
ruwiki,False,52.0,0.19063884835169534,0.48901656428258006,0.8781432102911709,0.10262239225641771,0.27433182435317055
ruwiki,False,53.0,0.19564979840460853,0.47874616059675296,0.8827427191128434,0.09728786872890176,0.27777921429551733
ruwiki,False,54.0,0.200698695084181,0.4687157196138657,0.8870512669397588,0.0922705495735194,0.2810535035591614
ruwiki,False,55.0,0.20617832904282704,0.4590555068012286,0.8912716545540562,0.08736404861224782,0.28455346745884014
ruwiki,False,56.0,0.21171703474105644,0.4495735519964897,0.8952314367046811,0.08273984598643273,0.2878685444360546
ruwiki,False,57.0,0.21729692019046457,0.4399064831066257,0.8989845428989856,0.07832338511288037,0.2909002706660561
ruwiki,False,58.0,0.22320002271936612,0.4310758556384379,0.9025380776229681,0.07415770547370712,0.29411489542841374
ruwiki,False,59.0,0.22918062067425765,0.4222657964019307,0.9058926867389925,0.0702018009481564,0.29710851045354997
ruwiki,False,60.0,0.23531270357035586,0.4135928587099605,0.9090732359480533,0.06643533792262993,0.2999624580761131
ruwiki,False,61.0,0.24157696128734205,0.40511874725756913,0.912073912488879,0.06286746652324691,0.30266895119258913
ruwiki,False,62.0,0.2477463395415166,0.396630923650724,0.9148549958261145,0.059529364957524776,0.30498859936999984
ruwiki,False,63.0,0.2542970610169187,0.38808825142606407,0.917575045169999,0.056252603126157534,0.30726014384584066
ruwiki,False,64.0,0.26107324981854857,0.379785541904344,0.9201565570369127,0.0531330879066172,0.3094342995357983
ruwiki,False,65.0,0.26773995888678054,0.3714759763053971,0.922541726745322,0.050219281077979745,0.3111904980702077
ruwiki,False,66.0,0.2745267717881886,0.36322811540149186,0.9247954634627588,0.047446453970290556,0.31270898568346617
ruwiki,False,67.0,0.2816398608998044,0.3553710508995173,0.9269432787525814,0.044804100883190506,0.31423842665567336
ruwiki,False,68.0,0.28862805903444816,0.3471369021500658,0.9289502960471608,0.04229086624243971,0.3151902240731576
ruwiki,False,69.0,0.29590051992237104,0.3386902150065818,0.9308914353806632,0.03983626018756403,0.31585273845602996
ruwiki,False,70.0,0.30340740367919067,0.33064118034225537,0.9327166424199171,0.03752297274719659,0.3164394168055537
ruwiki,False,71.0,0.31103769533185766,0.3227429793769197,0.9344278547520131,0.03533677039181857,0.3167822450126346
ruwiki,False,72.0,0.3186535881375609,0.3142688679245283,0.9360502610091277,0.033215296706395156,0.31644603993717746
ruwiki,False,73.0,0.32629938998522506,0.3058564611671786,0.9375606101461748,0.03121446912832171,0.3157473794475075
ruwiki,False,74.0,0.33457137353111155,0.29768401711276876,0.9390328534037754,0.02926549226492394,0.3150516451342556
ruwiki,False,75.0,0.3432932875977436,0.2895595655989469,0.9404469690486609,0.0273798884972409,0.3141452384317284
ruwiki,False,76.0,0.3522996193023974,0.28170250109697237,0.9417729244809285,0.025600019520269055,0.31307051096447785
ruwiki,False,77.0,0.3619592413968162,0.273742595436595,0.9430640033455671,0.02385166764437459,0.31172998547805314
ruwiki,False,78.0,0.3713673406627201,0.2649393922773146,0.9442536818191359,0.02216804443843473,0.309252857005666
ruwiki,False,79.0,0.38149847094801226,0.2565886902150066,0.9453903995788977,0.020562366751288388,0.3068176228500222
ruwiki,False,80.0,0.3927494086243191,0.2481557152259763,0.946514845953753,0.018965500296701313,0.30414177317300667
ruwiki,False,81.0,0.403884710327164,0.23893429135585784,0.9475420900429014,0.01743166804426899,0.3002459690794036
ruwiki,False,82.0,0.41571011974933303,0.2296785870996051,0.9485115294505164,0.015956803271271757,0.29588281274150885
ruwiki,False,83.0,0.4273277870216306,0.22010064721369021,0.9493724639810633,0.014579878737106372,0.2905498662780963
ruwiki,False,84.0,0.44131772690670656,0.21041986616937253,0.9502627852491495,0.013167031485583977,0.2849675023212627
ruwiki,False,85.0,0.4554822817766553,0.20030715225976306,0.95105428957562,0.011836535369134727,0.2782489440425907
ruwiki,False,86.0,0.4698690846110743,0.18972136902150066,0.9517524667905646,0.010580595835879272,0.2703016864551231
ruwiki,False,87.0,0.48523340152501393,0.17888191092584466,0.9523857348379774,0.009380234846459189,0.26139881578551893
ruwiki,False,88.0,0.5022704390885369,0.16759680781044317,0.9529699173457641,0.008209357596756653,0.2513301632180953
ruwiki,False,89.0,0.5202407377743198,0.15586605967529618,0.9534698148151138,0.0071049034848085875,0.23986705705468067
ruwiki,False,90.0,0.539862090338576,0.14331943835015357,0.953895438112661,0.006038066558017392,0.22650709460008558
ruwiki,False,91.0,0.5597190383824134,0.13057399078543222,0.9542109418772312,0.005076964421937394,0.21174992495080108
ruwiki,False,92.0,0.5816204792582745,0.11698524572180781,0.9544450669840003,0.004159579555093757,0.19479088776378053
ruwiki,False,93.0,0.6048711183275827,0.10216240675734971,0.9545671349707021,0.0032987899127654087,0.17480101588940178
ruwiki,False,94.0,0.6349079662792437,0.08726415094339622,0.9546452843166857,0.0024803619654335347,0.15343905776266853
ruwiki,False,95.0,0.6668993970168201,0.07203680342255375,0.9545968446394231,0.0017785134027319565,0.13002827777812156
ruwiki,False,96.0,0.7069455202685256,0.0563158183413778,0.9544515256076354,0.0011539325717039466,0.10432132084457851
ruwiki,False,97.0,0.7547243581389287,0.03970354322071084,0.9541608875440599,0.0006377976798669097,0.0754385165017684
ruwiki,False,98.0,0.8308568598315998,0.02300213909609478,0.9537614216722345,0.00023146430146073291,0.044764967243518757
ruwiki,False,99.0,0.8935251798561151,0.008515247915752523,0.9532518362674323,5.015624687582499e-05,0.016869728209934393
