wiki_db,user_is_anonymous,threshold,precision,recall,accuracy,fpr,F1
sdwiki,True,0.0,0.06278026905829596,1.0,0.06278026905829596,1.0,0.11814345991561181
sdwiki,True,1.0,0.06278026905829596,1.0,0.06278026905829596,1.0,0.11814345991561181
sdwiki,True,2.0,0.06278026905829596,1.0,0.06278026905829596,1.0,0.11814345991561181
sdwiki,True,3.0,0.06278026905829596,1.0,0.06278026905829596,1.0,0.11814345991561181
sdwiki,True,4.0,0.06278026905829596,1.0,0.06278026905829596,1.0,0.11814345991561181
sdwiki,True,5.0,0.06278026905829596,1.0,0.06278026905829596,1.0,0.11814345991561181
sdwiki,True,6.0,0.06278026905829596,1.0,0.06278026905829596,1.0,0.11814345991561181
sdwiki,True,7.0,0.06278026905829596,1.0,0.06278026905829596,1.0,0.11814345991561181
sdwiki,True,8.0,0.06278026905829596,1.0,0.06278026905829596,1.0,0.11814345991561181
sdwiki,True,9.0,0.06306306306306306,1.0,0.06726457399103139,0.9952153110047847,0.11864406779661016
sdwiki,True,10.0,0.06306306306306306,1.0,0.06726457399103139,0.9952153110047847,0.11864406779661016
sdwiki,True,11.0,0.06334841628959276,1.0,0.07174887892376682,0.9904306220095693,0.11914893617021276
sdwiki,True,12.0,0.06334841628959276,1.0,0.07174887892376682,0.9904306220095693,0.11914893617021276
sdwiki,True,13.0,0.06334841628959276,1.0,0.07174887892376682,0.9904306220095693,0.11914893617021276
sdwiki,True,14.0,0.06334841628959276,1.0,0.07174887892376682,0.9904306220095693,0.11914893617021276
sdwiki,True,15.0,0.06334841628959276,1.0,0.07174887892376682,0.9904306220095693,0.11914893617021276
sdwiki,True,16.0,0.06363636363636363,1.0,0.07623318385650224,0.9856459330143541,0.11965811965811964
sdwiki,True,17.0,0.06363636363636363,1.0,0.07623318385650224,0.9856459330143541,0.11965811965811964
sdwiki,True,18.0,0.06363636363636363,1.0,0.07623318385650224,0.9856459330143541,0.11965811965811964
sdwiki,True,19.0,0.06363636363636363,1.0,0.07623318385650224,0.9856459330143541,0.11965811965811964
sdwiki,True,20.0,0.0639269406392694,1.0,0.08071748878923767,0.9808612440191388,0.12017167381974247
sdwiki,True,21.0,0.0639269406392694,1.0,0.08071748878923767,0.9808612440191388,0.12017167381974247
sdwiki,True,22.0,0.06422018348623854,1.0,0.08520179372197309,0.9760765550239234,0.1206896551724138
sdwiki,True,23.0,0.06451612903225806,1.0,0.08968609865470852,0.9712918660287081,0.12121212121212122
sdwiki,True,24.0,0.06542056074766354,1.0,0.1031390134529148,0.9569377990430622,0.12280701754385964
sdwiki,True,25.0,0.0660377358490566,1.0,0.11210762331838565,0.9473684210526315,0.1238938053097345
sdwiki,True,26.0,0.0660377358490566,1.0,0.11210762331838565,0.9473684210526315,0.1238938053097345
sdwiki,True,27.0,0.0660377358490566,1.0,0.11210762331838565,0.9473684210526315,0.1238938053097345
sdwiki,True,28.0,0.06666666666666667,1.0,0.1210762331838565,0.937799043062201,0.125
sdwiki,True,29.0,0.06698564593301436,1.0,0.12556053811659193,0.9330143540669856,0.12556053811659196
sdwiki,True,30.0,0.06698564593301436,1.0,0.12556053811659193,0.9330143540669856,0.12556053811659196
sdwiki,True,31.0,0.0673076923076923,1.0,0.13004484304932734,0.9282296650717703,0.12612612612612611
sdwiki,True,32.0,0.06763285024154589,1.0,0.13452914798206278,0.9234449760765551,0.12669683257918551
sdwiki,True,33.0,0.06796116504854369,1.0,0.13901345291479822,0.9186602870813397,0.12727272727272726
sdwiki,True,34.0,0.06829268292682927,1.0,0.14349775784753363,0.9138755980861244,0.1278538812785388
sdwiki,True,35.0,0.06965174129353234,1.0,0.16143497757847533,0.8947368421052632,0.1302325581395349
sdwiki,True,36.0,0.07,1.0,0.16591928251121077,0.8899521531100478,0.13084112149532712
sdwiki,True,37.0,0.07035175879396985,1.0,0.17040358744394618,0.8851674641148325,0.13145539906103285
sdwiki,True,38.0,0.07106598984771574,1.0,0.17937219730941703,0.8755980861244019,0.13270142180094788
sdwiki,True,39.0,0.07142857142857142,1.0,0.18385650224215247,0.8708133971291866,0.13333333333333333
sdwiki,True,40.0,0.07253886010362694,1.0,0.19730941704035873,0.8564593301435407,0.13526570048309178
sdwiki,True,41.0,0.07291666666666667,1.0,0.20179372197309417,0.8516746411483254,0.13592233009708737
sdwiki,True,42.0,0.07368421052631578,1.0,0.21076233183856502,0.8421052631578947,0.1372549019607843
sdwiki,True,43.0,0.0748663101604278,1.0,0.2242152466367713,0.8277511961722488,0.13930348258706465
sdwiki,True,44.0,0.0748663101604278,1.0,0.2242152466367713,0.8277511961722488,0.13930348258706465
sdwiki,True,45.0,0.0748663101604278,1.0,0.2242152466367713,0.8277511961722488,0.13930348258706465
sdwiki,True,46.0,0.07567567567567568,1.0,0.23318385650224216,0.8181818181818182,0.1407035175879397
sdwiki,True,47.0,0.07650273224043716,1.0,0.242152466367713,0.8086124401913876,0.14213197969543145
sdwiki,True,48.0,0.07650273224043716,1.0,0.242152466367713,0.8086124401913876,0.14213197969543145
sdwiki,True,49.0,0.07734806629834254,1.0,0.25112107623318386,0.7990430622009569,0.14358974358974358
sdwiki,True,50.0,0.07734806629834254,1.0,0.25112107623318386,0.7990430622009569,0.14358974358974358
sdwiki,True,51.0,0.07865168539325842,1.0,0.2645739910313901,0.784688995215311,0.14583333333333334
sdwiki,True,52.0,0.07909604519774012,1.0,0.26905829596412556,0.7799043062200957,0.14659685863874347
sdwiki,True,53.0,0.08045977011494253,1.0,0.2825112107623318,0.7655502392344498,0.14893617021276595
sdwiki,True,54.0,0.08187134502923976,1.0,0.29596412556053814,0.7511961722488039,0.15135135135135133
sdwiki,True,55.0,0.08433734939759036,1.0,0.3183856502242152,0.7272727272727273,0.15555555555555556
sdwiki,True,56.0,0.07975460122699386,0.9285714285714286,0.32286995515695066,0.7177033492822966,0.14689265536723164
sdwiki,True,57.0,0.08024691358024691,0.9285714285714286,0.3273542600896861,0.7129186602870813,0.14772727272727273
sdwiki,True,58.0,0.08024691358024691,0.9285714285714286,0.3273542600896861,0.7129186602870813,0.14772727272727273
sdwiki,True,59.0,0.08176100628930817,0.9285714285714286,0.34080717488789236,0.6985645933014354,0.15028901734104047
sdwiki,True,60.0,0.08227848101265822,0.9285714285714286,0.3452914798206278,0.69377990430622,0.1511627906976744
sdwiki,True,61.0,0.08280254777070063,0.9285714285714286,0.34977578475336324,0.6889952153110048,0.15204678362573099
sdwiki,True,62.0,0.08333333333333333,0.9285714285714286,0.3542600896860987,0.6842105263157895,0.15294117647058825
sdwiki,True,63.0,0.08496732026143791,0.9285714285714286,0.36771300448430494,0.6698564593301436,0.15568862275449105
sdwiki,True,64.0,0.08496732026143791,0.9285714285714286,0.36771300448430494,0.6698564593301436,0.15568862275449105
sdwiki,True,65.0,0.08496732026143791,0.9285714285714286,0.36771300448430494,0.6698564593301436,0.15568862275449105
sdwiki,True,66.0,0.08552631578947369,0.9285714285714286,0.3721973094170404,0.6650717703349283,0.1566265060240964
sdwiki,True,67.0,0.08609271523178808,0.9285714285714286,0.37668161434977576,0.6602870813397129,0.1575757575757576
sdwiki,True,68.0,0.08843537414965986,0.9285714285714286,0.39461883408071746,0.6411483253588517,0.16149068322981366
sdwiki,True,69.0,0.0896551724137931,0.9285714285714286,0.40358744394618834,0.631578947368421,0.16352201257861637
sdwiki,True,70.0,0.09090909090909091,0.9285714285714286,0.4125560538116592,0.6220095693779905,0.1656050955414013
sdwiki,True,71.0,0.09154929577464789,0.9285714285714286,0.4170403587443946,0.6172248803827751,0.16666666666666666
sdwiki,True,72.0,0.09558823529411764,0.9285714285714286,0.4439461883408072,0.5885167464114832,0.17333333333333337
sdwiki,True,73.0,0.09558823529411764,0.9285714285714286,0.4439461883408072,0.5885167464114832,0.17333333333333337
sdwiki,True,74.0,0.0962962962962963,0.9285714285714286,0.4484304932735426,0.583732057416268,0.174496644295302
sdwiki,True,75.0,0.09375,0.8571428571428571,0.47085201793721976,0.5550239234449761,0.16901408450704225
sdwiki,True,76.0,0.1016949152542373,0.8571428571428571,0.515695067264574,0.507177033492823,0.18181818181818182
sdwiki,True,77.0,0.10256410256410256,0.8571428571428571,0.5201793721973094,0.5023923444976076,0.183206106870229
sdwiki,True,78.0,0.10810810810810811,0.8571428571428571,0.547085201793722,0.47368421052631576,0.192
sdwiki,True,79.0,0.10909090909090909,0.8571428571428571,0.5515695067264574,0.4688995215311005,0.19354838709677416
sdwiki,True,80.0,0.10377358490566038,0.7857142857142857,0.5605381165919282,0.45454545454545453,0.18333333333333335
sdwiki,True,81.0,0.10576923076923077,0.7857142857142857,0.5695067264573991,0.4449760765550239,0.1864406779661017
sdwiki,True,82.0,0.09803921568627451,0.7142857142857143,0.5695067264573991,0.44019138755980863,0.1724137931034483
sdwiki,True,83.0,0.10752688172043011,0.7142857142857143,0.6098654708520179,0.39712918660287083,0.18691588785046728
sdwiki,True,84.0,0.11627906976744186,0.7142857142857143,0.6412556053811659,0.36363636363636365,0.2
sdwiki,True,85.0,0.11904761904761904,0.7142857142857143,0.6502242152466368,0.35406698564593303,0.2040816326530612
sdwiki,True,86.0,0.12658227848101267,0.7142857142857143,0.672645739910314,0.33014354066985646,0.21505376344086025
sdwiki,True,87.0,0.14285714285714285,0.7142857142857143,0.7130044843049327,0.28708133971291866,0.23809523809523808
sdwiki,True,88.0,0.15384615384615385,0.7142857142857143,0.7354260089686099,0.2631578947368421,0.25316455696202533
sdwiki,True,89.0,0.16129032258064516,0.7142857142857143,0.7488789237668162,0.24880382775119617,0.2631578947368421
sdwiki,True,90.0,0.18181818181818182,0.7142857142857143,0.7802690582959642,0.215311004784689,0.2898550724637682
sdwiki,True,91.0,0.1956521739130435,0.6428571428571429,0.8116591928251121,0.17703349282296652,0.30000000000000004
sdwiki,True,92.0,0.22857142857142856,0.5714285714285714,0.852017937219731,0.1291866028708134,0.32653061224489793
sdwiki,True,93.0,0.42105263157894735,0.5714285714285714,0.9237668161434978,0.05263157894736842,0.48484848484848486
sdwiki,True,94.0,0.6363636363636364,0.5,0.9506726457399103,0.019138755980861243,0.56
sdwiki,True,95.0,0.7777777777777778,0.5,0.9596412556053812,0.009569377990430622,0.6086956521739131
sdwiki,True,96.0,0.875,0.5,0.9641255605381166,0.004784688995215311,0.6363636363636364
sdwiki,True,97.0,0.8,0.2857142857142857,0.9506726457399103,0.004784688995215311,0.4210526315789473
sdwiki,True,98.0,1.0,0.2857142857142857,0.9551569506726457,0.0,0.4444444444444445
sdwiki,True,99.0,1.0,0.14285714285714285,0.9461883408071748,0.0,0.25
sdwiki,False,0.0,0.016557433597792343,1.0,0.016557433597792343,1.0,0.0325755005089922
sdwiki,False,1.0,0.016557433597792343,1.0,0.016557433597792343,1.0,0.0325755005089922
sdwiki,False,2.0,0.016632016632016633,1.0,0.02104173853052777,0.995440196422308,0.032719836400818
sdwiki,False,3.0,0.017087931648273408,1.0,0.047602621593652986,0.9684321290775166,0.0336016800840042
sdwiki,False,4.0,0.01776461880088823,1.0,0.08451190065539842,0.9309014380918976,0.03490909090909091
sdwiki,False,5.0,0.01866977829638273,1.0,0.12969989651604003,0.8849526481936163,0.036655211912943866
sdwiki,False,6.0,0.019706498951781972,0.9791666666666666,0.19317005864091066,0.820063135741845,0.038635429510891904
sdwiki,False,7.0,0.020072992700729927,0.9166666666666666,0.2576750603656433,0.753419852683269,0.039285714285714285
sdwiki,False,8.0,0.021749876421156698,0.9166666666666666,0.31597102449120384,0.6941424061732725,0.04249154997585708
sdwiki,False,9.0,0.021108179419525065,0.8333333333333334,0.35736460848568474,0.6506488951245177,0.04117344312918168
sdwiki,False,10.0,0.021971830985915493,0.8125,0.3980682994135909,0.6089091546825676,0.04278661546900713
sdwiki,False,11.0,0.023269689737470168,0.8125,0.4322180062090376,0.5741844966678359,0.04524361948955917
sdwiki,False,12.0,0.022756005056890013,0.75,0.46257330113832357,0.5422658716239915,0.04417177914110429
sdwiki,False,13.0,0.020889487870619946,0.6458333333333334,0.4929285960676095,0.5096457383374254,0.04046997389033943
sdwiki,False,14.0,0.020669992872416252,0.6041666666666666,0.5194894791307347,0.4819361627499123,0.0399724328049621
sdwiki,False,15.0,0.021212121212121213,0.5833333333333334,0.5474301483270093,0.4531743247983164,0.04093567251461988
sdwiki,False,16.0,0.021933387489845652,0.5625,0.5774404967230079,0.42230796211855487,0.04222048475371384
sdwiki,False,17.0,0.022998296422487224,0.5625,0.5971024491203863,0.40231497720098214,0.044189852700491
sdwiki,False,18.0,0.023318385650224215,0.5416666666666666,0.6167644015177648,0.3819712381620484,0.04471195184866724
sdwiki,False,19.0,0.023674242424242424,0.5208333333333334,0.6364263539151431,0.3616274991231147,0.04528985507246377
sdwiki,False,20.0,0.024875621890547265,0.5208333333333334,0.6540186271127976,0.3437390389337075,0.04748338081671415
sdwiki,False,21.0,0.0257201646090535,0.5208333333333334,0.6654018627112798,0.3321641529287969,0.04901960784313726
sdwiki,False,22.0,0.02691065662002153,0.5208333333333334,0.6802345636426353,0.3170817257102771,0.05117707267144319
sdwiki,False,23.0,0.028058361391694726,0.5208333333333334,0.6933425319075543,0.3037530690985619,0.05324813631522897
sdwiki,False,24.0,0.02944640753828033,0.5208333333333334,0.7078302863056226,0.28902139600140303,0.05574136008918618
sdwiki,False,25.0,0.030450669914738125,0.5208333333333334,0.7174887892376681,0.2792002806032971,0.057537399309551214
sdwiki,False,26.0,0.031928480204342274,0.5208333333333334,0.7305967575025871,0.2658716239915819,0.060168471720818295
sdwiki,False,27.0,0.033738191632928474,0.5208333333333334,0.7450845119006554,0.25113995089442304,0.06337135614702154
sdwiki,False,28.0,0.03385049365303244,0.5,0.7554329078992756,0.2402665731322343,0.06340819022457068
sdwiki,False,29.0,0.035555555555555556,0.5,0.7671610900310452,0.2283409330059628,0.06639004149377593
sdwiki,False,30.0,0.03639240506329114,0.4791666666666667,0.7813038978958261,0.21360925990880392,0.06764705882352941
sdwiki,False,31.0,0.03872053872053872,0.4791666666666667,0.7944118661607451,0.20028060329708874,0.07165109034267911
sdwiki,False,32.0,0.04085257548845471,0.4791666666666667,0.8051052086926527,0.18940722553490003,0.07528641571194764
sdwiki,False,33.0,0.043233082706766915,0.4791666666666667,0.8157985512245602,0.17853384777271133,0.0793103448275862
sdwiki,False,34.0,0.044444444444444446,0.4583333333333333,0.8278716798896171,0.165906699403718,0.08103130755064457
sdwiki,False,35.0,0.045454545454545456,0.4375,0.8385650224215246,0.15468256752016837,0.08235294117647059
sdwiki,False,36.0,0.04906542056074766,0.4375,0.8502932045532943,0.14275692739389687,0.08823529411764706
sdwiki,False,37.0,0.052109181141439205,0.4375,0.8589168678854777,0.13398807435987373,0.09312638580931264
sdwiki,False,38.0,0.055408970976253295,0.4375,0.867195584684374,0.12556997544721152,0.09836065573770492
sdwiki,False,39.0,0.057692307692307696,0.4375,0.872369782683684,0.12030866362679761,0.10194174757281553
sdwiki,False,40.0,0.0603448275862069,0.4375,0.8778889272162814,0.1146965976850228,0.10606060606060606
sdwiki,False,41.0,0.0634441087613293,0.4375,0.8837530182821662,0.10873377762188706,0.11081794195250658
sdwiki,False,42.0,0.06687898089171974,0.4375,0.889617109348051,0.10277095755875132,0.11602209944751382
sdwiki,False,43.0,0.06711409395973154,0.4166666666666667,0.8944463608140738,0.09750964573833742,0.11560693641618497
sdwiki,False,44.0,0.07092198581560284,0.4166666666666667,0.8999655053466713,0.09189757979656261,0.12121212121212123
sdwiki,False,45.0,0.07352941176470588,0.4166666666666667,0.9034149706795447,0.08839003858295336,0.125
sdwiki,False,46.0,0.07224334600760456,0.3958333333333333,0.905829596412556,0.08558400561206594,0.12218649517684886
sdwiki,False,47.0,0.07661290322580645,0.3958333333333333,0.9110037944118662,0.08032269379165205,0.1283783783783784
sdwiki,False,48.0,0.08050847457627118,0.3958333333333333,0.9151431528113142,0.07611364433532095,0.13380281690140844
sdwiki,False,49.0,0.08520179372197309,0.3958333333333333,0.9196274577440496,0.0715538407576289,0.14022140221402216
sdwiki,False,50.0,0.09047619047619047,0.3958333333333333,0.9241117626767851,0.06699403717993686,0.14728682170542634
sdwiki,False,51.0,0.09595959595959595,0.3958333333333333,0.9282511210762332,0.06278498772360576,0.15447154471544713
sdwiki,False,52.0,0.10106382978723404,0.3958333333333333,0.9317005864091066,0.059277446509996494,0.16101694915254236
sdwiki,False,53.0,0.09944751381215469,0.375,0.9334253190755433,0.057172921781830935,0.1572052401746725
sdwiki,False,54.0,0.1,0.3541666666666667,0.9365298378751293,0.05366538056822168,0.1559633027522936
sdwiki,False,55.0,0.0975609756097561,0.3333333333333333,0.9379096240082787,0.05191160996141705,0.15094339622641506
sdwiki,False,56.0,0.10526315789473684,0.3333333333333333,0.9420489824077268,0.047702560505085936,0.16
sdwiki,False,57.0,0.10884353741496598,0.3333333333333333,0.9437737150741635,0.04594878989828131,0.16410256410256407
sdwiki,False,58.0,0.1079136690647482,0.3125,0.9458433942738875,0.043493511048754825,0.16042780748663102
sdwiki,False,59.0,0.09848484848484848,0.2708333333333333,0.9468782338737496,0.041739740441950196,0.14444444444444446
sdwiki,False,60.0,0.104,0.2708333333333333,0.9492928596067609,0.039284461592423714,0.15028901734104044
sdwiki,False,61.0,0.11403508771929824,0.2708333333333333,0.9530872714729217,0.035426166257453526,0.16049382716049382
sdwiki,False,62.0,0.11711711711711711,0.2708333333333333,0.9541221110727838,0.03437390389337075,0.16352201257861637
sdwiki,False,63.0,0.12380952380952381,0.2708333333333333,0.9561917902725078,0.03226937916520519,0.16993464052287582
sdwiki,False,64.0,0.1188118811881188,0.25,0.9568816833390824,0.031217116801122415,0.1610738255033557
sdwiki,False,65.0,0.12,0.25,0.9572266298723697,0.030866362679761488,0.16216216216216217
sdwiki,False,66.0,0.11702127659574468,0.22916666666666666,0.9586064160055191,0.02911259207295686,0.15492957746478875
sdwiki,False,67.0,0.11827956989247312,0.22916666666666666,0.9589513625388065,0.028761837951595932,0.15602836879432624
sdwiki,False,68.0,0.12222222222222222,0.22916666666666666,0.9599862021386685,0.027709575587513153,0.15942028985507248
sdwiki,False,69.0,0.11904761904761904,0.20833333333333334,0.9613659882718179,0.025955804980708524,0.15151515151515152
sdwiki,False,70.0,0.12345679012345678,0.20833333333333334,0.9624008278716799,0.024903542616625744,0.15503875968992248
sdwiki,False,71.0,0.1282051282051282,0.20833333333333334,0.9634356674715419,0.023851280252542968,0.15873015873015872
sdwiki,False,72.0,0.13513513513513514,0.20833333333333334,0.9648154536046912,0.022448263767099262,0.1639344262295082
sdwiki,False,73.0,0.14285714285714285,0.20833333333333334,0.9661952397378406,0.02104524728165556,0.1694915254237288
sdwiki,False,74.0,0.14492753623188406,0.20833333333333334,0.9665401862711279,0.020694493160294633,0.17094017094017094
sdwiki,False,75.0,0.14925373134328357,0.20833333333333334,0.9672300793377027,0.01999298491757278,0.17391304347826084
sdwiki,False,76.0,0.15384615384615385,0.20833333333333334,0.9679199724042773,0.01929147667485093,0.17699115044247787
sdwiki,False,77.0,0.14754098360655737,0.1875,0.968609865470852,0.01823921431076815,0.1651376146788991
sdwiki,False,78.0,0.15,0.1875,0.9689548120041394,0.017888460189407224,0.16666666666666663
sdwiki,False,79.0,0.14035087719298245,0.16666666666666666,0.9692997585374267,0.017186951946685375,0.1523809523809524
sdwiki,False,80.0,0.1568627450980392,0.16666666666666666,0.9713694377371508,0.015082427218519818,0.16161616161616163
sdwiki,False,81.0,0.16326530612244897,0.16666666666666666,0.9720593308037254,0.014380918975797966,0.16494845360824742
sdwiki,False,82.0,0.15217391304347827,0.14583333333333334,0.9724042773370127,0.013679410733076113,0.14893617021276595
sdwiki,False,83.0,0.15789473684210525,0.125,0.9744739565367369,0.011224131883549631,0.13953488372093023
sdwiki,False,84.0,0.18181818181818182,0.125,0.9761986892031735,0.009470361276745002,0.14814814814814814
sdwiki,False,85.0,0.1935483870967742,0.125,0.9768885822697482,0.008768853034023149,0.1518987341772152
sdwiki,False,86.0,0.18518518518518517,0.10416666666666667,0.9775784753363229,0.007716590669940372,0.13333333333333333
sdwiki,False,87.0,0.20833333333333334,0.10416666666666667,0.9786133149361849,0.006664328305857594,0.1388888888888889
sdwiki,False,88.0,0.23809523809523808,0.10416666666666667,0.9796481545360469,0.0056120659417748155,0.14492753623188404
sdwiki,False,89.0,0.2,0.08333333333333333,0.9793032080027596,0.0056120659417748155,0.11764705882352941
sdwiki,False,90.0,0.16666666666666666,0.0625,0.9793032080027596,0.00526131182041389,0.09090909090909091
sdwiki,False,91.0,0.07142857142857142,0.020833333333333332,0.9793032080027596,0.004559803577692038,0.03225806451612903
sdwiki,False,92.0,0.07692307692307693,0.020833333333333332,0.9796481545360469,0.004209049456331112,0.03278688524590164
sdwiki,False,93.0,0.09090909090909091,0.020833333333333332,0.9803380476026216,0.00350754121360926,0.03389830508474576
sdwiki,False,94.0,0.0,0.0,0.980682994135909,0.0028060329708874078,0.03389830508474576
sdwiki,False,95.0,0.0,0.0,0.9810279406691963,0.002455278849526482,0.03389830508474576
sdwiki,False,96.0,0.0,0.0,0.9820627802690582,0.0014030164854437039,0.03389830508474576
sdwiki,False,97.0,0.0,0.0,0.982752673335633,0.0007015082427218519,0.03389830508474576
sdwiki,False,98.0,0.0,0.0,0.982752673335633,0.0007015082427218519,0.03389830508474576
sdwiki,False,99.0,0.0,0.0,0.9830976198689203,0.00035075412136092597,0.03389830508474576
