wiki_db,user_is_anonymous,threshold,precision,recall,accuracy,fpr,F1
sgwiki,True,0.0,0.8,1.0,0.8,1.0,0.888888888888889
sgwiki,True,1.0,0.8,1.0,0.8,1.0,0.888888888888889
sgwiki,True,2.0,0.8,1.0,0.8,1.0,0.888888888888889
sgwiki,True,3.0,0.8,1.0,0.8,1.0,0.888888888888889
sgwiki,True,4.0,0.8,1.0,0.8,1.0,0.888888888888889
sgwiki,True,5.0,0.8,1.0,0.8,1.0,0.888888888888889
sgwiki,True,6.0,0.8,1.0,0.8,1.0,0.888888888888889
sgwiki,True,7.0,0.8,1.0,0.8,1.0,0.888888888888889
sgwiki,True,8.0,0.8,1.0,0.8,1.0,0.888888888888889
sgwiki,True,9.0,0.8,1.0,0.8,1.0,0.888888888888889
sgwiki,True,10.0,0.8,1.0,0.8,1.0,0.888888888888889
sgwiki,True,11.0,0.8,1.0,0.8,1.0,0.888888888888889
sgwiki,True,12.0,0.8,1.0,0.8,1.0,0.888888888888889
sgwiki,True,13.0,0.8,1.0,0.8,1.0,0.888888888888889
sgwiki,True,14.0,0.8,1.0,0.8,1.0,0.888888888888889
sgwiki,True,15.0,0.8,1.0,0.8,1.0,0.888888888888889
sgwiki,True,16.0,0.8,1.0,0.8,1.0,0.888888888888889
sgwiki,True,17.0,0.8,1.0,0.8,1.0,0.888888888888889
sgwiki,True,18.0,0.8,1.0,0.8,1.0,0.888888888888889
sgwiki,True,19.0,0.8,1.0,0.8,1.0,0.888888888888889
sgwiki,True,20.0,0.8,1.0,0.8,1.0,0.888888888888889
sgwiki,True,21.0,0.8,1.0,0.8,1.0,0.888888888888889
sgwiki,True,22.0,0.8,1.0,0.8,1.0,0.888888888888889
sgwiki,True,23.0,0.8,1.0,0.8,1.0,0.888888888888889
sgwiki,True,24.0,0.8,1.0,0.8,1.0,0.888888888888889
sgwiki,True,25.0,0.8,1.0,0.8,1.0,0.888888888888889
sgwiki,True,26.0,0.8,1.0,0.8,1.0,0.888888888888889
sgwiki,True,27.0,0.8,1.0,0.8,1.0,0.888888888888889
sgwiki,True,28.0,0.8,1.0,0.8,1.0,0.888888888888889
sgwiki,True,29.0,0.8,1.0,0.8,1.0,0.888888888888889
sgwiki,True,30.0,0.8,1.0,0.8,1.0,0.888888888888889
sgwiki,True,31.0,0.8,1.0,0.8,1.0,0.888888888888889
sgwiki,True,32.0,0.8,1.0,0.8,1.0,0.888888888888889
sgwiki,True,33.0,0.8,1.0,0.8,1.0,0.888888888888889
sgwiki,True,34.0,0.8,1.0,0.8,1.0,0.888888888888889
sgwiki,True,35.0,0.8,1.0,0.8,1.0,0.888888888888889
sgwiki,True,36.0,0.8,1.0,0.8,1.0,0.888888888888889
sgwiki,True,37.0,0.8,1.0,0.8,1.0,0.888888888888889
sgwiki,True,38.0,0.8,1.0,0.8,1.0,0.888888888888889
sgwiki,True,39.0,0.8,1.0,0.8,1.0,0.888888888888889
sgwiki,True,40.0,0.8,1.0,0.8,1.0,0.888888888888889
sgwiki,True,41.0,0.8,1.0,0.8,1.0,0.888888888888889
sgwiki,True,42.0,0.8,1.0,0.8,1.0,0.888888888888889
sgwiki,True,43.0,0.8,1.0,0.8,1.0,0.888888888888889
sgwiki,True,44.0,0.8,1.0,0.8,1.0,0.888888888888889
sgwiki,True,45.0,0.8,1.0,0.8,1.0,0.888888888888889
sgwiki,True,46.0,0.8,1.0,0.8,1.0,0.888888888888889
sgwiki,True,47.0,0.8,1.0,0.8,1.0,0.888888888888889
sgwiki,True,48.0,0.8,1.0,0.8,1.0,0.888888888888889
sgwiki,True,49.0,0.8,1.0,0.8,1.0,0.888888888888889
sgwiki,True,50.0,0.8,1.0,0.8,1.0,0.888888888888889
sgwiki,True,51.0,0.8,1.0,0.8,1.0,0.888888888888889
sgwiki,True,52.0,0.8,1.0,0.8,1.0,0.888888888888889
sgwiki,True,53.0,0.8,1.0,0.8,1.0,0.888888888888889
sgwiki,True,54.0,0.8,1.0,0.8,1.0,0.888888888888889
sgwiki,True,55.0,0.8,1.0,0.8,1.0,0.888888888888889
sgwiki,True,56.0,0.8,1.0,0.8,1.0,0.888888888888889
sgwiki,True,57.0,0.8,1.0,0.8,1.0,0.888888888888889
sgwiki,True,58.0,0.8,1.0,0.8,1.0,0.888888888888889
sgwiki,True,59.0,0.8,1.0,0.8,1.0,0.888888888888889
sgwiki,True,60.0,0.8,1.0,0.8,1.0,0.888888888888889
sgwiki,True,61.0,0.8,1.0,0.8,1.0,0.888888888888889
sgwiki,True,62.0,0.8,1.0,0.8,1.0,0.888888888888889
sgwiki,True,63.0,0.8,1.0,0.8,1.0,0.888888888888889
sgwiki,True,64.0,0.8,1.0,0.8,1.0,0.888888888888889
sgwiki,True,65.0,0.8,1.0,0.8,1.0,0.888888888888889
sgwiki,True,66.0,0.8,1.0,0.8,1.0,0.888888888888889
sgwiki,True,67.0,0.8,1.0,0.8,1.0,0.888888888888889
sgwiki,True,68.0,0.8,1.0,0.8,1.0,0.888888888888889
sgwiki,True,69.0,0.8,1.0,0.8,1.0,0.888888888888889
sgwiki,True,70.0,0.8,1.0,0.8,1.0,0.888888888888889
sgwiki,True,71.0,0.8,1.0,0.8,1.0,0.888888888888889
sgwiki,True,72.0,0.8,1.0,0.8,1.0,0.888888888888889
sgwiki,True,73.0,0.8,1.0,0.8,1.0,0.888888888888889
sgwiki,True,74.0,0.8,1.0,0.8,1.0,0.888888888888889
sgwiki,True,75.0,0.8,1.0,0.8,1.0,0.888888888888889
sgwiki,True,76.0,0.8,1.0,0.8,1.0,0.888888888888889
sgwiki,True,77.0,0.8,1.0,0.8,1.0,0.888888888888889
sgwiki,True,78.0,0.75,0.75,0.6,1.0,0.75
sgwiki,True,79.0,0.75,0.75,0.6,1.0,0.75
sgwiki,True,80.0,0.75,0.75,0.6,1.0,0.75
sgwiki,True,81.0,0.75,0.75,0.6,1.0,0.75
sgwiki,True,82.0,0.75,0.75,0.6,1.0,0.75
sgwiki,True,83.0,0.75,0.75,0.6,1.0,0.75
sgwiki,True,84.0,0.75,0.75,0.6,1.0,0.75
sgwiki,True,85.0,0.75,0.75,0.6,1.0,0.75
sgwiki,True,86.0,0.6666666666666666,0.5,0.4,1.0,0.5714285714285715
sgwiki,True,87.0,0.6666666666666666,0.5,0.4,1.0,0.5714285714285715
sgwiki,True,88.0,0.6666666666666666,0.5,0.4,1.0,0.5714285714285715
sgwiki,True,89.0,0.6666666666666666,0.5,0.4,1.0,0.5714285714285715
sgwiki,True,90.0,0.5,0.25,0.2,1.0,0.3333333333333333
sgwiki,True,91.0,0.5,0.25,0.2,1.0,0.3333333333333333
sgwiki,True,92.0,0.5,0.25,0.2,1.0,0.3333333333333333
sgwiki,True,93.0,0.5,0.25,0.2,1.0,0.3333333333333333
sgwiki,True,94.0,0.5,0.25,0.2,1.0,0.3333333333333333
sgwiki,True,95.0,0.5,0.25,0.2,1.0,0.3333333333333333
sgwiki,True,96.0,0.5,0.25,0.2,1.0,0.3333333333333333
sgwiki,True,97.0,0.5,0.25,0.2,1.0,0.3333333333333333
sgwiki,True,98.0,1.0,0.25,0.4,0.0,0.4
sgwiki,True,99.0,1.0,0.25,0.4,0.0,0.4
