wiki_db,user_is_anonymous,threshold,precision,recall,accuracy,fpr,F1
suwiki,True,0.0,0.13884297520661157,1.0,0.13884297520661157,1.0,0.24383164005805513
suwiki,True,1.0,0.13884297520661157,1.0,0.13884297520661157,1.0,0.24383164005805513
suwiki,True,2.0,0.13884297520661157,1.0,0.13884297520661157,1.0,0.24383164005805513
suwiki,True,3.0,0.13884297520661157,1.0,0.13884297520661157,1.0,0.24383164005805513
suwiki,True,4.0,0.13884297520661157,1.0,0.13884297520661157,1.0,0.24383164005805513
suwiki,True,5.0,0.13884297520661157,1.0,0.13884297520661157,1.0,0.24383164005805513
suwiki,True,6.0,0.13884297520661157,1.0,0.13884297520661157,1.0,0.24383164005805513
suwiki,True,7.0,0.13884297520661157,1.0,0.13884297520661157,1.0,0.24383164005805513
suwiki,True,8.0,0.13884297520661157,1.0,0.13884297520661157,1.0,0.24383164005805513
suwiki,True,9.0,0.13884297520661157,1.0,0.13884297520661157,1.0,0.24383164005805513
suwiki,True,10.0,0.13884297520661157,1.0,0.13884297520661157,1.0,0.24383164005805513
suwiki,True,11.0,0.13884297520661157,1.0,0.13884297520661157,1.0,0.24383164005805513
suwiki,True,12.0,0.13884297520661157,1.0,0.13884297520661157,1.0,0.24383164005805513
suwiki,True,13.0,0.13884297520661157,1.0,0.13884297520661157,1.0,0.24383164005805513
suwiki,True,14.0,0.13895781637717122,1.0,0.1396694214876033,0.9990403071017274,0.2440087145969499
suwiki,True,15.0,0.1390728476821192,1.0,0.14049586776859505,0.9980806142034548,0.24418604651162787
suwiki,True,16.0,0.1391880695940348,1.0,0.14132231404958678,0.9971209213051824,0.24436363636363634
suwiki,True,17.0,0.1391880695940348,1.0,0.14132231404958678,0.9971209213051824,0.24436363636363634
suwiki,True,18.0,0.13930348258706468,1.0,0.14214876033057852,0.9961612284069098,0.2445414847161572
suwiki,True,19.0,0.13930348258706468,1.0,0.14214876033057852,0.9961612284069098,0.2445414847161572
suwiki,True,20.0,0.13930348258706468,1.0,0.14214876033057852,0.9961612284069098,0.2445414847161572
suwiki,True,21.0,0.13930348258706468,1.0,0.14214876033057852,0.9961612284069098,0.2445414847161572
suwiki,True,22.0,0.13930348258706468,1.0,0.14214876033057852,0.9961612284069098,0.2445414847161572
suwiki,True,23.0,0.13941908713692946,1.0,0.14297520661157026,0.9952015355086372,0.24471959213401312
suwiki,True,24.0,0.13941908713692946,1.0,0.14297520661157026,0.9952015355086372,0.24471959213401312
suwiki,True,25.0,0.13941908713692946,1.0,0.14297520661157026,0.9952015355086372,0.24471959213401312
suwiki,True,26.0,0.13941908713692946,1.0,0.14297520661157026,0.9952015355086372,0.24471959213401312
suwiki,True,27.0,0.13941908713692946,1.0,0.14297520661157026,0.9952015355086372,0.24471959213401312
suwiki,True,28.0,0.13941908713692946,1.0,0.14297520661157026,0.9952015355086372,0.24471959213401312
suwiki,True,29.0,0.13941908713692946,1.0,0.14297520661157026,0.9952015355086372,0.24471959213401312
suwiki,True,30.0,0.13941908713692946,1.0,0.14297520661157026,0.9952015355086372,0.24471959213401312
suwiki,True,31.0,0.13941908713692946,1.0,0.14297520661157026,0.9952015355086372,0.24471959213401312
suwiki,True,32.0,0.13941908713692946,1.0,0.14297520661157026,0.9952015355086372,0.24471959213401312
suwiki,True,33.0,0.13941908713692946,1.0,0.14297520661157026,0.9952015355086372,0.24471959213401312
suwiki,True,34.0,0.13941908713692946,1.0,0.14297520661157026,0.9952015355086372,0.24471959213401312
suwiki,True,35.0,0.13953488372093023,1.0,0.14380165289256197,0.9942418426103646,0.24489795918367346
suwiki,True,36.0,0.13953488372093023,1.0,0.14380165289256197,0.9942418426103646,0.24489795918367346
suwiki,True,37.0,0.13953488372093023,1.0,0.14380165289256197,0.9942418426103646,0.24489795918367346
suwiki,True,38.0,0.13881961762261014,0.9940476190476191,0.14297520661157026,0.9942418426103646,0.24361779722830051
suwiki,True,39.0,0.1389351081530782,0.9940476190476191,0.14380165289256197,0.9932821497120922,0.24379562043795622
suwiki,True,40.0,0.1389351081530782,0.9940476190476191,0.14380165289256197,0.9932821497120922,0.24379562043795622
suwiki,True,41.0,0.1389351081530782,0.9940476190476191,0.14380165289256197,0.9932821497120922,0.24379562043795622
suwiki,True,42.0,0.1389351081530782,0.9940476190476191,0.14380165289256197,0.9932821497120922,0.24379562043795622
suwiki,True,43.0,0.13905079100749376,0.9940476190476191,0.1446280991735537,0.9923224568138196,0.24397370343316288
suwiki,True,44.0,0.13928273561301086,0.9940476190476191,0.14628099173553719,0.9904030710172744,0.2443306510607169
suwiki,True,45.0,0.13951545530492898,0.9940476190476191,0.14793388429752066,0.9884836852207294,0.24468864468864468
suwiki,True,46.0,0.13951545530492898,0.9940476190476191,0.14793388429752066,0.9884836852207294,0.24468864468864468
suwiki,True,47.0,0.13951545530492898,0.9940476190476191,0.14793388429752066,0.9884836852207294,0.24468864468864468
suwiki,True,48.0,0.13951545530492898,0.9940476190476191,0.14793388429752066,0.9884836852207294,0.24468864468864468
suwiki,True,49.0,0.13963210702341136,0.9940476190476191,0.1487603305785124,0.9875239923224568,0.24486803519061578
suwiki,True,50.0,0.1397489539748954,0.9940476190476191,0.14958677685950414,0.9865642994241842,0.2450476889214967
suwiki,True,51.0,0.1397489539748954,0.9940476190476191,0.14958677685950414,0.9865642994241842,0.2450476889214967
suwiki,True,52.0,0.13986599664991625,0.9940476190476191,0.15041322314049588,0.9856046065259118,0.24522760646108663
suwiki,True,53.0,0.13926174496644295,0.9880952380952381,0.15041322314049588,0.9846449136276392,0.2441176470588235
suwiki,True,54.0,0.13949579831932774,0.9880952380952381,0.15206611570247933,0.982725527831094,0.2444771723122239
suwiki,True,55.0,0.1388888888888889,0.9821428571428571,0.15206611570247933,0.9817658349328215,0.24336283185840704
suwiki,True,56.0,0.13839662447257384,0.9761904761904762,0.15289256198347106,0.9798464491362764,0.24242424242424238
suwiki,True,57.0,0.1386306001690617,0.9761904761904762,0.15454545454545454,0.9779270633397313,0.24278312361213913
suwiki,True,58.0,0.13898305084745763,0.9761904761904762,0.15702479338842976,0.9750479846449136,0.24332344213649856
suwiki,True,59.0,0.1360544217687075,0.9523809523809523,0.1537190082644628,0.9750479846449136,0.23809523809523814
suwiki,True,60.0,0.1358974358974359,0.9464285714285714,0.15702479338842976,0.9702495201535508,0.23766816143497757
suwiki,True,61.0,0.1358555460017197,0.9404761904761905,0.16115702479338842,0.9644913627639156,0.2374154770848986
suwiki,True,62.0,0.13581314878892733,0.9345238095238095,0.1652892561983471,0.9587332053742802,0.23716012084592145
suwiki,True,63.0,0.13541666666666666,0.9285714285714286,0.1669421487603306,0.9558541266794626,0.23636363636363633
suwiki,True,64.0,0.13525305410122165,0.9226190476190477,0.17024793388429751,0.9510556621880998,0.23592085235920857
suwiki,True,65.0,0.13544415127528583,0.9166666666666666,0.17603305785123968,0.9433781190019194,0.23601532567049807
suwiki,True,66.0,0.13487133984028393,0.9047619047619048,0.18099173553719008,0.935700575815739,0.23474903474903472
suwiki,True,67.0,0.13525698827772767,0.8928571428571429,0.1925619834710744,0.9203454894433781,0.23492560689115113
suwiki,True,68.0,0.13363636363636364,0.875,0.19504132231404958,0.9145873320537428,0.23186119873817035
suwiki,True,69.0,0.1332099907493062,0.8571428571428571,0.20578512396694215,0.8992322456813819,0.23058446757405923
suwiki,True,70.0,0.1339622641509434,0.8452380952380952,0.21983471074380165,0.8809980806142035,0.23127035830618892
suwiki,True,71.0,0.1355275895450145,0.8333333333333334,0.23884297520661157,0.8570057581573897,0.23313905079100747
suwiki,True,72.0,0.1332675222112537,0.8035714285714286,0.24710743801652893,0.8426103646833013,0.2286198137171888
suwiki,True,73.0,0.134479271991911,0.7916666666666666,0.2636363636363636,0.8214971209213052,0.22990492653414
suwiki,True,74.0,0.13003095975232198,0.75,0.26859504132231404,0.809021113243762,0.2216358839050132
suwiki,True,75.0,0.12815126050420167,0.7261904761904762,0.27603305785123966,0.7965451055662188,0.21785714285714283
suwiki,True,76.0,0.12968917470525188,0.7202380952380952,0.2900826446280992,0.7792706333973128,0.2198001816530427
suwiki,True,77.0,0.12882096069868995,0.7023809523809523,0.2991735537190083,0.7658349328214972,0.2177121771217712
suwiki,True,78.0,0.13053097345132744,0.7023809523809523,0.3090909090909091,0.7543186180422264,0.22014925373134328
suwiki,True,79.0,0.1318435754189944,0.7023809523809523,0.3165289256198347,0.7456813819577736,0.2220131702728128
suwiki,True,80.0,0.1334867663981588,0.6904761904761905,0.3347107438016529,0.7226487523992322,0.2237222757955641
suwiki,True,81.0,0.12705882352941175,0.6428571428571429,0.3371900826446281,0.7120921305182342,0.212180746561886
suwiki,True,82.0,0.1271393643031785,0.6190476190476191,0.35702479338842974,0.6852207293666027,0.21095334685598377
suwiki,True,83.0,0.12720403022670027,0.6011904761904762,0.371900826446281,0.6650671785028791,0.20997920997921
suwiki,True,84.0,0.12847682119205298,0.5773809523809523,0.3975206611570248,0.6314779270633397,0.21018418201516795
suwiki,True,85.0,0.12827586206896552,0.5535714285714286,0.41570247933884297,0.6065259117082533,0.20828667413213886
suwiki,True,86.0,0.12812960235640647,0.5178571428571429,0.44380165289256196,0.5681381957773513,0.20543093270365997
suwiki,True,87.0,0.1309328968903437,0.47619047619047616,0.4884297520661157,0.5095969289827256,0.20539152759948653
suwiki,True,88.0,0.13345521023765997,0.43452380952380953,0.5297520661157025,0.45489443378119004,0.20419580419580421
suwiki,True,89.0,0.13238289205702647,0.3869047619047619,0.5628099173553719,0.4088291746641075,0.19726858877086495
suwiki,True,90.0,0.13958810068649885,0.3630952380952381,0.6008264462809917,0.36084452975047987,0.2016528925619835
suwiki,True,91.0,0.15405405405405406,0.3392857142857143,0.6495867768595042,0.30038387715930903,0.21189591078066916
suwiki,True,92.0,0.1760797342192691,0.31547619047619047,0.7,0.2380038387715931,0.22601279317697226
suwiki,True,93.0,0.1927710843373494,0.2857142857142857,0.7347107438016529,0.1928982725527831,0.2302158273381295
suwiki,True,94.0,0.21025641025641026,0.24404761904761904,0.7677685950413223,0.14779270633397312,0.22589531680440772
suwiki,True,95.0,0.16428571428571428,0.13690476190476192,0.7834710743801653,0.11228406909788867,0.14935064935064934
suwiki,True,96.0,0.14736842105263157,0.08333333333333333,0.8057851239669421,0.07773512476007678,0.10646387832699618
suwiki,True,97.0,0.18032786885245902,0.06547619047619048,0.8289256198347107,0.04798464491362764,0.09606986899563319
suwiki,True,98.0,0.25,0.05952380952380952,0.8446280991735537,0.028790786948176585,0.09615384615384615
suwiki,True,99.0,0.2777777777777778,0.02976190476190476,0.8545454545454545,0.012476007677543186,0.05376344086021505
suwiki,False,0.0,0.014472777394900068,1.0,0.014472777394900068,1.0,0.028532608695652172
suwiki,False,1.0,0.014472777394900068,1.0,0.014472777394900068,1.0,0.028532608695652172
suwiki,False,2.0,0.014487754398068299,1.0,0.015506547208821502,0.9989510489510489,0.028561713702822168
suwiki,False,3.0,0.014512785072563926,1.0,0.01722949689869056,0.9972027972027973,0.02861035422343324
suwiki,False,4.0,0.014563106796116505,1.0,0.02067539627842867,0.9937062937062937,0.028708133971291867
suwiki,False,5.0,0.014669926650366748,1.0,0.027911784975878703,0.9863636363636363,0.02891566265060241
suwiki,False,6.0,0.014883061658398299,1.0,0.04203997243280496,0.972027972027972,0.029329608938547483
suwiki,False,7.0,0.014925373134328358,0.9761904761904762,0.06719503790489317,0.9461538461538461,0.02940121907493725
suwiki,False,8.0,0.015396169733383402,0.9761904761904762,0.09614059269469331,0.9167832167832168,0.03031423290203327
suwiki,False,9.0,0.015631105900742476,0.9523809523809523,0.13128876636802206,0.8807692307692307,0.030757400999615533
suwiki,False,10.0,0.016116035455278,0.9523809523809523,0.1578221915920055,0.8538461538461538,0.03169572107765452
suwiki,False,11.0,0.01653575857792476,0.9523809523809523,0.17953135768435563,0.8318181818181818,0.032507110930516045
suwiki,False,12.0,0.01695633743111488,0.9523809523809523,0.20020675396278428,0.8108391608391609,0.03331945022907122
suwiki,False,13.0,0.016956521739130436,0.9285714285714286,0.21984838042729152,0.7905594405594406,0.033304867634500426
suwiki,False,14.0,0.017132551848512173,0.9047619047619048,0.2474155754651964,0.7622377622377622,0.033628318584070796
suwiki,False,15.0,0.016869728209934397,0.8571428571428571,0.2749827705031013,0.7335664335664336,0.033088235294117654
suwiki,False,16.0,0.016867469879518072,0.8333333333333334,0.29462439696760856,0.7132867132867133,0.03306565895134625
suwiki,False,17.0,0.017570281124497992,0.8333333333333334,0.3232253618194349,0.6842657342657342,0.0344149459193707
suwiki,False,18.0,0.018295870360690015,0.8333333333333334,0.35044796691936597,0.6566433566433566,0.03580562659846547
suwiki,False,19.0,0.019157088122605363,0.8333333333333334,0.3800827015851137,0.6265734265734266,0.037453183520599245
suwiki,False,20.0,0.020011435105774727,0.8333333333333334,0.40696071674707096,0.5993006993006993,0.03908431044109436
suwiki,False,21.0,0.02078239608801956,0.8095238095238095,0.44521019986216404,0.5601398601398602,0.04052443384982121
suwiki,False,22.0,0.02225130890052356,0.8095238095238095,0.4824259131633356,0.5223776223776224,0.04331210191082803
suwiki,False,23.0,0.023480662983425413,0.8095238095238095,0.5099931082012406,0.4944055944055944,0.04563758389261745
suwiki,False,24.0,0.024498886414253896,0.7857142857142857,0.5441075120606478,0.45944055944055945,0.04751619870410367
suwiki,False,25.0,0.025943396226415096,0.7857142857142857,0.5699517574086836,0.4332167832167832,0.05022831050228311
suwiki,False,26.0,0.027182866556836903,0.7857142857142857,0.5899379738111648,0.41293706293706295,0.05254777070063694
suwiki,False,27.0,0.028846153846153848,0.7857142857142857,0.6140592694693315,0.38846153846153847,0.05564924114671163
suwiki,False,28.0,0.0308411214953271,0.7857142857142857,0.6395589248793935,0.36258741258741256,0.05935251798561151
suwiki,False,29.0,0.03232125367286973,0.7857142857142857,0.6564438318401102,0.34545454545454546,0.062088428974600186
suwiki,False,30.0,0.033846153846153845,0.7857142857142857,0.6722949689869056,0.3293706293706294,0.06489675516224189
suwiki,False,31.0,0.03492063492063492,0.7857142857142857,0.6826326671261199,0.31888111888111886,0.06686930091185411
suwiki,False,32.0,0.03670745272525028,0.7857142857142857,0.6984838042729152,0.3027972027972028,0.07013815090329437
suwiki,False,33.0,0.037714285714285714,0.7857142857142857,0.7067539627842867,0.2944055944055944,0.07197382769901854
suwiki,False,34.0,0.03914590747330961,0.7857142857142857,0.7177808407994487,0.28321678321678323,0.07457627118644068
suwiki,False,35.0,0.040342298288508556,0.7857142857142857,0.7263955892487939,0.2744755244755245,0.07674418604651163
suwiki,False,36.0,0.041719342604298354,0.7857142857142857,0.7356995175740868,0.26503496503496504,0.07923169267707082
suwiki,False,37.0,0.04291287386215865,0.7857142857142857,0.7432804962095106,0.2573426573426573,0.0813810110974106
suwiki,False,38.0,0.044,0.7857142857142857,0.7498277050310131,0.2506993006993007,0.08333333333333331
suwiki,False,39.0,0.0458970792767733,0.7857142857142857,0.7605099931082012,0.23986013986013985,0.08672798948751644
suwiki,False,40.0,0.04680851063829787,0.7857142857142857,0.7653342522398346,0.23496503496503496,0.08835341365461848
suwiki,False,41.0,0.04775687409551375,0.7857142857142857,0.770158511371468,0.23006993006993007,0.09004092769440654
suwiki,False,42.0,0.049253731343283584,0.7857142857142857,0.777394900068918,0.22272727272727272,0.09269662921348315
suwiki,False,43.0,0.05061349693251534,0.7857142857142857,0.7835975189524466,0.21643356643356643,0.09510086455331412
suwiki,False,44.0,0.05180533751962323,0.7857142857142857,0.7887663680220538,0.2111888111888112,0.09720176730486009
suwiki,False,45.0,0.0532258064516129,0.7857142857142857,0.7946243969676086,0.20524475524475524,0.09969788519637461
suwiki,False,46.0,0.054455445544554455,0.7857142857142857,0.7994486560992419,0.20034965034965035,0.10185185185185185
suwiki,False,47.0,0.05546218487394958,0.7857142857142857,0.8032391454169538,0.1965034965034965,0.10361067503924647
suwiki,False,48.0,0.05749128919860627,0.7857142857142857,0.8104755341144039,0.18916083916083917,0.10714285714285714
suwiki,False,49.0,0.05851063829787234,0.7857142857142857,0.8139214334941419,0.18566433566433566,0.10891089108910892
suwiki,False,50.0,0.05776173285198556,0.7619047619047619,0.8166781529979324,0.1825174825174825,0.10738255033557047
suwiki,False,51.0,0.05649717514124294,0.7142857142857143,0.8232253618194348,0.1751748251748252,0.10471204188481674
suwiki,False,52.0,0.057692307692307696,0.7142857142857143,0.8270158511371468,0.17132867132867133,0.10676156583629895
suwiki,False,53.0,0.05511811023622047,0.6666666666666666,0.8297725706409372,0.16783216783216784,0.10181818181818182
suwiki,False,54.0,0.056,0.6666666666666666,0.8325292901447278,0.16503496503496504,0.10332103321033209
suwiki,False,55.0,0.05761316872427984,0.6666666666666666,0.8373535492763611,0.16013986013986015,0.10606060606060606
suwiki,False,56.0,0.056962025316455694,0.6428571428571429,0.8407994486560992,0.15629370629370629,0.10465116279069768
suwiki,False,57.0,0.05818965517241379,0.6428571428571429,0.8442453480358374,0.1527972027972028,0.1067193675889328
suwiki,False,58.0,0.05934065934065934,0.6428571428571429,0.8473466574776016,0.14965034965034965,0.10865191146881288
suwiki,False,59.0,0.06053811659192825,0.6428571428571429,0.850447966919366,0.1465034965034965,0.11065573770491804
suwiki,False,60.0,0.06206896551724138,0.6428571428571429,0.8542384562370778,0.14265734265734265,0.11320754716981132
suwiki,False,61.0,0.06398104265402843,0.6428571428571429,0.8587181254307374,0.1381118881118881,0.11637931034482757
suwiki,False,62.0,0.0665024630541872,0.6428571428571429,0.8642315644383184,0.13251748251748252,0.1205357142857143
suwiki,False,63.0,0.06852791878172589,0.6428571428571429,0.8683666436940042,0.12832167832167832,0.1238532110091743
suwiki,False,64.0,0.06788511749347259,0.6190476190476191,0.8714679531357684,0.12482517482517483,0.1223529411764706
suwiki,False,65.0,0.07065217391304347,0.6190476190476191,0.8766368022053757,0.11958041958041958,0.12682926829268293
suwiki,False,66.0,0.07407407407407407,0.6190476190476191,0.8824948311509304,0.11363636363636363,0.13231552162849872
suwiki,False,67.0,0.0771513353115727,0.6190476190476191,0.8873190902825637,0.10874125874125874,0.13720316622691292
suwiki,False,68.0,0.078125,0.5952380952380952,0.892487939352171,0.10314685314685315,0.13812154696132597
suwiki,False,69.0,0.08169934640522876,0.5952380952380952,0.8973121984838043,0.09825174825174825,0.14367816091954022
suwiki,False,70.0,0.08680555555555555,0.5952380952380952,0.9035148173673329,0.09195804195804196,0.1515151515151515
suwiki,False,71.0,0.09090909090909091,0.5952380952380952,0.9079944865609925,0.08741258741258741,0.15772870662460567
suwiki,False,72.0,0.08712121212121213,0.5476190476190477,0.9104066161268091,0.08426573426573426,0.1503267973856209
suwiki,False,73.0,0.0860655737704918,0.5,0.9159200551343901,0.07797202797202797,0.14685314685314685
suwiki,False,74.0,0.09130434782608696,0.5,0.9207443142660234,0.07307692307692308,0.15441176470588236
suwiki,False,75.0,0.09389671361502347,0.47619047619047616,0.9259131633356306,0.06748251748251748,0.1568627450980392
suwiki,False,76.0,0.09405940594059406,0.4523809523809524,0.9290144727773949,0.06398601398601399,0.1557377049180328
suwiki,False,77.0,0.08994708994708994,0.40476190476190477,0.9321157822191593,0.06013986013986014,0.14718614718614717
suwiki,False,78.0,0.09302325581395349,0.38095238095238093,0.9372846312887664,0.05454545454545454,0.14953271028037382
suwiki,False,79.0,0.09090909090909091,0.35714285714285715,0.9390075809786355,0.05244755244755245,0.1449275362318841
suwiki,False,80.0,0.09032258064516129,0.3333333333333333,0.9417643004824259,0.0493006993006993,0.14213197969543145
suwiki,False,81.0,0.09655172413793103,0.3333333333333333,0.945210199862164,0.045804195804195806,0.1497326203208556
suwiki,False,82.0,0.09420289855072464,0.30952380952380953,0.9469331495520331,0.043706293706293704,0.14444444444444446
suwiki,False,83.0,0.10236220472440945,0.30952380952380953,0.950723638869745,0.03986013986013986,0.15384615384615385
suwiki,False,84.0,0.1111111111111111,0.30952380952380953,0.9541695382494831,0.03636363636363636,0.16352201257861634
suwiki,False,85.0,0.1326530612244898,0.30952380952380953,0.9607167470709855,0.02972027972027972,0.18571428571428572
suwiki,False,86.0,0.14285714285714285,0.2857142857142857,0.9648518263266712,0.025174825174825177,0.19047619047619047
suwiki,False,87.0,0.17391304347826086,0.2857142857142857,0.9700206753962785,0.01993006993006993,0.2162162162162162
suwiki,False,88.0,0.18032786885245902,0.2619047619047619,0.9720882150241213,0.017482517482517484,0.21359223300970873
suwiki,False,89.0,0.2,0.23809523809523808,0.9751895244658856,0.013986013986013986,0.21739130434782608
suwiki,False,90.0,0.20930232558139536,0.21428571428571427,0.9769124741557547,0.011888111888111888,0.21176470588235297
suwiki,False,91.0,0.1794871794871795,0.16666666666666666,0.9769124741557547,0.011188811188811189,0.1728395061728395
suwiki,False,92.0,0.22580645161290322,0.16666666666666666,0.9796691936595452,0.008391608391608392,0.1917808219178082
suwiki,False,93.0,0.25,0.14285714285714285,0.9813921433494142,0.006293706293706294,0.18181818181818182
suwiki,False,94.0,0.3157894736842105,0.14285714285714285,0.9831150930392832,0.004545454545454545,0.19672131147540983
suwiki,False,95.0,0.3125,0.11904761904761904,0.983459682977257,0.0038461538461538464,0.17241379310344826
suwiki,False,96.0,0.45454545454545453,0.11904761904761904,0.9851826326671261,0.002097902097902098,0.18867924528301885
suwiki,False,97.0,0.5,0.11904761904761904,0.9855272226051,0.0017482517482517483,0.1923076923076923
suwiki,False,98.0,0.5,0.09523809523809523,0.9855272226051,0.0013986013986013986,0.16
suwiki,False,99.0,0.6,0.07142857142857142,0.9858718125430738,0.0006993006993006993,0.1276595744680851
