wiki_db,user_is_anonymous,threshold,precision,recall,accuracy,fpr,F1
tetwiki,True,0.0,0.09090909090909091,1.0,0.09090909090909091,1.0,0.16666666666666669
tetwiki,True,1.0,0.09090909090909091,1.0,0.09090909090909091,1.0,0.16666666666666669
tetwiki,True,2.0,0.09090909090909091,1.0,0.09090909090909091,1.0,0.16666666666666669
tetwiki,True,3.0,0.09090909090909091,1.0,0.09090909090909091,1.0,0.16666666666666669
tetwiki,True,4.0,0.09090909090909091,1.0,0.09090909090909091,1.0,0.16666666666666669
tetwiki,True,5.0,0.09090909090909091,1.0,0.09090909090909091,1.0,0.16666666666666669
tetwiki,True,6.0,0.09090909090909091,1.0,0.09090909090909091,1.0,0.16666666666666669
tetwiki,True,7.0,0.09090909090909091,1.0,0.09090909090909091,1.0,0.16666666666666669
tetwiki,True,8.0,0.09090909090909091,1.0,0.09090909090909091,1.0,0.16666666666666669
tetwiki,True,9.0,0.09090909090909091,1.0,0.09090909090909091,1.0,0.16666666666666669
tetwiki,True,10.0,0.09090909090909091,1.0,0.09090909090909091,1.0,0.16666666666666669
tetwiki,True,11.0,0.09090909090909091,1.0,0.09090909090909091,1.0,0.16666666666666669
tetwiki,True,12.0,0.09090909090909091,1.0,0.09090909090909091,1.0,0.16666666666666669
tetwiki,True,13.0,0.09090909090909091,1.0,0.09090909090909091,1.0,0.16666666666666669
tetwiki,True,14.0,0.09090909090909091,1.0,0.09090909090909091,1.0,0.16666666666666669
tetwiki,True,15.0,0.09090909090909091,1.0,0.09090909090909091,1.0,0.16666666666666669
tetwiki,True,16.0,0.09090909090909091,1.0,0.09090909090909091,1.0,0.16666666666666669
tetwiki,True,17.0,0.09090909090909091,1.0,0.09090909090909091,1.0,0.16666666666666669
tetwiki,True,18.0,0.09090909090909091,1.0,0.09090909090909091,1.0,0.16666666666666669
tetwiki,True,19.0,0.09090909090909091,1.0,0.09090909090909091,1.0,0.16666666666666669
tetwiki,True,20.0,0.09090909090909091,1.0,0.09090909090909091,1.0,0.16666666666666669
tetwiki,True,21.0,0.09195402298850575,1.0,0.10227272727272728,0.9875,0.16842105263157897
tetwiki,True,22.0,0.09195402298850575,1.0,0.10227272727272728,0.9875,0.16842105263157897
tetwiki,True,23.0,0.09302325581395349,1.0,0.11363636363636363,0.975,0.1702127659574468
tetwiki,True,24.0,0.09411764705882353,1.0,0.125,0.9625,0.17204301075268816
tetwiki,True,25.0,0.09411764705882353,1.0,0.125,0.9625,0.17204301075268816
tetwiki,True,26.0,0.09411764705882353,1.0,0.125,0.9625,0.17204301075268816
tetwiki,True,27.0,0.09411764705882353,1.0,0.125,0.9625,0.17204301075268816
tetwiki,True,28.0,0.09411764705882353,1.0,0.125,0.9625,0.17204301075268816
tetwiki,True,29.0,0.09523809523809523,1.0,0.13636363636363635,0.95,0.17391304347826084
tetwiki,True,30.0,0.09523809523809523,1.0,0.13636363636363635,0.95,0.17391304347826084
tetwiki,True,31.0,0.0963855421686747,1.0,0.14772727272727273,0.9375,0.1758241758241758
tetwiki,True,32.0,0.0975609756097561,1.0,0.1590909090909091,0.925,0.17777777777777776
tetwiki,True,33.0,0.0975609756097561,1.0,0.1590909090909091,0.925,0.17777777777777776
tetwiki,True,34.0,0.0975609756097561,1.0,0.1590909090909091,0.925,0.17777777777777776
tetwiki,True,35.0,0.0975609756097561,1.0,0.1590909090909091,0.925,0.17777777777777776
tetwiki,True,36.0,0.0975609756097561,1.0,0.1590909090909091,0.925,0.17777777777777776
tetwiki,True,37.0,0.09876543209876543,1.0,0.17045454545454544,0.9125,0.1797752808988764
tetwiki,True,38.0,0.1,1.0,0.18181818181818182,0.9,0.18181818181818182
tetwiki,True,39.0,0.10256410256410256,1.0,0.20454545454545456,0.875,0.18604651162790695
tetwiki,True,40.0,0.1038961038961039,1.0,0.2159090909090909,0.8625,0.18823529411764706
tetwiki,True,41.0,0.1038961038961039,1.0,0.2159090909090909,0.8625,0.18823529411764706
tetwiki,True,42.0,0.1038961038961039,1.0,0.2159090909090909,0.8625,0.18823529411764706
tetwiki,True,43.0,0.1038961038961039,1.0,0.2159090909090909,0.8625,0.18823529411764706
tetwiki,True,44.0,0.10810810810810811,1.0,0.25,0.825,0.1951219512195122
tetwiki,True,45.0,0.10810810810810811,1.0,0.25,0.825,0.1951219512195122
tetwiki,True,46.0,0.1111111111111111,1.0,0.2727272727272727,0.8,0.19999999999999998
tetwiki,True,47.0,0.11267605633802817,1.0,0.2840909090909091,0.7875,0.20253164556962025
tetwiki,True,48.0,0.11594202898550725,1.0,0.3068181818181818,0.7625,0.20779220779220778
tetwiki,True,49.0,0.11594202898550725,1.0,0.3068181818181818,0.7625,0.20779220779220778
tetwiki,True,50.0,0.11764705882352941,1.0,0.3181818181818182,0.75,0.21052631578947367
tetwiki,True,51.0,0.12307692307692308,1.0,0.3522727272727273,0.7125,0.21917808219178084
tetwiki,True,52.0,0.12698412698412698,1.0,0.375,0.6875,0.22535211267605632
tetwiki,True,53.0,0.13333333333333333,1.0,0.4090909090909091,0.65,0.23529411764705882
tetwiki,True,54.0,0.13793103448275862,1.0,0.4318181818181818,0.625,0.2424242424242424
tetwiki,True,55.0,0.14035087719298245,1.0,0.4431818181818182,0.6125,0.24615384615384614
tetwiki,True,56.0,0.15384615384615385,1.0,0.5,0.55,0.2666666666666667
tetwiki,True,57.0,0.1568627450980392,1.0,0.5113636363636364,0.5375,0.2711864406779661
tetwiki,True,58.0,0.16,1.0,0.5227272727272727,0.525,0.2758620689655173
tetwiki,True,59.0,0.16326530612244897,1.0,0.5340909090909091,0.5125,0.2807017543859649
tetwiki,True,60.0,0.16326530612244897,1.0,0.5340909090909091,0.5125,0.2807017543859649
tetwiki,True,61.0,0.16666666666666666,1.0,0.5454545454545454,0.5,0.2857142857142857
tetwiki,True,62.0,0.16666666666666666,1.0,0.5454545454545454,0.5,0.2857142857142857
tetwiki,True,63.0,0.1702127659574468,1.0,0.5568181818181818,0.4875,0.2909090909090909
tetwiki,True,64.0,0.17777777777777778,1.0,0.5795454545454546,0.4625,0.3018867924528302
tetwiki,True,65.0,0.18181818181818182,1.0,0.5909090909090909,0.45,0.3076923076923077
tetwiki,True,66.0,0.18604651162790697,1.0,0.6022727272727273,0.4375,0.3137254901960785
tetwiki,True,67.0,0.18604651162790697,1.0,0.6022727272727273,0.4375,0.3137254901960785
tetwiki,True,68.0,0.18604651162790697,1.0,0.6022727272727273,0.4375,0.3137254901960785
tetwiki,True,69.0,0.18604651162790697,1.0,0.6022727272727273,0.4375,0.3137254901960785
tetwiki,True,70.0,0.18604651162790697,1.0,0.6022727272727273,0.4375,0.3137254901960785
tetwiki,True,71.0,0.18604651162790697,1.0,0.6022727272727273,0.4375,0.3137254901960785
tetwiki,True,72.0,0.18604651162790697,1.0,0.6022727272727273,0.4375,0.3137254901960785
tetwiki,True,73.0,0.18604651162790697,1.0,0.6022727272727273,0.4375,0.3137254901960785
tetwiki,True,74.0,0.18604651162790697,1.0,0.6022727272727273,0.4375,0.3137254901960785
tetwiki,True,75.0,0.19047619047619047,1.0,0.6136363636363636,0.425,0.32
tetwiki,True,76.0,0.19047619047619047,1.0,0.6136363636363636,0.425,0.32
tetwiki,True,77.0,0.19047619047619047,1.0,0.6136363636363636,0.425,0.32
tetwiki,True,78.0,0.19047619047619047,1.0,0.6136363636363636,0.425,0.32
tetwiki,True,79.0,0.19047619047619047,1.0,0.6136363636363636,0.425,0.32
tetwiki,True,80.0,0.20512820512820512,1.0,0.6477272727272727,0.3875,0.3404255319148936
tetwiki,True,81.0,0.21052631578947367,1.0,0.6590909090909091,0.375,0.34782608695652173
tetwiki,True,82.0,0.21621621621621623,1.0,0.6704545454545454,0.3625,0.35555555555555557
tetwiki,True,83.0,0.21621621621621623,1.0,0.6704545454545454,0.3625,0.35555555555555557
tetwiki,True,84.0,0.2222222222222222,1.0,0.6818181818181818,0.35,0.3636363636363636
tetwiki,True,85.0,0.2,0.875,0.6704545454545454,0.35,0.32558139534883723
tetwiki,True,86.0,0.21875,0.875,0.7045454545454546,0.3125,0.35
tetwiki,True,87.0,0.23333333333333334,0.875,0.7272727272727273,0.2875,0.3684210526315789
tetwiki,True,88.0,0.25,0.875,0.75,0.2625,0.3888888888888889
tetwiki,True,89.0,0.2222222222222222,0.75,0.7386363636363636,0.2625,0.34285714285714286
tetwiki,True,90.0,0.2222222222222222,0.75,0.7386363636363636,0.2625,0.34285714285714286
tetwiki,True,91.0,0.20833333333333334,0.625,0.75,0.2375,0.3125
tetwiki,True,92.0,0.10526315789473684,0.25,0.7386363636363636,0.2125,0.14814814814814814
tetwiki,True,93.0,0.11764705882352941,0.25,0.7613636363636364,0.1875,0.15999999999999998
tetwiki,True,94.0,0.07142857142857142,0.125,0.7727272727272727,0.1625,0.09090909090909091
tetwiki,True,95.0,0.09090909090909091,0.125,0.8068181818181818,0.125,0.10526315789473685
tetwiki,True,96.0,0.09090909090909091,0.125,0.8068181818181818,0.125,0.10526315789473685
tetwiki,True,97.0,0.0,0.0,0.8068181818181818,0.1125,0.10526315789473685
tetwiki,True,98.0,0.0,0.0,0.8181818181818182,0.1,0.10526315789473685
tetwiki,True,99.0,0.0,0.0,0.8522727272727273,0.0625,0.10526315789473685
tetwiki,False,0.0,0.002840909090909091,1.0,0.002840909090909091,1.0,0.005665722379603399
tetwiki,False,1.0,0.002840909090909091,1.0,0.002840909090909091,1.0,0.005665722379603399
tetwiki,False,2.0,0.002840909090909091,1.0,0.002840909090909091,1.0,0.005665722379603399
tetwiki,False,3.0,0.002840909090909091,1.0,0.002840909090909091,1.0,0.005665722379603399
tetwiki,False,4.0,0.002840909090909091,1.0,0.002840909090909091,1.0,0.005665722379603399
tetwiki,False,5.0,0.002840909090909091,1.0,0.002840909090909091,1.0,0.005665722379603399
tetwiki,False,6.0,0.002840909090909091,1.0,0.002840909090909091,1.0,0.005665722379603399
tetwiki,False,7.0,0.002840909090909091,1.0,0.002840909090909091,1.0,0.005665722379603399
tetwiki,False,8.0,0.002840909090909091,1.0,0.002840909090909091,1.0,0.005665722379603399
tetwiki,False,9.0,0.002840909090909091,1.0,0.002840909090909091,1.0,0.005665722379603399
tetwiki,False,10.0,0.002840909090909091,1.0,0.002840909090909091,1.0,0.005665722379603399
tetwiki,False,11.0,0.002840909090909091,1.0,0.002840909090909091,1.0,0.005665722379603399
tetwiki,False,12.0,0.002840909090909091,1.0,0.002840909090909091,1.0,0.005665722379603399
tetwiki,False,13.0,0.002849002849002849,1.0,0.005681818181818182,0.9971509971509972,0.005681818181818182
tetwiki,False,14.0,0.002857142857142857,1.0,0.008522727272727272,0.9943019943019943,0.005698005698005697
tetwiki,False,15.0,0.0028735632183908046,1.0,0.014204545454545454,0.9886039886039886,0.005730659025787966
tetwiki,False,16.0,0.0028735632183908046,1.0,0.014204545454545454,0.9886039886039886,0.005730659025787966
tetwiki,False,17.0,0.002881844380403458,1.0,0.017045454545454544,0.9857549857549858,0.005747126436781608
tetwiki,False,18.0,0.002898550724637681,1.0,0.022727272727272728,0.98005698005698,0.005780346820809248
tetwiki,False,19.0,0.0029069767441860465,1.0,0.02556818181818182,0.9772079772079773,0.005797101449275362
tetwiki,False,20.0,0.002967359050445104,1.0,0.045454545454545456,0.9572649572649573,0.005917159763313609
tetwiki,False,21.0,0.0030211480362537764,1.0,0.0625,0.9401709401709402,0.006024096385542168
tetwiki,False,22.0,0.0030864197530864196,1.0,0.08238636363636363,0.9202279202279202,0.006153846153846154
tetwiki,False,23.0,0.0030959752321981426,1.0,0.08522727272727272,0.9173789173789174,0.00617283950617284
tetwiki,False,24.0,0.0031545741324921135,1.0,0.10227272727272728,0.9002849002849003,0.006289308176100629
tetwiki,False,25.0,0.003787878787878788,1.0,0.2528409090909091,0.7492877492877493,0.007547169811320754
tetwiki,False,26.0,0.005847953216374269,1.0,0.5170454545454546,0.4843304843304843,0.011627906976744186
tetwiki,False,27.0,0.005988023952095809,1.0,0.5284090909090909,0.47293447293447294,0.011904761904761906
tetwiki,False,28.0,0.006172839506172839,1.0,0.5426136363636364,0.4586894586894587,0.012269938650306747
tetwiki,False,29.0,0.006369426751592357,1.0,0.5568181818181818,0.4444444444444444,0.012658227848101266
tetwiki,False,30.0,0.0064516129032258064,1.0,0.5625,0.43874643874643876,0.012820512820512822
tetwiki,False,31.0,0.006578947368421052,1.0,0.5710227272727273,0.4301994301994302,0.013071895424836602
tetwiki,False,32.0,0.006666666666666667,1.0,0.5767045454545454,0.42450142450142453,0.013245033112582783
tetwiki,False,33.0,0.006756756756756757,1.0,0.5823863636363636,0.4188034188034188,0.013422818791946308
tetwiki,False,34.0,0.006802721088435374,1.0,0.5852272727272727,0.41595441595441596,0.013513513513513513
tetwiki,False,35.0,0.006944444444444444,1.0,0.59375,0.4074074074074074,0.013793103448275862
tetwiki,False,36.0,0.006993006993006993,1.0,0.5965909090909091,0.4045584045584046,0.013888888888888888
tetwiki,False,37.0,0.007042253521126761,1.0,0.5994318181818182,0.4017094017094017,0.013986013986013986
tetwiki,False,38.0,0.0070921985815602835,1.0,0.6022727272727273,0.39886039886039887,0.014084507042253521
tetwiki,False,39.0,0.007194244604316547,1.0,0.6079545454545454,0.39316239316239315,0.014285714285714287
tetwiki,False,40.0,0.007407407407407408,1.0,0.6193181818181818,0.3817663817663818,0.014705882352941178
tetwiki,False,41.0,0.007518796992481203,1.0,0.625,0.37606837606837606,0.014925373134328356
tetwiki,False,42.0,0.007518796992481203,1.0,0.625,0.37606837606837606,0.014925373134328356
tetwiki,False,43.0,0.007692307692307693,1.0,0.6335227272727273,0.36752136752136755,0.015267175572519085
tetwiki,False,44.0,0.0,0.0,0.6363636363636364,0.36182336182336183,0.015267175572519085
tetwiki,False,45.0,0.0,0.0,0.6448863636363636,0.35327635327635326,0.015267175572519085
tetwiki,False,46.0,0.0,0.0,0.6534090909090909,0.34472934472934474,0.015267175572519085
tetwiki,False,47.0,0.0,0.0,0.6590909090909091,0.33903133903133903,0.015267175572519085
tetwiki,False,48.0,0.0,0.0,0.6676136363636364,0.33048433048433046,0.015267175572519085
tetwiki,False,49.0,0.0,0.0,0.6789772727272727,0.3190883190883191,0.015267175572519085
tetwiki,False,50.0,0.0,0.0,0.6789772727272727,0.3190883190883191,0.015267175572519085
tetwiki,False,51.0,0.0,0.0,0.6846590909090909,0.31339031339031337,0.015267175572519085
tetwiki,False,52.0,0.0,0.0,0.6846590909090909,0.31339031339031337,0.015267175572519085
tetwiki,False,53.0,0.0,0.0,0.6931818181818182,0.30484330484330485,0.015267175572519085
tetwiki,False,54.0,0.0,0.0,0.7017045454545454,0.2962962962962963,0.015267175572519085
tetwiki,False,55.0,0.0,0.0,0.7130681818181818,0.2849002849002849,0.015267175572519085
tetwiki,False,56.0,0.0,0.0,0.71875,0.2792022792022792,0.015267175572519085
tetwiki,False,57.0,0.0,0.0,0.7301136363636364,0.2678062678062678,0.015267175572519085
tetwiki,False,58.0,0.0,0.0,0.7556818181818182,0.24216524216524216,0.015267175572519085
tetwiki,False,59.0,0.0,0.0,0.7755681818181818,0.2222222222222222,0.015267175572519085
tetwiki,False,60.0,0.0,0.0,0.7982954545454546,0.19943019943019943,0.015267175572519085
tetwiki,False,61.0,0.0,0.0,0.8125,0.18518518518518517,0.015267175572519085
tetwiki,False,62.0,0.0,0.0,0.8295454545454546,0.16809116809116809,0.015267175572519085
tetwiki,False,63.0,0.0,0.0,0.8409090909090909,0.15669515669515668,0.015267175572519085
tetwiki,False,64.0,0.0,0.0,0.8494318181818182,0.14814814814814814,0.015267175572519085
tetwiki,False,65.0,0.0,0.0,0.8607954545454546,0.13675213675213677,0.015267175572519085
tetwiki,False,66.0,0.0,0.0,0.8721590909090909,0.12535612535612536,0.015267175572519085
tetwiki,False,67.0,0.0,0.0,0.875,0.1225071225071225,0.015267175572519085
tetwiki,False,68.0,0.0,0.0,0.8835227272727273,0.11396011396011396,0.015267175572519085
tetwiki,False,69.0,0.0,0.0,0.8920454545454546,0.10541310541310542,0.015267175572519085
tetwiki,False,70.0,0.0,0.0,0.8977272727272727,0.09971509971509972,0.015267175572519085
tetwiki,False,71.0,0.0,0.0,0.9176136363636364,0.07977207977207977,0.015267175572519085
tetwiki,False,72.0,0.0,0.0,0.9261363636363636,0.07122507122507123,0.015267175572519085
tetwiki,False,73.0,0.0,0.0,0.9375,0.05982905982905983,0.015267175572519085
tetwiki,False,74.0,0.0,0.0,0.9431818181818182,0.05413105413105413,0.015267175572519085
tetwiki,False,75.0,0.0,0.0,0.9460227272727273,0.05128205128205128,0.015267175572519085
tetwiki,False,76.0,0.0,0.0,0.9517045454545454,0.045584045584045586,0.015267175572519085
tetwiki,False,77.0,0.0,0.0,0.9517045454545454,0.045584045584045586,0.015267175572519085
tetwiki,False,78.0,0.0,0.0,0.9517045454545454,0.045584045584045586,0.015267175572519085
tetwiki,False,79.0,0.0,0.0,0.9545454545454546,0.042735042735042736,0.015267175572519085
tetwiki,False,80.0,0.0,0.0,0.9545454545454546,0.042735042735042736,0.015267175572519085
tetwiki,False,81.0,0.0,0.0,0.9630681818181818,0.03418803418803419,0.015267175572519085
tetwiki,False,82.0,0.0,0.0,0.96875,0.02849002849002849,0.015267175572519085
tetwiki,False,83.0,0.0,0.0,0.9715909090909091,0.02564102564102564,0.015267175572519085
tetwiki,False,84.0,0.0,0.0,0.9744318181818182,0.022792022792022793,0.015267175572519085
tetwiki,False,85.0,0.0,0.0,0.9744318181818182,0.022792022792022793,0.015267175572519085
tetwiki,False,86.0,0.0,0.0,0.9772727272727273,0.019943019943019943,0.015267175572519085
tetwiki,False,87.0,0.0,0.0,0.9772727272727273,0.019943019943019943,0.015267175572519085
tetwiki,False,88.0,0.0,0.0,0.9772727272727273,0.019943019943019943,0.015267175572519085
tetwiki,False,89.0,0.0,0.0,0.9772727272727273,0.019943019943019943,0.015267175572519085
tetwiki,False,90.0,0.0,0.0,0.9772727272727273,0.019943019943019943,0.015267175572519085
tetwiki,False,91.0,0.0,0.0,0.9801136363636364,0.017094017094017096,0.015267175572519085
tetwiki,False,92.0,0.0,0.0,0.9801136363636364,0.017094017094017096,0.015267175572519085
tetwiki,False,93.0,0.0,0.0,0.9801136363636364,0.017094017094017096,0.015267175572519085
tetwiki,False,94.0,0.0,0.0,0.9857954545454546,0.011396011396011397,0.015267175572519085
tetwiki,False,95.0,0.0,0.0,0.9857954545454546,0.011396011396011397,0.015267175572519085
tetwiki,False,96.0,0.0,0.0,0.9914772727272727,0.005698005698005698,0.015267175572519085
tetwiki,False,97.0,0.0,0.0,0.9943181818181818,0.002849002849002849,0.015267175572519085
tetwiki,False,98.0,0.0,0.0,0.9971590909090909,0.0,0.015267175572519085
tetwiki,False,99.0,0.0,0.0,0.9971590909090909,0.0,0.015267175572519085
