wiki_db,user_is_anonymous,threshold,precision,recall,accuracy,fpr,F1
vowiki,True,0.0,0.2619047619047619,1.0,0.2619047619047619,1.0,0.41509433962264153
vowiki,True,1.0,0.2619047619047619,1.0,0.2619047619047619,1.0,0.41509433962264153
vowiki,True,2.0,0.2619047619047619,1.0,0.2619047619047619,1.0,0.41509433962264153
vowiki,True,3.0,0.2619047619047619,1.0,0.2619047619047619,1.0,0.41509433962264153
vowiki,True,4.0,0.2619047619047619,1.0,0.2619047619047619,1.0,0.41509433962264153
vowiki,True,5.0,0.2619047619047619,1.0,0.2619047619047619,1.0,0.41509433962264153
vowiki,True,6.0,0.2619047619047619,1.0,0.2619047619047619,1.0,0.41509433962264153
vowiki,True,7.0,0.2619047619047619,1.0,0.2619047619047619,1.0,0.41509433962264153
vowiki,True,8.0,0.2619047619047619,1.0,0.2619047619047619,1.0,0.41509433962264153
vowiki,True,9.0,0.2619047619047619,1.0,0.2619047619047619,1.0,0.41509433962264153
vowiki,True,10.0,0.2619047619047619,1.0,0.2619047619047619,1.0,0.41509433962264153
vowiki,True,11.0,0.2619047619047619,1.0,0.2619047619047619,1.0,0.41509433962264153
vowiki,True,12.0,0.2619047619047619,1.0,0.2619047619047619,1.0,0.41509433962264153
vowiki,True,13.0,0.2619047619047619,1.0,0.2619047619047619,1.0,0.41509433962264153
vowiki,True,14.0,0.2619047619047619,1.0,0.2619047619047619,1.0,0.41509433962264153
vowiki,True,15.0,0.2619047619047619,1.0,0.2619047619047619,1.0,0.41509433962264153
vowiki,True,16.0,0.2619047619047619,1.0,0.2619047619047619,1.0,0.41509433962264153
vowiki,True,17.0,0.2619047619047619,1.0,0.2619047619047619,1.0,0.41509433962264153
vowiki,True,18.0,0.2619047619047619,1.0,0.2619047619047619,1.0,0.41509433962264153
vowiki,True,19.0,0.2619047619047619,1.0,0.2619047619047619,1.0,0.41509433962264153
vowiki,True,20.0,0.2619047619047619,1.0,0.2619047619047619,1.0,0.41509433962264153
vowiki,True,21.0,0.2619047619047619,1.0,0.2619047619047619,1.0,0.41509433962264153
vowiki,True,22.0,0.26506024096385544,1.0,0.27380952380952384,0.9838709677419355,0.4190476190476191
vowiki,True,23.0,0.26506024096385544,1.0,0.27380952380952384,0.9838709677419355,0.4190476190476191
vowiki,True,24.0,0.2716049382716049,1.0,0.2976190476190476,0.9516129032258065,0.4271844660194175
vowiki,True,25.0,0.2716049382716049,1.0,0.2976190476190476,0.9516129032258065,0.4271844660194175
vowiki,True,26.0,0.2716049382716049,1.0,0.2976190476190476,0.9516129032258065,0.4271844660194175
vowiki,True,27.0,0.2716049382716049,1.0,0.2976190476190476,0.9516129032258065,0.4271844660194175
vowiki,True,28.0,0.2716049382716049,1.0,0.2976190476190476,0.9516129032258065,0.4271844660194175
vowiki,True,29.0,0.2716049382716049,1.0,0.2976190476190476,0.9516129032258065,0.4271844660194175
vowiki,True,30.0,0.2716049382716049,1.0,0.2976190476190476,0.9516129032258065,0.4271844660194175
vowiki,True,31.0,0.2716049382716049,1.0,0.2976190476190476,0.9516129032258065,0.4271844660194175
vowiki,True,32.0,0.2716049382716049,1.0,0.2976190476190476,0.9516129032258065,0.4271844660194175
vowiki,True,33.0,0.2716049382716049,1.0,0.2976190476190476,0.9516129032258065,0.4271844660194175
vowiki,True,34.0,0.2716049382716049,1.0,0.2976190476190476,0.9516129032258065,0.4271844660194175
vowiki,True,35.0,0.275,1.0,0.30952380952380953,0.9354838709677419,0.4313725490196079
vowiki,True,36.0,0.27848101265822783,1.0,0.32142857142857145,0.9193548387096774,0.43564356435643564
vowiki,True,37.0,0.27848101265822783,1.0,0.32142857142857145,0.9193548387096774,0.43564356435643564
vowiki,True,38.0,0.27848101265822783,1.0,0.32142857142857145,0.9193548387096774,0.43564356435643564
vowiki,True,39.0,0.27848101265822783,1.0,0.32142857142857145,0.9193548387096774,0.43564356435643564
vowiki,True,40.0,0.27848101265822783,1.0,0.32142857142857145,0.9193548387096774,0.43564356435643564
vowiki,True,41.0,0.27848101265822783,1.0,0.32142857142857145,0.9193548387096774,0.43564356435643564
vowiki,True,42.0,0.28205128205128205,1.0,0.3333333333333333,0.9032258064516129,0.44000000000000006
vowiki,True,43.0,0.28205128205128205,1.0,0.3333333333333333,0.9032258064516129,0.44000000000000006
vowiki,True,44.0,0.28205128205128205,1.0,0.3333333333333333,0.9032258064516129,0.44000000000000006
vowiki,True,45.0,0.2894736842105263,1.0,0.35714285714285715,0.8709677419354839,0.4489795918367347
vowiki,True,46.0,0.2972972972972973,1.0,0.38095238095238093,0.8387096774193549,0.4583333333333333
vowiki,True,47.0,0.2972972972972973,1.0,0.38095238095238093,0.8387096774193549,0.4583333333333333
vowiki,True,48.0,0.3013698630136986,1.0,0.39285714285714285,0.8225806451612904,0.4631578947368421
vowiki,True,49.0,0.3055555555555556,1.0,0.40476190476190477,0.8064516129032258,0.46808510638297873
vowiki,True,50.0,0.3055555555555556,1.0,0.40476190476190477,0.8064516129032258,0.46808510638297873
vowiki,True,51.0,0.3,0.9545454545454546,0.40476190476190477,0.7903225806451613,0.45652173913043476
vowiki,True,52.0,0.3088235294117647,0.9545454545454546,0.42857142857142855,0.7580645161290323,0.4666666666666667
vowiki,True,53.0,0.31343283582089554,0.9545454545454546,0.44047619047619047,0.7419354838709677,0.4719101123595506
vowiki,True,54.0,0.31343283582089554,0.9545454545454546,0.44047619047619047,0.7419354838709677,0.4719101123595506
vowiki,True,55.0,0.31343283582089554,0.9545454545454546,0.44047619047619047,0.7419354838709677,0.4719101123595506
vowiki,True,56.0,0.3181818181818182,0.9545454545454546,0.4523809523809524,0.7258064516129032,0.47727272727272724
vowiki,True,57.0,0.3181818181818182,0.9545454545454546,0.4523809523809524,0.7258064516129032,0.47727272727272724
vowiki,True,58.0,0.328125,0.9545454545454546,0.47619047619047616,0.6935483870967742,0.48837209302325585
vowiki,True,59.0,0.328125,0.9545454545454546,0.47619047619047616,0.6935483870967742,0.48837209302325585
vowiki,True,60.0,0.328125,0.9545454545454546,0.47619047619047616,0.6935483870967742,0.48837209302325585
vowiki,True,61.0,0.328125,0.9545454545454546,0.47619047619047616,0.6935483870967742,0.48837209302325585
vowiki,True,62.0,0.328125,0.9545454545454546,0.47619047619047616,0.6935483870967742,0.48837209302325585
vowiki,True,63.0,0.328125,0.9545454545454546,0.47619047619047616,0.6935483870967742,0.48837209302325585
vowiki,True,64.0,0.3333333333333333,0.9545454545454546,0.4880952380952381,0.6774193548387096,0.49411764705882355
vowiki,True,65.0,0.3333333333333333,0.9545454545454546,0.4880952380952381,0.6774193548387096,0.49411764705882355
vowiki,True,66.0,0.3333333333333333,0.9545454545454546,0.4880952380952381,0.6774193548387096,0.49411764705882355
vowiki,True,67.0,0.3225806451612903,0.9090909090909091,0.47619047619047616,0.6774193548387096,0.4761904761904761
vowiki,True,68.0,0.3225806451612903,0.9090909090909091,0.47619047619047616,0.6774193548387096,0.4761904761904761
vowiki,True,69.0,0.3225806451612903,0.9090909090909091,0.47619047619047616,0.6774193548387096,0.4761904761904761
vowiki,True,70.0,0.3225806451612903,0.9090909090909091,0.47619047619047616,0.6774193548387096,0.4761904761904761
vowiki,True,71.0,0.3114754098360656,0.8636363636363636,0.4642857142857143,0.6774193548387096,0.4578313253012048
vowiki,True,72.0,0.3114754098360656,0.8636363636363636,0.4642857142857143,0.6774193548387096,0.4578313253012048
vowiki,True,73.0,0.3114754098360656,0.8636363636363636,0.4642857142857143,0.6774193548387096,0.4578313253012048
vowiki,True,74.0,0.3050847457627119,0.8181818181818182,0.4642857142857143,0.6612903225806451,0.4444444444444445
vowiki,True,75.0,0.2982456140350877,0.7727272727272727,0.4642857142857143,0.6451612903225806,0.430379746835443
vowiki,True,76.0,0.2777777777777778,0.6818181818181818,0.4523809523809524,0.6290322580645161,0.39473684210526316
vowiki,True,77.0,0.2641509433962264,0.6363636363636364,0.44047619047619047,0.6290322580645161,0.3733333333333333
vowiki,True,78.0,0.2692307692307692,0.6363636363636364,0.4523809523809524,0.6129032258064516,0.37837837837837834
vowiki,True,79.0,0.2549019607843137,0.5909090909090909,0.44047619047619047,0.6129032258064516,0.35616438356164387
vowiki,True,80.0,0.2608695652173913,0.5454545454545454,0.47619047619047616,0.5483870967741935,0.3529411764705882
vowiki,True,81.0,0.24444444444444444,0.5,0.4642857142857143,0.5483870967741935,0.3283582089552239
vowiki,True,82.0,0.2558139534883721,0.5,0.4880952380952381,0.5161290322580645,0.3384615384615385
vowiki,True,83.0,0.24324324324324326,0.4090909090909091,0.5119047619047619,0.45161290322580644,0.3050847457627119
vowiki,True,84.0,0.2647058823529412,0.4090909090909091,0.5476190476190477,0.4032258064516129,0.3214285714285714
vowiki,True,85.0,0.3,0.4090909090909091,0.5952380952380952,0.3387096774193548,0.34615384615384615
vowiki,True,86.0,0.34615384615384615,0.4090909090909091,0.6428571428571429,0.27419354838709675,0.37500000000000006
vowiki,True,87.0,0.391304347826087,0.4090909090909091,0.6785714285714286,0.22580645161290322,0.4
vowiki,True,88.0,0.38095238095238093,0.36363636363636365,0.6785714285714286,0.20967741935483872,0.37209302325581395
vowiki,True,89.0,0.4166666666666667,0.22727272727272727,0.7142857142857143,0.11290322580645161,0.29411764705882354
vowiki,True,90.0,0.4444444444444444,0.18181818181818182,0.7261904761904762,0.08064516129032258,0.2580645161290322
vowiki,True,91.0,0.5,0.09090909090909091,0.7380952380952381,0.03225806451612903,0.15384615384615385
vowiki,True,92.0,0.5,0.09090909090909091,0.7380952380952381,0.03225806451612903,0.15384615384615385
vowiki,True,93.0,0.3333333333333333,0.045454545454545456,0.7261904761904762,0.03225806451612903,0.08
vowiki,True,94.0,0.3333333333333333,0.045454545454545456,0.7261904761904762,0.03225806451612903,0.08
vowiki,True,95.0,0.5,0.045454545454545456,0.7380952380952381,0.016129032258064516,0.08333333333333334
vowiki,True,96.0,0.0,0.0,0.7261904761904762,0.016129032258064516,0.08333333333333334
vowiki,True,97.0,0.0,0.0,0.7380952380952381,0.0,0.08333333333333334
vowiki,True,98.0,0.0,0.0,0.7380952380952381,0.0,0.08333333333333334
vowiki,True,99.0,0.0,0.0,0.7380952380952381,0.0,0.08333333333333334
vowiki,False,0.0,0.00571236559139785,1.0,0.00571236559139785,1.0,0.01135983962579352
vowiki,False,1.0,0.00571236559139785,1.0,0.00571236559139785,1.0,0.01135983962579352
vowiki,False,2.0,0.005720053835800807,1.0,0.007056451612903226,0.9986481919567421,0.01137504182000669
vowiki,False,3.0,0.0057432432432432436,1.0,0.011088709677419355,0.9945927678269686,0.011420893516963388
vowiki,False,4.0,0.005798090040927694,1.0,0.02049731182795699,0.9851301115241635,0.011529331976941334
vowiki,False,5.0,0.005923344947735192,1.0,0.04133064516129032,0.9641770868536668,0.011776931070315208
vowiki,False,6.0,0.00603264726756565,1.0,0.05880376344086022,0.9466035822913146,0.011992945326278662
vowiki,False,7.0,0.005124450951683748,0.8235294117647058,0.08568548387096774,0.9185535653937141,0.01018552200800291
vowiki,False,8.0,0.004887218045112782,0.7647058823529411,0.10920698924731183,0.8945589726258871,0.009712364587224505
vowiki,False,9.0,0.004980842911877395,0.7647058823529411,0.12600806451612903,0.8776613720851639,0.0098972211648268
vowiki,False,10.0,0.005171042163882259,0.7647058823529411,0.15826612903225806,0.8452179790469754,0.010272619517977082
vowiki,False,11.0,0.004889975550122249,0.7058823529411765,0.17775537634408603,0.8252788104089219,0.009712666936462971
vowiki,False,12.0,0.0049833887043189366,0.7058823529411765,0.19321236559139784,0.8097330179114566,0.009896907216494845
vowiki,False,13.0,0.005076142131979695,0.7058823529411765,0.207997311827957,0.7948631294356201,0.010079798404031918
vowiki,False,14.0,0.005161290322580645,0.7058823529411765,0.2211021505376344,0.781683001013856,0.010247651579846286
vowiki,False,15.0,0.005244755244755245,0.7058823529411765,0.23353494623655913,0.7691787766137208,0.010412147505422993
vowiki,False,16.0,0.005366726296958855,0.7058823529411765,0.25100806451612906,0.7516052720513687,0.010652463382157123
vowiki,False,17.0,0.005522319374137137,0.7058823529411765,0.2721774193548387,0.7303142953700574,0.010958904109589041
vowiki,False,18.0,0.005805515239477504,0.7058823529411765,0.3077956989247312,0.6944913822237242,0.011516314779270634
vowiki,False,19.0,0.005667181865018032,0.6470588235294118,0.34946236559139787,0.6522473808719161,0.011235955056179777
vowiki,False,20.0,0.005841741901221455,0.6470588235294118,0.3689516129032258,0.6326461642446772,0.011578947368421053
vowiki,False,21.0,0.006159014557670772,0.6470588235294118,0.4015456989247312,0.5998648191956742,0.012201885745978924
vowiki,False,22.0,0.006425233644859813,0.6470588235294118,0.4264112903225806,0.5748563703954038,0.012724117987275883
vowiki,False,23.0,0.006752608962553714,0.6470588235294118,0.4543010752688172,0.5468063534978033,0.013365735115431349
vowiki,False,24.0,0.006948831332912192,0.6470588235294118,0.46975806451612906,0.5312605610003379,0.013749999999999998
vowiki,False,25.0,0.007260726072607261,0.6470588235294118,0.49260752688172044,0.5082798242649543,0.014360313315926892
vowiki,False,26.0,0.007477906186267845,0.6470588235294118,0.5073924731182796,0.49340993578911796,0.014784946236559139
vowiki,False,27.0,0.007751937984496124,0.6470588235294118,0.5248655913978495,0.4758364312267658,0.01532033426183844
vowiki,False,28.0,0.008035062089116142,0.6470588235294118,0.5416666666666666,0.4589388306860426,0.01587301587301587
vowiki,False,29.0,0.008289374529012811,0.6470588235294118,0.5557795698924731,0.4447448462318351,0.01636904761904762
vowiki,False,30.0,0.008668242710795903,0.6470588235294118,0.5752688172043011,0.4251436296045962,0.017107309486780714
vowiki,False,31.0,0.00825082508250825,0.5882352941176471,0.59375,0.40621831699898614,0.016273393002441006
vowiki,False,32.0,0.00855431993156544,0.5882352941176471,0.6081989247311828,0.39168638053396415,0.016863406408094438
vowiki,False,33.0,0.008787346221441126,0.5882352941176471,0.6186155913978495,0.3812098681987158,0.017316017316017316
vowiki,False,34.0,0.008992805755395683,0.5882352941176471,0.6273521505376344,0.3724231159175397,0.017714791851195746
vowiki,False,35.0,0.009302325581395349,0.5882352941176471,0.6397849462365591,0.3599188915174045,0.018315018315018316
vowiki,False,36.0,0.010548523206751054,0.5882352941176471,0.6824596774193549,0.31699898614396754,0.02072538860103627
vowiki,False,37.0,0.011025358324145534,0.5882352941176471,0.696236559139785,0.30314295370057454,0.021645021645021644
vowiki,False,38.0,0.011494252873563218,0.5882352941176471,0.7086693548387096,0.2906387293004393,0.02254791431792559
vowiki,False,39.0,0.01297016861219196,0.5882352941176471,0.7419354838709677,0.25718148022980736,0.02538071065989848
vowiki,False,40.0,0.014903129657228018,0.5882352941176471,0.7755376344086021,0.22338627914836093,0.029069767441860465
vowiki,False,41.0,0.017452006980802792,0.5882352941176471,0.8084677419354839,0.19026698208854342,0.03389830508474577
vowiki,False,42.0,0.01338432122370937,0.4117647058823529,0.823252688172043,0.1743832375802636,0.02592592592592593
vowiki,False,43.0,0.014256619144602852,0.4117647058823529,0.834005376344086,0.16356877323420074,0.027559055118110236
vowiki,False,44.0,0.015283842794759825,0.4117647058823529,0.8450940860215054,0.1524163568773234,0.029473684210526315
vowiki,False,45.0,0.016166281755196306,0.4117647058823529,0.853494623655914,0.1439675566069618,0.031111111111111114
vowiki,False,46.0,0.017456359102244388,0.4117647058823529,0.864247311827957,0.13315309226089894,0.03349282296650717
vowiki,False,47.0,0.018276762402088774,0.4117647058823529,0.8702956989247311,0.12706995606623858,0.035
vowiki,False,48.0,0.020710059171597635,0.4117647058823529,0.8854166666666666,0.1118621155795877,0.03943661971830986
vowiki,False,49.0,0.022727272727272728,0.4117647058823529,0.895497311827957,0.10172355525515377,0.043076923076923075
vowiki,False,50.0,0.024475524475524476,0.4117647058823529,0.9028897849462365,0.09428861101723555,0.0462046204620462
vowiki,False,51.0,0.030303030303030304,0.4117647058823529,0.9213709677419355,0.07570125042244001,0.05645161290322581
vowiki,False,52.0,0.03333333333333333,0.4117647058823529,0.9284274193548387,0.06860425819533626,0.06167400881057269
vowiki,False,53.0,0.035897435897435895,0.4117647058823529,0.9334677419354839,0.06353497803311929,0.0660377358490566
vowiki,False,54.0,0.03954802259887006,0.4117647058823529,0.9395161290322581,0.05745184183845894,0.07216494845360824
vowiki,False,55.0,0.04375,0.4117647058823529,0.9452284946236559,0.05170665765461305,0.0790960451977401
vowiki,False,56.0,0.047619047619047616,0.4117647058823529,0.9495967741935484,0.04731328151402501,0.08536585365853658
vowiki,False,57.0,0.051094890510948905,0.4117647058823529,0.9529569892473119,0.043933761405880366,0.09090909090909091
vowiki,False,58.0,0.05384615384615385,0.4117647058823529,0.9553091397849462,0.04156809733017911,0.09523809523809525
vowiki,False,59.0,0.05982905982905983,0.4117647058823529,0.9596774193548387,0.03717472118959108,0.1044776119402985
vowiki,False,60.0,0.06086956521739131,0.4117647058823529,0.9603494623655914,0.03649881716796215,0.10606060606060608
vowiki,False,61.0,0.06481481481481481,0.4117647058823529,0.9627016129032258,0.0341331530922609,0.11199999999999999
vowiki,False,62.0,0.06796116504854369,0.4117647058823529,0.9643817204301075,0.03244339303818858,0.11666666666666667
vowiki,False,63.0,0.07216494845360824,0.4117647058823529,0.9663978494623656,0.03041568097330179,0.12280701754385964
vowiki,False,64.0,0.07608695652173914,0.4117647058823529,0.9680779569892473,0.02872592091922947,0.12844036697247707
vowiki,False,65.0,0.07954545454545454,0.4117647058823529,0.9694220430107527,0.027374112875971614,0.13333333333333333
vowiki,False,66.0,0.08536585365853659,0.4117647058823529,0.9714381720430108,0.025346400811084826,0.1414141414141414
vowiki,False,67.0,0.08974358974358974,0.4117647058823529,0.9727822580645161,0.023994592767826967,0.1473684210526316
vowiki,False,68.0,0.09333333333333334,0.4117647058823529,0.9737903225806451,0.022980736735383575,0.15217391304347824
vowiki,False,69.0,0.10144927536231885,0.4117647058823529,0.9758064516129032,0.02095302467049679,0.16279069767441862
vowiki,False,70.0,0.1076923076923077,0.4117647058823529,0.9771505376344086,0.019601216627238932,0.1707317073170732
vowiki,False,71.0,0.08771929824561403,0.29411764705882354,0.978494623655914,0.017573504562352148,0.13513513513513511
vowiki,False,72.0,0.09259259259259259,0.29411764705882354,0.979502688172043,0.016559648529908752,0.1408450704225352
vowiki,False,73.0,0.09615384615384616,0.29411764705882354,0.9801747311827957,0.015883744508279823,0.14492753623188406
vowiki,False,74.0,0.10204081632653061,0.29411764705882354,0.9811827956989247,0.01486988847583643,0.15151515151515152
vowiki,False,75.0,0.09090909090909091,0.23529411764705882,0.9821908602150538,0.013518080432578574,0.13114754098360656
vowiki,False,76.0,0.10256410256410256,0.23529411764705882,0.9838709677419355,0.011828320378506252,0.14285714285714282
vowiki,False,77.0,0.11428571428571428,0.23529411764705882,0.9852150537634409,0.010476512335248395,0.15384615384615385
vowiki,False,78.0,0.09375,0.17647058823529413,0.9855510752688172,0.009800608313619466,0.12244897959183672
vowiki,False,79.0,0.1,0.17647058823529413,0.9862231182795699,0.009124704291990537,0.12765957446808512
vowiki,False,80.0,0.1,0.17647058823529413,0.9862231182795699,0.009124704291990537,0.12765957446808512
vowiki,False,81.0,0.08333333333333333,0.11764705882352941,0.9875672043010753,0.007434944237918215,0.09756097560975609
vowiki,False,82.0,0.10526315789473684,0.11764705882352941,0.989247311827957,0.005745184183845894,0.1111111111111111
vowiki,False,83.0,0.06666666666666667,0.058823529411764705,0.9899193548387096,0.004731328151402501,0.0625
vowiki,False,84.0,0.07692307692307693,0.058823529411764705,0.9905913978494624,0.004055424129773572,0.06666666666666667
vowiki,False,85.0,0.1111111111111111,0.058823529411764705,0.9919354838709677,0.0027036160865157146,0.07692307692307691
vowiki,False,86.0,0.125,0.058823529411764705,0.9922715053763441,0.0023656640757012504,0.07999999999999999
vowiki,False,87.0,0.14285714285714285,0.058823529411764705,0.9926075268817204,0.002027712064886786,0.08333333333333333
vowiki,False,88.0,0.0,0.0,0.9926075268817204,0.0016897600540723217,0.08333333333333333
vowiki,False,89.0,0.0,0.0,0.9926075268817204,0.0016897600540723217,0.08333333333333333
vowiki,False,90.0,0.0,0.0,0.9939516129032258,0.0003379520108144643,0.08333333333333333
vowiki,False,91.0,0.0,0.0,0.9939516129032258,0.0003379520108144643,0.08333333333333333
vowiki,False,92.0,0.0,0.0,0.9939516129032258,0.0003379520108144643,0.08333333333333333
vowiki,False,93.0,0.0,0.0,0.9939516129032258,0.0003379520108144643,0.08333333333333333
vowiki,False,94.0,0.0,0.0,0.9939516129032258,0.0003379520108144643,0.08333333333333333
vowiki,False,95.0,0.0,0.0,0.9939516129032258,0.0003379520108144643,0.08333333333333333
vowiki,False,96.0,0.0,0.0,0.9939516129032258,0.0003379520108144643,0.08333333333333333
vowiki,False,97.0,0.0,0.0,0.9939516129032258,0.0003379520108144643,0.08333333333333333
vowiki,False,98.0,0.0,0.0,0.9939516129032258,0.0003379520108144643,0.08333333333333333
vowiki,False,99.0,0.0,0.0,0.9939516129032258,0.0003379520108144643,0.08333333333333333
