wiki_db,threshold,precision,recall,accuracy,fpr,F1
frrwiki,0.0,0.044533485975958784,1.0,0.044533485975958784,1.0,0.08526961858833845
frrwiki,1.0,0.04456409668919693,1.0,0.045220377790498,0.9992810927390366,0.08532572932660672
frrwiki,2.0,0.045,0.9948586118251928,0.059530623926731537,0.9840642223819794,0.08610523973745689
frrwiki,3.0,0.046321852874114965,0.9922879177377892,0.08986834573554665,0.9521926671459382,0.08851180921806925
frrwiki,4.0,0.04805891898639371,0.9897172236503856,0.12650257584430452,0.9137311286843998,0.09166666666666666
frrwiki,5.0,0.050538199002362824,0.9897172236503856,0.17149398969662277,0.8666427030913012,0.09616585487698262
frrwiki,6.0,0.05365922180081472,0.9820051413881749,0.22793360045792788,0.8072130361849988,0.10175812466702186
frrwiki,7.0,0.05750265513579123,0.974293059125964,0.28769318832283913,0.744308650850707,0.10859598853868194
frrwiki,8.0,0.06179314866415342,0.9691516709511568,0.3433314253005152,0.6858375269590223,0.1161787365177196
frrwiki,9.0,0.06721634701559419,0.9640102827763496,0.402633085289067,0.6235322310088666,0.12567024128686327
frrwiki,10.0,0.07334246039507139,0.9640102827763496,0.4559816828849456,0.5676971004073808,0.13631406761177756
frrwiki,11.0,0.07943625880845612,0.9562982005141388,0.5045220377790498,0.5165348670021567,0.14668769716088328
frrwiki,12.0,0.08582695430294596,0.9511568123393316,0.5466514024041214,0.47220225257608434,0.15744680851063833
frrwiki,13.0,0.09282488710486704,0.9511568123393316,0.5838580423583286,0.433261442607237,0.16914285714285715
frrwiki,14.0,0.1004343105320304,0.9511568123393316,0.6184315970234688,0.3970764438054158,0.18168426221458386
frrwiki,15.0,0.1074861637052141,0.9485861182519281,0.646937607326846,0.3671219745986101,0.19309262166405025
frrwiki,16.0,0.1134116192830655,0.9434447300771208,0.6690326273611906,0.3437574886173017,0.20248275862068965
frrwiki,17.0,0.1187764399609502,0.9383033419023136,0.6872352604464796,0.32446681044811887,0.21086077411900636
frrwiki,18.0,0.12508567511994517,0.9383033419023136,0.7049799656554093,0.3058950395398993,0.2207438766253402
frrwiki,19.0,0.13088816972312117,0.9357326478149101,0.7204350314825415,0.2895998082913971,0.2296529968454259
frrwiki,20.0,0.13579781214635986,0.9254498714652957,0.7344018317115054,0.274502755811167,0.23684210526315785
frrwiki,21.0,0.13900990099009902,0.9023136246786633,0.7467658843732112,0.26048406422238196,0.2409059711736445
frrwiki,22.0,0.14570361145703611,0.9023136246786633,0.760045792787636,0.24658519051042416,0.25089349535382416
frrwiki,23.0,0.1529051987767584,0.8997429305912596,0.7735546651402404,0.23232686316798468,0.26138909634055263
frrwiki,24.0,0.15919487648673375,0.8946015424164524,0.7848883800801374,0.22022525760843517,0.2702912621359223
frrwiki,25.0,0.16531681753215818,0.8920308483290489,0.7946193474527762,0.20992092020129402,0.2789389067524116
frrwiki,26.0,0.17161226508407518,0.8920308483290489,0.8034344590726961,0.2006949436855979,0.2878473662380755
frrwiki,27.0,0.17927461139896372,0.8894601542416453,0.8137378362907842,0.18979151689432064,0.2984044846916774
frrwiki,28.0,0.18604651162790697,0.884318766066838,0.8225529479107041,0.18032590462497006,0.30741733690795353
frrwiki,29.0,0.19690898683457356,0.884318766066838,0.8342301087578706,0.16810448118859334,0.32209737827715357
frrwiki,30.0,0.20203836930455635,0.8663239074550129,0.841671436748712,0.15947759405703332,0.32766164316966456
frrwiki,31.0,0.21168341708542712,0.8663239074550129,0.8503720663995421,0.1503714354181644,0.34023220595658754
frrwiki,32.0,0.21954397394136807,0.8663239074550129,0.8568975386376646,0.1435418164390127,0.3503118503118503
frrwiki,33.0,0.22727272727272727,0.8611825192802056,0.8634230108757871,0.13647256170620656,0.35963499731615667
frrwiki,34.0,0.2355021216407355,0.8560411311053985,0.8698340011448197,0.12952312485022766,0.36938435940099834
frrwiki,35.0,0.2446730345334313,0.8560411311053985,0.8759015455065827,0.12317277737838485,0.38057142857142856
frrwiki,36.0,0.2571872571872572,0.8508997429305912,0.8839152833428735,0.11454589024682482,0.3949880668257757
frrwiki,37.0,0.25901639344262295,0.8123393316195373,0.8881511161991986,0.10831536065180924,0.3927905531385954
frrwiki,38.0,0.2599309153713299,0.7737789203084833,0.8918145392100744,0.10268392044092979,0.38914027149321273
frrwiki,39.0,0.2630597014925373,0.7249357326478149,0.8973096737263881,0.09465612269350587,0.3860369609856263
frrwiki,40.0,0.25653923541247486,0.6555269922879178,0.900057240984545,0.08854541097531751,0.3687635574837311
frrwiki,41.0,0.2571428571428571,0.6246786632390745,0.9029192902117916,0.08411214953271028,0.36431784107946025
frrwiki,42.0,0.2395005675368899,0.5424164524421594,0.9029192902117916,0.08027797747423916,0.33228346456692914
frrwiki,43.0,0.24879227053140096,0.5295629820051414,0.907842014882656,0.07452671938653246,0.3385373870172555
frrwiki,44.0,0.2518891687657431,0.5141388174807198,0.910360618202633,0.07117181883537024,0.33812341504649196
frrwiki,45.0,0.249667994687915,0.4832904884318766,0.9123068116771609,0.06769710040738078,0.329246935201401
frrwiki,46.0,0.24649859943977592,0.4524421593830334,0.9140240412135089,0.06446201773304577,0.31912964641885766
frrwiki,47.0,0.23186119873817035,0.37789203084832906,0.916542644533486,0.05835130601485742,0.2873900293255133
frrwiki,48.0,0.20172413793103447,0.30077120822622105,0.9158557527189468,0.05547567697100407,0.24148606811145507
frrwiki,49.0,0.19705340699815838,0.2750642673521851,0.9178019461934745,0.052240594296669066,0.22961373390557938
frrwiki,50.0,0.17835671342685372,0.22879177377892032,0.9187178019461935,0.04912532949916128,0.20045045045045048
frrwiki,51.0,0.16593886462882096,0.1953727506426735,0.9204350314825415,0.04577042894799904,0.17945690672963402
frrwiki,52.0,0.16666666666666666,0.18251928020565553,0.9229536348025186,0.04253534627366403,0.17423312883435582
frrwiki,53.0,0.1864864864864865,0.17737789203084833,0.9289066971951918,0.03606518092499401,0.18181818181818182
frrwiki,54.0,0.1804733727810651,0.15681233933161953,0.9307384087006296,0.033189551881140665,0.16781292984869325
frrwiki,55.0,0.18996415770609318,0.13624678663239073,0.935661133371494,0.02707884016295231,0.15868263473053892
frrwiki,56.0,0.18067226890756302,0.11053984575835475,0.9380652547223812,0.02336448598130841,0.13716108452950557
frrwiki,57.0,0.14150943396226415,0.07712082262210797,0.9380652547223812,0.021806853582554516,0.09983361064891846
frrwiki,58.0,0.14285714285714285,0.07197943444730077,0.9394390383514597,0.020129403306973402,0.09572649572649573
frrwiki,59.0,0.1568627450980392,0.061696658097686374,0.9434459072696051,0.015456506110711718,0.0885608856088561
frrwiki,60.0,0.16216216216216217,0.061696658097686374,0.9440183171150544,0.014857416726575605,0.0893854748603352
frrwiki,61.0,0.18110236220472442,0.05912596401028278,0.9461934745277619,0.012461059190031152,0.08914728682170542
frrwiki,62.0,0.19327731092436976,0.05912596401028278,0.9471093302804808,0.011502516175413372,0.09055118110236221
frrwiki,63.0,0.14150943396226415,0.038560411311053984,0.9467658843732112,0.010903426791277258,0.06060606060606061
frrwiki,64.0,0.15625,0.038560411311053984,0.9479107040641099,0.009705248023005032,0.061855670103092786
frrwiki,65.0,0.16483516483516483,0.038560411311053984,0.9484831139095592,0.00910615863886892,0.0625
frrwiki,66.0,0.14772727272727273,0.033419023136246784,0.9483686319404694,0.008986340762041696,0.05450733752620545
frrwiki,67.0,0.1511627906976744,0.033419023136246784,0.9485975958786491,0.008746705008387251,0.05473684210526316
frrwiki,68.0,0.15853658536585366,0.033419023136246784,0.9490555237550086,0.00826743350107836,0.05520169851380042
frrwiki,69.0,0.1625,0.033419023136246784,0.9492844876931883,0.008027797747423916,0.05543710021321961
frrwiki,70.0,0.16666666666666666,0.033419023136246784,0.949513451631368,0.00778816199376947,0.05567451820128479
frrwiki,71.0,0.16666666666666666,0.030848329048843187,0.9499713795077276,0.007189072609633357,0.052060737527114966
frrwiki,72.0,0.17391304347826086,0.030848329048843187,0.9503148254149971,0.006829618979151689,0.05240174672489083
frrwiki,73.0,0.16176470588235295,0.028277634961439587,0.9502003434459073,0.006829618979151689,0.048140043763676144
frrwiki,74.0,0.171875,0.028277634961439587,0.9506582713222668,0.006350347471842799,0.04856512141280352
frrwiki,75.0,0.18333333333333332,0.028277634961439587,0.9511161991986262,0.005871075964533908,0.04899777282850779
frrwiki,76.0,0.2,0.028277634961439587,0.9516886090440756,0.005271986580397795,0.04954954954954955
frrwiki,77.0,0.2,0.02570694087403599,0.9520320549513451,0.004792715073088905,0.04555808656036447
frrwiki,78.0,0.2127659574468085,0.02570694087403599,0.9523755008586148,0.004433261442607237,0.04587155963302752
frrwiki,79.0,0.2127659574468085,0.02570694087403599,0.9523755008586148,0.004433261442607237,0.04587155963302752
frrwiki,80.0,0.21739130434782608,0.02570694087403599,0.9524899828277046,0.004313443565780014,0.04597701149425287
frrwiki,81.0,0.20454545454545456,0.02313624678663239,0.9524899828277046,0.004193625688952792,0.041570438799076216
frrwiki,82.0,0.21428571428571427,0.02313624678663239,0.9527189467658844,0.003953989935298346,0.04176334106728538
frrwiki,83.0,0.23684210526315788,0.02313624678663239,0.9531768746422439,0.003474718427989456,0.04215456674473068
frrwiki,84.0,0.2571428571428571,0.02313624678663239,0.9535203205495134,0.003115264797507788,0.04245283018867924
frrwiki,85.0,0.2727272727272727,0.02313624678663239,0.9537492844876931,0.002875629043853343,0.042654028436018954
frrwiki,86.0,0.28125,0.02313624678663239,0.9538637664567831,0.0027558111670261203,0.04275534441805225
frrwiki,87.0,0.27586206896551724,0.02056555269922879,0.953978248425873,0.0025161754133716753,0.03827751196172249
frrwiki,88.0,0.24,0.015424164524421594,0.953978248425873,0.00227653965971723,0.028985507246376812
frrwiki,89.0,0.2857142857142857,0.015424164524421594,0.9544361763022324,0.0017972681524083393,0.029268292682926828
frrwiki,90.0,0.3333333333333333,0.015424164524421594,0.954779622209502,0.0014378145219266715,0.029484029484029485
frrwiki,91.0,0.3076923076923077,0.010282776349614395,0.9548941041785919,0.0010783608914450035,0.019900497512437807
frrwiki,92.0,0.3076923076923077,0.010282776349614395,0.9548941041785919,0.0010783608914450035,0.019900497512437807
frrwiki,93.0,0.4,0.010282776349614395,0.9552375500858615,0.0007189072609633358,0.020050125313283207
frrwiki,94.0,0.5,0.010282776349614395,0.9554665140240413,0.0004792715073088905,0.020151133501259445
frrwiki,95.0,0.42857142857142855,0.007712082262210797,0.9553520320549513,0.0004792715073088905,0.015151515151515152
frrwiki,96.0,0.6666666666666666,0.005141388174807198,0.9555809959931311,0.00011981787682722263,0.01020408163265306
frrwiki,97.0,1.0,0.002570694087403599,0.9555809959931311,0.0,0.005128205128205128
frrwiki,98.0,1.0,0.002570694087403599,0.9555809959931311,0.0,0.005128205128205128
frrwiki,99.0,1.0,0.0,0.9554665140240413,0.0,0.0
